Film_title,Release_year,Director,Cast,Average_rating,Owner_rating,Genres,Runtime,Countries,Original_language,Spoken_languages,Studios,Watches,List_appearances,Likes,Fans,½,★,★½,★★,★★½,★★★,★★★½,★★★★,★★★★½,★★★★★,Total_ratings,Film_URL
Dune: Part Two,2024,Denis Villeneuve,"['Timothée Chalamet', 'Zendaya', 'Rebecca Ferguson', 'Javier Bardem', 'Josh Brolin', 'Austin Butler', 'Florence Pugh', 'Dave Bautista', 'Christopher Walken', 'Léa Seydoux', 'Stellan Skarsgård', 'Charlotte Rampling', 'Souheila Yacoub', 'Roger Yuan', 'Babs Olusanmokun', 'Alison Halstead', 'Giusi Merli', 'Kait Tenison', 'Tara Breathnach', 'Akiko Hitomi', 'Imola Gáspár', 'Alison Adnet', 'Hamza Baissa', 'Hassan Najib', 'Jasper Ryan-Carter', 'Elbooz Omar Ahmed Fathie', 'Abdelkarim Hussein Seli Mohamed Hassanin', 'Joseph Beddelem', 'Xavier Alba Royo', 'Rachid Abbad', 'Affif Ben Badra', 'Botond Bóta', 'Abdelaziz Boumane', 'Abdellah Echahbi', 'Zouhair Elakkari', 'Noureddine Hajoujou', 'Mohamed Mouraoui', 'Adil Achraf Sayd', 'Hamza Sayd', 'Hopi Grace', 'Havin Fathi', 'Kincsö Pethö', 'Cat Simmons', 'Burt Caesar', 'Remi Fadare', 'Amer El-Erwadi', 'Tedroy Newell', 'Oxa Hazel', 'Hajiyeva Pakiza', 'Leon Herbert', 'Sima Rostami', 'Yvonne Campbell', 'Joseph Charles', 'Vic Zander', 'Dylan Baldwin', 'Marcia Tucker', 'Nicola Brome', 'Kathy Owen', 'Huw Novelli', 'Moe Bar-El', 'Serhat Metin', 'Amra Mallassi', 'Adam Bloom', 'Luis Alkmim', 'Jordan Long', 'Omar A.K.', 'Zdeněk Dvořáček', 'Billy Clements', 'Anton Saunders', 'Lex Daniel', 'Dominic McHale', 'Paul Boyle', 'Niall White', 'Tony Cook', 'Gábor Szemán', 'Jonathan Gunning', 'Will Irvine', 'Alan Mehdizadeh', 'Rex Adams', 'Molly Mcowan', 'Ana Cilas', 'Kajsa Mohammar', 'Sára Bácsfalvi', 'Zsófia Kocsis', 'Matthew Sim', 'Steve Wall', 'Italo Amerighi', 'Tim Hilborne', 'Cecile Sinclair', 'Tracy Coogan', 'Zoe Kata Kaska', 'Jimmy Walker', 'Rand Faris', 'Fouad Humaidan', 'Manaf Irani', 'Dora Kápolnai-Schvab', 'Joelle', 'Anya Taylor-Joy', 'Peter Sztojanov Jr.', 'Alexandra Tóth']",4.48,3.0,"['Adventure', 'Science Fiction']",167,['USA'],English,['English'],['Legendary Pictures'],1609657,259130,758469,47000,1546,2578,1740,8529,11978,48683,81706,282273,335581,643535,1418149,https://letterboxd.com/film/dune-part-two/
Five Nights at Freddy's,2023,Emma Tammi,"['Josh Hutcherson', 'Piper Rubio', 'Elizabeth Lail', 'Matthew Lillard', 'Mary Stuart Masterson', 'Kat Conner Sterling', 'David Lind', 'Christian Stokes', 'Joseph Poliquin', 'Grant Feely', 'Asher Colton Spence', 'David Huston Doty', 'Liam Hendrix', 'Jophielle Love', 'Tadasay Young', 'Michael P. Sullivan', 'Wyatt Parker', 'Lucas Grant', 'Jessica Blackmore', 'Garrett Hines', 'Ryan Reinike', 'Theodus Crane', 'Julia Belanova', 'Lisa Mackel Smith', 'Xander Mateo', 'Matthew Patrick', 'Bailey Winston', 'Gralen Bryant Banks', 'Cory Kenshin', 'Victoria Patenaude']",2.57,2.0,"['Horror', 'Mystery']",110,['USA'],English,['English'],"['Blumhouse Productions', 'Scott Cawthon Productions']",766073,106821,183340,3000,16773,40654,45966,104629,97046,144640,75456,66717,15332,46152,653365,https://letterboxd.com/film/five-nights-at-freddys/
Saltburn,2023,Emerald Fennell,"['Barry Keoghan', 'Jacob Elordi', 'Rosamund Pike', 'Richard E. Grant', 'Alison Oliver', 'Archie Madekwe', 'Carey Mulligan', 'Paul Rhys', 'Ewan Mitchell', 'Sadie Soverall', 'Richard Cotterell', 'Millie Kent', 'Will Gibson', 'Tasha Lim', 'Aleah Aberdeen', 'Matthew Carver', 'Reece Shearsmith', 'Gabriel Bisset-Smith', 'Saga Spjuth-Säll', 'Glyn Grimstead', 'Joshua Samuels', 'Julian Lloyd Patten', 'Olivia Hanrahan-Barnes', 'Lolly Adefope', 'Joshua McGuire', 'Dorothy Atkinson', 'Shaun Dooley', 'Tomás Barry', 'Andy Brady']",3.43,4.0,"['Comedy', 'Drama', 'Thriller']",131,"['UK', 'USA']",English,['English'],"['LuckyChap Entertainment', 'MRC', 'Lie Still']",2005027,213777,585393,12000,12889,29008,25069,98491,111520,316638,309213,456955,146335,204989,1711107,https://letterboxd.com/film/saltburn/
Barbie,2023,Greta Gerwig,"['Margot Robbie', 'Ryan Gosling', 'America Ferrera', 'Ariana Greenblatt', 'Issa Rae', 'Kate McKinnon', 'Alexandra Shipp', 'Emma Mackey', 'Hari Nef', 'Sharon Rooney', 'Ana Cruz Kayne', 'Ritu Arya', 'Dua Lipa', 'Nicola Coughlan', 'Emerald Fennell', 'Simu Liu', 'Kingsley Ben-Adir', 'Ncuti Gatwa', 'Scott Evans', 'John Cena', 'Michael Cera', 'Rhea Perlman', 'Helen Mirren', 'Will Ferrell', 'Connor Swindells', 'Jamie Demetriou', 'Andrew Leung', 'Will Merrick', 'Zheng Xi Yong', 'Asim Chaudhry', 'Ray Fearon', 'Erica Ford', 'Hannah Khalique-Brown', 'Mette', 'Marisa Abela', 'Lucy Boynton', 'Rob Brydon', 'Tom Stourton', 'Chris Taylor', 'David Mumeni', 'Olivia Brody', 'Isla Ashworth', 'Eire Farrell', 'Daisy Duczmal', 'Genvieve Toussaint', 'Isabella Nightingale-Mercado', 'Millie-Rose Crossley', 'Anvita Nehru', 'Kayla-Mai Alvares', 'Luke Mullen', 'Patrick Luwis', 'Mac Brandt', 'Paul Jurewicz', 'Oraldo Austin', 'Benjamin Arthur', 'Carlos Jacott', 'Adam Ray', 'George Basil', 'Ptolemy Slocum', 'Deb Hiett', 'James Leon', 'Oliver Vaquer', 'Tony Noto', 'Christopher T. Wood', 'Ann Roth', 'Annie Mumolo', 'Elise Gallup', 'McKenna Roberts', 'Brylee Hsu', 'Sasha Milstein', 'Lauren Holt', 'Sterling Jones', 'Ryan Piers Williams', 'Jamaal Lewis', 'Kathryn Akin', 'Grace Jabbari', 'Ira Mandela Siobhan', 'Lisa Spencer', 'Naomi Weijand', 'Tom Clark', 'Ireanne Abenoja', 'Davide Albonetti', 'Charlotte Anderson', 'Michael Anderson', 'Rico Bakker', 'James Bamford', 'William John Banks', 'Callum Bell', 'Adam Blaug', 'Mason Boyce', 'Taylor Bradshaw', 'Alex Brown', 'Miekaile Browne', 'Lewis Calcutt', 'Nikkita Chadha', 'Oliver Chapman', 'Megan Charles', 'Callum Clack', 'Danny Coburn', 'Kat Collings', 'Adam Crossley', 'Sia Dauda', 'Gustave Die', 'Grace Durkin', 'Joelle Dyson', 'Lewis Easter', 'Onyemachi Ejimofor', 'Cameron Everitt', 'Luke Field-Wright', 'Sasha Flesch', 'Adam Fogarty', 'Michael John French', 'Anna-Kay Gayle', 'Charlie Goddard', 'Marlie Goddard', 'Ellis Harman', 'Yasmin Harrison', 'Josh Hawkins', 'James Healy', 'Tim Hodges', 'Mira Jebari', 'Beccy Jones', 'Thomas Kalek', 'Lily Laight', 'Maiya Leeke', 'Cristian Liberti', 'Prodromos Marneros', 'Nahum McLean', 'Jordan Melchor', 'Ramzan Miah', 'Andy Monaghan', 'Florivaldo Mossi', 'Hannah Nazareth', 'Grant Neal', 'Freja Nicole', 'Shaun Niles', 'Ella Nonini', 'Jack William Parry', 'Josie Pocock', 'Barnaby Quarendon', 'Redmand Rance', 'Zara Richards', 'Liam Riddick', 'Alana Rixon', 'Adam Paul Robertson', 'Kingdom Sibanda', 'Sebastian Skov', 'Aaron J. Smith', 'Joshua Smith', 'Lucia-Rose Sokolowski', 'Janine Somcio', 'Alex Sturman', 'Callum Sterling', 'Todd Talbot', 'Charles Tatman', 'Grant Thresh', 'Connor Tidman', 'Wahchi Vong', 'Jerry Wan', 'Sasha Wareham', 'Stan West', 'Oliver Wheeler', 'Josh Wild', 'Joe Wolstenholme', 'Richard Womersley', 'Ashley Young']",3.87,5.0,"['Comedy', 'Adventure']",114,"['UK', 'USA']",English,['English'],"['LuckyChap Entertainment', 'Heyday Films', 'NB/GG Pictures', 'Mattel', 'Warner Bros. Pictures']",3589415,444320,1557233,26000,12278,26340,17662,87460,93381,376421,389501,814950,343326,769800,2931119,https://letterboxd.com/film/barbie/
Bottoms,2023,Emma Seligman,"['Rachel Sennott', 'Ayo Edebiri', 'Ruby Cruz', 'Havana Rose Liu', 'Kaia Gerber', 'Nicholas Galitzine', 'Miles Fowler', 'Marshawn Lynch', 'Dagmara Dominczyk', 'Punkie Johnson', 'Zamani Wilder', 'Summer Joy Campbell', 'Virginia Tucker', 'Wayne Pére', 'Toby Nichols', 'Cameron Stout', 'Ted Ferguson', 'Bruno Rose', 'Zach Primo', 'Liz Elkins Newcomer', 'Krystal Alayne Chambers', 'Alyssa Matthews', 'Lacey Dover']",3.82,5.0,['Comedy'],91,['USA'],English,['English'],"['Brownstone Productions', 'Orion Pictures']",989782,189830,408898,21000,3549,7429,6346,24331,30358,100997,129992,235549,99256,212152,849959,https://letterboxd.com/film/bottoms/
Puss in Boots: The Last Wish,2022,Joel Crawford,"['Antonio Banderas', 'Salma Hayek Pinault', 'Harvey Guillén', 'Wagner Moura', 'Florence Pugh', 'Olivia Colman', 'Ray Winstone', 'Samson Kayo', 'John Mulaney', ""Da'Vine Joy Randolph"", 'Anthony Mendez', 'Kevin McCann', 'Bernardo de Paula', 'Betsy Sodaro', 'Artemis Pebdani', 'Conrad Vernon', 'Cody Cameron', 'Kailey Crawford', 'Al Rodrigo', 'Bob Persichetti', 'Miguel Matrai', 'Pilar Uribe', 'Heidi Gardner', 'Joel Crawford', 'Januel Mercado', 'James Ryan', 'Natalia Cronembold', 'Paul Fisher', 'Aydrea Walden']",4.15,5.0,"['Animation', 'Family', 'Fantasy', 'Action', 'Comedy', 'Adventure']",103,['USA'],English,"['English', 'Spanish']",['DreamWorks Animation'],1256363,176206,513410,8800,823,2390,1582,9935,12489,68615,111896,314785,194369,278303,995187,https://letterboxd.com/film/puss-in-boots-the-last-wish/
Talk to Me,2022,"Michael Philippou, Danny Philippou","['Sophie Wilde', 'Alexandra Jensen', 'Joe Bird', 'Otis Dhanji', 'Miranda Otto', 'Zoe Terakes', 'Chris Alosio', 'Marcus Johnson', 'Alexandria Steffensen', 'Ari McCarthy', 'Sunny Johnson', 'James Oliver', 'Cass Cumerford', 'Jett Gazley', 'Kitt Erhart-Bruce', 'Hamish Phillips', 'Kidaan Zelleke', 'Sarah Brokensha', 'Jayden Davison', 'Jodie Dry', 'Frances Cassar', 'Kelly Butler', 'Ava Stenta', 'Harli Ames', 'Leeanna Walsman', 'Kerry Reid', 'Robin Northover', 'Jacek Koman', 'Helene Philippou', 'Jude Turner', 'Zac Scott', 'Jess Kuss', 'David Roberts', 'Demi Van Kasteren', 'Pia Gillings', 'Oscar Wangel', 'Courtlan Gordan', 'Louisa Giameos', ""Jem O'Callaghan"", 'Joe Romeo', 'Alex Noel McCarthy', 'Charlie Morkunas', 'Patricia Haycock', 'Murray Haycock', 'Catherine Purling', 'Nicola Thiele', 'David Simmons', 'Joseph House Baker', 'Alice Scheid', 'Anita Kimber', 'Ben Bullock', 'Brian Godfrey', 'Cooper Duncan', 'Daniel Pitt', 'Danielle Ruggiero-Prior', 'Dylan Warren', 'Emily Fogg', 'Emily Gun', 'Jason Moore', 'Jessica Homewood', 'Kate Portus', 'Lelum Rathnayake', 'Matt Goldwyn', 'Michael Gilmore', 'Philip Maynard', 'Sarah Baber', 'Saravjit Singh', 'Shadrack Kamau', 'Thomas Gardner', 'Mark Duncan', 'Ella Fenwick', 'Michael Harpas', 'Nikolas Gelios', 'Alex Philippou', 'Con Lipapis', 'Con Patelias', 'Louis Vavaroutsos', 'Uncle Mars', 'Nick Lipapis']",3.56,5.0,"['Horror', 'Thriller']",95,"['Australia', 'UK']",English,"['English', 'Greek (modern)']","['Causeway Films', 'Metrol Technology', 'Screen Australia', 'South Australian Film Corporation', 'Bankside Films', 'Head Gear Films', 'Adelaide Film Festival Investment Fund']",859623,163658,258026,2200,3210,6783,6621,26620,36779,121782,165739,237383,68518,64056,737491,https://letterboxd.com/film/talk-to-me-2022/
Beyond the Universe,2022,Diego Freitas,"['Henry Zaga', 'Giulia Be', 'João Miguel', 'Othon Bastos', 'Leo Bahia', 'Rita Assemany', 'Denise Del Vecchio', 'Isabel Fillardis', 'Viviane Araújo', 'Adriana Lessa', 'Amélia Bittencourt', 'André Garcia', 'Chan Suan', 'Daniela Fontanali', 'Daniele Máximo', 'Diego Freitas', 'Fernanda Ross', 'Giselle Prattes', 'Guilherme Rodio', 'Juju Carvalho', 'Julio Aracaki', 'Ligia Botelho', 'Luiz Serra', 'Luiza Dantas', 'Luísa Moribe', 'Mateus Ribeiro', 'Nathalia Nieman', 'Rafael Facina', 'Rodrigo de Castro', 'Rosa Rosah', 'Sérgio Menezes', 'Tutty Mendes']",2.93,3.0,"['Drama', 'Romance']",126,['Brazil'],Portuguese,['Portuguese'],['Camisa Listrada'],14826,1683,2809,52,244,463,422,1233,1318,2818,1808,2157,567,1641,12671,https://letterboxd.com/film/beyond-the-universe-2022/
Smile,2022,Parker Finn,"['Sosie Bacon', 'Kyle Gallner', 'Caitlin Stasey', 'Jessie T. Usher', 'Kal Penn', 'Rob Morgan', 'Robin Weigert', 'Judy Reyes', 'Gillian Zinser', 'Jack Sochet', 'Meghan Brown Pratt', 'Nick Arapoglou', 'Jared Johnston', 'Shevy Gutierrez', 'Ura Yoana Sánchez', 'Scot Teller', 'Dora Kiss', 'Michelle Persiano', 'Setty Brosevelt', 'Jerry Lobrow', 'Brandon Brigman', 'Vanessa Cozart', 'Sara Kapner', 'Perry Strong', 'Nadia Ramdass', 'Matthew Lamb', 'Shu Q', 'Athena Smiley', 'Rachel Yong', 'Asia Hernandez', 'Irene Blackman', 'Steven Bullock', 'Felix Melendez Jr.', 'Kevin Keppy', 'Marti Matulis', 'Steven Strickland']",2.83,2.5,"['Horror', 'Mystery', 'Thriller']",115,['USA'],English,"['English', 'Portuguese']","['Paramount Players', 'Temple Hill Entertainment']",723313,95533,119929,434,10419,24280,22767,72362,75433,156112,98836,77803,13784,19011,570807,https://letterboxd.com/film/smile-2022/
Catherine Called Birdy,2022,Lena Dunham,"['Bella Ramsey', 'Billie Piper', 'Andrew Scott', 'Lesley Sharp', 'Joe Alwyn', 'Sophie Okonedo', 'Paul Kaye', 'Dean-Charles Chapman', 'Isis Hainsworth', 'Archie Renaux', 'Michael Woolfitt', 'David Bradley', 'Mimî M. Khayisa', 'Ralph Ineson', 'Rita Bernard-Shaw', 'Jake Middleton Cooke', 'Adam Aziz', 'Saskia Chana', 'Jamie Demetriou', 'Akemnji Ndifornyen', 'Russell Brand', 'Christophe Tek', 'Angus Wright', 'Jacob Avery', 'Douggie McMeekin', 'Lawrence Hodgson-Mullings', 'Bola Latunji', 'Jessica Ellis', 'Jordan Adene', 'Tyler Howitt', 'Jeffery Kissoon', 'Moya Brady', 'Ramesh Nair', 'Antony Bunsee', 'Tim Bevan', 'Colin Murtagh', 'Volenté Lloyd', 'Trevor Jones', 'Chris Ecob']",3.48,5.0,"['Comedy', 'Adventure']",108,"['UK', 'USA']",English,['English'],"['Working Title Films', 'Good Thing Going Productions', 'Amazon Studios']",43820,10540,11942,138,104,235,291,1110,1842,7302,8656,9688,1996,2615,33839,https://letterboxd.com/film/catherine-called-birdy/
Don't Worry Darling,2022,Olivia Wilde,"['Florence Pugh', 'Harry Styles', 'Chris Pine', 'Olivia Wilde', 'KiKi Layne', 'Gemma Chan', 'Nick Kroll', 'Sydney Chandler', 'Kate Berlant', 'Asif Ali', 'Douglas Smith', 'Timothy Simons', ""Ari'el Stachel"", 'Steve Berg', 'Daisy Sudeikis', 'Marcello Julian Reyes', 'Monroe Cline', 'Angel Mammoliti', 'Nataly Santiago', 'Daniel Nishio', 'Kurt Scholler', 'Dita Von Teese', 'Dimitri Dimitrov', 'Victoria Acker', 'Oritsetsolaye Akuya', 'Jennifer Mariela Bermeo', 'Taylor May Dean', 'Auriana Ehsani', 'Jessica Hiestand', 'Alexandra Nicole Hulme', 'Angel Inniss', 'Natasha Kalimada', 'Stephanie Kim', 'Charissa Kroeger', ""Toi'ya Leatherwood"", 'Sisley Loubet', 'Jasmine Mason', 'Bailey Swift', 'Michelle Ells', 'Brooke deRosa']",2.96,5.0,"['Thriller', 'Drama', 'Mystery']",123,['USA'],English,['English'],"['Vertigo Entertainment', 'New Line Cinema', 'Warner Bros. Pictures']",1021381,115512,200057,2400,7924,22275,27048,95986,104910,203962,128735,125946,27088,47212,791086,https://letterboxd.com/film/dont-worry-darling/
Pearl,2022,Ti West,"['Mia Goth', 'David Corenswet', 'Tandi Wright', 'Matthew Sunderland', 'Emma Jenkins-Purro', 'Alistair Sewell', 'Amelia Reid', 'Gabe McDonnell', 'Lauren Stewart', 'Todd Rippon', 'Grace Acheson']",3.75,4.5,"['Horror', 'Drama']",102,['USA'],English,"['English', 'German']","['A24', 'Little Lamb Productions']",997223,219040,378513,18000,1978,4862,4353,19899,27515,109209,143511,266171,89965,156766,824229,https://letterboxd.com/film/pearl-2022/
Bones and All,2022,Luca Guadagnino,"['Taylor Russell', 'Timothée Chalamet', 'Mark Rylance', 'Anna Cobb', 'André Holland', 'David Gordon Green', 'Michael Stuhlbarg', 'Jessica Harper', 'Chloë Sevigny', 'Kendle Coffey', 'Ellie Parker', 'Madeleine Hall', 'Christine Dye', 'Sean Bridgers', 'Jake Horowitz', 'Marshall Jackson', 'Marcia Dangerfield', 'Burgess Byrd', 'Max Soliz', 'Johanna McGinley', 'Hannah Barlow', 'Claudio Encarnacion Montero', 'Sue Hopkins', 'Aaron J. Gould', 'Brady Gentry', 'Dori Lucas', ""Tom O'Brien"", 'Jenny McManus', 'John E. Brownlee']",3.65,4.0,"['Horror', 'Drama', 'Romance']",131,"['Italy', 'USA']",English,['English'],"['Frenesy Film', 'Per Capita Productions', 'MeMo Films', 'The Apartment Pictures', '3 Marys Entertainment', 'Tenderstories', 'Elafilm']",631344,147288,207963,14000,3281,6703,5509,21638,26122,77908,96060,151273,62630,70614,521738,https://letterboxd.com/film/bones-and-all/
Terrifier 2,2022,Damien Leone,"['Lauren LaVera', 'David Howard Thornton', 'Elliott Fullam', 'Sarah Voigt', 'Kailey Hyman', 'Casey Hartnett', 'Charlie McElveen', 'Amelie McLain', 'Johnath Davis', 'Samantha Scaffidi', 'Leah Voysey', 'Chris Jericho', 'Felissa Rose', 'Owen Myre', 'Griffin Santopietro', 'Devon Roth', 'Amy Russ', 'Cory DuVal', 'Staci Dickerson', 'Marisa Bertani', 'Tamara Glynn', 'Reid Richards', 'Sarah Grace Sanders', ""Ava O'Donnell"", 'Briana Calcagno', 'Katie Maguire', 'Gilbrando Acevedo', 'Mark A. Langston', 'Wesley Holloway', 'Geordie McGillivray', 'Rob Gabriele', 'Phil Falcone', 'Thomas Rickman', 'Thomas Smith', 'Miche Brill', 'Sarah Brill', 'Robert Privitera', 'Rachel Keefe', 'Jamie Root', 'Scott Klausen', 'Jenna Kanell', 'Catherine Corcoran', 'Gino Cafarelli', 'Matt McAllister', 'Erick Zamora', 'Damien Leone', 'Rick Styczynski', 'Loren W. Lepre', 'Michael Leavy', 'Michelle Santiago', 'Ryan James', 'Ross Caudill Jr.', 'Matthew Hammond', 'Jonathan A. Streetzel', 'Craig Sapenoff', 'Jackie Adragna', 'Marcus Slabine', 'Steven Kiseleski', 'Johnny Ferri', 'Joshua Kirpach', 'Sheri Fairchild', 'Jason Leavy', 'Steven Della Salla', 'Dettric Jones']",2.8,3.0,"['Horror', 'Thriller']",138,['USA'],English,['English'],"['Dark Age Cinema', 'Fuzz on the Lens Productions', 'Bloody Disgusting']",206179,50432,45880,929,7602,10218,8561,20177,19630,36720,25864,25233,6522,9770,170297,https://letterboxd.com/film/terrifier-2/
Fall,2022,Scott Mann,"['Grace Caroline Currey', 'Virginia Gardner', 'Jeffrey Dean Morgan', 'Mason Gooding', 'Jasper Cole', 'Darrell Dennis', 'Julia Pace Mitchell', 'Bamm Ericsen', 'Evie Mann', 'Joseph Mann', 'Nick Lynes', 'Branden Currey']",2.55,1.5,['Thriller'],107,"['USA', 'UK']",English,['English'],"['Tea Shop Productions', 'BuzzFeed Studios', 'Capstone Pictures', 'Lionsgate']",249969,31577,31394,125,5104,11385,12815,33762,35107,52305,25220,18063,3030,5247,202038,https://letterboxd.com/film/fall-2022/
Fantastic Beasts: The Secrets of Dumbledore,2022,David Yates,"['Eddie Redmayne', 'Jude Law', 'Mads Mikkelsen', 'Ezra Miller', 'Dan Fogler', 'Alison Sudol', 'Callum Turner', 'Jessica Williams', 'Katherine Waterston', 'Oliver Masucci', 'Richard Coyle', 'William Nadylam', 'Maria Fernanda Cândido', 'Poppy Corby-Tuech', 'Victoria Yeates', 'Aleksandr Kuznetsov', 'Dave Wong', 'Fiona Glascott', 'Cara Mahoney', 'Maja Bloom', 'Wilf Scolding', 'Kazeem Tosin Amore', 'Noor Dillan-Night', 'Manuel Klein', 'Valerie Pachner', 'Ramona Kunze-Libnow', 'Lucas Englander', 'Jan Pohl', 'Matthias Brenner', 'Peter Simonischek', 'Jacqueline Boatswain', 'David Bertrand', 'Stefan Race', 'Jessica Cartledge', 'Rahda Sthanakiya', 'Isabelle Coverdale', 'Dónal Finn', 'Paul Low-Hang', 'Hebe Beardsall']",2.52,4.0,"['Fantasy', 'Adventure']",142,"['UK', 'USA']",English,['English'],"['Warner Bros. Pictures', 'Heyday Films']",391986,54974,46463,120,7709,17465,18116,46133,45005,66820,32246,24315,4495,9408,271712,https://letterboxd.com/film/fantastic-beasts-the-secrets-of-dumbledore/
X,2022,Ti West,"['Mia Goth', 'Jenna Ortega', 'Brittany Snow', 'Kid Cudi', 'Martin Henderson', 'Owen Campbell', 'Stephen Ure', 'James Gaylyn', 'Simon Prast', 'Geoff Dolan', 'Matthew J. Saville', 'Bryony Skillington', 'Karen Gillan']",3.42,3.5,"['Mystery', 'Thriller', 'Horror']",106,['USA'],English,['English'],"['A24', 'Little Lamb Productions']",1171510,221752,353073,5300,5213,11868,10928,45052,59097,195590,210288,257971,62449,88993,947449,https://letterboxd.com/film/x-2022/
House of Gucci,2021,Ridley Scott,"['Lady Gaga', 'Adam Driver', 'Al Pacino', 'Jeremy Irons', 'Jared Leto', 'Jack Huston', 'Salma Hayek Pinault', 'Alexia Murray', 'Vincent Riotta', 'Gaetano Bruno', 'Camille Cottin', 'Youssef Kerkour', 'Reeve Carney', 'Florence Andrews', 'Mehdi Nebbou', 'Miloud Mourad Benamara', 'Andrea Piedimonte Bodini', 'Vincenzo Tanassi', 'Mauro Lamantia', 'Nicole Bani Sarkute', 'Mia McGovern Zaini', 'Clelia Rossi Marcelli', 'Pietro Ragusa', 'Alessandro Pess', 'Al Mariotti', 'Monica Nappo', 'Alessandro Piavani', 'Marina Occhionero', 'Pierpaolo Palladino', 'Jun Ichikawa', 'Daphne Morelli', 'Mãdãlina Ghenea', 'Gjergj Lala', 'Alessandra Borgia', 'Havana Alfarano', 'Philippe Boa', 'Ira Fronten', 'Marika De Chiara', 'Antonello Annunziata', 'Edouard Philipponnat', 'Nicola Garofalo', 'Daniele De Martino', 'Beatrice Pelliccia', 'Beppe Rosso', 'Jay Natelle', 'Johanna Santos', 'Larry Kapust', 'Livio Beshir', 'Pietro Pace', 'Bianca Nappi', 'Paolo De Giorgio', 'Mario Opinato', 'Gianpiero Pumo', 'Stefano Moretti', 'Catherine Walker', 'Martino Palmisano', 'Eva Moore', 'Filippo De Carli', 'Marco Sincini', 'Daniele Monterosi', 'Daniela Macaluso', 'Alfredo Pea', 'Dirk Plönissen', 'Mimmo Mancini', 'Eric Alexander', 'Beniamino Marcone', 'Simone Spinazzè', 'Fausto Caroli', 'Bruce McGuire', 'Loris Loddi', 'Luca Chikovani', 'Alessandro Egger', 'Roger Garth', 'Andrea Bruschi', 'Dante Alba']",2.92,4.0,"['Drama', 'Crime', 'History']",158,"['Canada', 'USA']",English,"['English', 'Arabic', 'French', 'Italian', 'Japanese']","['Metro-Goldwyn-Mayer', 'Bron Studios', 'Scott Free Productions']",496135,65189,71967,241,4211,11467,12454,45973,52282,104467,65110,46752,7742,11426,361884,https://letterboxd.com/film/house-of-gucci/
The Black Phone,2021,Scott Derrickson,"['Mason Thames', 'Ethan Hawke', 'Madeleine McGraw', 'Jeremy Davies', 'E. Roger Mitchell', 'Troy Rudeseal', 'James Ransone', 'Miguel Mora', 'Rebecca Clarke', 'J. Gaven Wilde', 'Spencer Fitzgerald', 'Jordan Isaiah White', 'Brady Ryan', 'Tristan Pravong', 'Jacob Moran', 'Brady Hepner', 'Banks Repeta', 'Kristina Arjona', ""Sheila M. O'Rear"", 'Rocco Poveromo', 'Kellan Rhude', 'Gina Jun', 'Ryan Cronan', 'Braxton Alexander', 'Andrew Farmer', 'T. Maxwell Martin', 'Ron Blake', 'Robert Fortunato', 'Chris TC Edge', 'Mark Riccardi', 'Bay Allebach', 'Megan Petersen', 'Mike Bailey', 'Christine Connelly', 'Matthew Simmons', 'Parrish Stikeleather', 'Reagan Shumate']",3.26,4.0,"['Thriller', 'Horror']",103,['USA'],English,"['English', 'Portuguese', 'Spanish']","['Universal Pictures', 'Blumhouse Productions', 'Crooked Highway']",780859,112009,196704,2000,4195,10214,10541,39944,52560,142553,136777,143192,32197,47465,619638,https://letterboxd.com/film/the-black-phone/
Dune,2021,Denis Villeneuve,"['Timothée Chalamet', 'Rebecca Ferguson', 'Oscar Isaac', 'Jason Momoa', 'Josh Brolin', 'Stellan Skarsgård', 'Stephen McKinley Henderson', 'Javier Bardem', 'Sharon Duncan-Brewster', 'Chang Chen', 'Dave Bautista', 'David Dastmalchian', 'Zendaya', 'Charlotte Rampling', 'Babs Olusanmokun', 'Benjamin Clémentine', 'Souad Faress', 'Golda Rosheuvel', 'Roger Yuan', 'Seun Shote', 'Neil Bell', 'Oliver Ryan', 'Stephen Collins', 'Charlie Rawes', 'Richard Carter', 'Benjamin Dilloway', 'Elmi Rashid Elmi', 'Tachia Newall', 'Gloria Obianyo', 'Fehinti Balogun', 'Dora Kápolnai-Schvab', 'Joelle', 'Jimmy Walker', 'Paul Bullion', 'Milena Sidorova', 'János Timkó', 'Jean Gilpin', 'Marianne Faithfull', 'Ellen Dubin']",3.9,3.0,"['Science Fiction', 'Adventure']",155,['USA'],English,"['English', 'Chinese']",['Legendary Pictures'],2797106,331816,1040667,21000,7738,22304,11054,67667,58690,260020,288417,713229,338662,392752,2160533,https://letterboxd.com/film/dune-2021/
Eduardo and Monica,2020,René Sampaio,"['Alice Braga', 'Gabriel Leone', 'Otávio Augusto', 'Juliana Carneiro da Cunha', 'Bruna Spinola', 'Victor Lamoglia', 'Digão Ribeiro', 'Eli Ferreira', 'Luisa Viotti', 'Ivan Mendes', 'Fabrício Boliveira']",3.57,4.0,"['Romance', 'Drama']",120,['Brazil'],Portuguese,['Portuguese'],"['Barry Company', 'Gávea Filmes', 'Fogo Cerrado Filmes', 'Globo Filmes', 'Agência Nacional do Cinema - ANCINE', 'Fundo Setorial do Audiovisual', 'Banco Regional de Desenvolvimento do Extremo Sul', 'RioFilme', 'Telecine', 'Secretaria de Cultura e Economia Criativa do GDF', 'Investimage']",21612,4057,7837,294,79,156,134,662,826,2895,3158,5143,1710,4026,18789,https://letterboxd.com/film/eduardo-and-monica/
Minari,2020,Lee Isaac Chung,"['Steven Yeun', 'Han Yeri', 'Youn Yuh-jung', 'Will Patton', 'Alan Kim', 'Noel Kate Cho', 'Scott Haze', 'Darryl Cox', 'Esther Moon', 'Ben Hall', 'Eric Starkey', 'Jacob Wade', 'James Carroll', 'Jenny Phagan', 'Tina Parker', 'Chloe Lee', 'Joel Telford', 'Kaye Brownlee-France', 'Skip Schwink', 'Tea Oh', 'Debbi Tucker', 'Ed Spinelli', 'Ernie Robinson', 'Danny Frost', 'Laurie Frost', 'Warren Lane', 'Jonnie Parnell', 'Amanda Pearce', 'April Warren']",4.09,4.5,['Drama'],115,['USA'],English,"['English', 'Korean']",['Plan B Entertainment'],490236,122154,168068,3300,263,777,697,4074,6326,31531,55963,135871,79533,64217,379252,https://letterboxd.com/film/minari/
Midsommar,2019,Ari Aster,"['Florence Pugh', 'Jack Reynor', 'William Jackson Harper', 'Will Poulter', 'Vilhelm Blomgren', 'Isabelle Grill', 'Gunnel Fred', 'Ellora Torchia', 'Archie Madekwe', 'Henrik Norlén', 'Agnes Westerlund Rase', 'Julia Ragnarsson', 'Mats Blomgren', 'Lars Väringer', 'Anna Åström', 'Hampus Hallberg', 'Liv Mjönes', 'Louise Peterhoff', 'Katarina Weidhagen', 'Björn Andrésen', 'Tomas Engström', 'Dag Andersson', 'Lennart R. Svensson', 'Anders Beckman', 'Rebecka Johnston', 'Tove Skeidsvoll', 'Anders Back', 'Anki Larsson', 'Levente Puczkó-Smith', 'Frans Cavallin Rosengarten', 'Vilmos Kolba', 'Mihály Kaszás', 'Gabi Fón', 'Zsolt Bojári', 'Klaudia Csányi', 'Anna Berentzen', 'Austin R. Grant']",3.78,3.0,"['Mystery', 'Drama', 'Horror']",147,"['Sweden', 'USA']",English,"['English', 'Swedish']","['B-Reel Films', 'Square Peg']",2807136,373940,1104432,38000,13440,30564,15338,79614,64265,286229,272519,649443,220422,423698,2055532,https://letterboxd.com/film/midsommar/
Taylor Swift: Reputation Stadium Tour,2018,Paul Dugdale,"['Taylor Swift', 'Charli XCX', 'Camila Cabello', 'David Cook', 'Amos Heller', 'Eliotte Woodford', 'Jeslyn Gorman', 'Kamilah Marshall', 'Matt Billingslea', 'Max Bernstein', 'Melanie Nyema', 'Mike Meadows', 'Paul Sidoti', 'Tiffany Haddish', 'Christian Henderson', 'Christian Owens', 'Giuseppe Giofre', 'Gracie Stewart', 'Grant Gilmore', 'Jake Kodish', 'Jake Landgrebe', 'Jazz Smith', 'Maho Udo', 'Maria Wada', 'Mark Villaver', 'Nadine Olmo', 'Robert Green', 'Stephanie Mincone', 'Yoe Apolinario Renovales', 'Kim Davidson', 'Stephen Thomas Hatez', 'Julia Railey Mendes', 'Cain Nevarez', 'Audrey Peterman', 'Maya Schomaker', 'Noah Levy']",4.46,5.0,['Music'],125,['USA'],English,['English'],"['Den of Thieves', 'Taylor Swift Productions']",127009,12776,56382,1200,595,293,125,521,570,2810,2794,10301,5181,63121,86311,https://letterboxd.com/film/taylor-swift-reputation-stadium-tour/
Spider-Man: Into the Spider-Verse,2018,"Rodney Rothman, Peter Ramsey","['Shameik Moore', 'Jake Johnson', 'Hailee Steinfeld', 'Mahershala Ali', 'Brian Tyree Henry', 'Lily Tomlin', 'Luna Lauren Velez', 'Zoë Kravitz', 'John Mulaney', 'Kimiko Glenn', 'Nicolas Cage', 'Kathryn Hahn', 'Liev Schreiber', 'Chris Pine', 'Natalie Morales', 'Edwin H. Bravo', 'Oscar Isaac', 'Greta Lee', 'Stan Lee', 'Jorma Taccone', 'Joaquín Cosío', ""Marvin 'Krondon' Jones III"", 'Kim Yarbrough', 'Lake Bell', 'Jessica Mikayla Adams', 'Gredel Berrios Calladine', 'Sarah D. Cole', 'Kelby Joseph', 'Mimi Davila', 'Claudia Choi', 'Melanie Haynes', 'Joseph Izzo', 'Nick Jaine', 'Muneeb Rehman', 'Carlos Zaragoza', 'Post Malone', 'David Applebee', 'Juan Carlos Arvelo', 'Adam Brown', 'Jon Bruno', 'Darcy Rose Byrnes', 'Oscar Camacho', 'June Christopher', 'Alycia Cooper', 'Michelle Jubilee Gonzalez', 'Terrence Hardy Jr.', 'Bridget Hoffman', 'Rif Hutton', 'Miguel Jiron', 'Harrison Knight', 'Lex Lang', 'Donna Lynn Leavy', 'Andrew Leviton', 'Caitlin McKenna', 'Scott Menville', 'Christopher Miller', 'Arthur Ortiz', 'Juan Pacheco', 'Devika Parikh', ""Shakira Ja'nai Paye"", 'Courtney Peldon', 'Chrystee Pharris', 'Jacqueline Pinol', 'Juan Pope', 'Al Rodrigo', 'Joseph Sanfelippo', 'Justin Shenkarow', 'Dennis Singletary', 'Warren Sroka', 'Melissa Sturm', 'Holly Walker', 'Jason Linere-White', 'Ruth Zalduondo']",4.42,5.0,"['Adventure', 'Animation', 'Science Fiction', 'Action']",117,['USA'],English,"['English', 'Japanese', 'Spanish']","['Columbia Pictures', 'Lord Miller', 'Pascal Pictures', 'Sony Pictures Animation', 'Arad Productions']",3371313,441441,1735705,75000,1639,5471,1918,15477,13903,116046,136612,597324,402246,1124552,2415188,https://letterboxd.com/film/spider-man-into-the-spider-verse/
Hereditary,2018,Ari Aster,"['Toni Collette', 'Alex Wolff', 'Gabriel Byrne', 'Ann Dowd', 'Milly Shapiro', 'Mallory Bechtel', 'Brock McKinney', 'Jake Brown', 'Morgan Lund', 'Christy Summerhays', 'Bus Riley', 'Jarrod Phillips', 'Heidi Mendez', 'Zachary Arthur', 'David Stanley', 'Moises L. Tovar', 'Austin R. Grant', 'Gabriel Monroe Eckert', 'Harrison Nell', 'BriAnn Rachele', 'Kathleen Chalfant', 'Ari Aster', 'Marilyn Miller', 'Mark Blockovich', 'Rachelle Hardy', 'Jason Miyagi', 'Lorenzo Silva', 'Alexis Long']",3.97,4.5,"['Thriller', 'Horror', 'Mystery']",128,['USA'],English,['English'],['PalmStar Media'],2027243,329460,755053,31000,7350,17712,8982,45728,36527,154474,160078,432691,220603,379871,1464016,https://letterboxd.com/film/hereditary/
Bingo: The King of the Mornings,2017,Daniel Rezende,"['Vladimir Brichta', 'Leandra Leal', 'Tainá Müller', 'Ana Lúcia Torre', 'Augusto Madeira', 'Cauã Martins', 'Emanuelle Araújo', 'Pedro Bial', 'Domingos Montagner', 'Fernando Sampaio', 'Raul Barreto', 'Soren Hellerup', 'Ricardo Ciciliano', 'Wally Araújo', 'Roberto Audio', 'Cleto Baccic', 'Luciano Baldan', 'Luiz Bolognesi', 'Clodoaldo Borges', 'Pedro Casali', 'Vitor Davied', 'Rodrigo Fernandes', 'Lila Guimarães', 'Caio Gullane', 'Arthur Kohl', 'Andrey Lima', 'Márcio Magno', 'Caio Marinho', 'Thalyta Medeiros', 'Martha Mellinger', 'Wagner Molina', 'Vítor Moura', 'Alessandro Ramos', 'Felipe Riquelme', 'Tomás Sampaio', 'Carol Vidotti', 'Natalia Viviani', 'Maurício Cid']",3.86,4.0,"['Comedy', 'Drama']",113,['Brazil'],Portuguese,"['Portuguese', 'Spanish', 'English']","['Warner Bros. Pictures', 'Gullane Entretenimento']",44282,7341,15346,315,34,76,70,426,656,2945,5484,13692,6495,8058,37936,https://letterboxd.com/film/bingo-the-king-of-the-mornings/
Get Out,2017,Jordan Peele,"['Daniel Kaluuya', 'Allison Williams', 'Bradley Whitford', 'Catherine Keener', 'Caleb Landry Jones', 'Betty Gabriel', 'Marcus Henderson', 'Lil Rel Howery', 'LaKeith Stanfield', 'Stephen Root', 'Ashley LeConte Campbell', 'John Wilmot', 'Caren L. Larkey', 'Julie Ann Doan', 'Rutherford Cravens', 'Geraldine Singer', 'Yasuhiko Oyama', 'Richard Herd', 'Erika Alexander', 'Jeronimo Spinx', 'Ian Casselberry', 'Zailand Adams', 'Trey Burvant', 'John Donohue', 'Sean Paul Braud', 'Keegan-Michael Key', 'Jordan Peele', 'Evan Shafran', 'Tahj Vaughans']",4.16,4.0,"['Horror', 'Mystery', 'Thriller']",104,['USA'],English,['English'],"['Monkeypaw Productions', 'Blumhouse Productions', 'QC Entertainment']",3261488,357987,1442996,24000,2527,7367,4358,29206,27059,189796,216194,746204,350913,712137,2285761,https://letterboxd.com/film/get-out-2017/
Terrifier,2016,Damien Leone,"['David Howard Thornton', 'Jenna Kanell', 'Samantha Scaffidi', 'Catherine Corcoran', 'Pooya Mohseni', 'Matt McAllister', 'Katie Maguire', 'Gino Cafarelli', 'Cory DuVal', 'Michael Leavy', 'Xiomi', 'Erick Zamora', 'Clifton Dunn', 'Julie Asriyan', 'Margaret Reed', 'Alan Hasnas', 'Jason Leavy', 'Steven Della Salla', 'Ursula Anderman', 'Daniel Rodas', 'Dean Briscoe', 'Phil Falcone', 'Gloria Jung', 'Elisa Vecchio', 'Michelle Gianchetti', 'Joe Patrick Marshall', 'Joe Causi', 'Linda Russo', 'Kamal Ahmed', 'Kyle Brauch', 'Kika Magalhaes', 'Kristina Thompson']",2.44,3.0,"['Horror', 'Thriller']",84,['USA'],English,['English'],['Dark Age Cinema'],271396,46674,46619,1000,13053,19096,15359,33796,29385,45158,21313,19545,3510,9582,209797,https://letterboxd.com/film/terrifier-2016/
The Maze Runner,2014,Wes Ball,"[""Dylan O'Brien"", 'Kaya Scodelario', 'Ki Hong Lee', 'Aml Ameen', 'Blake Cooper', 'Thomas Brodie-Sangster', 'Will Poulter', 'Dexter Darden', 'Chris Sheffield', 'Joe Adler', 'Alexander Flores', 'Jacob Latimore', 'Randall D. Cunningham', 'Patricia Clarkson', 'Don McManus', 'Michael Bow', 'Jerry Clark', 'Michael Deville', 'Dylan Gaspard', 'Cory Gooding', 'Cazi Greene', 'Dustin Guitreau', 'Tyler Harrison', 'Landon Hazel', 'Gary Hood', 'Nick Killebrew', 'John Langston', 'Chad Martinez', 'Lester Millet', 'Sawyer Pierce', 'Weston Rachal', 'Bryce Romero', 'Johnny Stockwell', 'SanChavis Torns', 'Lane Westerhaus', 'Gentry Williams', 'Adriana Acosta', 'Duane Cothren', 'James Dashner', 'Mark Gibson', 'Darryl Harvey', ""Janet L'Aube"", 'Travis Michael Myers', 'Zach Nichols', 'Tommy Sheppard', 'Andrew Varenhorst', 'Carol Jean Wells', 'Jeff Wiesen']",3.3,5.0,"['Science Fiction', 'Action', 'Mystery', 'Thriller']",113,"['USA', 'UK']",English,['English'],"['Ingenious Media', 'The Gotham Group', 'Dayday Films', 'Temple Hill Entertainment', 'TSG Entertainment', '20th Century Fox']",1030099,57451,181338,6400,3104,9905,9958,39504,46580,132836,102333,115564,26584,64629,550997,https://letterboxd.com/film/the-maze-runner/
The Way He Looks,2014,Daniel Ribeiro,"['Ghilherme Lobo', 'Fábio Audi', 'Tess Amorim', 'Lúcia Romano', 'Eucir de Souza', 'Selma Egrei', 'Isabela Guasco', 'Victor Filgueiras', 'Pedro Carvalho', 'Guga Auricchio', 'Bárbara Pereira', 'Matheus Abreu', 'Naruna Costa', 'Júlio Machado', 'Renata Novaes']",3.91,5.0,"['Romance', 'Drama']",96,['Brazil'],Portuguese,['Portuguese'],"['Lacuna Filmes', 'Paraná Filmes']",110264,24555,36720,1900,115,277,296,1377,1957,8048,11151,23523,8698,19365,74807,https://letterboxd.com/film/the-way-he-looks/
Warm Bodies,2013,Jonathan Levine,"['Nicholas Hoult', 'Teresa Palmer', 'Lio Tipton', 'John Malkovich', 'Dave Franco', 'Rob Corddry', 'Cory Hardrict', 'Vincent Leclerc', 'Daniel Rindress-Kay', 'Chris Cavener', 'Aaron Janke', 'Serge Alain Cambronne', 'Robert Reynolds', 'John Topor', 'Ayisha Issa', 'Debbie Wong', 'Christian Paul', 'Billie Calmeau', 'Clifford Leduc-Vaillancourt', 'Adam Driscoll', 'Bineyam Girma', 'Chimwemwe Miller', 'Alec Bourgeois', 'Raphael Grosz-Harvey', 'Brent Skagford', 'Josée Laviolette', 'Jonathan Dubsky', 'Zavier Vaillancourt', 'Christine Rodriguez', ""Quinn O'Neill"", 'Arthur Holden', 'Abdul Ayoola', 'Dawn Ford', 'Angie Medrano', 'Rochelle Okoye', 'Patrick Sabongui', 'Sylvia Stewart', 'Diana Noris']",2.89,4.0,"['Horror', 'Romance', 'Comedy']",97,"['USA', 'Canada']",English,['English'],"['Summit Entertainment', 'Mandeville Films']",395623,35759,53790,572,3356,7669,6907,24269,25127,55309,30979,24851,4001,9226,191694,https://letterboxd.com/film/warm-bodies/
The Hunger Games,2012,Gary Ross,"['Jennifer Lawrence', 'Josh Hutcherson', 'Liam Hemsworth', 'Woody Harrelson', 'Elizabeth Banks', 'Lenny Kravitz', 'Stanley Tucci', 'Donald Sutherland', 'Wes Bentley', 'Toby Jones', 'Alexander Ludwig', 'Isabelle Fuhrman', 'Amandla Stenberg', 'Willow Shields', 'Sandra Ellis Lafferty', 'Paula Malcomson', 'Rhoda Griffis', 'Sandino Moya-Smith', 'Raiko Bowman', 'Dwayne Boyd', 'Anthony Reynolds', 'Judd Lormand', 'Kimiko Gelman', 'Nelson Ascencio', 'Brooke Bundy', 'Dayo Okeniyi', 'Leven Rambin', 'Jack Quaid', 'Latarsha Rose', 'Ian Nelson', 'Kalia Prescott', 'Ethan Jamieson', 'Jacqueline Emerson', 'Mackenzie Lintz', 'Imanol Yepez-Frias', 'Annie Thurman', 'Dakota Hood', 'Amber Chaney', 'Karan Kendrick', 'Shane Bissell', 'Kate Kneeland', 'Steve Coulter', 'Sharon Conley', 'Tim Taylor', 'John Ross', 'Phillip Troy Linger', 'Julie Ivey', 'Mark Meekins', 'Jeremy Marinas', 'Bill Bennett']",3.65,5.0,"['Fantasy', 'Science Fiction', 'Adventure']",142,['USA'],English,['English'],"['Lionsgate', 'Color Force']",2435169,136977,602820,11000,3472,11747,9479,51879,59779,251883,238417,387978,95517,240785,1350936,https://letterboxd.com/film/the-hunger-games/
Project X,2012,Nima Nourizadeh,"['Thomas Mann', 'Oliver Cooper', 'Jonathan Daniel Brown', 'Dax Flame', 'Kirby Bliss Blanton', 'Brady Hender', 'Nick Nervies', 'Alexis Knapp', 'Miles Teller', 'Peter MacKenzie', 'Caitlin Dulany', 'Rob Evors', 'Rick Shapiro', 'Martin Klebba', 'Pete Gardner', 'Nichole Sakura', 'Sam Lant', 'Henry Michaelson', 'Brendan Miller', 'Brent Tarnol', 'Kyle Kwasnick', 'David Sanchez', 'Ayydé Vargas', 'Chelsea Carbaugh-Rutland', 'Zach Lasry', 'Michael C. Stretton', 'Andrew Harbour', 'Allan Chanes', 'Holden Morse', 'Raz Mataz', 'Briana Mari Wilde', 'Jarod Einsohn', 'Chet Hanks', 'Julian Evans', 'Jesse Marco', 'Chic Daniels', 'Kevin Dunigan', 'Colleen Flynn', 'Sophia Santi', 'Jodi Harris', 'Frank Buckley', 'Serene Branson', 'Robb Reesman', 'Kevin Ryder', 'Gene Baxter', 'Big Boy', 'Jimmy Kimmel', 'Jillian Warry Barberie', 'Ciara Hanna', 'Catherine Lidstone', 'Patrick Phan', 'Shawn Turner']",3.19,4.5,['Comedy'],88,['USA'],English,['English'],"['Silver Pictures', 'Green Hat Films']",542775,39513,106054,2900,5233,10278,9304,27870,31603,76358,56509,59879,14760,34623,326417,https://letterboxd.com/film/project-x-2012/
Dorian Gray,2009,Oliver Parker,"['Ben Barnes', 'Colin Firth', 'Rebecca Hall', 'Emilia Fox', 'Ben Chaplin', 'Fiona Shaw', 'Caroline Goodall', ""Maryam d'Abo"", 'Douglas Henshall', 'Rachel Hurd-Wood', 'Max Irons', 'John Hollingworth', 'Pip Torrens', 'Michael Culkin', 'Nathan Rosen', 'Jeffrey Lipman Snr', 'Jo Woodcock', 'Louise Rose', 'Aewia Huillet', 'Hugh Ross', 'David Sterne', 'Johnny Harris']",2.61,2.0,"['Thriller', 'Fantasy', 'Drama']",112,"['UK', 'USA']",English,"['English', 'Polish', 'Russian']","['Ealing Studios', 'Fragile Films']",82294,10593,9461,283,1576,3148,3047,8177,7169,10726,4887,4441,885,2477,46533,https://letterboxd.com/film/dorian-gray-2009/
Coraline,2009,Henry Selick,"['Dakota Fanning', 'Teri Hatcher', 'Jennifer Saunders', 'Dawn French', 'Keith David', 'Ian McShane', 'John Hodgman', 'Robert Bailey Jr.', 'Aankha Neal', 'Hannah Kaiser', 'George Selick', 'Harry Selick', 'Marina Budovsky', 'Emerson Tenney', 'Jerome Ranft', 'Christopher Murrie', 'Jeremy Ryder', 'Carolyn Crawford', 'Yona Prost', 'John Linnell']",4.14,5.0,"['Animation', 'Fantasy', 'Family']",100,['USA'],English,['English'],"['Laika', 'Pandemonium']",1818144,228105,679957,62000,3778,7412,2903,17407,15567,87764,105632,296895,132939,409231,1079528,https://letterboxd.com/film/coraline/
Saw IV,2007,Darren Lynn Bousman,"['Tobin Bell', 'Costas Mandylor', 'Scott Patterson', 'Betsy Russell', 'Lyriq Bent', 'Athena Karkanis', 'Louis Ferreira', 'Simon Reynolds', 'Donnie Wahlberg', 'Angus Macfadyen', 'Shawnee Smith', 'Bahar Soomekh', 'Dina Meyer', 'Mike Realba', 'Marty Adams', 'Sarain Boylan', 'Billy Otis', 'James Van Patten', 'David Boyce', 'Kevin Rushton', 'Julian Richings', 'Kelly Jones', 'Ingrid Hart', 'Niamh Wilson', 'Janet Land', 'Ron Lea', 'Joanne Boland', 'Zoe Heath', 'Bill Vibert', 'Eric Gores', 'Devon Bostick', 'Tony Nappo', 'Emmanuelle Vaugier', 'Noam Jenkins', 'Mike Butters', 'J. LaRose', 'Oren Koules', 'Alison Luther', 'Kim Roberts', 'David Webster', 'Sandra Manson', 'Shauna Black', 'Darrell Dennis', 'Tracey Ferencz', 'Catherine Fitch', 'Christopher Marren', 'Christopher Morris', 'Geoffrey Pounsett']",2.64,4.0,"['Crime', 'Horror', 'Thriller']",93,['USA'],English,['English'],"['Twisted Pictures', 'Lionsgate']",282515,50881,36764,296,2501,8074,10172,30024,29297,43946,17928,15340,2697,7314,167293,https://letterboxd.com/film/saw-iv/
Saw III,2006,Darren Lynn Bousman,"['Tobin Bell', 'Shawnee Smith', 'Angus Macfadyen', 'Bahar Soomekh', 'Donnie Wahlberg', 'Dina Meyer', 'Leigh Whannell', 'Mpho Koaho', 'Barry Flatman', 'Lyriq Bent', 'J. LaRose', 'Debra McCabe', 'Costas Mandylor', 'Betsy Russell', 'Jane Luk', 'Stefan Georgiou', 'Niamh Wilson', 'Alan van Sprang', 'Kim Roberts', 'Brian Paul', 'Zoe Heath', 'Billy Parrott', 'Dylan Trowbridge', 'Franky G', 'Kelly Jones', 'Vincent Rother', 'Nicholas Kaegi', 'Mark Poyser', 'Timothy Burd', 'Dan Sudek', 'Bill Vibert', 'Sandy Kellerman', 'Shauna Black', 'Sean Sullivan', 'Larry Yachimec', 'Darrell Dennis', 'Christopher Marren', 'Mike Butters', 'Paul Gutrecht']",2.9,3.5,"['Thriller', 'Horror', 'Crime']",108,['USA'],English,['English'],"['Twisted Pictures', 'Evolution Entertainment', 'Lionsgate']",369699,59933,55672,1200,2261,6562,8220,27707,32364,62945,30409,27268,6022,13069,216827,https://letterboxd.com/film/saw-iii/
Saw II,2005,Darren Lynn Bousman,"['Tobin Bell', 'Donnie Wahlberg', 'Shawnee Smith', 'Erik Knudsen', 'Franky G', 'Glenn Plummer', 'Emmanuelle Vaugier', 'Beverley Mitchell', 'Noam Jenkins', 'Timothy Burd', 'Dina Meyer', 'Lyriq Bent', 'Tony Nappo', 'Kelly Jones', 'Vincent Rother', 'Linette Doherty', 'Kofi Payton', 'Gretchen Helbig', 'Leigh Whannell', 'Cary Elwes', 'Ho Chow']",3.15,4.0,['Horror'],93,['USA'],English,['English'],"['Got Films', 'Twisted Pictures', 'Evolution Entertainment', 'Saw 2 Productions', 'Lionsgate']",480956,71328,83085,1600,1696,5280,6350,25539,31391,81795,52573,50119,11763,20365,286871,https://letterboxd.com/film/saw-ii/
Harry Potter and the Prisoner of Azkaban,2004,Alfonso Cuarón,"['Daniel Radcliffe', 'Rupert Grint', 'Emma Watson', 'Robbie Coltrane', 'Michael Gambon', 'Gary Oldman', 'David Thewlis', 'Timothy Spall', 'Alan Rickman', 'Tom Felton', 'Emma Thompson', 'Julie Walters', 'Richard Griffiths', 'Fiona Shaw', 'Maggie Smith', 'David Bradley', 'Pam Ferris', 'Dawn French', 'Julie Christie', 'Robert Hardy', 'Mark Williams', 'Harry Melling', 'Adrian Rawlins', 'Geraldine Somerville', 'Lee Ingleby', 'Lenny Henry', 'Jimmy Gardner', 'Jim Tavaré', 'Abby Ford', 'Oliver Phelps', 'James Phelps', 'Chris Rankin', 'Bonnie Wright', 'Devon Murray', 'Warwick Davis', 'Matthew Lewis', 'Sitara Shah', 'Jennifer Smith', 'Bronson Webb', 'Josh Herdman', 'Genevieve Gaunt', 'Kandice Morris', 'Alfred Enoch', 'Annalisa Bugliani', 'Tess Bu Cuarón', 'Violet Columbus', 'Paul Whitehouse', 'Ekow Quartey', 'Ricky Sahota', 'Jamie Waylett', 'Sharon Sandhu', 'Danielle Tabor', 'Freddie Davies', 'Peter Best', 'Lewis Barnshaw', 'Ian Brown', 'Samantha Clinch', 'Marianne Chase', 'Tom Ackerley']",4.09,4.5,"['Fantasy', 'Adventure']",141,"['UK', 'USA']",English,['English'],"['Warner Bros. Pictures', '1492 Pictures', 'Heyday Films', 'P of A Productions Limited']",2549998,213242,770398,25000,2313,5411,2742,19734,20969,141041,153767,414337,170561,392296,1323171,https://letterboxd.com/film/harry-potter-and-the-prisoner-of-azkaban/
Saved!,2004,Brian Dannelly,"['Jena Malone', 'Mandy Moore', 'Macaulay Culkin', 'Patrick Fugit', 'Eva Amurri Martino', 'Heather Matarazzo', 'Martin Donovan', 'Mary-Louise Parker', 'Chad Faust', 'Elizabeth Thai', 'Valerie Bertinelli', 'Birkett Turton', 'Julia Arkos', 'Donna White', 'James Caldwell', 'Nicki Clyne', 'Aaron Douglas', 'Patricia Drake', 'Brent Fidler', 'Jay Hilliker', 'John Innes', 'Greg Kean', 'Joe MacLeod', 'Althea McAdam', 'Thomas Plustwik', 'Syndie Skeeles', 'Susan Wilkey']",3.41,4.0,['Comedy'],92,['USA'],English,['English'],"['United Artists', 'Single Cell Pictures', 'Infinity Media']",64928,12601,15590,396,121,407,452,1887,2641,8656,8269,8650,1940,3340,36363,https://letterboxd.com/film/saved/
Saw,2004,James Wan,"['Cary Elwes', 'Leigh Whannell', 'Danny Glover', 'Monica Potter', 'Ken Leung', 'Makenzie Vega', 'Michael Emerson', 'Shawnee Smith', 'Dina Meyer', 'Alexandra Bokyun Chun', 'Tobin Bell', 'Mike Butters', 'Paul Gutrecht', 'Benito Martinez', 'Ned Bellamy', 'Avner Garbi', 'Hans Raith', 'Oren Koules']",3.61,4.0,"['Crime', 'Mystery', 'Horror']",103,['USA'],English,['English'],"['Twisted Pictures', 'Evolution Entertainment', 'Saw Productions Inc.']",927690,145372,221211,11000,2513,6644,5039,22895,26580,103219,114786,168266,43498,73667,567107,https://letterboxd.com/film/saw/
How to Lose a Guy in 10 Days,2003,Donald Petrie,"['Kate Hudson', 'Matthew McConaughey', 'Kathryn Hahn', 'Annie Parisse', 'Adam Goldberg', 'Thomas Lennon', 'Michael Michele', 'Shalom Harlow', 'Robert Klein', 'Bebe Neuwirth', 'Samantha Quan', 'Justin Peroff', 'Celia Weston', 'James Murtaugh', 'Rebecca Harris', 'Archie MacGregor', 'John DiResta', 'Scott Benes', 'Zachary Benes', 'William Hill', 'Georgia Craig', 'Liliane Montevecchi', 'James Mainprize', 'Tony Longo', 'Warner Wolf', 'Doug Murray', 'Natalie Brown', 'Andrew Moodie', 'David Macniven', 'Ross Gallo', 'Gina Sorell', 'Ingrid Hart', 'Marvin Hamlisch']",3.58,3.5,"['Comedy', 'Romance']",116,['USA'],English,['English'],"['Paramount', 'Robert Evans Company', 'Lynda Obst Productions', 'Christine Peters Productions']",822128,112031,230017,15000,1760,5265,5236,21885,26229,87895,77935,118128,33697,115728,493758,https://letterboxd.com/film/how-to-lose-a-guy-in-10-days/
Scream 2,1997,Wes Craven,"['Neve Campbell', 'Courteney Cox', 'David Arquette', ""Jerry O'Connell"", 'Timothy Olyphant', 'Jamie Kennedy', 'Laurie Metcalf', 'Elise Neal', 'Sarah Michelle Gellar', 'Liev Schreiber', 'Jada Pinkett Smith', 'Omar Epps', 'Duane Martin', 'Lewis Arquette', 'Rebecca Gayheart', 'Portia de Rossi', 'Heather Graham', 'Roger L. Jackson', 'Joshua Jackson', 'Marisol Nichols', 'Tori Spelling', 'Luke Wilson', 'David Warner', 'Selma Blair', 'Rasila Schroeder', 'Peter Deming', 'Molly Gross', 'Rebecca McFarland', 'Kevin Williamson', 'Sandy Heddings', 'Dave Allen Clark', 'Joe Washington', 'Angie Dillard', 'John Patrick', 'Craig Shoemaker', 'Walter Franks', 'Nina Petronzio', 'Stephanie Belt', 'Richard Bruce Doughty', 'Cornelia Kiss', 'Lucy Lin', 'Philip Pavel', ""Nancy O'Dell"", 'Greg Meiss', 'Adam Shankman', 'Kris Andersson', 'Carmen M. Chavez', 'Anne Fletcher', 'Erik Hyler', 'Sebastian La Cause', 'Lance MacDonald', 'Laurie Sposit', 'Ryan Lee Swanson', 'Sarah Christine Smith', 'Jack Baun', 'Christopher Doyle', 'Jason Horgan', 'Daniel K. Arredondo', 'John Embry', 'Corey Mendell Parker', 'Tim Hillman', 'Mark Oliver', 'Jennifer Weston', 'Shelly Benedict', 'Paulette Patterson', 'Wes Craven', 'Jason Trost', 'Franco Castan', 'Carrie Collins', 'Rodney L. James', 'Matthew Lillard', 'Deadra Moore']",3.26,3.0,"['Horror', 'Mystery']",120,['USA'],English,['English'],"['Dimension Films', 'Konrad Pictures', 'Craven-Maddalena Films', 'Miramax']",619399,125417,135938,1100,1075,4035,4446,23746,32963,113408,89232,84518,18493,26033,397949,https://letterboxd.com/film/scream-2/
Scream,1996,Wes Craven,"['David Arquette', 'Neve Campbell', 'Courteney Cox', 'Matthew Lillard', 'Rose McGowan', 'Skeet Ulrich', 'Jamie Kennedy', 'W. Earl Brown', 'Joseph Whipp', 'Liev Schreiber', 'Drew Barrymore', 'Roger L. Jackson', 'Kevin Patrick Walls', 'David Booth', 'Carla Hatley', 'Lawrence Hecht', 'Lois Saunders', 'Lisa Beach', 'Tony Kilbert', 'C.W. Morgan', 'Frances Lee McCain', 'Troy Bishop', 'Ryan Kennedy', 'Leonora Scelfo', 'Nancy Anne Ridder', 'Lisa Canning', 'Bonnie Wood', 'Aurora Draper', 'Kenny Kwong', 'Justin Sullivan', 'Kurtis Bedford', 'Angela Miller', 'Henry Winkler', 'Linda Blair', 'Wes Craven', 'Matt McDonald', 'Freddy W. Smith']",4.02,3.5,"['Mystery', 'Crime', 'Horror']",112,['USA'],English,['English'],"['Dimension Films', 'Woods Entertainment', 'Miramax']",1502023,327594,555145,60000,1235,4048,2713,18247,19233,106231,119382,298611,123294,294007,987001,https://letterboxd.com/film/scream/
