Film_title,Release_year,Director,Cast,Average_rating,Owner_rating,Genres,Runtime,Countries,Original_language,Spoken_languages,Studios,Watches,List_appearances,Likes,Fans,½,★,★½,★★,★★½,★★★,★★★½,★★★★,★★★★½,★★★★★,Total_ratings,Film_URL
Dune: Part Two,2024,Denis Villeneuve,"['Timothée Chalamet', 'Zendaya', 'Rebecca Ferguson', 'Javier Bardem', 'Josh Brolin', 'Austin Butler', 'Florence Pugh', 'Dave Bautista', 'Christopher Walken', 'Léa Seydoux', 'Stellan Skarsgård', 'Charlotte Rampling', 'Souheila Yacoub', 'Roger Yuan', 'Babs Olusanmokun', 'Alison Halstead', 'Giusi Merli', 'Kait Tenison', 'Tara Breathnach', 'Akiko Hitomi', 'Imola Gáspár', 'Alison Adnet', 'Hamza Baissa', 'Hassan Najib', 'Jasper Ryan-Carter', 'Elbooz Omar Ahmed Fathie', 'Abdelkarim Hussein Seli Mohamed Hassanin', 'Joseph Beddelem', 'Xavier Alba Royo', 'Rachid Abbad', 'Affif Ben Badra', 'Botond Bóta', 'Abdelaziz Boumane', 'Abdellah Echahbi', 'Zouhair Elakkari', 'Noureddine Hajoujou', 'Mohamed Mouraoui', 'Adil Achraf Sayd', 'Hamza Sayd', 'Hopi Grace', 'Havin Fathi', 'Kincsö Pethö', 'Cat Simmons', 'Burt Caesar', 'Remi Fadare', 'Amer El-Erwadi', 'Tedroy Newell', 'Oxa Hazel', 'Hajiyeva Pakiza', 'Leon Herbert', 'Sima Rostami', 'Yvonne Campbell', 'Joseph Charles', 'Vic Zander', 'Dylan Baldwin', 'Marcia Tucker', 'Nicola Brome', 'Kathy Owen', 'Huw Novelli', 'Moe Bar-El', 'Serhat Metin', 'Amra Mallassi', 'Adam Bloom', 'Luis Alkmim', 'Jordan Long', 'Omar A.K.', 'Zdeněk Dvořáček', 'Billy Clements', 'Anton Saunders', 'Lex Daniel', 'Dominic McHale', 'Paul Boyle', 'Niall White', 'Tony Cook', 'Gábor Szemán', 'Jonathan Gunning', 'Will Irvine', 'Alan Mehdizadeh', 'Rex Adams', 'Molly Mcowan', 'Ana Cilas', 'Kajsa Mohammar', 'Sára Bácsfalvi', 'Kocsis Zsofia', 'Matthew Sim', 'Steve Wall', 'Italo Amerighi', 'Tim Hilborne', 'Cecile Sinclair', 'Tracy Coogan', 'Zoe Kata Kaska', 'Jimmy Walker', 'Rand Faris', 'Fouad Humaidan', 'Manaf Irani', 'Dora Kápolnai-Schvab', 'Joelle', 'Anya Taylor-Joy', 'Peter Sztojanov Jr.', 'Alexandra Tóth']",4.48,5.0,"['Adventure', 'Science Fiction']",167,['USA'],English,['English'],['Legendary Pictures'],1589434,256181,749976,47000,1516,2507,1710,8297,11764,47671,80515,278255,332427,636973,1401635,https://letterboxd.com/film/dune-part-two/
Anyone But You,2023,Will Gluck,"['Sydney Sweeney', 'Glen Powell', 'Mia Artemis', 'Nat Buchanan', 'Josh Bonello', 'GaTa', 'Alexandra Shipp', 'Hadley Robinson', 'Dermot Mulroney', 'Rachel Griffiths', 'Deborah Faye Lee', 'Lance Kerfuffle', 'Taryn Gluck', 'Alexandra Gluck', 'Summer Tian', 'Dan Liu', 'Davina Chan Gallagher', 'Charlee Fraser', 'Joe Davidson', 'Bryan Brown', 'Michelle Hurd', 'Darren Barnet', 'Mariama Whitton', 'Ryan Panizza', 'Talayna Moana Nikora', 'Beau Karolos', 'Ben Heber']",2.96,4.0,"['Romance', 'Comedy']",104,['USA'],English,['English'],"['Olive Bridge Entertainment', 'Roth-Kirschenbaum Films', 'SK Global Entertainment', 'Columbia Pictures']",854401,95045,221269,2000,10529,22891,22122,71200,79751,178907,120430,131321,31736,75931,744818,https://letterboxd.com/film/anyone-but-you/
Burning Betrayal,2023,Diego Freitas,"['Giovanna Lancellotti', 'Leandro Lima', 'Camilla de Lucas', 'Bruno Montaleone', ""Louise D'Tuani"", 'Micael Borges', 'Thadeu Matos', 'Odilson Pires']",1.75,3.0,"['Drama', 'Mystery', 'Romance']",99,['Brazil'],Portuguese,['Portuguese'],['Glaz Entretenimento'],6627,735,426,2,1123,1242,643,965,459,526,183,204,30,167,5542,https://letterboxd.com/film/burning-betrayal/
Pain Hustlers,2023,David Yates,"['Emily Blunt', 'Chris Evans', ""Catherine O'Hara"", 'Jay Duplass', 'Andy García', ""Brian d'Arcy James"", 'Chloe Coleman', 'Amit Shah', 'Aubrey Dollar', 'Willie Raysor', 'Britt Rentschler', 'Selena Anduze', 'Nicholas Christopher McNeil', 'Sharon Conley', 'Michael Kosta', 'Valerie LeBlanc', 'Adrian Eppley', 'Josh Ventura', 'Michael Lowry', 'Greyson Chadwick', 'Alex Klein', 'Erin Ownbey', 'Mandi Christine Kerr', 'Alexis Baca', 'Pat Dortch', 'Elle Lisic', 'Mary Ann Hagan', 'Tris Marie', 'Quinn Bozza', 'Shelley Jane', 'Avis-Marie Barnes', 'Omer Mughal', 'Tristan Shufford', 'Chris Marks', 'Bella Winkowski', 'Samantha Kacho', 'Jackson Abram', 'A.K. Benninghofen', 'Abigail Susan Williams', 'Becca Breitfeller', 'Rebecca Barnes', 'Trace Haynes', 'Rowan Joseph', 'Chinet Scott', 'Hannah Pniewski']",2.79,5.0,['Drama'],122,"['USA', 'UK']",English,['English'],"['Grey Matter Productions', 'Wychwood Media']",59155,10667,6814,4,319,1112,1919,6991,9345,15145,7246,4654,584,1049,48364,https://letterboxd.com/film/pain-hustlers/
NYAD,2023,"Elizabeth Chai Vasarhelyi, Jimmy Chin","['Annette Bening', 'Jodie Foster', 'Rhys Ifans', 'Ethan Jones Romero', 'Luke Cosgrove', 'Jeena Yi', 'Eric T. Miller', 'Anne Marie Kempf', 'Carolyn McCormick', 'Marcos Diaz', 'Belle Darling', 'Pearl Darling', 'Johnny Solo', 'Anna Harriette Pittman', 'Hanler Rodriguez', 'Harraka Eliana', 'Marcella Acuña Báez', 'Sophia Hernandez', 'Katherine Klosterman', 'Toussaint Merionne', 'Tisola Logan', 'Orpha Salimata', 'Erica Cho', 'Marina Vasarhelyi-Chin', 'James Vasarhelyi-Chin', 'Nadia Lorencz', 'Marcus Young', 'Karly Rothenberg', 'Grace Subervi', 'Stephen Schnetzer', 'Elizabeth Chahin', 'Garland Scott', 'Iván Oleaga', 'Jose Mota Prestol', 'Melissa R. Stubbs', 'Mauricio Adrian', 'Samantha Gordon', 'Lilo Grunwald', 'Diana Nyad', 'Bonnie Stoll', 'John F. Kennedy', 'John Bartlett', 'Ellen DeGeneres', 'Dee Brady', 'Kate McKinnon']",3.27,4.0,"['Drama', 'History']",121,"['Switzerland', 'USA']",English,"['English', 'Spanish']","['Black Bear Pictures', 'Mad Chance', 'SPG3 Entertainment', 'Zurich Avenue']",116813,32962,22329,51,161,694,1286,6069,10519,29152,23313,18608,3624,5614,99040,https://letterboxd.com/film/nyad/
Poor Things,2023,Yorgos Lanthimos,"['Emma Stone', 'Mark Ruffalo', 'Willem Dafoe', 'Ramy Youssef', 'Christopher Abbott', 'Suzy Bemba', 'Jerrod Carmichael', 'Kathryn Hunter', 'Vicki Pepperdine', 'Hanna Schygulla', 'Margaret Qualley', 'Jack Barton', 'Charlie Hiscock', 'Attila Dobai', 'Emma Hindle', 'Anders Grundberg', 'Attila Kecskeméthy', 'Jucimar Barbosa', 'Carminho', 'Angela Paula Stander', 'Gustavo Gomes', 'Kate Handford', 'Owen Good', 'Zen Joshua Poisson', 'Vivienne Soan', 'Jerskin Fendrix', 'István Göz', 'Bruna Asdorian', 'Tamás Szabó Sipos', 'Tom Stourton', 'Mascuud Dahir', 'Miles Jovian', 'Jeremy Wheeler', 'János Geréb', 'Patrick de Valette', 'Raphaël Thiéry', 'Boris Gillot', 'Dorina Kovács', 'Yorgos Stefanakos', 'Hubert Benhamdine', 'Laurent Borel', 'Gábor Patay', 'Laurent Winkler', 'Andrew Hefler', 'Damien Bonnard', 'Noah Breton', 'Donovan Fouassier', 'Wayne Brett', 'John Locke', 'Keeley Forsyth', 'David Bromley', 'Celina Schleicher', 'Roderick Hill']",4.06,5.0,"['Romance', 'Science Fiction', 'Comedy']",142,"['Ireland', 'UK', 'USA']",English,"['English', 'French', 'Portuguese']","['Searchlight Pictures', 'Film4 Productions', 'TSG Entertainment', 'Element Pictures', 'Limp', 'Fruit Tree']",1663521,322459,659106,23000,10119,14484,9573,33261,34434,105459,146474,397733,304462,386801,1442800,https://letterboxd.com/film/poor-things-2023/
Barbie,2023,Greta Gerwig,"['Margot Robbie', 'Ryan Gosling', 'America Ferrera', 'Ariana Greenblatt', 'Issa Rae', 'Kate McKinnon', 'Alexandra Shipp', 'Emma Mackey', 'Hari Nef', 'Sharon Rooney', 'Ana Cruz Kayne', 'Ritu Arya', 'Dua Lipa', 'Nicola Coughlan', 'Emerald Fennell', 'Simu Liu', 'Kingsley Ben-Adir', 'Ncuti Gatwa', 'Scott Evans', 'John Cena', 'Michael Cera', 'Rhea Perlman', 'Helen Mirren', 'Will Ferrell', 'Connor Swindells', 'Jamie Demetriou', 'Andrew Leung', 'Will Merrick', 'Zheng Xi Yong', 'Asim Chaudhry', 'Ray Fearon', 'Erica Ford', 'Hannah Khalique-Brown', 'Mette', 'Marisa Abela', 'Lucy Boynton', 'Rob Brydon', 'Tom Stourton', 'Chris Taylor', 'David Mumeni', 'Olivia Brody', 'Isla Ashworth', 'Eire Farrell', 'Daisy Duczmal', 'Genvieve Toussaint', 'Isabella Nightingale-Mercado', 'Millie-Rose Crossley', 'Anvita Nehru', 'Kayla-Mai Alvares', 'Luke Mullen', 'Patrick Luwis', 'Mac Brandt', 'Paul Jurewicz', 'Oraldo Austin', 'Benjamin Arthur', 'Carlos Jacott', 'Adam Ray', 'George Basil', 'Ptolemy Slocum', 'Deb Hiett', 'James Leon', 'Oliver Vaquer', 'Tony Noto', 'Christopher T. Wood', 'Ann Roth', 'Annie Mumolo', 'Elise Gallup', 'McKenna Roberts', 'Brylee Hsu', 'Sasha Milstein', 'Lauren Holt', 'Sterling Jones', 'Ryan Piers Williams', 'Jamaal Lewis', 'Kathryn Akin', 'Grace Jabbari', 'Ira Mandela Siobhan', 'Lisa Spencer', 'Naomi Weijand', 'Tom Clark', 'Ireanne Abenoja', 'Davide Albonetti', 'Charlotte Anderson', 'Michael Anderson', 'Rico Bakker', 'James Bamford', 'William John Banks', 'Callum Bell', 'Adam Blaug', 'Mason Boyce', 'Taylor Bradshaw', 'Alex Brown', 'Miekaile Browne', 'Lewis Calcutt', 'Nikkita Chadha', 'Oliver Chapman', 'Megan Charles', 'Callum Clack', 'Danny Coburn', 'Kat Collings', 'Adam Crossley', 'Sia Dauda', 'Gustave Die', 'Grace Durkin', 'Joelle Dyson', 'Lewis Easter', 'Onyemachi Ejimofor', 'Cameron Everitt', 'Luke Field-Wright', 'Sasha Flesch', 'Adam Fogarty', 'Michael John French', 'Anna-Kay Gayle', 'Charlie Goddard', 'Marlie Goddard', 'Ellis Harman', 'Yasmin Harrison', 'Josh Hawkins', 'James Healy', 'Tim Hodges', 'Mira Jebari', 'Beccy Jones', 'Thomas Kalek', 'Lily Laight', 'Maiya Leeke', 'Cristian Liberti', 'Prodromos Marneros', 'Nahum McLean', 'Jordan Melchor', 'Ramzan Miah', 'Andy Monaghan', 'Florivaldo Mossi', 'Hannah Nazareth', 'Grant Neal', 'Freja Nicole', 'Shaun Niles', 'Ella Nonini', 'Jack William Parry', 'Josie Pocock', 'Barnaby Quarendon', 'Redmand Rance', 'Zara Richards', 'Liam Riddick', 'Alana Rixon', 'Adam Paul Robertson', 'Kingdom Sibanda', 'Sebastian Skov', 'Aaron J. Smith', 'Joshua Smith', 'Lucia-Rose Sokolowski', 'Janine Somcio', 'Alex Sturman', 'Callum Sterling', 'Todd Talbot', 'Charles Tatman', 'Grant Thresh', 'Connor Tidman', 'Wahchi Vong', 'Jerry Wan', 'Sasha Wareham', 'Stan West', 'Oliver Wheeler', 'Josh Wild', 'Joe Wolstenholme', 'Richard Womersley', 'Ashley Young']",3.87,nan,"['Comedy', 'Adventure']",114,"['UK', 'USA']",English,['English'],"['LuckyChap Entertainment', 'Heyday Films', 'NB/GG Pictures', 'Mattel', 'Warner Bros. Pictures']",3569087,443273,1548313,26000,12203,26112,17509,86680,92778,373471,387451,810659,342432,767146,2916441,https://letterboxd.com/film/barbie/
Anatomy of a Fall,2023,Justine Triet,"['Sandra Hüller', 'Swann Arlaud', 'Milo Machado-Graner', 'Antoine Reinartz', 'Samuel Theis', 'Jehnny Beth', 'Saadia Bentaïeb', 'Camille Rutherford', 'Anne Rotger', 'Sophie Fillières', 'Julien Comte', 'Pierre-François Garel', 'Savannah Rol', 'Iliès Kadri', 'Vincent Courcelle-Labrousse', 'Cécile Brunet-Ludet', 'Nesrine Slaoui', 'Antoine Bueno', 'Anne-Lise Heimburger', 'Wajdi Mouawad', 'Sacha Wolff', 'Kareen Guiock', 'Arthur Harari', 'Marie Brette', 'Christophe Devaux', 'Jefferson Desport', 'Nola Jolly', 'Emmanuelle Jourdan', 'Isaac Abballah', 'Judicaël Ajorque', 'Nicholas Angelo', 'Marie-Laure Aumis', 'Laura Balasuriya', 'Alexandre Bertrand', 'Jean-Pierre Bertrand', 'Cécilia Bongiovanni-Lefebvre', 'Jean-Claude Calbet', 'Florent Chasseloup', 'Sandrine Chastagnol', 'Betty Desmier', 'Justine Dulary', 'Philippe Jubien', 'Cyril Karenine', 'Maud Martin', 'Romaric Maucoeur', 'Fabien Perrot', 'Christophe Léon Schelstraete', 'Rose Thibault']",4.15,5.0,"['Mystery', 'Crime', 'Thriller']",152,['France'],French,"['French', 'English', 'German']","['Les Films de Pierre', 'Les Films Pelléas', 'France 2 Cinéma', 'Auvergne-Rhône-Alpes Cinéma']",974729,225310,361087,7600,808,1982,1424,8152,10542,52551,96628,304504,199207,167746,843544,https://letterboxd.com/film/anatomy-of-a-fall/
Bottoms,2023,Emma Seligman,"['Rachel Sennott', 'Ayo Edebiri', 'Ruby Cruz', 'Havana Rose Liu', 'Kaia Gerber', 'Nicholas Galitzine', 'Miles Fowler', 'Marshawn Lynch', 'Dagmara Dominczyk', 'Punkie Johnson', 'Zamani Wilder', 'Summer Joy Campbell', 'Virginia Tucker', 'Wayne Pére', 'Toby Nichols', 'Cameron Stout', 'Ted Ferguson', 'Bruno Rose', 'Zach Primo', 'Liz Elkins Newcomer', 'Krystal Alayne Chambers', 'Alyssa Matthews', 'Lacey Dover']",3.82,3.0,['Comedy'],91,['USA'],English,['English'],"['Brownstone Productions', 'Orion Pictures']",982732,189003,406239,21000,3517,7352,6259,24100,30134,100115,129094,233943,98757,210902,844173,https://letterboxd.com/film/bottoms/
Past Lives,2023,Celine Song,"['Greta Lee', 'Teo Yoo', 'John Magaro', 'Moon Seung-ah', 'Yim Seung-min', 'Yoon Ji-hye', 'Choi Won-young', 'An Min-young', 'Seo Yeon-woo', 'Chang Ki-ha', 'Shin Hee-cheol', 'Park Jun-hyuk', 'Jack Alberts', 'Jane Yubin Kim', 'Song Noo-ri', 'Jin Si-ah', 'Choi Yoon-seo', 'Hwang Seung-eon', 'Jojo T. Gibbs', 'Emily Cass McDonnell', 'Federico Rodriguez', 'Conrad Schott', 'Kristen Sieh', 'Oge Agulué', 'Chase Sui Wonders', 'Isaac Powell', 'Jay Karales']",4.18,5.0,"['Drama', 'Romance']",106,"['South Korea', 'USA']",English,"['English', 'Korean']","['A24', 'Killer Films', '2AM', 'CJ ENM']",1031628,283253,439150,23000,1262,2635,2177,11221,15351,61508,95934,264880,183626,253703,892297,https://letterboxd.com/film/past-lives/
Avatar: The Way of Water,2022,James Cameron,"['Sam Worthington', 'Zoe Saldaña', 'Sigourney Weaver', 'Stephen Lang', 'Kate Winslet', 'Cliff Curtis', 'Joel David Moore', 'CCH Pounder', 'Edie Falco', 'Jemaine Clement', 'Giovanni Ribisi', 'Britain Dalton', 'Jamie Flatters', 'Trinity Bliss', 'Jack Champion', 'Brendan Cowell', 'Bailey Bass', 'Filip Geljo', 'Duane Evans Jr.', 'Dileep Rao', 'Matt Gerald', 'Robert Okumu', 'Jennifer Stafford', 'Keston John', 'Kevin Dorman', 'Alicia Vela-Bailey', 'Sean Anthony Moran', 'Andrew Arrabito', 'Johnny Alexander', 'Kim Do', 'Victor T. Lopez', 'Maria Walker', 'Phil Brown', 'Jocelyn Christian', 'Joel Tobeck', 'Moana Ete', 'Phil Peleton', 'Jamie Landau', 'Jim Moore', 'Benjamin Hoetjes', 'Nikita Tu Bryant', 'Anthony Ahern', 'Shane Rangi', 'Rick Lucas', 'Tanya Drewery', 'Ava Diakhaby', 'Isaac Te Reina', 'Eric Farmer', 'Philip Mtambo', 'Daniel Lough', 'Cruz Moir', 'Alex Lucas', 'Scarlett Fernandez', 'Chloe Coleman', 'Jeremy Irwin', 'Jake McLean', 'CJ Jones']",3.61,nan,"['Action', 'Adventure', 'Science Fiction']",192,['USA'],English,['English'],"['20th Century Studios', 'Lightstorm Entertainment']",1637903,192470,479900,6300,8118,19129,13914,59911,63841,203622,208398,342773,128465,189495,1237666,https://letterboxd.com/film/avatar-the-way-of-water/
Pearl,2022,Ti West,"['Mia Goth', 'David Corenswet', 'Tandi Wright', 'Matthew Sunderland', 'Emma Jenkins-Purro', 'Alistair Sewell', 'Amelia Reid', 'Gabe McDonnell', 'Lauren Stewart', 'Todd Rippon', 'Grace Acheson']",3.75,5.0,"['Horror', 'Drama']",102,['USA'],English,"['English', 'German']","['A24', 'Little Lamb Productions']",991922,218272,376564,18000,1965,4841,4325,19777,27347,108559,142827,264905,89625,155907,820078,https://letterboxd.com/film/pearl-2022/
Crush,2022,Sammi Cohen,"['Rowan Blanchard', ""Auli'i Cravalho"", 'Isabella Ferreira', 'Tyler Alvarez', 'Teala Dunn', 'Rico Paris', 'Aasif Mandvi', 'Michelle Buteau', 'Megan Mullally', 'Addie Weyrich', 'Jes Tom', 'Addyson Tabakin', 'Ty Demoya', 'Zoe Gandolfo', 'Samsara Yett', 'Catherine McCafferty', 'RYAN DRAKE WILSON', 'Sam Robert Rogers', 'Kristin Bauer-Gross', 'Jess Rona', 'Eric Edelstein']",3.05,4.0,"['Romance', 'Comedy']",92,['USA'],English,['English'],"['Animal Pictures', 'American High', 'Depth of Field', 'LD Entertainment', '3 Arts Entertainment']",108448,24245,26857,414,820,1735,1947,6700,8855,22641,15289,14921,3345,7992,84245,https://letterboxd.com/film/crush-2022/
Don't Look Up,2021,Adam McKay,"['Jennifer Lawrence', 'Leonardo DiCaprio', 'Meryl Streep', 'Rob Morgan', 'Jonah Hill', 'Cate Blanchett', 'Mark Rylance', 'Tyler Perry', 'Timothée Chalamet', 'Ron Perlman', 'Ariana Grande', 'Kid Cudi', 'Himesh Patel', 'Melanie Lynskey', 'Michael Chiklis', 'Tomer Sisley', 'Paul Guilfoyle', 'Robert Joy', 'Jack Alberts', 'Ting Lik', 'Lance A. Williams', 'Shimali de Silva', 'Hettienne Park', 'Rafael Silva', 'Lonnie Farmer', 'Homa Sarabi Daunis', 'Barbara Douglass', 'Rena Maliszewski', 'Erik Parillo', 'Robert Hurst Radochia', 'Conor Sweeney', 'Ross Partridge', 'Richard Donelly', 'Liev Schreiber', 'Samsara Yett', 'Meara Mahoney Gross', 'Jaden Onwuakor', 'Staci Roberts', 'Wendy Bellevue', 'Mishka Yarovoy', 'Chris Everett', 'Annette Miller', 'Stephen Thorne', 'Aimee Doherty', 'Natalie Rebenkoff', 'Gary Tanguay', 'Georgia Lyman', 'Patricia DeHaney', 'Ben Sidell', 'Therese Plaehn', 'Omar Ghonim', ""Jody O'Neil"", 'Meghan Leathers', 'Ashleigh Banfield', 'Sarah Silverman', 'Richard Snee', 'Darryl Wooten', 'Danielle Waxman', 'Jeffrey Smith', 'Jon Glaser', 'Dorothy Dwyer', 'Odis Spencer', 'André Silva', 'Zach Holmes', 'Sarah Nolen', 'Alvin Keith', 'Alaina Pinto', 'Lizzie Short', 'Juri Love', 'Sujoy De', 'Brahms Guignard', 'Sergei Bushmanov', 'Lewis D. Wheeler', 'Steve Gagliastro', 'David J. Curtis', 'Kevin Craig West', 'Alison Weller', 'Rob Lévesque', 'Sam Zephir', 'Dee Nelson', 'Beau Allen', 'Rebecca Gibel', 'Brian Faherty', 'Celeste Oliva', 'Amanda Cass', 'Roman Mitichyan', 'Paul Marini', 'Alex Huynh', 'Michael Jibrin', 'Bill Mootos', 'Patti Tippo', 'Allyn Burrows', 'Tori Davis Lawlor', 'Joy Lang', 'June Holmes', 'Graham Holmes', 'Jacob Sanditen', 'Anthony Marrese', 'Chris Evans', 'Caroline Bergwall', 'Anania Williams', 'Nate Richman', 'Wes Johnson', 'John Bucy', 'Patrick Gover', 'Conrad Perry', 'Matt Rouillard', 'Christopher Deschenes', 'J.P. Aaron', 'Daniela August', 'Nicholai Senat', 'Alexandra Zilch', 'Jonathan Kobs', 'Bianca de la Garza', 'Caitlin Ishibashi', 'Claire Davis', 'Elder Isaiah Perez', 'Coran Spardakis Henley', 'Lance Norris', 'Ralph M. Studley', 'Frank Ridley', 'Andrew Haserlat', 'Jayne McLendon', 'Ishaan Khattar', 'Khaldoun Rajeh', 'Sheren Rajeh', 'Khaled Rajeh', 'Kareem Rajeh', 'Ahmad Rajeh', 'Adila Rajeh', 'J.T. Turner', 'Ed Peed', 'Clara Kovacic']",3.01,2.0,"['Science Fiction', 'Comedy', 'Drama']",138,['USA'],English,['English'],['Hyperobject Industries'],2082482,134035,424876,1200,20971,55970,42693,167517,150218,386903,243660,268137,49100,78350,1463519,https://letterboxd.com/film/dont-look-up-2021/
Anne+: The Film,2021,Valerie Bisscheroux,"['Hanna van Vliet', 'Jouman Fattal', 'Thorn Roos de Vries', 'Eline van Gils', 'Jesse Mensah', 'Jade Olieberg', 'Huib Cluistra', 'Amy van der Weerden', 'Ayla Satijn', 'Jacqueline Blom', 'Hein van der Heijden', 'Romana Vrede', 'Anne-Chris Schulting', 'Georgina Verbaan', 'Anna Drijver', 'Hadewych Minis', 'Sophie Höppener', 'Martin Schwab', 'Kirsten Mulder']",3.02,3.5,"['Drama', 'Romance']",94,['Netherlands'],Dutch,['Dutch'],"['Millstreet Films', 'BNNVARA']",8241,1851,1291,13,86,164,182,616,757,1661,965,925,165,331,5852,https://letterboxd.com/film/anne-the-film/
Dune,2021,Denis Villeneuve,"['Timothée Chalamet', 'Rebecca Ferguson', 'Oscar Isaac', 'Jason Momoa', 'Josh Brolin', 'Stellan Skarsgård', 'Stephen McKinley Henderson', 'Javier Bardem', 'Sharon Duncan-Brewster', 'Chang Chen', 'Dave Bautista', 'David Dastmalchian', 'Zendaya', 'Charlotte Rampling', 'Babs Olusanmokun', 'Benjamin Clémentine', 'Souad Faress', 'Golda Rosheuvel', 'Roger Yuan', 'Seun Shote', 'Neil Bell', 'Oliver Ryan', 'Stephen Collins', 'Charlie Rawes', 'Richard Carter', 'Benjamin Dilloway', 'Elmi Rashid Elmi', 'Tachia Newall', 'Gloria Obianyo', 'Fehinti Balogun', 'Dora Kápolnai-Schvab', 'Joelle', 'Jimmy Walker', 'Paul Bullion', 'Milena Sidorova', 'János Timkó', 'Jean Gilpin', 'Marianne Faithfull', 'Ellen Dubin']",3.9,4.0,"['Science Fiction', 'Adventure']",155,['USA'],English,"['English', 'Chinese']",['Legendary Pictures'],2783331,330908,1035540,22000,7688,22191,10999,67289,58400,258558,287008,709817,337581,390777,2150308,https://letterboxd.com/film/dune-2021/
I Care a Lot,2020,J Blakeson,"['Rosamund Pike', 'Peter Dinklage', 'Eiza González', 'Dianne Wiest', 'Chris Messina', 'Isiah Whitlock Jr.', 'Macon Blair', 'Alicia Witt', 'Damian Young', 'Nicholas Logan', 'Liz Eng', 'Georgia Lyman', 'Moira Driscoll', 'Gary Tanguay', 'Lizzie Short', 'Kevin McCormick', 'Michael Malvesti', 'Ava Gaudet', 'Celeste Oliva', 'Chris Everett', 'Danny Schoch', 'Evelyn Howe', 'Kevin Fennessy', 'Ralph Ayala', 'Jose Guns Alves', 'Anthony Hoang', 'Roger Dillingham Jr.', 'Chad Knorr', 'Kiara Pichardo']",3.11,5.0,"['Drama', 'Crime', 'Comedy', 'Thriller']",119,"['UK', 'USA']",English,['English'],"['STXfilms', 'Black Bear Pictures', 'Crimple Beck']",420422,45452,72719,383,4445,8802,7910,27282,31737,78283,59995,55207,10724,15453,299838,https://letterboxd.com/film/i-care-a-lot/
Ammonite,2020,Francis Lee,"['Kate Winslet', 'Saoirse Ronan', 'Gemma Jones', 'James McArdle', 'Alec Secăreanu', 'Fiona Shaw', 'Sarah White', 'Liam Thomas', 'Sam Parks', 'Claire Rushbrook', 'Nick Pearse', 'Victoria Elliott', 'Beatrice Curnew', 'Susie Baxter', 'Gethin Alderman', 'Robert Purdy', 'Max Dowler', 'Paul Dodds', 'John Mackay', 'Mladen Petrov', 'Wendy Nottingham', 'David Juritz', 'Ben Hancox', 'James Boyd', 'Peter Gregson', 'Michael Hennessy', 'Harvey Scrimshaw']",3.02,4.5,"['Drama', 'Romance']",112,['UK'],English,['English'],['See-Saw Films'],95990,25135,16895,299,662,1677,2022,8281,10047,19756,12231,10925,2364,4303,72268,https://letterboxd.com/film/ammonite/
The Half of It,2020,Alice Wu,"['Leah Lewis', 'Daniel Diemer', 'Alexxis Lemire', 'Enrique Murciano', 'Wolfgang Novogratz', 'Catherine Curtin', 'Becky Ann Baker', 'Collin Chou', 'MacIntyre Dixon', 'Alec Tincher', 'Bonnie Flannery', 'Tyler Crozier', 'Spencer Wawak', 'Patrick T. Johnson', 'Gabi Samels', 'Haley Murphy', 'Patrick Noonan', 'Dean Tierney', 'Cronin Cullen', 'Kathryn Ainsley Grant', 'Billy Thomas Myott', 'Matt Meinsen', 'Joe Lanza', 'Emma Diner', 'Alexandre Bagot', 'Logan Riley Bruner', 'Abigail Donaghy', 'Lucas Kane', 'Joan Jaffe']",3.23,3.5,"['Romance', 'Comedy', 'Drama']",104,['USA'],English,"['English', 'Chinese', 'French', 'Hindi', 'Spanish']",['Likely Story'],280474,48520,61992,1600,1702,3760,3738,13461,16722,46474,37093,38181,9362,16115,186608,https://letterboxd.com/film/the-half-of-it/
Shiva Baby,2020,Emma Seligman,"['Rachel Sennott', 'Molly Gordon', 'Polly Draper', 'Danny Deferrari', 'Fred Melamed', 'Dianna Agron', 'Glynis Bell', 'Sondra James', 'Deborah Offner', 'Rita Gardner', 'Jackie Hoffman', 'Vivien Landau', 'Cilda Shaur', 'Richard Brundage', 'Noemie Zysermann', 'Ted Seligman', 'Edgar Harmanci', 'Robin Wesley-Peck', 'Ariel Eliaz']",3.86,5.0,"['Comedy', 'Drama']",78,['USA'],English,"['English', 'Hebrew (modern)']","['Neon Heart Productions', 'Dimbo Pictures', ""It Doesn't Suck Productions"", 'Bad Mensch Productions', 'Thick Media', 'Irving Harvey']",493386,108463,171517,5400,807,1821,1730,7377,10401,46009,76936,146893,55850,48974,396798,https://letterboxd.com/film/shiva-baby-2020/
Little Women,2019,Greta Gerwig,"['Saoirse Ronan', 'Florence Pugh', 'Emma Watson', 'Eliza Scanlen', 'Laura Dern', 'Timothée Chalamet', 'Meryl Streep', 'Tracy Letts', 'Bob Odenkirk', 'James Norton', 'Louis Garrel', 'Jayne Houdyshell', 'Chris Cooper', 'Rafael Silva', 'Mason Alban', 'Emily Edström', 'Maryann Plunkett', 'Hadley Robinson', 'Lonnie Farmer', 'Charlotte Kinder', 'Ana Cruz Kayne', 'Edgar Damatian', 'Erin Rose', 'Lizzie Short', 'Dash Barber', 'Edward Fletcher', 'Sasha Frolova', 'David J. Curtis', 'Abby Quinn', 'Harper Pilat', 'Eowyn Young', 'Lucy Austin', 'Bill Mootos', 'Lewis D. Wheeler', 'Jen Nikolaisen', 'Jonathon Acorn', 'Lilly Englert', 'J.M. Davis', 'Tom Kemp', 'Anthony Estrella', 'Adrianne Krstansky', 'Sophia Gialloreto', 'Lily Gavin', 'Finola Weller Baldet', 'Flannery Gregg', 'Tony Tucker', 'Joanne Caidor', 'Rosario Guillen', 'Lily Peterson', 'Jared Reinfeldt', 'Amber Rothberg']",4.14,5.0,"['Romance', 'Drama']",135,['USA'],English,"['English', 'French']","['Columbia Pictures', 'Regency Enterprises', 'Pascal Pictures']",1996731,347498,899860,96000,1887,5629,3520,22982,21671,127450,132482,392651,195464,513337,1417073,https://letterboxd.com/film/little-women-2019/
Joker,2019,Todd Phillips,"['Joaquin Phoenix', 'Robert De Niro', 'Zazie Beetz', 'Frances Conroy', 'Brett Cullen', 'Shea Whigham', 'Bill Camp', 'Glenn Fleshler', 'Leigh Gill', 'Josh Pais', 'Rocco Luna', 'Marc Maron', 'Sondra James', 'Murphy Guyer', 'Douglas Hodge', 'Dante Pereira-Olson', 'Carrie Louise Putrello', 'Sharon Washington', 'Hannah Gross', 'Frank Wood', 'Brian Tyree Henry', 'April Grace', 'Mick Szal', 'Carl Lundstedt', 'Michael Benz', 'Ben Warheit', 'Gary Gulman', 'Sam Morril', 'Chris Redd', 'Mandela Bellamy', 'Demetrius Dotson II', 'Greer Barnes', 'Ray Iannicelli', 'Bryan Callen', 'Peter Hans Benson', 'Vito Gerbino', 'Adam Quezada', 'Xavyer Ureña', 'Evan Rosado', 'Damian Emmanuel', 'Mike Troll', 'Jane Fergus', 'David Gibson', 'Tony D. Head', 'Jeff McCarthy', 'Kim Brockington', 'Troy Roberts', 'Lou Young', 'Michael-Scott Druckenmiller', 'Craig Austin', 'John Cenatiempo', 'Danny Schoch', 'Keith Buterbaugh', 'James Ciccone', 'Rich Campbell', 'Roger Squitero', 'Steven Elson', 'Graham Mabry', 'John Alldred', 'Alonzo Wright', 'Jack Wilkins', 'Richard Baratta', 'Mary Kate Malat', 'Adrienne Acevedo Lovette', 'Justin Theroux', 'Alissa Bourne', 'Jamaal Burcher', 'John Cashin', 'Jason John Cicalese', 'Brendan Patrick Connor', 'Blaise Corrigan', 'Dennis Jay Funny', 'James P. Harkins', 'Joseph Hernandez', 'Ben Heyman', 'Graham Maby', 'Jesse Schratz', 'Isabella Ferreira', 'Shade Rupe']",3.84,5.0,"['Crime', 'Drama', 'Thriller']",122,"['Canada', 'USA']",English,['English'],"['Warner Bros. Pictures', 'Joint Effort', 'Village Roadshow Pictures', 'Bron Studios', 'DC Films']",3741271,288019,1527850,23000,9895,25757,16521,87577,74654,338450,310103,834159,301883,605359,2604358,https://letterboxd.com/film/joker-2019/
Parasite,2019,Bong Joon-ho,"['Song Kang-ho', 'Lee Sun-kyun', 'Cho Yeo-jeong', 'Choi Woo-shik', 'Park So-dam', 'Lee Jung-eun', 'Jang Hye-jin', 'Park Myung-hoon', 'Jung Ji-so', 'Jung Hyeon-jun', 'Park Keun-rok', 'Jung Yi-seo', 'Cho Jae-myung', 'Jeong Ik-han', 'Kim Kyu-baek', 'Ahn Seong-bong', 'Yoon Young-woo', 'Park Jae-wook', 'Lee Dong-yong', 'Jeon Eun-mi', 'Kim Geon', 'Lee Joo-hyung', 'Lee Ji-hye', 'Kim Bo-ryeong', 'Park Hye-sook', 'Baek Seung-hwan', 'Riccardo Ferraresso', 'Ko Kwan-jae', 'Lee Si-hoon', 'Seo Bok-hyeon', 'Shim Soo-mi', 'Yoon Hye-ree', 'Andreas Fronk', 'Anna Elisabeth Rihlmann', 'Rosie Peralta', 'Shin Seung-min', 'Park Seo-jun', 'Kwak Sin-ae', 'Choi Jeong-hyun', 'Kim Ha-eon', 'Lee Eun-hee', 'Choi Ji-won', 'Park Jae-wan', 'Hwang In-gyeong', 'Kim Yeong-jo', 'Kim Jung-woo', 'Lee Sang-kyung', 'Lee Si-hoo', 'Ahn Jin-sang', 'Joost Klein']",4.56,nan,"['Comedy', 'Thriller', 'Drama']",133,['South Korea'],Korean,"['Korean', 'English', 'German']",['Barunson E&A'],3743698,514930,2146843,88000,2471,5452,2272,15139,12643,91124,106023,568061,471180,1526053,2800418,https://letterboxd.com/film/parasite-2019/
Portrait of a Lady on Fire,2019,Céline Sciamma,"['Noémie Merlant', 'Adèle Haenel', 'Luàna Bajrami', 'Valeria Golino', 'Christel Baras', 'Armande Boulanger', 'Guy Delamarche', 'Clément Bouyssou', 'Michèle Clément', 'Cécile Morel']",4.43,5.0,"['Drama', 'Romance']",120,['France'],French,"['French', 'Italian']","['Lilies Films', 'ARTE France Cinéma', 'Hold Up Films']",817493,267173,387256,48000,1065,2056,1523,6697,6969,30528,40879,134665,115520,283592,623494,https://letterboxd.com/film/portrait-of-a-lady-on-fire/
Elisa & Marcela,2019,Isabel Coixet,"['Natalia de Molina', 'Greta Fernández', 'Sara Casasnovas', 'Tamar Novas', 'María Pujalte', 'Francesc Orella', 'Manolo Solo', 'Kelly Lua', 'Manuel Lourenzo', 'Jorge Suquet', 'Ana Santos', 'Lluís Homar', 'Mariana Carballal', 'Luisa Merelas', 'Roberto Leal', 'Amparo Moreno', 'Vanesa Aguilar', 'Lucas Pinheiro', 'Marcos Javier Fernández Eimil', 'Tania Lamata', 'Covadonga Berdiñas', 'Elena Seijo', 'Joana Oliveira']",3.49,5.0,"['Romance', 'Drama']",118,['Spain'],Spanish,['Spanish'],"['AGADIC', 'ICEC', 'Rodar y Rodar', 'TV3', 'Zenit Television', 'Zenit', 'Lanube Películas']",36604,11093,9237,315,125,319,328,1260,1442,4852,4639,6758,1753,4162,25638,https://letterboxd.com/film/elisa-marcela/
Black Panther,2018,Ryan Coogler,"['Chadwick Boseman', 'Michael B. Jordan', ""Lupita Nyong'o"", 'Danai Gurira', 'Martin Freeman', 'Daniel Kaluuya', 'Letitia Wright', 'Winston Duke', 'Sterling K. Brown', 'Florence Kasumba', 'John Kani', 'Angela Bassett', 'Forest Whitaker', 'Andy Serkis', 'David S. Lee', 'Nabiyah Be', 'Isaach De Bankolé', 'Connie Chiume', 'Dorothy Steel', 'Danny Sapani', 'Sydelle Noel', 'Marija Abney', 'Zola Williams', 'Janeshia Adams-Ginyard', 'Maria Hippolyte', 'Marie Mouroum', 'Jénel Stevens', 'Sope Aluko', 'Stan Lee', 'Atandwa Kani', 'Ashton Tyler', 'Denzel Whitaker', 'Shaunette Renée Wilson', 'Christine Hollingsworth', 'Lucy Hockings', 'Bambadjan Bamba', 'Roland Kilumbu', 'Jermaine Holt', 'Dominique Elijah Smith', 'Jalil Jay Lynch', 'Vaughndio Forbes', 'Sasha Morfaw', 'Alexis Louder', 'Francesca Faridany', 'Mark Ashworth', 'Seth Carr', 'Jeremy Sample', 'Chad Crumley', 'Alexis Rhee', 'Danny Chung', 'Liz Elkins Newcomer', 'Tony Sears', 'Alex C. Riley Hughes', 'Clifford Gay', 'Shamel Heath', ""De'Jon Watts"", 'Alex R. Hibbert', 'Tristan Timmons', 'Tyler Timmons', 'Abraham Clinkscales', 'Thabo Moropane', 'Zani Mogodi', 'Zenzi Williams', 'Trevor Noah', 'T. Love', 'Sebastian Stan']",3.64,nan,"['Adventure', 'Science Fiction', 'Action']",135,['USA'],English,"['English', 'Korean', 'Swahili', 'Xhosa']",['Marvel Studios'],2800367,277916,890542,4000,5699,16217,11694,69045,73694,314295,258257,504417,126367,297024,1676709,https://letterboxd.com/film/black-panther/
Blade Runner 2049,2017,Denis Villeneuve,"['Ryan Gosling', 'Harrison Ford', 'Sylvia Hoeks', 'Ana de Armas', 'Mackenzie Davis', 'Jared Leto', 'Robin Wright', 'Carla Juri', 'Dave Bautista', 'Hiam Abbass', 'Lennie James', 'David Dastmalchian', 'Sean Young', 'Edward James Olmos', 'Barkhad Abdi', 'Wood Harris', 'Tómas Lemarquis', 'Sallie Harmsen', 'Loren Peta', 'Mark Arnold', 'Krista Kosonen', 'Elarica Johnson', 'David Benson', 'Kingston Taylor', 'Ben Thompson', 'Ellie Wright', 'Suzie Kennedy', 'Stephen Triffitt', 'Vilma Szécsi', 'Kincsö Sánta', 'André Lukács Molnár', 'István Göz', 'Pál Nyári', 'Joshua Tersoo Allagh', 'Zoltán Béres', 'Konstantin Pál', 'Ferenc Györgyi', 'Samuel Brown', 'Mary Lukasiewicz', 'Deniz Altunay', 'Frank Sinatra']",4.12,nan,"['Science Fiction', 'Drama']",164,"['Canada', 'UK', 'USA']",English,"['English', 'Finnish', 'Hungarian', 'Japanese', 'Russian', 'Somali', 'Spanish']","['Alcon Entertainment', 'Columbia Pictures', 'Scott Free Productions', 'Bud Yorkin Productions', 'Torridon Films', '16:14 Entertainment', 'Thunderbird Entertainment']",1741752,287528,663373,43000,2582,8292,4643,29405,25421,120463,132480,353841,222812,325319,1225258,https://letterboxd.com/film/blade-runner-2049/
Disobedience,2017,Sebastián Lelio,"['Rachel Weisz', 'Rachel McAdams', 'Alessandro Nivola', 'Allan Corduner', 'Anton Lesser', 'Nicholas Woodeson', 'David Fleeshman', 'Steve Furst', 'Trevor Allan Davies', 'Sophia Brown', 'Anthony Dowding', 'Bernice Stegers', 'Clara Francis', 'Lia Cohen', 'Cara Horgan', 'Orlando Brooke', 'Dominic Applewhite', 'Omri Rose', 'Liza Sadovy', 'Ruth Lass', 'Alexis Zegerman', 'Benjamin Tuttlebee', 'Mark Stobbart', 'Rose Walker', 'Caroline Gruber', 'Eliot Alderman', 'Adrian Alexander', 'Joseph Thompson', 'Gabriel Gottlieb', 'Aaron Isaac', 'Julian Sander', 'Jason Blair', 'Moshe Caplan', 'Eliot Berman', 'Adam Lazarus', 'Dave Simon']",3.49,5.0,"['Drama', 'Romance']",114,"['USA', 'UK', 'Ireland']",English,"['English', 'Hebrew (modern)']","['Braven Films', 'Element Pictures', 'Film4 Productions', 'LC6 Productions']",121695,30332,28702,635,316,844,870,3965,5320,17988,20108,22271,5889,7832,85403,https://letterboxd.com/film/disobedience-2017/
Lady Bird,2017,Greta Gerwig,"['Saoirse Ronan', 'Laurie Metcalf', 'Tracy Letts', 'Beanie Feldstein', 'Lucas Hedges', 'Timothée Chalamet', 'Stephen McKinley Henderson', 'Jordan Rodrigues', 'Marielle Scott', 'Lois Smith', 'Odeya Rush', 'Jake McDorman', 'John Karna', 'Bayne Gibby', 'Laura Marano', 'Marietta DePrima', 'Daniel Zovatto', 'Kristen Cloke', 'Andy Buckley', 'Paul Keller', 'Kathryn Newton', 'Myra Turley', 'Bob Stephenson', 'Abhimanyu Katyal', 'Chris Witaske', 'Ben Konigsberg', 'Gurpreet Gill', 'Richard Jin Namkung', ""Joan Patricia O'Neil"", 'Robert Figueroa', 'Carla Valentine', 'Roman Arabia', 'Monique Edwards', 'Matthew Maher', 'Anita Kalathara', 'Debra Miller', 'Georgia Leva', 'Derek Butler', 'London Thor', ""Shaelan O'Connor"", 'Christina Offley', 'Sabrina Schloss', 'Connor Mickiewicz', 'Erik Daniells', 'Cynthia Cales', 'Giselle Grams', 'Ithamar Enriquez', 'Luisa Lee', 'Danielle Macdonald', 'Adam Brock', 'Bonnie Jean Shelton', 'Rebecca Light', 'Janet Song']",3.85,nan,"['Comedy', 'Drama']",94,['USA'],English,['English'],"['IAC Films', 'Scott Rudin Productions', 'Entertainment 360']",2524553,353346,1024702,57000,5630,16589,9041,61579,48398,261660,221905,533829,185881,399642,1744154,https://letterboxd.com/film/lady-bird/
Call Me by Your Name,2017,Luca Guadagnino,"['Armie Hammer', 'Timothée Chalamet', 'Michael Stuhlbarg', 'Amira Casar', 'Esther Garrel', 'Victoire du Bois', 'Vanda Capriolo', 'Antonio Rimoldi', 'Elena Bucci', 'Marco Sgrosso', 'André Aciman', 'Peter Spears']",3.86,nan,"['Romance', 'Drama']",132,"['Brazil', 'France', 'Italy', 'USA']",English,"['English', 'French', 'Italian']","['La Cinéfacture', 'Frenesy Film', 'M.Y.R.A. Entertainment', 'RT Features', ""Water's End Productions""]",2093863,286589,783267,62000,13675,24471,12285,60825,46161,185971,153715,372250,157357,385861,1412571,https://letterboxd.com/film/call-me-by-your-name/
Novitiate,2017,Margaret Betts,"['Margaret Qualley', 'Melissa Leo', 'Julianne Nicholson', 'Dianna Agron', 'Lisa Stewart', 'Morgan Saylor', 'Liana Liberato', 'Rebecca Dayan', 'Eline Powell', 'Chelsea Lopez', 'Maddie Hasson', ""Denis O'Hare"", 'Chris Zylka', 'Alyssa Brindley', 'Hannah Renèe Jackson', 'Marco St. John', 'Eliza Stella Mason', 'Bill Shick', 'Danny Vinson', 'Angela Fox', 'Neva Howell', 'Sasha Mason', 'Peggy Walton-Walker', 'Ashley Bell', 'Rosemary Brown', 'Gabe Beutel-Gunn', 'Marshall Chapman', 'Lacy Hartselle', 'Kamryn Boyd', 'Adele Marie Pomerenke', 'Darla Pelton-Perez', 'Cecilia Wyle', 'Joseph Wilson', 'Anna Swiney', 'Sydney Hoover', 'Kalista Dwyer', 'Julia Leigh', 'Laurie Pallotta', 'Kaitlyn Williams', 'Melissa Nyenhuis', 'Rachel Mae Moore', 'Jeromy Nichols', 'Abram Knott', 'Gabriela Contaldo', 'Nettie Kraft', 'Juliana Dougherty', 'Sydney Harris', 'Jordan Price', 'Kirk H. Andersen', 'Ashley Hargrove', 'Monty Powers', 'Jeffrey Wilkerson', 'Courtney Cook', 'Kerry Graul', 'Jenny Revord', 'Bryan Fields', 'David Alan Spodeck', 'Kurstan Buck', 'Tallie Fausnaught', 'Robert Happy Allen', 'Shelton Tison', 'Carter Stewart', 'Kadence Riggs', 'Valeigh Rhiannon Alford', 'Kylie Knott', 'Abby Harkins', 'Jasmin Maya Larsen', 'Stephanie Heuer', 'Debbie Swierk', 'Tonya Webb', 'Shelby Johnson', 'Emma Barberi', 'Shayna-Raye Funderburk', 'Emma Grace Peper', 'Victoria Bradford', 'Phillip Trammel']",3.6,3.0,['Drama'],123,['USA'],English,"['English', 'Latin']",['Maven Screen Media'],18270,9590,5213,210,43,107,114,455,702,2500,2905,3966,1316,1231,13339,https://letterboxd.com/film/novitiate/
Arrival,2016,Denis Villeneuve,"['Amy Adams', 'Jeremy Renner', 'Forest Whitaker', 'Michael Stuhlbarg', 'Tzi Ma', ""Mark O'Brien"", 'Julia Scarlett Dan', 'Abigail Pniowsky', 'Jadyn Malone', 'Carmela Nozza Guizzo', 'Andrew Shaver', 'Shawn Campbell', 'Larry Day', 'Pat Kiely', 'Frank Schorpion', 'Lucas Chartier-Dessert', 'Lucy Van Oldenbarneveld', 'Sonia Vigneault', 'Mark Camacho', 'Sabrina Reeves', 'Russell Yuen', 'Julian Casey', 'Tony Robinow', 'Anana Rydvald', 'Ruth Chiang', 'Sergiy Marchenko', 'Brittany Teo', 'Christian Jadah', 'Joe Cobden', 'Lorne Brass', 'Genevieve Sirois', 'Abdul Ayoola', 'Bineyam Girma', 'Abdelghafour Elaaziz', 'Daniel Esteban', 'Hal Roberts', 'Matthew Willson', 'Victor Andres Trelles Turgeon', 'Michael Nangreaves', 'Robert D. Morais', 'Mustafa Haidari', 'Albert Kwan', 'Reda Guerinik', 'Adrien Benn', 'Sasha Samar', 'Kathleen Stavert', 'Kattia Thony', 'Leisa Reid', 'Brent Skagford', 'Gurdeep Ahluwalia', 'Brian Dunstan', 'Dan Duran', 'Lori Graham', 'Orla Johannes', 'Sangita Patel', 'Tammie Sutherland', 'Max Walker', 'John Sanford Moore', 'Camille Ross', 'Ola Sturik', 'Karen Belfo', 'Chloë Bellande', 'Philippe Hartmann', 'Laurean Adrian Parau', 'Nathaly Thibault', 'Leslie Baker', 'Alex M. Yeuh', 'Dave Campbell', 'Alexander Da Mota', 'Akul Dang', 'Frank Fiola']",4.12,nan,"['Science Fiction', 'Mystery', 'Drama']",116,['USA'],English,"['English', 'Chinese', 'Russian']","['FilmNation Entertainment', 'Lava Bear', '21 Laps Entertainment']",2034125,270047,760637,40000,2241,7824,4246,31897,26286,144486,149022,424547,235067,360978,1386594,https://letterboxd.com/film/arrival-2016/
Carol,2015,Todd Haynes,"['Rooney Mara', 'Cate Blanchett', 'Kyle Chandler', 'Jake Lacy', 'Sarah Paulson', 'John Magaro', 'Cory Michael Smith', 'Kevin Crowley', 'Nik Pajic', 'Carrie Brownstein', 'Trent Rowland', 'Sadie Heim', 'Kk Heim', 'Amy Warner', 'Michael Haney', 'Wendy Lardin', 'Pamela Evans Haynes', 'Greg Violand', 'Michael Joseph Thomas Ward', 'Kay Geiger', 'Christine Dye', 'Deb G. Girdler', 'Douglas Scott Sorenson', 'Ken Strunk', 'Mike Dennis', 'Ann Reskin', 'Annie Kalahurka', 'Linnea Bond', 'Steven Andrews', 'Tanya Smith', 'Ryan Wesley Gilreath', 'Chuck Gillespie', 'Jeremy Parker', 'Giedre Bond', 'Taylor Marie Frey', 'Liberty Fraysure', 'Robert J. Ashe', 'Anita Farmer Bergman', 'Colin Botts', 'Chelsea Carnder', 'Gary Chinn']",4.01,5.0,"['Romance', 'Drama']",118,"['UK', 'USA']",English,['English'],"['Killer Films', 'Number 9 Films', 'Film4 Productions']",550674,137059,189280,13000,629,1789,1384,7777,9218,41349,50465,113121,50091,92391,368214,https://letterboxd.com/film/carol-2015/
The Lobster,2015,Yorgos Lanthimos,"['Colin Farrell', 'Rachel Weisz', 'Olivia Colman', 'Léa Seydoux', 'Michael Smiley', 'Ariane Labed', 'John C. Reilly', 'Ben Whishaw', 'Angeliki Papoulia', 'Jessica Barden', ""Emma O'Shea"", 'Ashley Jensen', 'Roger Ashton-Griffiths', 'Anthony Dougall', 'Anthony Moriarty', 'Sean Duggan', 'Imelda Nagle Ryan', 'Roland Ferrandi', 'James Finnegan', 'Rosanna Hoult', 'Kathy Kelly', 'Kevin McCormack', 'Jacqueline Abrahams', 'Garry Mountaine', 'Ewen MacIntosh', 'Patrick Malone', 'Sandra Hayden Mason', 'Judi King Murphy', 'Laoise Murphy', 'Nancy Onu', 'Chris Threader', 'Ishmael Moalosi', ""Matthew O'Brien"", 'Robert Heaney', 'Cian Boylan', 'Clive Dev', 'Degnan Geraghty', 'Heidi Ellen Love', 'Dolores Marren', 'Mark McCormack', 'Stephen Ryan']",3.79,nan,"['Drama', 'Comedy', 'Romance']",119,"['France', 'Greece', 'Ireland', 'Netherlands', 'UK']",English,"['English', 'French', 'Greek (modern)']","['Scarlet Films', 'Haut et Court', 'Eurimages', 'Lemming Film', 'Element Pictures', 'Nederlands Fonds voor de Film', 'Greek Film Centre', 'Faliro House Productions', 'Limp', 'Film4 Productions', 'Protagonist Pictures']",1026344,165878,301009,9700,3841,9226,5824,25061,26610,97657,128247,238260,89993,84715,709434,https://letterboxd.com/film/the-lobster/
Mad Max: Fury Road,2015,George Miller,"['Tom Hardy', 'Charlize Theron', 'Nicholas Hoult', 'Hugh Keays-Byrne', 'Josh Helman', 'Nathan Jones', 'Zoë Kravitz', 'Rosie Huntington-Whiteley', 'Riley Keough', 'Abbey Lee', 'Courtney Eaton', 'John Howard', 'Richard Carter', 'Iota', 'Angus Sampson', 'Jennifer Hagan', 'Megan Gale', 'Melissa Jaffer', 'Melita Jurišić', 'Gillian Jones', 'Joy Smithers', 'Antoinette Kellerman', 'Christina Koch', 'Jon Iles', 'Quentin Kenihan', 'Coco Jack Gillies', 'Chris Patton', 'Stephen Dunlevy', 'Richard Norton', 'Vincent Roxburgh', 'John Walton', 'Ben Smith-Petersen', 'Russ McCarroll', 'Judd Wild', 'Elizabeth Cunico', 'Greg Van Borssum', 'Robert Jones', 'Sebastian Dickins', 'Darren Mitchell', 'Crusoe Kurddal', 'Shyan Tonga', 'Cass Cumerford', 'Albert Lee', 'Ripley Voeten', 'Riley Paton', 'Maycn Van Borssum', 'Hunter Stratton Boland', 'Nathan Jenkins', 'Fletcher Gill', 'Whiley Toll', 'Ferdinand Hengombe', 'Gadaffi Davsab', 'Noddy Alfred', 'Jackson Hengombe', 'Christian Fane', 'Callum Gallagher', 'Abel Hofflin', 'Lee Perry', 'Hiroshi Kasuga']",4.16,nan,"['Adventure', 'Science Fiction', 'Action']",121,"['Australia', 'USA']",English,['English'],"['Warner Bros. Pictures', 'Village Roadshow Pictures', 'Kennedy Miller Mitchell', 'Kennedy Miller Productions']",1871997,248109,701764,26000,3121,9733,4555,28913,22245,119204,118117,348338,195152,365690,1215068,https://letterboxd.com/film/mad-max-fury-road/
Interstellar,2014,Christopher Nolan,"['Matthew McConaughey', 'Anne Hathaway', 'Jessica Chastain', 'Michael Caine', 'Bill Irwin', 'Ellen Burstyn', 'Mackenzie Foy', 'Casey Affleck', 'John Lithgow', 'Wes Bentley', 'David Gyasi', 'Matt Damon', 'Topher Grace', 'Timothée Chalamet', 'David Oyelowo', 'William Devane', 'Josh Stewart', 'Collette Wolfe', 'Leah Cairns', 'Russ Fega', 'Lena Georgas', 'Jeff Hephner', 'Elyes Gabel', 'Brooke Smith', 'Liam Dickinson', 'Francis X. McCarthy', 'Andrew Borba', 'Flora Nolan', 'Griffen Fraser', 'William Patrick Brown', 'Kristian Van der Heyden', 'Joseph Oliveira', 'Ryan Irving', 'Alexander Michael Helisek', 'Benjamin Hardy']",4.34,5.0,"['Science Fiction', 'Drama', 'Adventure']",169,"['UK', 'USA']",English,['English'],"['Legendary Pictures', 'Syncopy', 'Lynda Obst Productions']",3429631,438213,1588866,190000,4080,10519,5302,35844,28388,156708,152510,513866,347581,1142464,2397262,https://letterboxd.com/film/interstellar/
Gone Girl,2014,David Fincher,"['Ben Affleck', 'Rosamund Pike', 'Neil Patrick Harris', 'Tyler Perry', 'Carrie Coon', 'Kim Dickens', 'Patrick Fugit', 'David Clennon', 'Lisa Banes', 'Missi Pyle', 'Emily Ratajkowski', 'Casey Wilson', 'Lola Kirke', 'Boyd Holbrook', 'Sela Ward', 'Lee Norris', 'Jamie McShane', 'Leonard Kelly-Young', 'Kathleen Rose Perkins', 'Pete Housman', 'Lynn Adrianna', 'Mark Atteberry', 'Darin Cooper', 'Kate Campbell', 'Brett Leigh', 'Antonio St. James', 'Lauren Glazier', ""Julia Prud'homme"", 'Cooper Thornton', 'Casey Ruggieri', 'Cyd Strittmatter', 'Ashley Didion', 'Lexis Nutt', 'L.A. Williams', 'Blake Sheldon', 'Sean Guse', 'Ricky Wood', 'Fred Cross', 'Scott Takeda', 'Donna Rusch', 'Kathy Sweeney-Meadows', 'Mark T Anderson', 'Scoot McNairy', 'Christina Alex', 'Samuel Baca', 'Bill Blair', 'Thomas R. Baker', 'Gregoer Boru', 'Will C.', 'Caroline Clements', 'Nancy DeMars', 'Davina Joy', 'Michael James Kelly', 'Elester Latham', 'Aaron Massey', 'Orion McCabe', 'Roz McHenry', 'Bryan McKinley', 'Teebone Mitchell', 'Justin Nesbitt', 'Mark Parrish', 'Jaclyn Rose', 'Sahlima', 'Joel Shock', 'Robert Tarpinian', 'Tracy Weisert', 'Michelle Winters', 'Tracy Brotherton', 'Matilde Matteucci', 'Dale Shane', 'Joey Courteau', 'Kyle Hinton']",4.07,nan,"['Drama', 'Thriller', 'Mystery']",149,['USA'],English,['English'],"['20th Century Fox', 'Regency Enterprises']",2567790,303104,965100,37000,2415,7291,4163,31651,27623,182088,191235,591339,266873,438121,1742799,https://letterboxd.com/film/gone-girl/
Her,2013,Spike Jonze,"['Joaquin Phoenix', 'Scarlett Johansson', 'Amy Adams', 'Rooney Mara', 'Chris Pratt', 'Olivia Wilde', 'Matt Letscher', 'Portia Doubleday', 'Spike Jonze', 'Bill Hader', 'Kristen Wiig', 'Artt Butler', 'SoKo', 'Brian Cox', 'Luka Jones', 'Sam Jaeger', 'Pramod Kumar', 'Evelyn Edwards', 'Lil Buck', 'Lynn Adrianna', 'Lisa Renee Pitts', 'Gabe Gomez', 'May Lindstrom', 'David Azar', 'Guy Lewis', 'Melanie Seacat', 'Steve Zissis', 'Dane White', 'Nicole Grother', 'James Ozasky', 'Samantha Sarakanti', 'Gracie Prewitt', 'Claudia Choi', 'Laura Kai Chen', 'Wendy Leon', 'Alia Janine', 'Brian D. Johnson', 'Robert Benard', 'Lisa Cohen', 'Grant Samson']",4.02,nan,"['Science Fiction', 'Drama', 'Romance']",126,['USA'],English,['English'],['Annapurna Pictures'],1971257,256455,730105,33000,4135,11504,5922,36590,29307,153088,155704,421181,189265,315213,1321909,https://letterboxd.com/film/her/
Reaching for the Moon,2013,Bruno Barreto,"['Miranda Otto', 'Glória Pires', 'Tracy Middendorf', 'Treat Williams', 'Marcello Airoldi', 'Lola Kirke', 'Luciana Souza', 'Tânia Costa', 'Marianna Mac Nieven']",3.55,5.0,"['Drama', 'Romance']",118,['Brazil'],Portuguese,"['Portuguese', 'English']","['TeleImage', 'LC Barreto', 'Imagem Filmes', 'Globo Filmes', 'Telecine']",9984,4211,2808,163,33,67,53,268,405,1108,1340,2026,600,1285,7185,https://letterboxd.com/film/reaching-for-the-moon-2013/
Django Unchained,2012,Quentin Tarantino,"['Jamie Foxx', 'Christoph Waltz', 'Leonardo DiCaprio', 'Kerry Washington', 'Samuel L. Jackson', 'Walton Goggins', 'Dennis Christopher', 'James Remar', 'David Steen', 'Dana Gourrier', 'Nichole Galicia', 'Laura Cayouette', 'Ato Essandoh', 'Sammi Rotibi', 'Clay Donahue Fontenot', 'Escalante Lundy', 'Miriam F. Glover', 'Don Johnson', 'Franco Nero', 'James Russo', 'Tom Wopat', 'Don Stroud', 'Amber Tamblyn', 'Bruce Dern', 'M.C. Gainey', 'Cooper Huckabee', 'Doc Duhame', 'Jonah Hill', 'Lee Horsley', 'Zoë Bell', 'Michael Bowen', 'Robert Carradine', 'Jake Garber', 'Ted Neeley', 'James Parks', 'Tom Savini', 'Michael Parks', 'John Jarratt', 'Quentin Tarantino', 'Amari Cheatom', 'Keith Jefferson', 'Marcus Henderson', 'Lil Chuuch', 'Kinetic', 'Louise Stratten', 'Kim Robillard', 'Shana Stein', 'Shannon Hazlett', 'Jack Lucarelli', 'Victoria Thomas', 'Grace Collins', 'Sharon Pierre-Louis', 'Christopher Berry', 'Kim Collins', 'Dane Rhodes', 'J.D. Evermore', 'Rex Linn', 'Michael Bacall', 'Ronan Hice', 'Ned Bellamy', 'Dave Coennen', 'Danièle Watts', 'Jon Eyez', 'Omar J. Dorsey', 'Evan Parke', 'Craig Stark', 'Brian Brown', 'Ritchie Montgomery', 'Nicholas Dashnaw', 'Jarrod Bunch', 'Edrick Browne', 'Kerry Sims', 'Jamal Duff', 'Todd Allen', 'Lewis Smith', 'Keniaryn Mitchell', 'Jakel Marshall', 'Carl Singleton', 'Ashley Toman', 'John McConnell', 'Mark Amos', ""Monica Rene'e Anderson"", 'Marsha Stephanie Blake', 'Catherine Lambert', 'Deborah Ayorinde', 'Takara Clark', 'Kimberley Drummond', 'Tenaj L. Jackson', 'Carl Bailey', 'Ross P. Cook', 'Gregory Allen Gabroy', 'Seth Bailey', 'David G. Baker', 'Richie J. Ladner', 'Glen Warner', 'Kesha Bullard', 'Edward J. Clare', 'Jordon Michael Corbin', 'Mike DeMille', 'Gary Grubbs', 'Justin Hall', 'Sandra Linz', 'Kasey James', 'Skipper Landry', 'Cindy Mah', 'Johnny Otto', 'Belinda Owino', 'Mark Ulano', 'Misty Upham', 'Russ Tamblyn', 'Fatimah Taliah', 'Santana Draper']",4.27,nan,"['Drama', 'Western']",165,['USA'],English,"['English', 'French', 'German']","['The Weinstein Company', 'Columbia Pictures']",2516761,294881,983520,36000,1439,4372,2541,17308,15532,115229,142035,522813,323615,515291,1660175,https://letterboxd.com/film/django-unchained/
The Perks of Being a Wallflower,2012,Stephen Chbosky,"['Logan Lerman', 'Emma Watson', 'Ezra Miller', 'Mae Whitman', 'Kate Walsh', 'Dylan McDermott', 'Melanie Lynskey', 'Nina Dobrev', 'Johnny Simmons', 'Joan Cusack', 'Paul Rudd', 'Nicholas Braun', 'Reece Thompson', 'Patrick de Ledebur', 'Brian Balzerini', 'Tom Kruszewski', 'Julia Garner', 'Tom Savini', 'Emily Marie Callaway', 'Chelsea Zhang', 'Jesse Scheirer', 'Justine Nicole Schaefer', 'Julie Marie Schaefer', 'Leo Miles Farmerie', 'Isabel Muschweck', 'Adam Hagenbuch', 'Erin Wilhelmi', 'Jordan Paley', 'Zane Holtz', 'Timothy Breslin', 'Mark McClain Wilson', 'Atticus Cain', 'Stacy Chbosky', 'Dihlon McManne', 'Laurie Klatscher', 'Landon Pigg', 'Jennifer Enskat', 'William L. Thomas', 'Morgan Wolk', 'Joe Fishel']",3.92,nan,['Drama'],103,['USA'],English,['English'],['Mr. Mudd Production'],2091772,231744,793485,71000,3599,9527,6564,36119,35339,168283,162380,358741,138544,382589,1301685,https://letterboxd.com/film/the-perks-of-being-a-wallflower/
Drive,2011,Nicolas Winding Refn,"['Ryan Gosling', 'Carey Mulligan', 'Bryan Cranston', 'Albert Brooks', 'Oscar Isaac', 'Christina Hendricks', 'Ron Perlman', 'Kaden Leos', 'Jeff Wolfe', 'James Biberi', 'Russ Tamblyn', 'Joe Bucaro III', 'Tiara Parker', 'Tim Trella', 'Jimmy Hart', 'Tina Huang', 'Andy San Dimas', 'John Pyper-Ferguson', 'Craig Baxley Jr', 'Kenny Richards', 'Joe Pingue', 'Dieter Busch', 'Chris Muto', 'Rachel Dik', 'Cesar Garcia', 'Steven Knoll', 'Mara LaFontaine', 'Teonee Thrash', 'Ralph Lawler', 'Rio Ahn', 'Laurene Landon']",3.94,nan,"['Thriller', 'Drama', 'Crime']",100,['USA'],English,['English'],"['FilmDistrict', 'Bold Films', 'Marc Platt Productions', 'OddLot Entertainment', 'Motel Movies', 'Newbridge Film Capital']",1650624,208485,573916,25000,2665,7677,5509,28965,31090,140556,169138,373525,152212,216428,1127765,https://letterboxd.com/film/drive-2011/
Sidewalls,2011,Gustavo Taretto,"['Javier Drolas', 'Pilar López de Ayala', 'Inés Efrón', 'Rafael Ferro', 'Carla Peterson', 'Adrián Navarro', 'Jorge Ernesto Lanata', 'Alan Pauls', 'Romina Paula', 'Miguel Dedovich', 'Miguel Ángel Álvarez']",3.99,5.0,"['Romance', 'Drama']",95,"['Argentina', 'Germany', 'Spain']",Spanish,['Spanish'],"['Eddie Saeta', 'TV3', 'INCAA', 'Rizoma Films', 'Zarlek Producciones', 'Pandora Film']",45950,12457,19134,2500,60,112,170,508,697,2845,4568,10035,4665,8858,32518,https://letterboxd.com/film/sidewalls/
The Social Network,2010,David Fincher,"['Jesse Eisenberg', 'Andrew Garfield', 'Armie Hammer', 'Justin Timberlake', 'Max Minghella', 'Josh Pence', 'Brenda Song', 'Rashida Jones', 'John Getz', 'David Selby', 'Denise Grayson', 'Douglas Urbanski', 'Rooney Mara', 'Bryan Barter', 'Dustin Fitzsimons', 'Joseph Mazzello', 'Patrick Mapel', 'Toby Meuli', 'Alecia Svensen', 'Jami Owen', 'James Dastoli', 'Robert Dastoli', 'Scotty Crowe', 'Jayk Gallagher', 'Marcella Lentz-Pope', 'Trevor Wright', 'Barry Livingston', 'Marybeth Massett', 'Randy Evans', 'Carrie Armstrong', 'Henry Roosevelt', 'Pamela Roylance', 'Brian Palermo', 'Brett Leigh', 'Chris Gouchoe', 'Nicholas Tubbs', 'Kevin Chui', 'Richie Ferris', 'Burke Walton', 'Nguyen Anh Tuan', 'Inbal Amirav', 'Dane Nightingale', 'Stephen Fuller', 'John He', 'Nick Smoke', 'Cali Fredrichs', 'Shelby Young', 'Steve Sires', 'Melise', 'Victor Z. Isaac', 'Abhi Sinha', 'Mark Saul', 'Cedric Sanders', 'Dakota Johnson', 'Nancy Linari', 'Inger Tudor', 'Aaron Sorkin', 'Mariah Bonner', 'Kyle Fain', 'Christopher Khai', 'Emma Fitzpatrick', 'Jeffrey Thomas Border', 'Courtney Arndt', 'Felisha Terrell', 'Zoe De Toledo', 'Simon Barr', 'Alex Leigh', 'Phil Turnham', 'Richie Steele', 'Chris Friend', 'Tom Harvey', 'Alex Olijnyk', 'Ray Poulter', 'Bob Hewitt', 'Dave Lambourn', 'James Padmore', 'Sebastian Kouba', 'Charles Herbert', 'Robin Dowell', 'Nathan Hillyer', 'James Shanklin', 'Alex Reznik', 'John Hayden', 'Oliver Muirhead', 'Shane Adler', 'Amy Ferguson', 'Monique Edwards', 'Cayman Grant', 'Wallace Langham', 'Scott Lawrence', 'Peter Holden', 'Darin Cooper', 'Jared Hillman', 'Caitlin Gerard', 'Lacey Beeman', 'Cherilyn Wilson', 'Caleb Landry Jones', 'Franco Vega', 'Andrew Thacher', 'Adina Porter', 'Jeff Martineau', 'Noah Baron', 'Ki Hong Lee', 'Jesse Heiman', 'David Broyles', 'Mike Bash', 'Tony Calle', 'Cooper Conley-Currier', 'Elliott Ehlers', 'Brett A. Newton', 'Nathan Dean Snyder', 'Kristen Clement', 'Tatum Miranda', 'Chad Davis', 'Calvin Dean', 'Tony DeSean', 'Vincent Rivera', 'Jason Flemyng', 'Carlos Foglia', 'Bryan Forrest', 'Jessica Franz', 'Eli Jane', 'Sara Murphy', 'Kandis Mak', 'Eric La Barr', 'Naina Michaud', 'Riley Voelkel', 'Tia Robinson', 'Jeff Rosick', 'Alexandra Ruddy', 'Adrienne Rusk', 'Rebecca Tilney', 'Georgina Tolentino']",3.95,nan,['Drama'],121,['USA'],English,['English'],"['Columbia Pictures', 'Relativity Media', 'Scott Rudin Productions', 'Michael De Luca Productions', 'Trigger Street Productions']",2457914,276688,766159,30000,2743,9706,5379,45360,36859,229577,200752,487025,202162,309107,1528670,https://letterboxd.com/film/the-social-network/
Black Swan,2010,Darren Aronofsky,"['Natalie Portman', 'Mila Kunis', 'Vincent Cassel', 'Barbara Hershey', 'Winona Ryder', 'Benjamin Millepied', 'Ksenia Solo', 'Kristina Anapau', 'Janet Montgomery', 'Sebastian Stan', 'Toby Hemingway', 'Sergio Torrado', 'Mark Margolis', 'Tina Sloan', 'Abraham Aronofsky', 'Charlotte Aronofsky', 'Marcia Jean Kurtz', ""Shaun O'Hagan"", 'Chris Gartin', 'Deborah Offner', 'Stanley B. Herman', 'Michelle Rodriguez Nouel', 'Kurt Froman', 'Marty Krzywonos', 'Leslie Lyles', 'John Epperson', 'Arkadiy Figlin', 'Tim Fain', 'Sarah Lane', 'Liam Flaherty', 'Patrick Heusinger', 'Marina Stavitskaya', 'Olga Kostritzky', 'Christine Redpath', 'Alexandra Damiani', 'Rebecca Azenberg', 'Laura Bowman', 'Holly L. Fusco', 'Abigail Mentzer', 'Barette Vance', 'Lillian di Piazza', 'Megan Dickinson', 'Jessy Hendrickson', 'Geneviève Lebean', 'Rachel Jambois', 'Ryoko Sadoshima', 'Kaia A. Tack', 'Lauren Fadeley', 'Sarah Hay', 'Adrianna de Svastich', 'Jamie Wolf', 'Carrie Lee Riggins', 'Gina Artese', 'Daralina Komar', 'Tim Lacatena', 'Alyson Cambridge', 'Anne Bergstedt Jordanova']",4.14,nan,"['Drama', 'Thriller', 'Horror']",108,['USA'],English,"['English', 'French', 'Italian']","['Fox Searchlight Pictures', 'Cross Creek Pictures', 'Protozoa Pictures', 'Phoenix Pictures', 'Dune Entertainment']",2239094,308454,852315,58000,1976,5845,3340,24646,20503,135468,138640,441434,214915,469326,1456093,https://letterboxd.com/film/black-swan/
Scott Pilgrim vs. the World,2010,Edgar Wright,"['Michael Cera', 'Mary Elizabeth Winstead', 'Ellen Wong', 'Kieran Culkin', 'Alison Pill', 'Mark Webber', 'Johnny Simmons', 'Jason Schwartzman', 'Anna Kendrick', 'Aubrey Plaza', 'Satya Bhabha', 'Chris Evans', 'Brandon Routh', 'Mae Whitman', 'Brie Larson', 'Keita Saito', 'Shota Saito', 'Will Bowes', 'Celine Lepage', 'Mark Leroy', 'Kjartan Hewitt', 'Ben Lewis', 'Nelson Franklin', 'Kristina Pesic', 'Matt Watts', 'Ingrid Haas', 'Maurie W. Kaufmann', 'Marley Otto', 'Christine Watson', 'Chantelle Chung', 'Don McKellar', 'Jung-Yul Kim', 'Erik Knudsen', 'Abigail Chu', 'Tennessee Thomas', 'Emily Kassie', 'Michael Lazarovitch', 'John Patrick Amedori', 'Joe Dinicol', 'Craig Stickland', 'Bill Hader', 'Thomas Jane', 'Clifton Collins Jr.', ""Bryan Lee O'Malley""]",3.87,3.0,"['Comedy', 'Romance', 'Action']",113,"['Japan', 'UK', 'USA']",English,['English'],"['Marc Platt Productions', 'Big Talk Studios', 'Closed on Mondays Entertainment', 'dentsu']",2186513,251098,875309,55000,6533,14548,8632,44356,40471,191060,199750,430913,166906,328764,1431933,https://letterboxd.com/film/scott-pilgrim-vs-the-world/
Shutter Island,2010,Martin Scorsese,"['Leonardo DiCaprio', 'Mark Ruffalo', 'Ben Kingsley', 'Max von Sydow', 'Michelle Williams', 'Emily Mortimer', 'Patricia Clarkson', 'Jackie Earle Haley', 'Ted Levine', 'John Carroll Lynch', 'Elias Koteas', 'Robin Bartlett', 'Christopher Denham', 'Nellie Sciutto', 'Joseph Sikora', 'Curtiss Cook', 'Raymond Anthony Thomas', 'Joseph McKenna', 'Ruby Jerins', 'Tom Kemp', 'Bates Wilder', 'Lars Gerhard', 'Matthew Cowles', 'Jill Larson', 'Ziad Akl', 'Dennis Lynch', 'John Porell', 'Aidan Cole Mitchell', 'Drew Beasley', 'Joseph P. Reidy', 'Bree Elrod', 'Thomas B. Duffy', 'Ken Cheeseman', 'Steve Witting', 'Michael E. Chapman', 'Keith Fluker', 'Darryl Wooten', 'Michael Byron', 'Gary Galone', 'Gabriel Hansen', 'Dan Marshall', 'Harrison Young', 'John Franchi']",4.11,nan,"['Mystery', 'Drama', 'Thriller']",138,['USA'],English,"['English', 'German']","['Paramount', 'Phoenix Pictures', 'Sikelia Productions', 'Appian Way']",2421352,245457,845651,33000,1368,4962,3275,23906,23964,143131,178468,512462,264195,421513,1577244,https://letterboxd.com/film/shutter-island/
Avatar,2009,James Cameron,"['Sam Worthington', 'Zoe Saldaña', 'Sigourney Weaver', 'Stephen Lang', 'Michelle Rodriguez', 'Giovanni Ribisi', 'Joel David Moore', 'CCH Pounder', 'Wes Studi', 'Laz Alonso', 'Dileep Rao', 'Matt Gerald', 'Sean Anthony Moran', 'Jason Whyte', 'Scott Lawrence', 'Kelly Kilgour', 'James Patrick Pitt', 'Sean Patrick Murphy', 'Peter Dillon', 'Kevin Dorman', 'Kelson Henderson', 'David Van Horn', 'Jacob Tomuri', 'Michael Blain-Rozgay', 'Jon Curry', 'Julene Renee', 'Luke Hawker', 'Woody Schultz', 'Peter Mensah', 'Sonia Yee', 'Jahnel Curfman', 'Ilram Choi', 'Kyla Warren', 'Lisa Roumain', 'Debra Wilson', 'Taylor Kibby', 'Jodie Landau', 'Chris Mala', 'Julie Lamm', 'Cullen B. Madden', 'Joseph Brady Madden', 'Frankie Torres', 'Austin Wilson', 'Sara Wilson', 'Tamica Washington-Miller', 'Lucy Briant', 'Nathan Meister', 'Gerry Blair', 'Matthew Chamberlain', 'Paul Yates', 'Wray Wilson', 'James Gaylyn', 'Melvin Leno Clark III', 'Carvon Futrell', 'Brandon Jelkes', 'Micah Moch', 'Haniyyah Tahirah', 'Christopher Nolen', 'Christa Oliver', 'April Marie Thomas', 'Bravita A. Threatt', 'Alicia Vela-Bailey', 'Larry Rew', 'Dina Morrone', 'Rodney Cook']",3.57,nan,"['Fantasy', 'Science Fiction', 'Adventure', 'Action']",162,"['USA', 'UK']",English,"['English', 'Spanish']","['Dune Entertainment', 'Lightstorm Entertainment', '20th Century Fox', 'Ingenious Media']",2477272,150349,550186,14000,12028,29331,17423,80961,73398,253193,207664,350874,107348,236914,1369134,https://letterboxd.com/film/avatar/
Cold Tropics,2009,Kleber Mendonça Filho,"['Andrés Schaffer', 'Luiz Otávio Pereira', 'Emilie Lesclaux', 'Juliano Dornelles', 'Simone Jubert', 'Tião', 'Charles Hodges', 'Rodrigo Riszla', 'Jr. Black', 'Lia de Itamaracá', 'Rodrigo Riszla']",3.92,5.0,['Science Fiction'],22,['Brazil'],Portuguese,"['Portuguese', 'French', 'Spanish']",['CinemaScópio'],11460,2132,3331,23,11,15,18,72,114,640,1182,2993,1089,1664,7798,https://letterboxd.com/film/cold-tropics/
Mr. Nobody,2009,Jaco Van Dormael,"['Jared Leto', 'Sarah Polley', 'Diane Kruger', 'Linh-Dan Pham', 'Rhys Ifans', 'Natasha Little', 'Toby Regbo', 'Juno Temple', 'Allan Corduner', 'Daniel Mays', 'Clare Stone', 'Audrey Giacomini', 'Thomas Byrne', 'Laura Brumagne', 'Noa De Costanzo', 'Léa Thonus', 'Anaïs Van Belle', 'Harold Manning', 'Pascal Duquenne', 'David Schaal', 'Laurent Capelluto', 'Harry Cleven', 'Andrew Simms', 'Ben Mansfield', 'Emily Tilson', 'Roline Skehan', 'Anders Morris', 'Nathan Boydell', 'Vincent Dupont', 'Jenna Wheeler-Hughes', 'Valérie-Marie Chadelaud', 'Stéphane Thiry', 'Bruno Verstraete', 'Alice van Dormael', 'Juliette Van Dormael', 'Tedd Dillon', 'Melanie Doerr', 'Talya Rubin', 'Vito DeFilippo', 'Corey Cleve Bentivegna', 'Sandrine Laroche', 'Olivier Bony', 'Laura Van Hove', 'Jack Proudlove', 'Marc Zinga', 'Martin Swabey', 'Philippe Godeau', 'Sarah Gravel', 'John Canoe', 'Donna Kanerahtenha Jacobs', 'Fujio Ishimaru', 'Robin Carette', 'Hugo Harold-Harrison', 'Sylvie Olivé', 'Stéphane Taillasson', 'Jules Taillasson', 'Jan Hammenecker', 'Serge Larivière', 'Leni Parker', 'Katharina Pejcic', 'Alexander Türk', 'Tanya Trombetta', 'Lola Pauwels', 'Daniel Brochu', 'Louise Sophia Engel', 'Aaron Landt', 'Christelle Cornil', 'Tawny Andersen', 'Christophe Beaucarne', 'Jules Eerdekens', 'Philippe Lévy', 'Renaud Alcalde', 'Dominique Warnier', 'Catherine Demaiffe', 'Pierre Chaves', 'Nicholas Beveney', 'David Kennedy', 'Josselin Moinet', 'Virginie Bordes', 'Carlo Mestroni', 'Nicolas Ross', 'Marie-Ève Beauregard', 'Manfred Andrae', 'Thi-Mai Nguyen', 'John Churchill']",3.67,5.0,"['Romance', 'Drama', 'Science Fiction']",141,"['Belgium', 'Canada', 'France', 'Germany']",English,['English'],"['Pan-Européenne', 'Integral Films', 'Lago Film', 'Christal Films', 'France 2 Cinéma', 'France 3 Cinéma', 'Toto & Co Films']",233214,31271,54566,5000,1123,2294,1902,6251,6739,19145,23065,34767,14065,21960,131311,https://letterboxd.com/film/mr-nobody/
Inglourious Basterds,2009,Quentin Tarantino,"['Brad Pitt', 'Mélanie Laurent', 'Christoph Waltz', 'Eli Roth', 'Michael Fassbender', 'Diane Kruger', 'Daniel Brühl', 'Til Schweiger', 'Gedeon Burkhard', 'Jacky Ido', 'B.J. Novak', 'Omar Doom', 'August Diehl', 'Denis Ménochet', 'Sylvester Groth', 'Martin Wuttke', 'Mike Myers', 'Julie Dreyfus', 'Léa Seydoux', 'Richard Sammel', 'Alexander Fehling', 'Rod Taylor', 'Samm Levine', 'Paul Rust', 'Michael Bacall', 'Arndt Schwering-Sohnrey', 'Petra Hartung', 'Volker Michalowski', 'Ken Duken', 'Christian Berkel', 'Anne-Sophie Franck', 'Tina Rodriguez', 'Lena Friedrich', 'Ludger Pistor', 'Jana Pallaske', 'Wolfgang Lindner', 'Michael Kranz', 'Rainer Bock', 'André Penvern', 'Sebastian Hülk', 'Buddy Joe Hooker', 'Sönke Möhring', 'Carlos Fidel', 'Hilmar Eichhorn', 'Patrick Elias', 'Eva Löbau', 'Salvadore Brandt', 'Jasper Linnewedel', 'Wilfried Hochholdinger', 'Olivier Girard', 'Michael Scheel', 'Leo Plank', 'Andreas Tietz', 'Bo Svenson', 'Enzo G. Castellari', 'Christian Brückner', 'Samuel L. Jackson', 'Bela B.', 'Noemi Besedes', 'Hélène Cardona', 'Jake Garber', 'Sabrina Rattey', 'Alex Boden', 'Guido Föhrweißer', 'Harvey Keitel', 'Andrew Napier', 'Greg Nicotero', 'Quentin Tarantino', 'Vitus Wieser', 'Bea-Marie Rück', 'Daniela Schwerdt']",4.34,nan,"['Drama', 'Thriller', 'War']",153,"['France', 'Germany', 'USA']",English,"['English', 'German', 'French', 'Italian']","['The Weinstein Company', 'Universal Pictures', 'A Band Apart', 'Zehnte Babelsberg Film', 'Visiona Romantica', 'Peninsula Films']",2605027,339866,1086973,50000,1686,4391,2571,16346,15199,107321,132369,507121,333457,629046,1749507,https://letterboxd.com/film/inglourious-basterds/
Marie Antoinette,2006,Sofia Coppola,"['Kirsten Dunst', 'Jason Schwartzman', 'Steve Coogan', 'Judy Davis', 'Rip Torn', 'Asia Argento', 'Molly Shannon', 'Shirley Henderson', 'Rose Byrne', 'Mary Nighy', 'Danny Huston', 'Marianne Faithfull', 'Jamie Dornan', 'Tom Hardy', 'Al Weaver', 'Sebastian Armesto', 'Aurore Clément', 'Guillaume Gallienne', 'Jean-Christophe Bouvet', 'James Lance', 'André Oumansky', 'Io Bottoms', 'Céline Sallette', 'Clémentine Poidatz', 'Sarah Adler', 'Francis Leplay', 'Mathieu Amalric', 'Carlo Brandt', 'Alexia Landeau', 'Clara Brajtman', 'Mélodie Berenfeld', 'Katrine Boorman', 'Susan Graham', 'Jean-Paul Scarpitta', 'Lucien Rolland', 'Camille Micelli', 'Paul Fortune', 'Natasha Fraser-Cavassoni', 'Joe Sheridan', 'Jean-Marc Stehlé', 'Paul Jasmin', 'Raphaël Neal', 'John Arnold', 'Scali Delpeyrat', 'Chloé Van Barthold', 'Thomas Mars', ""Deck d'Arcy"", 'Laurent Brancowitz', 'Christian Mazzalai', 'Lauriane Mascaro', 'Gaëlle Bona', 'William Doherty', 'Florrie Betts', 'Dominic Gould', 'Jago Betts', 'Axel Küng', 'Driss Hugo-Kalff', 'Fabrice Scott', 'Alain Doutey', 'Bo Barrett', 'Joseph Malerba', 'Laurent Cotillard', 'Xavier Bonastre', 'Hamish Bowles', 'Khasan Brailsford', 'Jeanne Raimbault', 'Denzel Chisolm', 'Madison Clapp', 'Krystal Ellsworth', 'Isabelle Montoya', 'Sabine Glaser']",3.72,4.0,"['History', 'Drama']",123,"['France', 'Japan', 'Canada', 'USA']",English,"['English', 'French', 'Latin']","['Pricel', 'Columbia Pictures', 'TFC', 'American Zoetrope']",568996,107072,177527,12000,870,2705,2401,12259,15126,59630,67207,108610,35091,63569,367468,https://letterboxd.com/film/marie-antoinette-2006/
Little Miss Sunshine,2006,"Jonathan Dayton, Valerie Faris","['Greg Kinnear', 'Toni Collette', 'Steve Carell', 'Paul Dano', 'Abigail Breslin', 'Alan Arkin', 'Bryan Cranston', 'Beth Grant', 'Wallace Langham', 'Matt Winston', 'Julio Oscar Mechoso', 'Marc Turtletaub', 'Jill Talley', 'Brenda Canela', 'Chuck Loring', 'Justin Shilton', 'Gordon Thomson', 'Steven Christopher Parker', 'John Walcutt', 'Paula Newsome', 'Dean Norris', 'Lauren Shiohama', 'Mary Lynn Rajskub', 'Jerry Giles', 'Geoff Meed', 'Joan Scheckel', 'Mel Rodriguez', 'Casandra Ashe', 'Alexandria Alaman', 'Alissa Anderegg', 'Brittany Baird', 'Cambria Baird', 'Brenae Bandy', 'Kristen Holaas', 'Maliah Hudson', 'Destry Jacobs', 'Lindsey Jordan', 'Shane Murphy', 'Annabelle Roberts', 'Sydni Stevenson-Love', 'Nicole Stoehr', 'Lauren Yee', 'Terry Bolo']",4.17,5.0,"['Drama', 'Comedy']",102,['USA'],English,['English'],"['Bona Fide Productions', 'Big Beach']",1577777,222749,606725,48000,957,2666,1874,12101,13330,84416,115185,323921,153148,302647,1010245,https://letterboxd.com/film/little-miss-sunshine/
Imagine Me & You,2005,Ol Parker,"['Piper Perabo', 'Lena Headey', 'Matthew Goode', 'Celia Imrie', 'Anthony Stewart Head', 'Darren Boyd', 'Sue Johnston', 'Boo Jackson', 'Sharon Horgan', 'Eva Birthistle', 'Vinette Robinson', 'Ben Miles', 'Mona Hammond', 'Rick Warden', 'Ruth Sheen', 'Justine Mitchell', 'Gerard Horan', 'Angel Coulby', 'Ben Willbond', 'Sharon Duncan-Brewster', 'Tom McKay', 'Kellie Bright', 'John Thompson', 'Philip Bird', 'Krishan Naidoo', 'James Thorne', 'Andrew Dunford', 'Carl M. Smith']",3.77,5.0,"['Drama', 'Comedy', 'Romance']",93,"['Germany', 'UK', 'USA']",English,['English'],"['BBC Film', 'Filmstiftung Nordrhein-Westfalen', 'Ealing Studios', 'Fragile Films', 'Focus Features', 'Cougar Films Ltd.', 'Minotaur Film Partnership No. 3', 'RTL', 'X Filme Creative Pool']",100703,30990,38574,3300,172,388,450,1745,2553,9197,10468,18849,6260,20330,70412,https://letterboxd.com/film/imagine-me-you/
Eletrodoméstica,2005,Kleber Mendonça Filho,"['Magdale Alves', 'Pedro Bandeira', 'Gabriela Souza']",3.54,4.0,['Comedy'],23,['Brazil'],Portuguese,['Portuguese'],['CinemaScópio'],5348,906,1031,0,14,24,22,108,185,716,918,1037,197,326,3547,https://letterboxd.com/film/eletrodomestica/
Eternal Sunshine of the Spotless Mind,2004,Michel Gondry,"['Jim Carrey', 'Kate Winslet', 'Kirsten Dunst', 'Mark Ruffalo', 'Elijah Wood', 'Tom Wilkinson', 'Jane Adams', 'David Cross', ""Deirdre O'Connell"", 'Thomas Jay Ryan', 'Ryan Whitney', 'Lola Daehler', 'Debbon Ayer', 'Gerry Robert Byrne', 'Brian Price', 'Josh Flitter', 'Paulie Litt', 'Amir Ali Said', 'Lauren Adler']",4.25,nan,"['Science Fiction', 'Romance', 'Drama']",108,['USA'],English,['English'],"['Focus Features', 'Anonymous Content', 'This Is That']",2303772,350471,994386,104000,2311,6881,3736,24211,20076,118437,131673,426909,247404,566480,1548118,https://letterboxd.com/film/eternal-sunshine-of-the-spotless-mind/
Kill Bill: Vol. 1,2003,Quentin Tarantino,"['Uma Thurman', 'Lucy Liu', 'Vivica A. Fox', 'Daryl Hannah', 'David Carradine', 'Michael Madsen', 'Julie Dreyfus', 'Chiaki Kuriyama', 'Sonny Chiba', 'Gordon Liu Chia-hui', 'Michael Parks', 'Michael Bowen', 'Jun Kunimura', 'Kenji Ohba', 'Yuki Kazamatsuri', 'James Parks', 'Sakichi Sato', 'Jonathan Loughran', 'Yoshiyuki Morishita', 'Tetsuro Shimaguchi', 'Kazuki Kitamura', 'Yoji Tanaka', 'Sō Yamanaka', 'Juri Manase', 'Akaji Maro', 'Goro Daimon', 'Shun Sugata', 'Zhang Jinzhan', 'Hu Xiaohui', 'Ambrosia Kelley', 'Sachiko Fujii', 'Shu Lan Tuan', 'Ai Maeda', 'Naomi Kusumi', 'Hikaru Midorikawa', 'Issey Takahashi', 'Yoshiko Yamaguchi', 'Ronnie Yoshiko Fujiyama']",4.19,nan,"['Crime', 'Action']",111,['USA'],English,"['English', 'Japanese', 'French']","['Miramax', 'A Band Apart', 'Super Cool ManChu']",2274956,280332,865957,40000,2155,6568,3391,21898,18932,120862,137046,449179,221341,442460,1423832,https://letterboxd.com/film/kill-bill-vol-1/
Lost in Translation,2003,Sofia Coppola,"['Bill Murray', 'Scarlett Johansson', 'Giovanni Ribisi', 'Anna Faris', 'Akiko Takeshita', 'Kazuyoshi Minamimagoe', 'Kazuko Shibata', 'Take', 'Ryuichiro Baba', 'Akira Yamaguchi', 'Catherine Lambert', 'François du Bois', 'Tim Leffman', 'Gregory Pekar', 'Richard Allen', 'Diamond Yukai', 'Jun Maki', 'Nao Asuka', 'Tetsuro Nakagawa', 'Kanako Nakazato', 'Fumihiro Hayashi', 'Hiroko Kawasaki', 'Daikon', 'Asuka Shimuzu', 'Ikuko Takahashi', 'Koichi Tanaka', 'Hugo Codaro', 'Akiko Monou', 'Akimitsu Naruyama', 'Hiroshi Kawashima', 'Hiromix', 'Nobuhiko Kitamura', 'Nao Kitman', 'Akira', 'Kunichi Nomura', 'Yasuhiko Hattori', 'Shigekazu Aida', 'Kazuo Yamada', 'Akira Motomura', 'Osamu Shigematu', 'Takashi Fujii', 'Kei Takyo', 'Ryo Kondo', 'Yumi Ikeda', 'Yumika Saki', 'Yuji Okabe', 'Dietrich Bollmann', 'Georg O.P. Eschert', 'Mark Willms', 'Lisle Wilkerson', 'Nancy Steiner']",3.83,5.0,"['Drama', 'Romance']",102,"['Japan', 'UK', 'USA']",English,"['English', 'Japanese']","['American Zoetrope', 'Focus Features', 'TFC', 'Elemental Films']",1180199,193005,368200,27000,3877,10002,7063,30115,29803,105311,115681,228985,92338,142776,765951,https://letterboxd.com/film/lost-in-translation/
Carandiru,2003,Héctor Babenco,"['Luiz Carlos Vasconcelos', 'Milton Gonçalves', 'Ivan de Almeida', 'Aílton Graça', 'Maria Luísa Mendonça', 'Aida Leiner', 'Rodrigo Santoro', 'Gero Camilo', 'Lázaro Ramos', 'Caio Blat', 'Wagner Moura', 'Julia Ianina', 'Sabrina Greve', 'Floriano Peixoto', 'Ricardo Blat', 'Vanessa Gerbelli', 'Leona Cavalli', 'Milhem Cortaz', 'Dionísio Neto', 'Antônio Grassi', 'Enrique Díaz', 'Robson Nunes', 'André Ceccato', 'Bukassa Kabengele', 'Sabotage', 'Rita Cadillac', 'Luis Miranda', 'Serjão Loroza', 'Walter Breda', 'Leopoldo Pacheco', 'Nill Marcondes', 'Celso Sim', 'Oscar Magrini', 'Cláudia Wonder', 'Clemente Viscaíno', 'Gustavo Trestini', 'Flávio Rocha', 'Nicolas Trevijano', 'Marcos Suchara', 'Marcello Escorel', 'Vera Mancini', 'Luciano Quirino', 'Salete Campari', 'Eduardo Mancini', 'Gal Quaresma', 'Igor Moreira', 'André Nascimento', 'Claudio Albuquerque', 'Angelo Brandini', 'Caio Cesar', 'Drago', 'Guido Campos Correa', 'Antônio de Andrade', 'Carlos Junior', 'Cleide Queiroz', 'Fabio Ock', 'Ivan Cápua', 'Riba Carlovich', 'Maurício Marques', 'Kaio Pezzutti', 'Paulo Ribeiro', 'Rejane Arruda', 'Roberto Audio', 'Kiko Dinucci', 'Mirtes Mesquita', 'Pedro Vieira', 'Taroba']",4.03,5.0,['Drama'],148,"['Argentina', 'Brazil', 'UK']",Portuguese,['Portuguese'],"['Oscar Kramer S.A.', 'BR Petrobrás', 'HB Filmes', 'Columbia TriStar Filmes do Brasil', 'Sony Pictures Classics', 'Globo Filmes']",52698,10928,18017,792,29,82,98,357,451,2126,3675,10755,6036,16750,40359,https://letterboxd.com/film/carandiru/
The Hours,2002,Stephen Daldry,"['Julianne Moore', 'Nicole Kidman', 'Meryl Streep', 'Stephen Dillane', 'Miranda Richardson', 'George Loftus', 'Charley Ramm', 'Sophie Wyburd', 'Lyndsey Marshal', 'Linda Bassett', 'Christian Coulson', 'Michael Culkin', 'John C. Reilly', 'Toni Collette', 'Ed Harris', 'Allison Janney', 'Claire Danes', 'Jeff Daniels', 'Jack Rovello', 'Eileen Atkins', 'Margo Martindale', 'Colin Stinton', 'Carmen De Lavallade', 'Daniel Brocklebank']",3.84,nan,['Drama'],114,"['UK', 'USA']",English,['English'],"['Paramount', 'Miramax', 'Scott Rudin Productions', 'Robert Fox Productions']",127408,32722,29576,2000,186,507,500,2196,2985,10804,12728,22084,8163,12236,72389,https://letterboxd.com/film/the-hours/
Mulholland Drive,2001,David Lynch,"['Naomi Watts', 'Laura Harring', 'Justin Theroux', 'Ann Miller', 'Mark Pellegrino', 'Robert Forster', 'Dan Hedaya', 'Angelo Badalamenti', 'Patrick Fischler', 'Brent Briscoe', 'Michael Cooke', 'Monty Montgomery', 'Lee Grant', 'James Karen', 'Chad Everett', 'Melissa George', 'Scott Coffey', 'Richard Green', 'Rebekah Del Rio', 'Jeanne Bates', 'Dan Birnbaum', 'Lori Heuring', 'Marcus Graham', 'Bonnie Aarons', 'Michael J. Anderson', 'Geno Silva', 'Billy Ray Cyrus', 'Vincent Castellanos', 'Wayne Grace', 'Rita Taggart', 'Michele Hicks', 'Lisa Lackey', 'Tad Horino', 'Missy Crider', 'Kate Forster', 'Tony Longo', 'Michael Fairman', 'Rena Riffel', 'Katharine Towne', 'Michael Des Barres', 'Robert Katims', 'Randall Wulff', 'Maya Bond', 'Joseph Kearney', 'Enrique Buelna', 'Richard Mead', 'Daniel Rey', 'David Schroeder', 'Tom Morris', 'Mo Gallini', 'Diane Nelson', 'Charles Croughwell', 'Michael D. Weatherred', 'Lisa K. Ferguson', 'William Ostrander', 'Brian Beacock', 'Blake Lindsley', 'Adrien Curry', 'Tyrah M. Lindsey', 'Johanna Stein', 'Conte Candoli', 'Cori Glazer', 'Lyssie Powell', 'Sean Everett', 'Kimberly Clever', 'Joshua Collazo', 'David Frutos', 'Peter Loggins', 'Theresa Salazar', 'Thea Samuels', 'Christian Thompson']",4.24,4.0,"['Mystery', 'Drama', 'Thriller']",147,"['France', 'USA']",English,"['English', 'Spanish']","['Asymmetrical Productions', 'Les Films Alain Sarde', 'StudioCanal']",816073,243657,293046,33000,2346,4860,2872,12457,10794,42350,49106,137007,96271,187228,545291,https://letterboxd.com/film/mulholland-drive/
Donnie Darko,2001,Richard Kelly,"['Jake Gyllenhaal', 'Jena Malone', 'James Duval', 'Drew Barrymore', 'Beth Grant', 'Maggie Gyllenhaal', 'Mary McDonnell', 'Holmes Osborne', 'Noah Wyle', 'Katharine Ross', 'Patrick Swayze', 'Daveigh Chase', 'Arthur Taxier', 'David St. James', 'Patience Cleveland', 'Jazzie Mahannah', 'Jolene Purdy', 'David Moreland', 'Kristina Malota', 'Marina Malota', 'Scotty Leavenworth', 'Phyllis Lyons', 'Gary Lundy', 'Alex Greenwald', 'Stuart Stone', 'Joan Blair', 'Seth Rogen', 'Mark Hoffman', 'Jerry Trainor', 'Tom Tangen', 'Carly Naples', 'Lisa K. Wyatt', 'Rachel Winfree', 'Ashley Tisdale', 'Tiler Peck', 'Fran Kranz', 'Sarah Hudson', 'Alison Jones', 'Lee Weaver', 'Jack Salvatore, Jr.']",3.97,nan,"['Fantasy', 'Mystery', 'Drama']",114,['USA'],English,['English'],"['Flower Films', 'Gaylord Films', 'Adam Fields Productions', 'Pandora Cinema']",1663683,236403,603188,49000,3170,8224,5070,27627,26918,127477,145798,342501,143191,254531,1084507,https://letterboxd.com/film/donnie-darko/
American Psycho,2000,Mary Harron,"['Christian Bale', 'Willem Dafoe', 'Jared Leto', 'Josh Lucas', 'Samantha Mathis', 'Matt Ross', 'Bill Sage', 'Chloë Sevigny', 'Cara Seymour', 'Justin Theroux', 'Guinevere Turner', 'Reese Witherspoon', 'Krista Sutton', 'Reg E. Cathey', 'Anthony Lemke', 'Stephen Bogaert', 'Monika Meier', 'Blair Williams', 'Marie Dame', 'Kelley Harron', 'Patricia Gage', 'Landy Cannon', 'Park Bench', 'Catherine Black', 'Margaret Ma', 'Peter Tufford Kennedy', 'Mark Pawson', 'Jessica Lau', 'Lilette Wiens', 'Glen Marc Silot', 'Charlotte Hunter', 'Kiki Buttignol', 'Joyce R. Korbin', 'Reuben Thompson', 'Bryan Renfro', 'Ross Gibby', 'Christina McKay', 'Alan McCullough', 'Connie Chen', 'Brett Alexander Davidson', 'Peter Loung', 'Joseph Oliveira', 'Leanne Poirier Greenfield', 'Somaya Reece', 'Kate Steen', 'Dan Rush', 'Chris Stone']",3.86,nan,"['Crime', 'Thriller', 'Horror', 'Drama']",102,"['Canada', 'USA']",English,"['English', 'Spanish', 'Cantonese']","['Lionsgate', 'Pressman Film', 'Muse Productions', 'Am Psycho Productions']",2641466,271778,955238,32000,4496,10970,7414,44339,47232,249057,277510,620569,205849,324506,1791942,https://letterboxd.com/film/american-psycho/
But I'm a Cheerleader,1999,Jamie Babbit,"['Natasha Lyonne', 'Clea DuVall', 'Cathy Moriarty', 'RuPaul', 'Melanie Lynskey', 'Katharine Towne', 'Katrina Phillips', 'Joel Michaely', 'Douglas Spain', 'Kip Pardue', 'Eddie Cibrian', 'Michelle Williams', 'Brandt Wille', 'Bud Cort', 'Mink Stole', 'Katie Donahue', 'Danielle Reneau', 'Dante Basco', 'Kyle Thatcher', 'Robert Pine', 'Rachelle Carson', 'Wesley Mann', 'Richard Moll', 'Julie Delpy', 'Charles Braden', 'Ione Skye']",3.99,4.0,"['Romance', 'Comedy']",85,['USA'],English,['English'],"['Ignite Entertainment', 'Lionsgate', 'The Kushner-Locke Company']",447760,119717,195488,15000,474,1060,990,4580,6460,30774,44153,100291,39249,89722,317753,https://letterboxd.com/film/but-im-a-cheerleader/
Fight Club,1999,David Fincher,"['Edward Norton', 'Brad Pitt', 'Helena Bonham Carter', 'Meat Loaf', 'Jared Leto', 'Zach Grenier', 'Holt McCallany', 'Eion Bailey', 'Richmond Arquette', 'David Andrews', 'George Maguire', 'Eugenie Bondurant', 'Christina Cabot', ""Sydney 'Big Dawg' Colston"", 'Rachel Singer', 'Christie Cronenweth', 'Tim DeZarn', 'Ezra Buzzington', 'Dierdre Downing-Jackson', 'Bob Stephenson', 'Charlie Dell', 'Rob Lanza', 'David Lee Smith', 'Joel Bissonnette', 'Evan Mirand', 'Robby Robinson', 'Lou Beatty Jr.', 'Thom Gossom Jr.', 'Valerie Bickford', 'Peter Iacangelo', 'Carl Ciarfalio', 'Stuart Blumberg', 'Todd Peirce', 'Mark Fite', 'Matt Winston', 'Joon Kim', 'Bennie Moore', 'Lauren Sánchez', 'Pat McNamara', 'Tyrone R. Livingston', 'Owen Masterson', 'David Jean Thomas', 'Paul Carafotes', 'Christopher John Fields', 'Anderson Bourell', 'Scotch Ellis Loring', 'Michael Shamus Wiles', 'Andi Carnick', 'Ed Kowalczyk', 'Leonard Termo', 'Van Quattro', 'Markus Redmond', 'Michael Girardin', 'Michael Arturo', 'Greg Bronson', 'Matt Cinquanta', 'Paul Dillon', 'Eddie Hargitay', 'Phil Hawn', 'Bruce Holman', 'Jawara', 'Baron Jay', 'Jim Jenkins', 'Kevin Scott Mack', 'Trey Ore', 'Louis Ortiz', 'Hugh Peddy', 'J.T. Pontino', 'Chad Randau', 'Marcio Rosario', 'Gregory Silva', 'Brian Tochi', 'Michael Zagst', 'Marc Cinquanta', 'Summer Moore']",4.27,nan,['Drama'],139,"['Germany', 'USA']",English,['English'],"['Fox 2000 Pictures', 'Regency Enterprises', 'The Linson Company', '20th Century Fox', 'Taurus Film']",3659108,409540,1685125,112000,3463,9276,4484,30827,25425,170406,182333,701681,408060,983128,2519083,https://letterboxd.com/film/fight-club/
10 Things I Hate About You,1999,Gil Junger,"['Heath Ledger', 'Julia Stiles', 'Joseph Gordon-Levitt', 'Larisa Oleynik', 'David Krumholtz', 'Andrew Keegan', 'Susan May Pratt', 'Gabrielle Union', 'Larry Miller', 'Daryl Mitchell', 'Allison Janney', 'David Leisure', 'Greg Jackson', 'Kyle Cease', 'Terence Heuston', 'Cameron Fraser', 'Eric Riedmann', 'Quinn Maixner', 'Demegio Kimbrough', 'Todd Butler', 'Dennis Mosley', 'Bianca Kajlich', 'Nick Vukelic', 'Ben Laurance', 'Aidan Kennedy', 'Jelani Quinn', 'Jesse Dyer', 'Aaron Therol', 'Carlos Lacámara', 'Heather Taylor', 'Joshua Thorpe', 'J.R. Johnson', 'Wendy Gottlieb', 'Brian Hood', 'Travis Muller', 'Ari Karczag', 'Laura Kenny', 'Alice Evans', 'Jesper Inglis', 'Nick Brown', 'Monique Powell', 'Brian Mashburn', 'Kay Hanley', 'Michael Eisenstein']",3.99,nan,"['Comedy', 'Romance', 'Drama']",97,['USA'],English,"['English', 'French']","['Mad Chance', 'Jaret Entertainment']",2156689,281759,891337,72000,1545,4830,3806,23749,28839,158524,169886,385323,127494,470836,1374832,https://letterboxd.com/film/10-things-i-hate-about-you/
The Matrix,1999,"Lilly Wachowski, Lana Wachowski","['Keanu Reeves', 'Laurence Fishburne', 'Carrie-Anne Moss', 'Hugo Weaving', 'Gloria Foster', 'Joe Pantoliano', 'Marcus Chong', 'Julian Arahanga', 'Matt Doran', 'Belinda McClory', 'Anthony Ray Parker', 'Paul Goddard', 'Robert Taylor', 'David Aston', 'Marc Aden Gray', 'Ada Nicodemou', 'Deni Gordon', 'Rowan Witt', 'Eleanor Witt', 'Tamara Brown', 'Janaya Pender', 'Adryn White', 'Natalie Tjen', 'Bill Young', ""David O'Connor"", 'Jeremy Ball', 'Fiona Johnson', 'Harry Lawrence', 'Steve Dodd', 'Luke Quinton', 'Lawrence Woodward', 'Michael Butcher', 'Bernard Ledger', 'Chris Pattinson', 'Robert Simper', 'Nigel Harbach']",4.16,nan,"['Science Fiction', 'Action']",136,['USA'],English,['English'],"['Village Roadshow Pictures', 'Groucho II Film Partnership', 'Silver Pictures', 'Warner Bros. Pictures']",2494522,254316,858769,31000,1818,6714,3455,25474,22184,144117,149645,459962,219226,443451,1476046,https://letterboxd.com/film/the-matrix/
The Truman Show,1998,Peter Weir,"['Jim Carrey', 'Laura Linney', 'Noah Emmerich', 'Natascha McElhone', 'Holland Taylor', 'Ed Harris', 'Paul Giamatti', 'Brian Delate', 'Peter Krause', 'Blair Slater', 'Heidi Schanz', 'Una Damon', 'Krista Lynn Landolfi', 'O-Lan Jones', 'Ron Taylor', 'Don Taylor', 'Ted Raymond', 'Harry Shearer', 'Jeanette Miller', 'Philip Glass', 'Joe Minjares', 'Philip Baker Hall', 'John Pleshette', 'Terry Camilleri', 'Joel McKinnon Miller', 'Judy Clayton', 'Fritz Dominique', 'Angel Schmiedt', 'Nastassja Schmiedt', 'Muriel Moore', 'Mal Jones', 'Judson Vaughn', 'Earl Hilliard Jr.', 'David Andrew Nash', 'Jim Towers', 'Savannah Swafford', 'Antoni Corone', 'Mario Ernesto Sánchez', 'John Roselius', 'Kade Coates', 'Marcia DeBonis', 'Sam Kitchin', 'Sebastian Youngblood', 'Dave Corey', 'Mark Alan Gillott', 'Jay Saiter', 'Tony Todd', 'Marco Rubeo', 'Daryl Davis', 'Robert Davis', 'R.J. Murdock', 'Matthew McDonough', 'Larry McDowell', 'Joseph Lucus', 'Logan Kirksey', 'Adam Tomei', 'John Pramik', 'Al Foster', 'Zoaunne LeRoy', 'Millie Slavin', 'Dona Hardy', 'Tom Simmons', 'Susan Angelo', 'Carly Smiga', 'Yuji Okumoto', 'Kiyoko Yamaguchi', 'Saemi Nakamura', 'Sergio Kato', 'Jake Eberle', 'Marc Macaulay', 'Melissa Fitzgerald', 'Erik Rodenhiser']",4.21,nan,"['Comedy', 'Drama']",103,['USA'],English,['English'],"['Paramount', 'Scott Rudin Productions']",3104713,262551,1253936,48000,1164,4149,2162,19238,18288,160506,189911,660124,319744,616886,1992172,https://letterboxd.com/film/the-truman-show/
Gia,1998,Michael Cristofer,"['Angelina Jolie', 'Elizabeth Mitchell', 'Eric Michael Cole', 'Kylie Travis', 'Louis Giambalvo', 'John Considine', 'Scott Cohen', 'Edmund Genest', 'Mercedes Ruehl', 'Faye Dunaway', 'Holly Baker', 'Joe Basile', 'Rick Batalla', 'Lombardo Boyar', 'Jullian Dulce Vida', 'Brian Donovan', 'Alexander Enberg', 'Vylette Fagerholm', 'Guido Föhrweißer', 'Scott Genkinger', 'Judy Gillett', 'Johnny Green', 'Cee Cee Michaela', 'Meleney Humphrey', 'Tim Hutchinson', 'Michelle Jonas', 'Mila Kunis', 'Steve Larson', 'Drinda Lalumia', 'Shelby Leverington', 'Allison Mackie', 'Norman Merrill', ""Tricia O'Neil"", 'Sam Pancake', 'Adina Porter', 'Joan Pringle', 'Michael E. Rodgers', 'Holly Sampson', 'Paul Sandman', 'Antony Sandoval', 'John-Clay Scott', 'Phillipe Simon', 'Alexis Smart', 'Nick Spano', 'Lisa Stothard', 'Jason Stuart', 'Samantha Torres', 'Nick Toth', 'Jennie Vaughn', 'Torsten Voges', 'James Haven', 'Lynn Wanlass', 'Audrey Wasilewski', 'Christian Wienker', 'Chuck Zito', 'Jeff J. Campbell', 'Carlos Campos', 'Louis Campos', 'Adam Carrera', 'Rebekah Chaney', 'Sebastian Feldman', 'Carmi Greene', 'Alexandra Pauley', 'Eric Seiver', 'Jill Sharp']",3.78,5.0,"['Drama', 'Romance']",120,['USA'],English,['English'],"['HBO Films', 'Marvin Worth Productions', 'Citadel Entertainment', 'Kahn Power Pictures', 'Gia Productions']",121676,29410,41594,4000,167,474,473,2268,2906,11322,12421,21864,7736,20387,80018,https://letterboxd.com/film/gia/
Titanic,1997,James Cameron,"['Leonardo DiCaprio', 'Kate Winslet', 'Billy Zane', 'Kathy Bates', 'Frances Fisher', 'Gloria Stuart', 'Victor Garber', 'Bill Paxton', 'Bernard Hill', 'David Warner', 'Jonathan Hyde', 'Lewis Abernathy', 'Suzy Amis', 'Nicholas Cascone', 'Danny Nucci', 'Jason Barry', 'Lew Palter', 'Eric Braeden', 'Ewan Stewart', 'Bernard Fox', 'Ioan Gruffudd', 'Jonny Phillips', 'Edward Fletcher', 'Scott G. Anderson', 'Martin East', 'Gregory Cooke', 'Alexandrea Owens', 'Seth Adkins', 'Michael Ensign', 'Anatoly M. Sagalevitch', 'Martin Hub', 'Mark Lindsay Chapman', 'Richard Graham', 'Paul Brightwell', 'Craig Kelly', 'Ron Donachie', 'Charlotte Chatton', 'Fannie Brett', 'Jenette Goldstein', 'Camilla Overbye Roos', 'Linda Kerns', 'Amy Gaipa', 'Martin Jarvis', 'Rosalind Ayres', 'Rochelle Rose', 'Jonathan Evans-Jones', 'Rocky Taylor', 'Liam Tuohy', 'Simon Crane', 'James Lancaster', 'Elsa Raven', 'Reece P. Thompson III', 'Laramie Landis', 'Mark Rafael Truitt', 'John Walcutt', 'Terry Forrestal', 'Derek Lea', 'Richard Ashton', 'Sean Nepita', 'Brendan Connolly', 'David Cronnelly', 'Garth Wilton', 'Richard Fox', 'Nick Meaney', 'Kevin Owers', 'Mark Capri', 'Marc Cass', 'Paul Herbert', 'Emmett James', 'Chris Byrne', 'Oliver Page', 'James Garrett', 'Erik Holland', 'Jari Kinnunen', 'Anders Falk', 'Barry Dennen', 'Vern Urich', 'Rebecca Klingler', ""Tricia O'Neil"", 'Kathleen S. Dunn', 'Romeo Francis', 'Mandana Marino', 'Van Ling', 'Bjørn Olsen', 'Dan Pettersson', 'Shay Duffin', 'Greg Ellis', 'Diana Morgan', 'Kris Andersson', 'Bobbie Bates', 'Aaron James Cash', 'Anne Fletcher', 'Edmond Alan Forsyth', 'Andie Hicks', 'Scott Hislop', 'Stan Mazin', 'Lisa Ratzin', 'Julene Renee', 'Brian Walsh', 'Alexandra Boyd', 'James Cameron', 'Mike Butters', 'Bruno Campolo', 'Kevin De La Noy', 'Tony Kenny', 'Sean Lawlor', 'Don Lynch', 'Johnny Martin', 'Ryan McClurkin', 'Meghan McLeod', ""Mike O'Neal"", 'Phil Parlapiano', 'Steven Quale', 'R. Gern Trowbridge', 'Olivia Rosewood', 'John Slade', 'Brian McDermott', 'Bret Aaron Knower']",3.81,nan,"['Drama', 'Romance']",194,['USA'],English,"['English', 'French', 'German', 'Swedish', 'Italian', 'Russian']","['Paramount', '20th Century Fox', 'Lightstorm Entertainment']",2683983,219033,658203,28000,5748,14929,8496,54043,47862,242566,197307,403766,123277,333334,1431328,https://letterboxd.com/film/titanic-1997/
Contact,1997,Robert Zemeckis,"['Jodie Foster', 'Matthew McConaughey', 'James Woods', 'John Hurt', 'Tom Skerritt', 'William Fichtner', 'David Morse', 'Angela Bassett', 'Geoffrey Blake', 'Max Martini', 'Rob Lowe', 'Jake Busey', 'Tucker Smallwood', 'Jena Malone', 'Sami Chester', 'Timothy McNeil', 'Laura Elena Surillo', 'Henry Strozier', 'Larry King', 'Thomas Garner', 'Conroy Chino', 'Dan Gifford', 'Vance Valencia', 'Donna Kelley', 'Leon Harris', 'Claire Shipman', 'Behrooz Afrakhan', 'Saemi Nakamura', 'Maria Celeste Arraras', 'Tabitha Soren', 'Geraldo Rivera', 'Ian Whitcomb', 'Jay Leno', 'Natalie Allen', 'Robert D. Novak', 'Geraldine A. Ferraro', 'Ann Druyan', 'Kathleen Kennedy', 'Michael Albala', 'Ned Netterville', 'Leo Lee', 'William Jordan', 'David St. James', 'Jill Dougherty', 'Haynes Brooke', 'John Holliman', 'Bobbie Battista', 'Dee Dee Myers', 'Bryant Gumbel', 'Linden Soles', 'Steven Ford', 'Alexander Zemeckis', 'Janie Peterson', 'Philippe Bergeron', 'Jennifer Balgobin', 'Anthony Hamilton', 'Rebecca T. Beucler', 'Marc Macaulay', 'Pamela Wilsey', 'Jeffery Thomas Johnson', 'Yuji Okumoto', 'Gerry Griffin', 'Brian Alston', 'Rob Elk', 'Mark Thomason', 'José Rey', 'Todd Patrick Breaugh', 'Alex Veadov', 'Alice Kushida', 'Robin Gammell', 'Richardson Morse', 'Seiji Okamura', 'Bernard Shaw', 'Mak Takano', 'Hiroshi Tom Tanaka', 'Catherine Dao', 'Kristoffer Ryan Winters', 'Valorie Armstrong', 'Jim Hild', 'William L. Thomas', 'Diego Montoya', 'Jonathan Adler', 'Robert Aguilar Jr.', 'Mark Bailey', 'Matt Bennett', 'Tony Boldi', 'Christopher Boyer', 'Christine Brady', 'Ray Buffer', 'Mark Byrne', 'Candice T. Cain', 'Michael Chaban', 'Aixa Clemente', 'Bill Clinton', 'Derrick Damions', 'Elaina Erika Davis', 'Joey Dente', 'Michael Egan', 'Jeff Elmore', 'Pamela Fischer', 'Carl Gilliard', 'William B. Kaplan', 'Boris Lee Krutonog', 'Ming Lo', 'Sunshine Logroño', 'Denise Loveday', 'Neal Matarazzo', 'Cassidy McMillan', 'Bill Miller', 'Molly Mueller', 'Paul L. Nolan', 'Marisa Petroro', 'Errica Poindexter', 'J.A. Preston', 'Frank Principe', 'Billy Quinn', 'Thomas Reid', 'Leo Rogstad', 'Russell Sanderlin Sr.', 'Frank Silva', 'John A. Taylor', 'Todd Thompson', 'Cenk Uygur', 'Holly Cross Vagley', 'Eric Alan Wendell', 'Delaney Williams', 'Gregory L. Williams']",3.78,5.0,"['Science Fiction', 'Mystery', 'Drama']",150,['USA'],English,"['English', 'Russian', 'Spanish']","['South Side Amusement Company', 'Warner Bros. Pictures']",223677,37556,52124,2400,300,864,826,4155,5871,21792,27903,39197,13931,14831,129670,https://letterboxd.com/film/contact/
Trainspotting,1996,Danny Boyle,"['Ewan McGregor', 'Ewen Bremner', 'Jonny Lee Miller', 'Kevin McKidd', 'Robert Carlyle', 'Kelly Macdonald', 'Peter Mullan', 'James Cosmo', 'Eileen Nicholas', 'Susan Vidler', 'Pauline Lynch', 'Shirley Henderson', 'Stuart McQuarrie', 'Irvine Welsh', 'Dale Winton', 'Keith Allen', 'Kevin Allen', 'Annie Louise Ross', 'Billy Riddoch', 'Fiona Bell', 'Vincent Friell', 'Hugh Ross', 'Victor Eadie', 'Kate Donnelly', 'Finlay Welsh', 'Eddie Nestor']",4.2,nan,"['Drama', 'Crime']",94,['UK'],English,['English'],"['Figment Films', 'Film4 Productions', 'The Noel Gay Motion Picture Company']",1028062,153548,354557,32000,841,2121,1391,7508,8428,47322,72986,216231,118560,174312,649700,https://letterboxd.com/film/trainspotting/
Se7en,1995,David Fincher,"['Morgan Freeman', 'Brad Pitt', 'Gwyneth Paltrow', 'John Cassini', 'Peter Crombie', 'Reg E. Cathey', 'R. Lee Ermey', 'Daniel Zacapa', 'Andrew Kevin Walker', 'George Christy', 'Endre Hules', 'Hawthorne James', 'Bob Mack', 'William Davidson', 'Bob Collins', 'Jimmy Dale Hartsell', 'Richard Roundtree', 'Charline Su', 'Dominique Jennings', 'Allan Kolman', 'Beverly Burke', 'Gene Borkan', 'Julie Araskog', 'Mario Di Donato', 'Alfonso Freeman', 'John C. McGinley', 'Harrison White', 'Bob Stephenson', 'Michael Reid MacKay', 'Richard Portnow', 'Tudor Sherrard', 'Mark Boone Junior', 'Pamala Tyson', 'Lennie Loftin', 'Sarah Reinhardt', 'Emily Wagner', 'Martin Serene', 'Michael Massee', 'David Correia', 'Ron Blair', 'Jennifer Mueller', 'Leland Orser', 'Lexie Bigham', 'Evan Mirand', 'Paul Eckstein', 'Harris Savides', 'Rachel Flanagan', 'Heidi Schanz', 'Brian Evers', 'Shannon Wilcox', 'Richard Schiff', 'James Deeth', 'John Santin', 'Charles A. Tamburro', 'Richmond Arquette', 'Duffy Gaver', 'Kevin Spacey', 'Charles S. Dutton', 'Arthur Max']",4.33,nan,"['Crime', 'Mystery', 'Thriller']",127,['USA'],English,['English'],"['New Line Cinema', 'Juno Pix', 'Cecchi Gori Pictures']",2335666,316083,917184,44000,966,2658,1768,11301,12506,87988,128008,472029,321345,536073,1574642,https://letterboxd.com/film/se7en/
Forrest Gump,1994,Robert Zemeckis,"['Tom Hanks', 'Robin Wright', 'Gary Sinise', 'Sally Field', 'Mykelti Williamson', 'Michael Conner Humphreys', 'Hanna Hall', 'Haley Joel Osment', 'Siobhan Fallon Hogan', 'Rebecca Williams', 'Bob Penny', 'Harold G. Herthum', 'George Kelly', 'John Randall', 'Sam Anderson', 'Margo Moorer', 'Ione M. Telech', 'Christine Seabrook', 'John Worsham', 'Peter Dobson', 'Alexander Zemeckis', 'Logan Livingston Gomez', 'Ben Waddel', 'Elizabeth Hanks', 'Tyler Long', 'Christopher Jones', 'Grady Bowman', 'Kevin Mangan', 'Fay Genens', 'Frank Geyer', 'Rob Landry', 'Jason McGuire', 'Pete Auster', 'Sonny Shroyer', 'Brett Rice', 'Ed Davis', 'Daniel C. Striepeke', 'Bruce Lucvia', 'David Brisbin', 'Kirk Ward', 'Angela Lomas', 'Timothy Record', 'Deborah McTeer', 'Mark Matheisen', 'Al Harrington', 'Jed Gillin', 'Bob Harks', 'Don Fischer', 'Kenneth Bevington', 'Michael Flannery', 'Gary Robinson', 'Marlena Smalls', 'Kitty K. Green', 'Afemo Omilami', 'Matt Wallace', 'Danté McCarthy', 'Paulie DiCocco', 'Mike Jolly', 'Michael Kemmerling', 'John Voldstad', 'Jeffrey Winner', 'Russ Wilson', 'Daniel J. Gillooly', 'Calvin Gadsden', 'Aaron Izbicki', 'Michael Burgess', 'Steven Griffith', 'Bill Roberson', 'Michael McFall', 'Eric Underwood', 'Steve DeRelian', 'Byron Minns', 'Stephen Bridgewater', 'Bonnie Ann Burgess', 'Scott Oliver', 'John William Galt', 'Hilary Chaplain', 'Isabel Rose', 'Jay Ross', ""Richard D'Alessandro"", 'Dick Stilwell', 'Kevin Davis', 'Michael Jace', 'Geoffrey Blake', 'Tim Perry', 'Vanessa Roth', 'Emily Carey', 'Paul Raczkowski', 'Valentine', 'Dick Cavett', 'Joe Stefanelli', 'Tiffany Salerno', 'Marla Sucharetza', 'Aloysius Gigl', 'Jack Bowden', 'Joe Alaskey', 'Lazarus Jackson', 'W. Benson Terry', 'Matt Rebenkoff', 'Peter Bannon', 'Joe Washington', 'Nora Dunfee', 'Natalie Hendrix Tate', ""Hallie D'Amore"", 'Jim Hanks', 'Chiffonye Cobb', 'Juan Singleton', 'Bobby Richardson', 'Michael Mattison', 'Lenny Herb', 'Charles Boswell', 'Timothy McNeil', 'Lonnie Hamilton', 'Teresa Denton', 'Kurt Russell', 'Mary Ellen Trainor', 'Robb Skyler', 'Michael J. Oliver', 'Bryan Hanna', 'Greg Brown', 'Brendan Shanahan', 'Troy Christian', 'Jacqueline Lovell', 'Zach Hanner', 'Aaron Michael Lacey', 'William Shipman']",4.13,nan,"['Drama', 'Comedy', 'Romance']",142,['USA'],English,['English'],"['Paramount', 'The Steve Tisch Company', 'Wendy Finerman Productions']",3090194,228282,1066639,44000,5098,12098,6431,36520,30207,175371,164527,523899,237658,595361,1787170,https://letterboxd.com/film/forrest-gump/
Pulp Fiction,1994,Quentin Tarantino,"['John Travolta', 'Samuel L. Jackson', 'Uma Thurman', 'Bruce Willis', 'Ving Rhames', 'Harvey Keitel', 'Eric Stoltz', 'Tim Roth', 'Amanda Plummer', 'Maria de Medeiros', 'Quentin Tarantino', 'Christopher Walken', 'Rosanna Arquette', 'Peter Greene', 'Duane Whitaker', 'Angela Jones', 'Phil LaMarr', 'Steve Buscemi', 'Bronagh Gallagher', 'Laura Lovelace', 'Frank Whaley', 'Burr Steers', 'Paul Calderon', 'Jerome Patrick Hoban', 'Michael Gilden', 'Gary Shorelle', 'Susan Griffiths', 'Eric Clark', 'Joseph Pilato', 'Brad Blumenthal', 'Lorelei Leslie', 'Emil Sitka', 'Brenda Hillhouse', 'Chandler Lindauer', 'Sy Sher', 'Robert Ruth', 'Rich Turner', 'Don Blakely', 'Carl Allen', 'Karen Maruyama', 'Kathy Griffin', 'Venessia Valentino', 'Linda Kaye', 'Stephen Hibbert', 'Alexis Arquette', 'Julia Sweeney', 'Lawrence Bender', 'Cie Allman', 'Rene Beard', 'Lori Pizzo', 'Glendon Rich', 'Devan Richardson', 'Ani Sava', 'Richard Rossi']",4.26,nan,"['Crime', 'Thriller']",154,['USA'],English,"['English', 'Spanish', 'French']","['Miramax', 'A Band Apart', 'Jersey Films']",3282811,405013,1452101,70000,4316,11322,4832,34413,25265,167750,155567,588311,334265,830004,2156045,https://letterboxd.com/film/pulp-fiction/
The Silence of the Lambs,1991,Jonathan Demme,"['Jodie Foster', 'Anthony Hopkins', 'Scott Glenn', 'Ted Levine', 'Anthony Heald', 'Brooke Smith', 'Diane Baker', 'Kasi Lemmons', 'Frankie Faison', 'Tracey Walter', 'Charles Napier', 'Danny Darst', 'Alex Coleman', 'Dan Butler', 'Paul Lazar', 'Ron Vawter', 'Roger Corman', 'Lawrence A. Bonney', 'Lawrence T. Wrentz', 'Don Brockett', 'Frank Seals Jr.', 'Stuart Rudin', 'Jeffrie Lane', 'Leib Lensky', ""George 'Red' Schwartz"", 'Jim Roche', 'James B. Howard', 'Bill Miller', 'Chuck Aber', 'Gene Borkan', 'Pat McNamara', 'Kenneth Utt', 'Adelle Lutz', 'Obba Babatundé', 'Jim Dratfield', 'Stanton-Miranda', 'Rebecca Saxon', 'Cynthia Ettinger', 'Brent Hinkley', 'Steve Wyatt', 'David Early', 'Andre B. Blake', 'Bill Dalzell', 'Chris Isaak', 'Daniel von Bargen', 'Tommy Lafitte', 'Josh Broder', 'Buzz Kilman', 'Harry Northup', 'Lauren Roselli', 'Maria Skorobogatov', 'Lamont Arnold', 'John Hall', 'Ted Monte', 'George A. Romero', 'John W. Iwanonkiw', 'Robert W. Castle', 'Chris McGinn', 'Gary Goetzman', 'George Michael']",4.33,nan,"['Horror', 'Crime', 'Thriller', 'Drama']",119,['USA'],English,['English'],"['Orion Pictures', 'Strong Heart']",2269029,321039,871520,36000,981,2545,1466,11179,10822,88965,110042,433591,263495,514931,1438017,https://letterboxd.com/film/the-silence-of-the-lambs/
Dead Poets Society,1989,Peter Weir,"['Robin Williams', 'Ethan Hawke', 'Robert Sean Leonard', 'Gale Hansen', 'Josh Charles', 'Dylan Kussman', 'Allelon Ruggiero', 'James Waterston', 'Norman Lloyd', 'Kurtwood Smith', 'Carla Belver', 'Leon Pownall', 'George Martin', 'Joe Aufiery', 'Matt Carey', 'Kevin Cooney', 'Jane Moore', 'Lara Flynn Boyle', 'Colin Irving', 'Alexandra Powers', 'Melora Walters', 'Welker White', 'Steve Mathios', 'Alan Pottinger', 'Pamela Burrell', 'Allison Hedges', ""Christine D'Ercole"", 'John Cunningham', 'Debra Mooney', 'John Martin Bradley', 'Charles Lord', 'Kurt Leitner', 'James J. Christy', 'Richard Stites', 'Catherine Soles', 'Hoover Sutton', 'James Donnell Quinn', 'Simon Mein', 'Ashton W. Richards', 'Robert Gleason', 'Bill Rowe', 'Robert J. Zigler III', 'Keith Snyder', 'Nicholas K. Gilhool', 'Jonas Stiklorius', 'Craig Johnson', 'Chris Hull', 'Jason Woody', 'Sam Stegeman', 'Andrew Hill', 'Jamie Kennedy', 'Kate Kearney-Patch', 'Jeffrey Santoro']",4.25,nan,['Drama'],128,['USA'],English,"['English', 'Latin']","['Touchstone Pictures', 'Silver Screen Partners IV', 'A Steven Haft Production', 'Witt/Thomas Productions']",1795657,256268,742608,92000,1174,3306,2406,12956,13901,78092,98820,308027,167861,449651,1136194,https://letterboxd.com/film/dead-poets-society/
Back to the Future,1985,Robert Zemeckis,"['Michael J. Fox', 'Christopher Lloyd', 'Crispin Glover', 'Lea Thompson', 'Claudia Wells', 'Thomas F. Wilson', 'Marc McClure', 'Wendie Jo Sperber', 'George DiCenzo', 'Frances Lee McCain', 'Billy Zane', 'J.J. Cohen', 'Casey Siemaszko', 'James Tolkan', 'Harry Waters, Jr.', 'Donald Fullilove', 'Lisa Freeman', 'Cristen Kauffman', 'Elsa Raven', 'Will Hare', 'Ivy Bethune', 'Jason Marin', 'Katherine Britton', 'Jason Hervey', 'Maia Brewton', 'Courtney Gains', 'Richard L. Duran', ""Jeff O'Haco"", 'Johnny Green', 'Jamie Abbott', 'Norman Alden', 'Read Morgan', 'Sachi Parker', 'Robert Krantz', 'Gary Riley', 'Karen Petrasek', 'George Buck Flower', 'Tommy Thomas', ""Granville 'Danny' Young"", 'David Harold Brown', 'Lloyd L. Tolbert', 'Paul Hanson', 'Lee Brownfield', 'Robert DeLapp', 'Tony Pope', 'Charles L. Campbell', 'Huey Lewis', 'Kiki Ebsen', 'Randy Feelgood', 'Hal Gausman', 'Deborah Harmon', 'Arthur Tovey', 'Ethel Sway', 'Janine King', 'Richard Patrick', 'Tom Tangen', 'Tom Willett']",4.2,nan,"['Comedy', 'Science Fiction', 'Adventure']",116,['USA'],English,['English'],"['Universal Pictures', 'Amblin Entertainment']",2364550,237769,809433,51000,1029,3441,2042,17005,16382,127766,133311,402629,173811,435281,1312697,https://letterboxd.com/film/back-to-the-future/
Possession,1981,Andrzej Żuławski,"['Isabelle Adjani', 'Sam Neill', 'Margit Carstensen', 'Heinz Bennent', 'Johanna Hofer', 'Carl Duering', 'Shaun Lawton', 'Michael Hogben', 'Maximilian Rüthlein', 'Leslie Malton', 'Thomas Frey', 'Harry Riebauer', 'Dragomir Stanojević']",4.09,5.0,['Horror'],124,"['France', 'Germany']",English,"['English', 'French', 'German']","['Gaumont', 'Oliane Productions', 'Marianne Productions', 'Soma Film Produktion']",283690,132067,114653,13000,1222,2037,1662,5353,5898,16920,22956,58577,37918,61210,213753,https://letterboxd.com/film/possession/
The Holy Mountain,1973,Alejandro Jodorowsky,"['Alejandro Jodorowsky', 'Horacio Salinas', 'Zamira Saunders', 'Juan Ferrara', 'Adriana Page', 'Burt Kleiner', 'Valerie Jodorowsky', 'Nicky Nichols', 'Richard Rutowski', 'Luis Lomelí', 'Ana De Sade', 'Jacqueline Voltaire', 'Chucho-Chucho', 'Letícia Robles', 'Connie De La Mora', 'David Kapralik', 'Pablo Leder', 'Bobby Cameron', 'Re Debris', 'Lupita Peruyero', 'José Antonio Alcaraz', 'Héctor Ortega', 'Robert Taicher', 'Arielle Dombasle', 'Manuel Dondé', 'Marcela López Rey', 'David Silva', 'Jane Mitchell']",4.15,nan,['Drama'],114,['Mexico'],Spanish,"['Spanish', 'English']",['Producciones Zohar'],147993,54007,53303,5300,941,1058,782,2347,2542,7691,9903,25269,16869,30378,97780,https://letterboxd.com/film/the-holy-mountain/
