Film_title,Release_year,Director,Cast,Average_rating,Owner_rating,Genres,Runtime,Countries,Original_language,Spoken_languages,Studios,Watches,List_appearances,Likes,Fans,½,★,★½,★★,★★½,★★★,★★★½,★★★★,★★★★½,★★★★★,Total_ratings,Film_URL
Dune: Part Two,2024,Denis Villeneuve,"['Timothée Chalamet', 'Zendaya', 'Rebecca Ferguson', 'Javier Bardem', 'Josh Brolin', 'Austin Butler', 'Florence Pugh', 'Dave Bautista', 'Christopher Walken', 'Léa Seydoux', 'Stellan Skarsgård', 'Charlotte Rampling', 'Souheila Yacoub', 'Roger Yuan', 'Babs Olusanmokun', 'Alison Halstead', 'Giusi Merli', 'Kait Tenison', 'Tara Breathnach', 'Akiko Hitomi', 'Imola Gáspár', 'Alison Adnet', 'Hamza Baissa', 'Hassan Najib', 'Jasper Ryan-Carter', 'Elbooz Omar Ahmed Fathie', 'Abdelkarim Hussein Seli Mohamed Hassanin', 'Joseph Beddelem', 'Xavier Alba Royo', 'Rachid Abbad', 'Affif Ben Badra', 'Botond Bóta', 'Abdelaziz Boumane', 'Abdellah Echahbi', 'Zouhair Elakkari', 'Noureddine Hajoujou', 'Mohamed Mouraoui', 'Adil Achraf Sayd', 'Hamza Sayd', 'Hopi Grace', 'Havin Fathi', 'Kincsö Pethö', 'Cat Simmons', 'Burt Caesar', 'Remi Fadare', 'Amer El-Erwadi', 'Tedroy Newell', 'Oxa Hazel', 'Hajiyeva Pakiza', 'Leon Herbert', 'Sima Rostami', 'Yvonne Campbell', 'Joseph Charles', 'Vic Zander', 'Dylan Baldwin', 'Marcia Tucker', 'Nicola Brome', 'Kathy Owen', 'Huw Novelli', 'Moe Bar-El', 'Serhat Metin', 'Amra Mallassi', 'Adam Bloom', 'Luis Alkmim', 'Jordan Long', 'Omar A.K.', 'Zdeněk Dvořáček', 'Billy Clements', 'Anton Saunders', 'Lex Daniel', 'Dominic McHale', 'Paul Boyle', 'Niall White', 'Tony Cook', 'Gábor Szemán', 'Jonathan Gunning', 'Will Irvine', 'Alan Mehdizadeh', 'Rex Adams', 'Molly Mcowan', 'Ana Cilas', 'Kajsa Mohammar', 'Sára Bácsfalvi', 'Kocsis Zsofia', 'Matthew Sim', 'Steve Wall', 'Italo Amerighi', 'Tim Hilborne', 'Cecile Sinclair', 'Tracy Coogan', 'Zoe Kata Kaska', 'Jimmy Walker', 'Rand Faris', 'Fouad Humaidan', 'Manaf Irani', 'Dora Kápolnai-Schvab', 'Joelle', 'Anya Taylor-Joy', 'Peter Sztojanov Jr.', 'Alexandra Tóth']",4.48,5.0,"['Adventure', 'Science Fiction']",167,['USA'],English,['English'],['Legendary Pictures'],1571014,253537,742150,47000,1490,2457,1681,8128,11559,46752,79354,274579,329597,630854,1386451,https://letterboxd.com/film/dune-part-two/
Aquaman and the Lost Kingdom,2023,James Wan,"['Jason Momoa', 'Patrick Wilson', 'Yahya Abdul-Mateen II', 'Randall Park', 'Amber Heard', 'Nicole Kidman', 'Dolph Lundgren', 'Temuera Morrison', 'Indya Moore', 'Pilou Asbæk', 'Jani Zhao', 'Vincent Regan', 'Martin Short', 'John Rhys-Davies', 'Natalia Safran', 'Samuel Gosrani', 'Jay Rincon', 'Sohm Kapila', 'Ricardo Molina', 'Ingrid Bisu', 'Grant Huggair', 'Osian Roberts', 'Jonny Vaughton', 'Jay McDonald', 'Jonathan Bremner', 'Jack Waldouck', 'Tyler Burger', 'Maddox Cruz-Porter', 'River Ao Moemoeā Green', 'Nikau Keats Green', 'Bodhi McCabe', 'Elliot Oben-Perpa', 'Lucian Oben-Perpa', 'Arthur Rowe-Mayer', 'Noah Rowe-Mayer', 'Julie Chang', 'Mark Kwak', 'Dylan Silver', 'Jon Birkbeck', 'Michael Beach']",2.21,2.5,"['Fantasy', 'Action', 'Adventure']",124,['USA'],English,"['English', 'Chinese', 'Korean']","['Warner Bros. Pictures', 'The Safran Company', 'Atomic Monster', 'DC Films', 'Domain Entertainment']",181860,53513,22258,54,5833,12825,14693,32392,29364,33866,13133,7937,1230,2761,154034,https://letterboxd.com/film/aquaman-and-the-lost-kingdom/
Wonka,2023,Paul King,"['Timothée Chalamet', 'Calah Lane', 'Keegan-Michael Key', 'Hugh Grant', 'Paterson Joseph', 'Olivia Colman', 'Tom Davis', 'Jim Carter', 'Rowan Atkinson', 'Matt Lucas', 'Mathew Baynton', 'Natasha Rothwell', 'Rakhee Thakrar', 'Rich Fulcher', 'Kobna Holdbrook-Smith', 'Simon Farnaby', 'Ellie White', 'Sally Hawkins', ""Colin O'Brien"", 'Freya Parker', 'Murray McArthur', 'Charlotte Ritchie', 'Phil Wang', 'Rufus Jones', 'Isy Suttie', 'Ian Bartholomew', 'Sophie Winkleman', 'Justin Edwards', 'Michael Abubakar', 'Tim Fitzhigham', 'Jane Bertish', 'Tracy Ifeachor', 'Dominic Coleman', 'Muzz Khan', 'Ben Howard', 'Alison Pargeter', 'Bleu Woodward', 'Paul G. Raymond', 'Lola Shepelev', 'Marina Bye', 'Robyn Rose', ""Millie O'Donnell"", 'Susie Fairfax', 'Macie Blake', 'Ellie Blake', 'Matilda Tucker', 'Bertie Caplan', 'Gustave Die']",3.28,3.5,"['Comedy', 'Fantasy', 'Family']",117,"['UK', 'USA']",English,['English'],"['Warner Bros. Pictures', 'Village Roadshow Pictures', 'The Roald Dahl Story Company', 'Heyday Films', 'Domain Entertainment']",973792,129379,259104,1800,6713,15276,12617,52240,63848,189625,176648,199919,47676,68661,833223,https://letterboxd.com/film/wonka/
Scott Pilgrim Takes Off,2023,"Abel Góngora, Tomohisa Shimoyama","['Michael Cera', 'Mary Elizabeth Winstead', 'Satya Bhabha', 'Kieran Culkin', 'Chris Evans', 'Brie Larson', 'Alison Pill', 'Brandon Routh', 'Jason Schwartzman', 'Mae Whitman', 'Anna Kendrick', 'Aubrey Plaza', 'Johnny Simmons', 'Mark Webber', 'Ellen Wong']",4.16,2.5,"['Animation', 'Comedy']",217,"['Japan', 'UK', 'USA']",English,"['English', 'French', 'Japanese']","['Science SARU', 'UCP', 'Complete Fiction', 'Marc Platt Productions']",109143,10308,55608,393,178,265,255,881,1274,5009,9688,26471,19003,25012,88036,https://letterboxd.com/film/scott-pilgrim-takes-off-2023/
No One Will Save You,2023,Brian Duffield,"['Kaitlyn Dever', 'Elizabeth Kaluev', 'Zack Duhame', 'Lauren L. Murray', 'Geraldine Singer', 'Dane Rhodes', 'Evangeline Rose', 'Dari Lynn Griffin', 'Emani White', 'Daniel Rigamer', 'Gabrielle Bordlee Mauro', 'Tenaj L. Jackson', 'Nathalie J. Alarcon', 'John Cortes', 'Ginger Cressman', 'Rose Bianca Grue', 'Bridget Malbrough', 'Devyn Sandidge']",3.04,4.0,"['Science Fiction', 'Thriller', 'Horror']",93,['USA'],English,['English'],"['20th Century Studios', 'Star Thrower Entertainment']",206346,51627,45800,83,1903,4353,4545,15638,20329,47772,41458,30512,5453,5286,177249,https://letterboxd.com/film/no-one-will-save-you/
When Evil Lurks,2023,Demián Rugna,"['Ezequiel Rodríguez', 'Demián Salomón', 'Silvina Sabater', 'Virginia Garófalo', 'Emilio Vodanovich', 'Marcelo Michinaux', 'Lucrecia Niron Talazac', 'Luis Ziembrowski', 'Paula Rubinsztein', 'Isabel Quinteros', 'Desirée Salgueiro', 'Federico Liss', 'Ricardo Velázquez', 'Jorge Prado', 'Diego Sampayo', 'Pedro Larrabide', 'Cleo Díaz', 'Agostina Aguilera', 'Julián César López', 'Maria Celina Carbajal', 'Pablo Galarza', 'Gonzalo Galarza', 'Sebastián Muñiz']",3.58,3.5,"['Horror', 'Thriller']",99,"['Argentina', 'USA']",Spanish,['Spanish'],"['Machaco Films', 'La Puerta Roja', 'Aramos Cine', 'Shudder', 'Cine Argentino', 'INCAA']",175136,47793,56357,539,648,1260,1445,5238,7535,22367,33007,49882,16703,16101,154186,https://letterboxd.com/film/when-evil-lurks/
Asteroid City,2023,Wes Anderson,"['Jason Schwartzman', 'Scarlett Johansson', 'Tom Hanks', 'Jeffrey Wright', 'Tilda Swinton', 'Bryan Cranston', 'Edward Norton', 'Adrien Brody', 'Liev Schreiber', 'Hope Davis', 'Steve Park', 'Rupert Friend', 'Maya Hawke', 'Steve Carell', 'Matt Dillon', 'Willem Dafoe', 'Tony Revolori', 'Jake Ryan', 'Grace Edwards', 'Aristou Meehan', 'Sophia Lillis', 'Ethan Josh Lee', 'Ella Faris', 'Gracie Faris', 'Willan Faris', 'Deanna Dunagan', 'Vandi Clark', 'Pedro Placer', 'Iván López', 'Aaron Ziobrowski', 'Celia Bermejo', 'Zoe Bernard', 'Brayden Frasure', 'Preston Mota', 'Kyleigh Fuller', 'Henry Rhoades', 'Jack Eyman', 'Willa Skye', 'Annalise Mackulin', 'Calhoun Metcalf', 'Seu Jorge', 'Jarvis Cocker', 'Pere Mallén', ""Jean-Yves Lozac'h"", 'Damien Bonnard', 'Ramón Ródenas', 'Wendy Nottingham', 'Bob Balaban', 'Fisher Stevens', 'Mike Maggart', 'Elvira Arce', 'Nicolas Avinée', 'Mohamed Belhadjine', 'Katy Heffernan-Smith', 'Jeff Goldblum', 'Hong Chau', 'Paul Kynman', 'Sam Marra', 'Rita Wilson', 'Ara Hollyday', 'Kenneth Bate', 'Christian Bate', 'Margot Robbie', 'Sandy Hamilton', 'Roberto Moreno de Matias', 'Francisco Serrano', 'Francisco Javier Gomez', 'Jacinto Domingo Torija', 'Alvaro Olivas Marques', 'Dominique Fouassier', 'Pablo Amoros', 'Yann Tremblay', 'Sébastien Fouassier', 'Carlos Arimón', 'Antonio Graziano', 'Nuria Gigorro', 'Raquel Jiménez Martinez', 'Jorge Francisco Mena Garcia', 'Ana Isabel Comendador Martínez', 'Carlos Saez', 'Karine Niederman', 'Jesús Olivas Santos', 'Jose Luis Figueroa', 'Pascale Coppola', 'Matilda Clarke', 'Milagros Ahijon', 'Paula Domingo', 'Crístian García Jiménez', 'Junior Harris', 'Robert Tattam', 'Eusebio Mateo Diaz', 'Stéphane Bak', 'Tom Hudson', 'Rodolphe Pauly', 'Aimee Mullins', 'Valérie Sadoun', 'Erica Dorn', 'Julia Kruger', 'Anisse Elias', 'Rebecca Cornford', 'Avery Looser', 'Guy Trevellyan', 'Truman Hanks', 'Honor Northridge', 'Eliel Ford', 'Caris Yeoman', 'Yann Pozzoli', 'Sonia Gascón', 'Mariam Huélamo', 'Timothy Cordukes', 'Carmen Méndez', 'Ainhoa Aldanondo', 'Marta Rubio', 'Marcos Pereiro', 'Susana Hornos', 'Alicia San Lorenzo', 'Palmira Ferrer', 'Jose Antonio Turiégano Carrasco', 'Pilar Ramírez Escalona', 'Virginia Romano Álvarez', 'Milagros Reyeros Ruiz', 'Jonatan Buitrago Díaz', 'Ricardo Mohedas Tiñana', 'Carlos Arroyo', 'Ismael González Carrasco', 'Celedonio Guijarro Cano', 'Juan Abad Molina', 'Patricia Colin', 'Elena Uriz', 'Jose Segovia Ortiz', 'Enrique Ruiz Granado', 'Juan Carlos Iglesias Gómez', 'Oscar Minguez Garcia-Patron', 'Guillermo García', 'David Navarro Romero', 'Javier Gigorro de las Peñas', 'Alejandro García Aparicio', 'Diego Maldonado Davila', 'David Rodríguez Moreno', 'Mario Perez Lomas', 'Alejandro Urbina Escalona', 'David Verdejo Escribano', 'Adrián Corpa Fernández', 'Jesús Jiménez Caler', 'Francisco Corrales Rubio', 'Sergio Martinez Martinez', 'Félix Israel Pinilla de la Guia', 'Jay Lau', 'Mario Turiégano Delgado', 'Pedro Padilla Perez', 'Randall Poster', 'Matthew Frasure', 'Chris Faris', 'Erika Godwin', 'Sara Greisberg', 'Manuela Martinez Zafra', 'Juana Andueza']",3.53,4.0,"['Comedy', 'Drama']",105,['USA'],English,['English'],"['American Empirical Pictures', 'Indian Paintbrush']",851740,200866,251811,2900,3104,8403,7342,33625,43561,131198,152177,197066,69886,50829,697191,https://letterboxd.com/film/asteroid-city/
Evil Dead Rise,2023,Lee Cronin,"['Lily Sullivan', 'Alyssa Sutherland', 'Morgan Davies', 'Gabrielle Echols', 'Nell Fisher', 'Mark Mitchinson', 'Jayden Daniels', 'Mirabai Pease', 'Tai Wano', 'Noah Paul', 'Melissa Xiao', 'Billy Reynolds-McCarthy', 'Richard Crouchley', 'Anna-Maree Thomas']",3.18,2.0,"['Horror', 'Thriller']",96,"['Ireland', 'New Zealand', 'USA']",English,['English'],"['Warner Bros. Pictures', 'New Line Cinema', 'Pacific Renaissance Pictures', 'Renaissance Pictures', 'Ghost House Pictures', 'Wild Atlantic Pictures']",559863,123305,144949,1000,6327,12254,10135,35298,39892,104756,100692,107393,25950,28696,471393,https://letterboxd.com/film/evil-dead-rise/
Ant-Man and the Wasp: Quantumania,2023,Peyton Reed,"['Paul Rudd', 'Evangeline Lilly', 'Jonathan Majors', 'Kathryn Newton', 'Michelle Pfeiffer', 'Michael Douglas', 'Corey Stoll', 'Bill Murray', 'William Jackson Harper', 'David Dastmalchian', 'Jamie Andrew Cutler', ""Katy O'Brian"", 'Mark Weinman', 'Randall Park', 'Ross Mullan', 'Tom Clark', 'Leon Cooke', 'Nathan Blees', 'Durassie Kiangangu', 'Liran Nathan', 'Sam Symons', 'Grahame Fox', 'Nicola Peluso', 'Harrison Daniels', 'Brahmdeo Shannon Ramana', 'Russell Balogh', 'Leonardo Taiwo', 'Osian Roberts', 'Lucas Gerstel', 'Mia Gerstel', 'Tracy Jeffrey', 'Dinah Jeffrey', 'Judy Jeffrey', 'John Nayagam', 'Greta Nayagam', 'Cathy Chan', 'Adam Sai', 'Jamie Sai', 'Jakari Fraser', 'Patricia Belcher', 'Mark Oliver Everett', 'Ruben Rabasa', 'Melanie Garcia', 'Gregg Turkington', 'Sierra Katow', 'Ryan Bergara', 'Marielle Scott', 'Jake Millgard', 'Dey Young', 'Briza Covarrubias', 'Tess Aubert', 'David J. Castillo', 'Sir Cornwell', 'Alan Heitz', 'Esther McAuley', 'Aisling Mara Andreica', 'Milton Lopes', 'Roger Craig Smith', 'Matthew Wood', 'Loveday Smith', 'John Townsend', 'Tom Hiddleston', 'Owen Wilson', 'Abby Ryder Fortson']",2.27,2.5,"['Adventure', 'Science Fiction', 'Action']",125,['USA'],English,"['English', 'Georgian']","['Marvel Studios', 'Kevin Feige Productions']",720963,173013,88018,90,24811,47386,48566,114975,102434,129125,53729,31891,4413,8294,565624,https://letterboxd.com/film/ant-man-and-the-wasp-quantumania/
Infinity Pool,2023,Brandon Cronenberg,"['Alexander Skarsgård', 'Mia Goth', 'Cleopatra Coleman', 'Jalil Lespert', 'Adam Boncz', 'Amanda Brugel', 'John Ralston', 'Jeff Ricketts', 'Caroline Boulton', 'Thomas Kretschmann', 'Roderick Hill', 'Alan Katić', 'Alexandra Tóth', 'Dunja Sepčić Bogner', 'Zijad Gračić', 'Amar Bukvić', 'Katalin Lábán', 'Kamilla Fátyol', 'Lena Juka Stambuk', 'Kristóf Kovács', 'Romina Tonković', 'Hajnalka Zsigár', 'Anita Major', 'Gergely Trócsányi', 'Géza Kovács']",3.15,3.0,"['Science Fiction', 'Horror']",118,"['Canada', 'France', 'Hungary', 'USA']",English,['English'],"['Topic Studios', 'Elevation Pictures', 'Film Forge Productions', 'Hero Squared', 'Celluloid Dreams', 'NEON', 'Téléfilm Canada', 'Eurimages']",328680,89662,72549,542,3351,7021,7013,23315,29201,66465,60221,56407,12628,10322,275944,https://letterboxd.com/film/infinity-pool/
Puss in Boots: The Last Wish,2022,Joel Crawford,"['Antonio Banderas', 'Salma Hayek Pinault', 'Harvey Guillén', 'Wagner Moura', 'Florence Pugh', 'Olivia Colman', 'Ray Winstone', 'Samson Kayo', 'John Mulaney', ""Da'Vine Joy Randolph"", 'Anthony Mendez', 'Kevin McCann', 'Bernardo de Paula', 'Betsy Sodaro', 'Artemis Pebdani', 'Conrad Vernon', 'Cody Cameron', 'Kailey Crawford', 'Al Rodrigo', 'Bob Persichetti', 'Miguel Matrai', 'Pilar Uribe', 'Heidi Gardner', 'Joel Crawford', 'Januel Mercado', 'James Ryan', 'Natalia Cronembold', 'Paul Fisher', 'Aydrea Walden']",4.15,4.0,"['Animation', 'Family', 'Fantasy', 'Action', 'Comedy', 'Adventure']",103,['USA'],English,"['English', 'Spanish']",['DreamWorks Animation'],1246371,175521,509940,8800,809,2363,1569,9821,12361,67923,111073,312674,193288,276495,988376,https://letterboxd.com/film/puss-in-boots-the-last-wish/
Black Panther: Wakanda Forever,2022,Ryan Coogler,"['Letitia Wright', 'Tenoch Huerta Mejía', ""Lupita Nyong'o"", 'Danai Gurira', 'Winston Duke', 'Dominique Thorne', 'Angela Bassett', 'Florence Kasumba', 'Michaela Coel', 'Mabel Cadena', 'Lake Bell', 'Alex Livinalli', 'Robert John Burke', 'Danny Sapani', 'Isaach De Bankolé', 'Connie Chiume', 'Martin Freeman', 'Julia Louis-Dreyfus', 'Richard Schiff', 'Michael B. Jordan', 'Dorothy Steel', 'Zainab Jah', 'Sope Aluko', 'Trevor Noah', 'Shawn Roberts', 'Zola Williams', 'Janeshia Adams-Ginyard', 'Jemini Powell', 'Marija Abney', 'Keisha Tucker', 'Ivy Haralson', 'Maya Macatumpag', 'Baaba Maal', 'Jabari Exum', 'Massamba Diop', 'Magatte Saw', 'Gerardo Aldana', 'Gigi Bermingham', 'Rudolph Massanga', 'Judd Wild', 'Amber Harrington', 'Michael Blake Kruse', 'Justin James Boykin', 'Anderson Cooper', 'Mackenro Alexander', 'Kamaru Usman', 'T. Love', 'Floyd Anthony Johns Jr.', 'Jermaine Brantley', 'Granger Summerset II', 'Luke Lenza', 'Alan Wells', 'Bill Barrett', 'Lieiry J. Perez Escalera', 'Sevyn Hill', 'Gavin Macon', 'Skylar Ebron', 'Taylor Holmes', 'Angela Cipra', 'Faya Madrid', 'María Telón', 'María Mercedes Coroy', 'Josué Maychi', 'Sal Lopez', 'Irma Estella La Guerre', 'Manuel Chavez', 'Leonardo Castro', 'Juan Carlos Cantu', 'Shawntae Hughes', 'Corey Hibbert', 'Zaiden James', 'Aba Arthur', 'Délé Ogundiran', 'Kevin Changaris', 'Valerio Dorvillen', 'Don Castor', 'Jonathan González Collins', 'Divine Love Konadu-Sun', 'Chadwick Boseman']",3.36,2.0,"['Adventure', 'Science Fiction', 'Action']",162,['USA'],English,"['English', 'French', 'Haitian, Haitian Creole', 'Spanish', 'Xhosa']",['Marvel Studios'],1043219,198454,263461,5500,5102,11557,12195,46627,61542,159627,155582,184215,55310,78864,770621,https://letterboxd.com/film/black-panther-wakanda-forever/
Halloween Ends,2022,David Gordon Green,"['Jamie Lee Curtis', 'Andi Matichak', 'Rohan Campbell', 'Will Patton', 'James Jude Courtney', 'Kyle Richards', 'Omar J. Dorsey', 'Jesse C. Boyd', 'Joanne Baron', 'Rick Moose', 'Michael Barbieri', 'Destiny Mone', 'Joey Harris', 'Marteen', ""Michael O'Leary"", 'Michele Dawson', 'Keraun Harris', 'Jaxon Goldenberg', 'Candice Rose', 'Jack William Marshall', 'Diana Prince', 'Diva Tyler', 'Blaque Fowler', 'Holli Saperstein', 'Tony DeMil', 'Jibrail Nantambu', 'Nick Castle', 'Robbie Johnson', 'Emily Brinks', 'Nicky Lawrence', 'Will Baker', 'Judy Greer', 'Drew Scheid', 'Dylan Arnold', 'Michael Smallwood', 'Carmela McNeal', 'Nancy Kyes', 'Turcotte Nancy', 'Leila Wilson', 'Matt Meece', 'Jimmie Cummings', 'Montarius Dailey', 'Steven Williby', 'Javanna Rogers', 'Jon Bruce', 'Dave Brown', 'Joey Brinkley', 'Stephanie McIntyre', 'William Brooks Perez', 'Joseph D. Webb', 'Dawn Lasusky', 'Russel Bryan Winstead']",2.11,0.5,"['Horror', 'Thriller']",111,['USA'],English,['English'],"['Universal Pictures', 'Blumhouse Productions', 'Miramax', 'Rough House Pictures', 'Trancas International Films']",264583,82003,34395,131,15052,27310,23757,43608,29964,34747,16483,13365,2537,4259,211082,https://letterboxd.com/film/halloween-ends/
The Fabelmans,2022,Steven Spielberg,"['Gabriel LaBelle', 'Michelle Williams', 'Paul Dano', 'Seth Rogen', 'Judd Hirsch', 'David Lynch', 'Jeannie Berlin', 'Julia Butters', 'Keeley Karsten', 'Sam Rechner', 'Mateo Zoryan Francis-DeFord', 'Chloe East', 'Isabelle Kusman', 'Robin Bartlett', 'Oakes Fegley', 'Sophia Kopera', 'Birdie Borria', 'Alina Brace', 'Chandler Lovelle', 'Gustavo Escobar', 'Nicolas Cantu', 'Cooper Dodson', 'Gabriel Bateman', 'Stephen Matthew Smith', 'Lane Factor', 'James Urbaniak', 'Alex Quijano', 'Kalama Epstein', 'Connor Trinneer', 'Greg Grunberg', 'Jan Hoag', 'Carlos Javier Castillo', 'Ezra Buzzington', 'Paul Chepikian', 'Brinly Marum', 'Mason Bumba', 'Mary M. Flynn', 'Adriel Porter', 'Tia Nalls', 'Larkin Campbell', 'Harper Dustin', 'Crystal the Monkey', 'Art Bonilla', 'Meredith VanCuyk', 'Vera Myers', 'Cody Mitchell', 'Caroline Anna-Kaye Green', 'Rob Shiells', 'Julyah Rose', 'April Elize', 'Jonathan Moorwood', 'Ari Davis', 'Jared Becker', 'Kendal Evans', 'Trang Vo', 'Alejandro Fuenzalida', 'Orion Hunter', 'Samantha Rose Gomez', 'Taylor Hall', 'Sarah Hamilton', 'Paige Locke', 'Marissa McBride', 'Malachi Mickelonis', 'Max David Weinberg', 'Cameron Hennings']",4.01,5.0,['Drama'],151,['USA'],English,"['English', 'Portuguese']","['Amblin Entertainment', 'Reliance Entertainment']",524747,173920,187586,3400,734,1772,1817,7970,11574,42036,66865,140577,85560,74346,433251,https://letterboxd.com/film/the-fabelmans/
Pearl,2022,Ti West,"['Mia Goth', 'David Corenswet', 'Tandi Wright', 'Matthew Sunderland', 'Emma Jenkins-Purro', 'Alistair Sewell', 'Amelia Reid', 'Gabe McDonnell', 'Lauren Stewart', 'Todd Rippon', 'Grace Acheson']",3.75,4.0,"['Horror', 'Drama']",102,['USA'],English,"['English', 'German']","['A24', 'Little Lamb Productions']",987543,217704,374964,18000,1954,4814,4303,19677,27212,108010,142272,263833,89317,155171,816563,https://letterboxd.com/film/pearl-2022/
Terrifier 2,2022,Damien Leone,"['Lauren LaVera', 'David Howard Thornton', 'Elliott Fullam', 'Sarah Voigt', 'Kailey Hyman', 'Casey Hartnett', 'Charlie McElveen', 'Amelie McLain', 'Johnath Davis', 'Samantha Scaffidi', 'Leah Voysey', 'Chris Jericho', 'Felissa Rose', 'Owen Myre', 'Griffin Santopietro', 'Devon Roth', 'Amy Russ', 'Cory DuVal', 'Staci Dickerson', 'Marisa Bertani', 'Tamara Glynn', 'Reid Richards', 'Sarah Grace Sanders', ""Ava O'Donnell"", 'Briana Calcagno', 'Katie Maguire', 'Gilbrando Acevedo', 'Mark A. Langston', 'Wesley Holloway', 'Geordie McGillivray', 'Rob Gabriele', 'Phil Falcone', 'Thomas Rickman', 'Thomas Smith', 'Miche Brill', 'Sarah Brill', 'Robert Privitera', 'Rachel Keefe', 'Jamie Root', 'Scott Klausen', 'Jenna Kanell', 'Catherine Corcoran', 'Gino Cafarelli', 'Matt McAllister', 'Erick Zamora', 'Damien Leone', 'Rick Styczynski', 'Loren W. Lepre', 'Michael Leavy', 'Michelle Santiago', 'Ryan James', 'Ross Caudill Jr.', 'Matthew Hammond', 'Jonathan A. Streetzel', 'Craig Sapenoff', 'Jackie Adragna', 'Marcus Slabine', 'Steven Kiseleski', 'Johnny Ferri', 'Joshua Kirpach', 'Sheri Fairchild', 'Jason Leavy', 'Steven Della Salla', 'Dettric Jones']",2.8,4.0,"['Horror', 'Thriller']",138,['USA'],English,['English'],"['Dark Age Cinema', 'Fuzz on the Lens Productions', 'Bloody Disgusting']",204490,50156,45568,917,7540,10111,8499,20004,19466,36452,25713,25036,6483,9688,168992,https://letterboxd.com/film/terrifier-2/
Skinamarink,2022,Kyle Edward Ball,"['Lucas Paul', 'Dali Rose Tetreault', 'Ross Paul', 'Jaime Hill', 'Kyle Edward Ball']",2.86,3.0,['Horror'],100,['Canada'],English,['English'],['ERO Picture Company'],175653,52312,44031,1200,9817,11435,7292,15651,13282,23537,18213,24152,8798,11773,143950,https://letterboxd.com/film/skinamarink/
The Northman,2022,Robert Eggers,"['Alexander Skarsgård', 'Nicole Kidman', 'Claes Bang', 'Anya Taylor-Joy', 'Ethan Hawke', 'Gustav Lindh', 'Elliott Rose', 'Willem Dafoe', 'Phill Martin', 'Eldar Skar', 'Olwen Fouéré', 'Edgar Abram', 'Jack Gassmann', 'Ingvar E. Sigurðsson', 'Oscar Novak', 'Jack Walsh', 'Björk', 'Ian Whyte', 'Katie Pattinson', 'Andrea O’Neill', 'Rebecca Ineson', 'Kate Dickie', 'Ísadóra Bjarkardóttir Barney', 'Kevin Horsham', ""Seamus O'Hara"", 'Scott Sinclair', 'Tadhg Murphy', 'James Yates', 'Hafþór Júlíus Björnsson', 'Ian Gerard Whyte', 'Ralph Ineson', 'Murray McArthur', 'Nille Glæsel', 'Jonas Lorentzen', 'Magne Osnes', 'Ineta Sliuzaite', 'Finn Lafferty', 'Jon Campling', 'Helen Roche', 'Faoileann Cunningham', 'Gareth Parker', 'Mark Fitzgerald', 'Gavin Peden', 'Joel Hicks', 'Chris Finlayson', 'Eric Higgins', 'Matt Symonds', 'Luca Evans', 'James Harper-Jones', 'Thomas Harper-Jones', 'Lily Bird', 'Sunil Beniwal', 'Michael McGeown', 'Peter Vamos', 'Sheila Flitton']",3.79,3.0,"['Fantasy', 'Adventure', 'Action']",137,['USA'],English,"['English', 'Icelandic']","['New Regency Pictures', 'Square Peg', 'Regency Enterprises']",730438,155090,228779,2600,2326,5770,4547,19518,23629,76461,108429,198313,89012,62385,590390,https://letterboxd.com/film/the-northman/
X,2022,Ti West,"['Mia Goth', 'Jenna Ortega', 'Brittany Snow', 'Kid Cudi', 'Martin Henderson', 'Owen Campbell', 'Stephen Ure', 'James Gaylyn', 'Simon Prast', 'Geoff Dolan', 'Matthew J. Saville', 'Bryony Skillington', 'Karen Gillan']",3.42,4.0,"['Mystery', 'Thriller', 'Horror']",106,['USA'],English,['English'],"['A24', 'Little Lamb Productions']",1162251,220718,350291,5300,5162,11753,10847,44684,58627,194052,208858,256170,62073,88154,940380,https://letterboxd.com/film/x-2022/
Everything Everywhere All at Once,2022,"Daniel Scheinert, Daniel Kwan","['Michelle Yeoh', 'Stephanie Hsu', 'Ke Huy Quan', 'James Hong', 'Jamie Lee Curtis', 'Tallie Medel', 'Jenny Slate', 'Harry Shum Jr.', 'Biff Wiff', 'Sunita Mani', 'Aaron Lazar', 'Brian Le', 'Andy Le', 'Neravana Cabral', 'Chelsey Goldsmith', 'Craig Henningsen', 'Anthony Molinari', 'Dan Brown', 'Anthony N.', 'Cara Marie Chooljian', 'Randall Archer', 'Efka Kvaraciejus', 'Peter Banifaz', 'Audrey Wasilewski', 'Li Jing', 'Dylan Henry Lau', 'Boon Pin Koh', 'Timothy Eulich', 'Daniel Scheinert', 'Michiko Nishiwaki', 'Jane Lui', 'Jason Hamer', 'Timothy Ralston', 'Hiroshi Yada', 'Randy Newman', 'Amanda MacLeod']",4.31,1.5,"['Science Fiction', 'Action', 'Adventure']",140,['USA'],English,"['English', 'Cantonese', 'Chinese']","['A24', 'IAC Films', 'AGBO', 'Ley Line Entertainment', 'TPC', 'Year of the Rat']",2850489,489137,1445419,128000,9450,19831,9941,46043,36369,140843,145192,439723,350629,1104594,2302615,https://letterboxd.com/film/everything-everywhere-all-at-once/
The Batman,2022,Matt Reeves,"['Robert Pattinson', 'Zoë Kravitz', 'Paul Dano', 'Jeffrey Wright', 'John Turturro', 'Peter Sarsgaard', 'Andy Serkis', 'Colin Farrell', 'Jayme Lawson', 'Gil Perez-Abraham', 'Peter McDonald', ""Con O'Neill"", 'Alex Ferns', 'Rupert Penry-Jones', 'Charlie Carver', 'Max Carver', 'Barry Keoghan', 'Kosha Engler', 'Archie Barnes', 'Janine Harouni', 'Hana Hrzic', 'Joseph Walker', 'Luke Roberts', 'Oscar Novak', 'Stella Stocker', 'Sandra Dickinson', 'Jack Bennett', 'Andre Nightingale', 'Richard James-Neale', 'Lorraine Tai', 'Joseph Balderrama', 'James Eeles', 'Dave Simon', 'Angela Yeoh', 'Leemore Marrett Jr.', 'Ezra Elliott', 'Itoya Osagiede', 'Stewart Alexander', 'Adam Rojko Vega', 'Heider Ali', 'Marcus Onilude', 'Elena Saurel', 'Ed Kear', 'Sid Sagar', 'Amanda Blake', 'Todd Boyce', 'Brandon Bassir', 'Will Austin', 'Chabris Napier-Lawrence', 'Douglas Russell', 'Phil Aizlewood', 'Mark Killeen', 'Philip Shaun McGuinness', 'Lorna Brown', 'Elliot Warren', 'Jay Lycurgo', 'Stefan Race', 'Elijah Baker', 'Craige Middleburg', 'Akie Kotabe', 'Spike Fearn', 'Urielle Klein-Mekongo', 'Bronson Webb', 'Madeleine Gray', 'Ste Johnston', 'Arthur Lee', 'Parry Glasspool', 'Jordan Coulson', 'Hadas Gold', 'Pat Battle', 'Bobby Cuza', 'Dean Meminger', 'Roma Torre', 'Mike Capozzola', 'Amanda Hurwitz', 'Joshua Eldridge-Smith', 'Daniel Rainford', 'Nathalie Armin', 'Jose Palma', 'Kazeem Tosin Amore', 'Rodrig Andrisan', 'Craig Douglas']",3.98,4.0,"['Crime', 'Mystery', 'Thriller']",177,['USA'],English,['English'],"['6th & Idaho', 'Dylan Clark Productions', 'DC Films', 'Warner Bros. Pictures']",2838383,383781,1215784,43000,4593,15243,8211,56556,48287,243698,258112,691889,362361,487194,2176144,https://letterboxd.com/film/the-batman/
Texas Chainsaw Massacre,2022,David Blue Garcia,"['Sarah Yarkin', 'Elsie Fisher', 'Mark Burnham', 'Jacob Latimore', 'Moe Dunford', 'Olwen Fouéré', 'Jessica Allain', 'Nell Hudson', 'Alice Krige', 'William Hope', 'Jolyon Coy', 'Sam Douglas', 'John Larroquette']",1.83,1.0,"['Thriller', 'Horror']",83,['USA'],English,['English'],"['Legendary Pictures', 'Bad Hombre', 'Exurbia Films']",230382,46398,20966,56,22149,33071,23888,35970,21694,23998,9462,7029,962,2214,180437,https://letterboxd.com/film/texas-chainsaw-massacre/
Halloween Kills,2021,David Gordon Green,"['Jamie Lee Curtis', 'Judy Greer', 'Andi Matichak', 'James Jude Courtney', 'Nick Castle', 'Airon Armstrong', 'Will Patton', 'Thomas Mann', 'Jim Cummings', 'Dylan Arnold', 'Robert Longstreet', 'Anthony Michael Hall', 'Charles Cyphers', 'Scott MacArthur', 'Michael McDonald', 'Ross Bacon', 'Kyle Richards', 'Nancy Stephens', 'Diva Tyler', 'Lenny Clarke', 'Brian Mays', 'Michael Smallwood', 'Carmela McNeal', 'Omar J. Dorsey', 'Damien Lee', 'Salem Collins', 'Giselle Witt', 'J. Gaven Wilde', 'Tom Jones Jr.', 'Colin Mahan', 'Trenell Mooring', 'Troy Rudeseal', 'Brian F. Durkin', 'Andrea Levesque', 'Arianna Levesque', 'Athena Levesque', 'Tristian Eggerling', 'Beth Felice', 'Mark Versnick', 'Jennifer Trudrung', 'Drew Scheid', 'Holli Saperstein', 'Jonathan Bruce', 'Mike Dupree', 'Naomi Ansano', 'Kelvin Hargrove', 'Nicholas Pryor', 'James Northrup', 'Elaine Nalee', 'Steven Foertsch', 'Tatiyana Hill', 'Michael Mercaldi', 'Salem Murphy', 'Shayla Bagir', 'Shane Donovan Lewis', 'Jessica Arden Napier', 'Ella Dorsch', 'Ryan Lewis', 'Jacob Keohane', 'Charlie Benton', 'Christian Michael Pates', 'Willie Raysor', 'Lauren Williams', 'Aaron Ashlock', 'Angela Emerson', 'Drew Broderick', ""Ni'amoni Bagley"", 'Jason Garay', 'Craig Newkirk', 'Jibrail Nantambu', 'P.J. Soles', 'Bob Odenkirk', 'Nancy Kyes', 'Tony Moran', 'Haluk Bilginer']",2.43,2.5,"['Horror', 'Thriller']",105,"['USA', 'UK']",English,['English'],"['Blumhouse Productions', 'Miramax', 'Rough House Pictures', 'Trancas International Films']",331477,85446,50110,282,8248,19670,20415,48444,41343,53517,25486,20842,4001,7240,249206,https://letterboxd.com/film/halloween-kills/
Dune,2021,Denis Villeneuve,"['Timothée Chalamet', 'Rebecca Ferguson', 'Oscar Isaac', 'Jason Momoa', 'Josh Brolin', 'Stellan Skarsgård', 'Stephen McKinley Henderson', 'Javier Bardem', 'Sharon Duncan-Brewster', 'Chang Chen', 'Dave Bautista', 'David Dastmalchian', 'Zendaya', 'Charlotte Rampling', 'Babs Olusanmokun', 'Benjamin Clémentine', 'Souad Faress', 'Golda Rosheuvel', 'Roger Yuan', 'Seun Shote', 'Neil Bell', 'Oliver Ryan', 'Stephen Collins', 'Charlie Rawes', 'Richard Carter', 'Benjamin Dilloway', 'Elmi Rashid Elmi', 'Tachia Newall', 'Gloria Obianyo', 'Fehinti Balogun', 'Dora Kápolnai-Schvab', 'Joelle', 'Jimmy Walker', 'Paul Bullion', 'Milena Sidorova', 'János Timkó', 'Jean Gilpin', 'Marianne Faithfull', 'Ellen Dubin']",3.9,4.0,"['Science Fiction', 'Adventure']",155,['USA'],English,"['English', 'Chinese']",['Legendary Pictures'],2771036,330118,1030790,21000,7662,22082,10962,66970,58172,257148,285818,706745,336637,388913,2141109,https://letterboxd.com/film/dune-2021/
The Suicide Squad,2021,James Gunn,"['Margot Robbie', 'Idris Elba', 'John Cena', 'Joel Kinnaman', 'Sylvester Stallone', 'Viola Davis', 'David Dastmalchian', 'Daniela Melchior', 'Michael Rooker', 'Jai Courtney', 'Peter Capaldi', 'Alice Braga', 'Pete Davidson', 'Joaquín Cosío', 'Juan Diego Botto', 'Storm Reid', 'Nathan Fillion', 'Taika Waititi', 'Steve Agee', 'Sean Gunn', 'John Ostrander', 'Flula Borg', 'Mayling Ng', 'Stephen Blackehart', 'Tinashe Kajese', 'Jennifer Holland', 'Fernando Martinez', 'Dee Bradley Baker', 'Jaws', 'Crisp Ratt', 'Natalia Safran', 'Jared Leland Gore', 'Rey Hernandez', 'Ray Benitez', 'Reinaldo Faberlle', 'Jonathan Fritschi', 'Josh Ventura', 'Gerardo Davila', 'Mikaela Hoover', 'Lynne Ashe', 'Julio Cesar Ruiz', 'J.R. Adduci', 'Curtis Lyons Jr.', 'Maya Le Clark', 'Elideusa Gomes Almeida', 'Shanna Kernan', 'Bridget Taylor', 'Monica Rivera', 'Andrea Andrade', 'Giovanni Rodriguez', 'Giovannie Cruz', 'Sergio Carlo', 'Edgar Zanabria', 'Grecia Balboa', 'Kenneth Trujillo', 'Randy Havens', 'Michelle Civile', 'Gabrielle Manning', 'Michael Aaron Milligan', 'Diany Rodriguez', 'Teresita Mans', 'Terence Rosemore', 'Lloyd Kaufman', 'Pom Klementieff', 'Victoria Paige Watkins']",3.51,4.0,"['Action', 'Adventure', 'Comedy']",132,['USA'],English,"['English', 'French', 'Spanish']","['DC Films', 'Atlas Entertainment', 'The Safran Company', 'Warner Bros. Pictures']",1318811,181019,363604,3100,7973,19670,11795,49251,46298,153999,180309,264149,89519,78804,901767,https://letterboxd.com/film/the-suicide-squad/
Jojo Rabbit,2019,Taika Waititi,"['Roman Griffin Davis', 'Thomasin McKenzie', 'Scarlett Johansson', 'Taika Waititi', 'Sam Rockwell', 'Rebel Wilson', 'Alfie Allen', 'Stephen Merchant', 'Archie Yates', 'Luke Brandon Field', 'Joe Weintraub', 'Brian Caspe', 'James McVan', 'Judith Georgi', 'Victoria Hogan', 'Bethany Adams', 'Iva Šindelková', 'Matej Seifert', 'Trish Osmond', 'Odeta Cali', 'Samuel Bogner', 'Robert East', 'Curtis Matthew', 'Hardy Griffin Davis', 'Christian Howlings', 'Billy Rayner', 'Gabriel Andrews', 'Stanislav Callas', 'Sam Haygarth', 'Issy Stewart', 'Gilby Griffin Davis', 'Adolf Hitler']",4.03,4.0,"['War', 'Drama', 'Comedy']",108,"['Czechia', 'New Zealand', 'USA']",English,"['English', 'German']","['Fox Searchlight Pictures', 'Defender Films', 'Piki Films', 'TSG Entertainment', 'Czech Anglo Productions']",1902704,222145,764007,19000,3407,7546,5148,25938,27354,133957,170750,451791,200918,321225,1348034,https://letterboxd.com/film/jojo-rabbit/
Sound of Metal,2019,Darius Marder,"['Riz Ahmed', 'Olivia Cooke', 'Paul Raci', 'Lauren Ridloff', 'Mathieu Amalric', 'Domenico Toledo', 'Chelsea Lee', 'Shaheem Sanchez', 'Chris Perfetti', 'Bill Thorpe', 'Michael Tow', 'William Xifaras', 'Rena Maliszewski', 'Tom Kemp', 'Elan Sicroff', 'Jeremy Lee Stone', 'Ezra Marder', 'Hartmut Teuber', 'Hillary Baack', 'Joe Toledo', 'Adam Preston', 'Jonathon LeJeune', 'Sean Powell', 'Dani Miller', 'Alex Kilgore', 'Jamie Ghazarian', 'David Arthur Sousa', 'Marisa Defranco', 'Alan Resnic', ""Thomas O'Brien Vallor""]",4.19,4.5,"['Music', 'Drama']",120,['USA'],English,"['English', 'French']","['Flat 7', 'Ward Four', 'Caviar']",673576,134947,259378,11000,278,733,681,3887,5837,32353,67326,195351,121552,103714,531712,https://letterboxd.com/film/sound-of-metal/
One Piece: Stampede,2019,Takashi Otsuka,"['Mayumi Tanaka', 'Kazuya Nakai', 'Akemi Okamura', 'Kappei Yamaguchi', 'Hiroaki Hirata', 'Ikue Otani', 'Yuriko Yamaguchi', 'Kazuki Yao', 'Cho', 'Tsutomu Isobe', 'Hiroshi Kamiya', 'Mahito Ohba', 'Rino Sashihara', 'Kotono Mitsuishi', 'Toru Furuya', 'Shigeru Chiba', 'Tomokazu Seki', 'Yusuke Santamaria', 'Ryuuzaburou Ootomo', 'Ryota Yamasato', 'Daisuke Namikawa', 'Kenji Hamada', 'Reiko Kiuchi', 'Naoki Tatsuta', 'Shigenori Souya', 'Mitsuaki Madono', 'Taiten Kusunoki', 'Eiji Takemoto', 'Junko Noda', 'Hirohiko Kakegawa', 'Nobuyuki Hiyama', 'Yoko Matsuoka', 'Moriya Endou', 'Tetsu Inada', 'Ikuya Sawaki', 'Ryotaro Okiayu', 'Fumihiko Tachiki', 'Tomoko Naka', 'Mika Doi', 'Kouichi Nagano', 'Kazue Ikura', 'Hiroshi Naka', 'Toru Okawa', 'Satsuki Yukino', 'Akio Otsuka', 'Bin Shimada', 'Showtaro Morikubo', 'Akira Ishida', 'Kumiko Nishihara', 'Masane Tsukayama', 'Toshio Furukawa', 'Ron Monroe', 'Ryosuke Yamamoto', 'Shunya Iwakami', 'Naoto Takenaka']",3.55,3.0,"['Family', 'Animation', 'Fantasy', 'Action', 'Adventure']",101,['Japan'],Japanese,['Japanese'],"['Toei Animation', 'Toei Company']",25059,3427,6175,132,81,204,220,856,1282,3857,4049,4758,1306,1955,18568,https://letterboxd.com/film/one-piece-stampede/
Once Upon a Time… in Hollywood,2019,Quentin Tarantino,"['Leonardo DiCaprio', 'Brad Pitt', 'Margot Robbie', 'Emile Hirsch', 'Margaret Qualley', 'Timothy Olyphant', 'Julia Butters', 'Austin Butler', 'Dakota Fanning', 'Bruce Dern', 'Mike Moh', 'Luke Perry', 'Damian Lewis', 'Al Pacino', 'Nicholas Hammond', 'Samantha Robinson', 'Rafał Zawierucha', 'Lorenza Izzo', 'Costa Ronin', 'Damon Herriman', 'Lena Dunham', 'Madisen Beaty', 'Mikey Madison', 'James Landry Hébert', 'Maya Hawke', 'Victoria Pedretti', 'Sydney Sweeney', 'Harley Quinn Smith', 'Dallas Jay Hunter', 'Kansas Bowling', 'Parker Love Bowling', 'Cassidy Vick Hice', 'Ruby Rose Skotchdopole', 'Danielle Harris', 'Josephine Valentina Clark', 'Scoot McNairy', 'Clifton Collins Jr.', 'Marco Rodríguez', 'Ramón Franco', 'Raúl Cardona', 'Courtney Hoffman', 'Dreama Walker', 'Rachel Redleaf', 'Rebecca Rittenhouse', 'Rumer Willis', 'Spencer Garrett', 'Clu Gulager', 'Martin Kove', 'Rebecca Gayheart', 'Kurt Russell', 'Zoë Bell', 'Michael Madsen', 'Perla Haney-Jardine', 'James Remar', 'Monica Staggs', 'Craig Stark', 'Keith Jefferson', 'Omar Doom', 'Kate Berlant', 'Victoria Truscott', 'Allison Yaple', 'Bruce Del Castillo', 'Brenda Vaccaro', 'Lew Temple', 'Daniella Pick', 'David Steen', 'Mark Warrack', 'Gabriela Flores', 'Heba Thorisdottir', 'Breanna Wing', 'Kenneth Sonny Donato', 'Sergio Gonzalez', ""Casey O'Neill"", 'Michael Graham', 'Emile Williams', 'Vincent Laresca', 'JLouis Mills', 'Gilbert Saldivar', 'Maurice Compte', 'Eddie Perez', 'Hugh McCallum', 'Zander Grable', 'Ed Regine', 'Michael Bissett', 'Lenny Langley Jr.', 'Gillian M. Berrow', 'Chad Ridgely', 'Chic Daniel', 'Corey Burton', 'Michaela Sprague', 'Ryan Ramirez', 'Kayla Jenee Radomski', 'Kerry Westcott', 'William DeAtley', 'Brianna Joy Chomer', 'Quentin Tarantino', 'Johnny Otto', 'Gina Aponte', 'Adam West', 'Burt Ward', 'Katarína Paveleková', 'Weston Razooli']",3.76,5.0,"['Drama', 'Thriller', 'Comedy']",162,"['China', 'UK', 'USA']",English,"['English', 'Italian', 'Spanish']","['Heyday Films', 'Columbia Pictures', 'Bona Film Group']",2453203,328455,856162,19000,6691,22217,11494,74665,59523,277705,261035,538602,203527,269158,1724617,https://letterboxd.com/film/once-upon-a-time-in-hollywood/
The Vast of Night,2019,Andrew Patterson,"['Sierra McCormick', 'Jake Horowitz', 'Bruce Davis', 'Gail Cronauer', 'Cheyenne Barton', 'Mark Banik', 'Gregory Peyton', 'Adam Dietrich', 'Mallorie Rodak', 'Mollie Milligan', 'Ingrid Fease', 'Brandon Stewart', 'Kirk Griffith', 'Nika Sage McKenna', 'Brett Brock', 'Pam Dougherty', 'Lynn Blackburn', 'Richard Jackson', 'James Mayberry', 'Nicolette Doke', 'Grant James', 'Libby Villari', 'Gordon Fox', 'John Gindling', 'Brianna Beasley', 'L.A. Young', 'Chamblee Ferguson', 'PaulaSu Grisham', 'Rebeckah Boykin']",3.54,3.0,"['Drama', 'Thriller', 'Science Fiction', 'Mystery']",91,['USA'],English,['English'],['GEO Media'],102010,28333,27927,305,284,732,778,3352,5454,15833,21226,23132,6410,4275,81476,https://letterboxd.com/film/the-vast-of-night/
Halloween,2018,David Gordon Green,"['Jamie Lee Curtis', 'Judy Greer', 'Andi Matichak', 'Will Patton', 'Virginia Gardner', 'Nick Castle', 'Toby Huss', 'Drew Scheid', 'Miles Robbins', 'Dylan Arnold', 'Haluk Bilginer', 'Rhian Rees', 'Jefferson Hall', 'James Jude Courtney', 'Jibrail Nantambu', 'Sophia Miller', 'Brien Gregorie', 'Vince Mattis', 'Pedro Lopez', 'Omar J. Dorsey', 'Charlie Benton', 'Christopher Allen Nelson', 'Matthew Anderson', 'Charlie Donadio', 'Carmela McNeal', 'Diva Tyler', 'Kurt Deimer', 'Chris Holloway', 'Roger Antonio', 'Teresa Ann Johnson', 'Jonathan Bruce', 'Michael Harrity', 'Michael Smallwood', 'P.J. Soles', 'Sandy Johnson', 'Colin Mahan', 'Angela Anderson', 'Marian Green', 'W.F. Bell', 'Willie Tyrone Ferguson', 'Johnny Price', 'Aaron Christian Paderewski', 'Omar Azimi', 'Rob Niter', 'Anthony Woodle', 'Ross Bacon']",3.2,1.5,"['Thriller', 'Horror']",106,['USA'],English,['English'],"['Universal Pictures', 'Blumhouse Productions', 'Trancas International Films', 'Rough House Pictures', 'Miramax']",495163,102445,102745,849,2328,6525,6508,24486,29393,83153,67979,71057,14064,18554,324047,https://letterboxd.com/film/halloween-2018/
Rogue One: A Star Wars Story,2016,Gareth Edwards,"['Felicity Jones', 'Diego Luna', 'Alan Tudyk', 'Donnie Yen', 'Jiang Wen', 'Ben Mendelsohn', 'Guy Henry', 'Forest Whitaker', 'Riz Ahmed', 'Mads Mikkelsen', 'Jimmy Smits', 'Alistair Petrie', ""Genevieve O'Reilly"", 'Ben Daniels', 'Paul Kasey', 'Stephen Stanton', 'Ian McElhinney', 'Fares Fares', 'Jonathan Aris', 'Sharon Duncan-Brewster', 'Spencer Wilding', 'Daniel Naprous', 'James Earl Jones', 'Ingvild Deila', 'Anthony Daniels', 'Jimmy Vee', 'Valene Kane', 'Beau Gadsdon', 'Dolly Gadsdon', 'Duncan Pow', 'Jordan Stephens', 'Babou Ceesay', 'Aidan Cook', 'Daniel Mays', 'Andy de la Tour', 'Tony Pitts', 'Martin Gordon', 'Eric MacLennan', 'Francis Magee', 'Bronson Webb', 'Geraldine James', 'Ariyon Bakare', 'Simon Farnaby', 'Drewe Henley', 'Angus MacInnes', 'Toby Hefferman', 'Jack Roth', 'Geoff Bell', 'Derek Arnold', 'Nick Kellington', 'Michael Smiley', 'Warwick Davis', 'Angus Wright', 'David Ankrum', 'Ian Whyte', 'Rian Johnson', 'Ned Dennehy', 'Angus Cook', 'Emeson Nwolie', 'Jorge Leon Martinez', 'Russell Balogh', 'Steen Young', 'Attila G. Kerekes', 'Mac Pietowski', 'Ram Bergman', 'Katie Sheridan', 'Terri Douglas', 'Vanessa Lengies', 'Vanessa Marshall', 'Verona Blue', 'Dave Filoni', 'David Boat', 'David Cowgill', 'David Sobolov', 'Eugene Byrd', 'Fred Tatasciore', 'James Arnold Taylor', 'Julian Stone', 'Matthew Wood', 'Michael Giacchino', 'Robin Atkin Downes', 'Sam Witwer', 'Tom Kane', 'Tony Gilroy', 'Yuri Lowenthal', 'Alexi Melvin', 'Christian Simpson', 'Chris Scarabosio', 'David Acord', 'Flora Miller', 'John Gilroy', 'John S. Schwartz', 'Jonathan Dixon', 'Karen Huie', 'Kevin Hickman', 'Lex Lang', 'Michael Donovan', 'Orly Schuchmacher', 'Steve Bardrack', 'Tom Harrison-Read', 'William M. Patrick', 'Robert Benedetti-Hall', 'Richard Franklin', 'James Harkness', 'David M. Santana', 'Robin Pearce', 'Tim Beckmann', 'Gabby Wong', 'Richard Glover', 'Richard Cunningham', 'Michael Gould', 'Rufus Wright', 'Michael Shaeffer', 'Matt Rippy', 'Michael Nardone', 'Nathan Plant', 'Christopher Patrick Nolan', 'Dee Tails', 'Ruth Bell', 'May Bell', 'Keith Dunphy', 'Alan Rushton', 'Weston Gavin', 'Nick Hobbs', 'Samantha Alleyne', 'Benjamín Benítez', 'Arthur L. Bernstein', 'Steve Blum', 'Brendan Cook', 'Sabine Crossen', 'Zarene Dallas', 'Dave Prince', 'Gareth Edwards', 'Daniel Eghan', 'Marc Esse', 'Jake Francis', 'Scott Frazer', 'Steven James Griffiths', 'Sam Hanover', 'Philip Harvey', 'James Henri-Thomas', 'Dolly Jagdeo', 'Kamil Lemieszewski', 'Tyrone Love', 'Obie Matthew', 'Sandeep Mohan', 'Robert Strange', 'David Norfolk', 'Axel Nu', 'Jem Kai Olsen', 'Mike Prior', 'Louis Samms', 'Scott Tanner', 'Arti Shah', 'Kiran Shah', 'Tim Stafford', 'Scott Stevenson', 'Matthew Stirling', 'John Swartz', 'Albert Tang', 'Vince Taylor', 'Michael Thyx', 'Tony Toste', 'Sezer Unver', 'Pablo Verdejo', 'Jay Waddell', 'Paul Weston', 'John Whitby', 'Boriana Williams', 'Dion Williams', 'Ivy Wong', 'Hiu Woong-Sin', 'Sam Wilkinson', ""Hugh O'Brien"", 'Matthew Dale']",3.72,4.0,"['Adventure', 'Science Fiction', 'Action']",133,['USA'],English,['English'],['Lucasfilm Ltd.'],1541570,187678,431644,5700,4319,12284,8777,40735,42299,148529,159374,288336,104636,129329,938618,https://letterboxd.com/film/rogue-one-a-star-wars-story/
Terrifier,2016,Damien Leone,"['David Howard Thornton', 'Jenna Kanell', 'Samantha Scaffidi', 'Catherine Corcoran', 'Pooya Mohseni', 'Matt McAllister', 'Katie Maguire', 'Gino Cafarelli', 'Cory DuVal', 'Michael Leavy', 'Xiomi', 'Erick Zamora', 'Clifton Dunn', 'Julie Asriyan', 'Margaret Reed', 'Alan Hasnas', 'Jason Leavy', 'Steven Della Salla', 'Ursula Anderman', 'Daniel Rodas', 'Dean Briscoe', 'Phil Falcone', 'Gloria Jung', 'Elisa Vecchio', 'Michelle Gianchetti', 'Joe Patrick Marshall', 'Joe Causi', 'Linda Russo', 'Kamal Ahmed', 'Kyle Brauch', 'Kika Magalhaes', 'Kristina Thompson']",2.44,2.5,"['Horror', 'Thriller']",84,['USA'],English,['English'],['Dark Age Cinema'],269038,46370,46241,1000,12943,18915,15251,33513,29178,44802,21152,19344,3485,9462,208045,https://letterboxd.com/film/terrifier-2016/
One Piece Film: GOLD,2016,Hiroaki Miyamoto,"['Kazuya Nakai', 'Mayumi Tanaka', 'Akemi Okamura', 'Kappei Yamaguchi', 'Hiroaki Hirata', 'Yuriko Yamaguchi', 'Ikue Otani', 'Kazuki Yao', 'Kazuhiro Yamaji', 'Takahiro Sakurai', 'Nanao', 'Gaku Hamada', 'Hikari Mitsushima', 'Kinya Kitaoji', 'Fumihiko Tachiki', 'Tomokazu Seki', 'Masaya Onosaka', 'Satsuki Yukino', 'Arata Furuta', 'Wataru Takagi', 'Nobuyuki Hiyama', 'Rena Takeda', 'Ayaka Miyoshi', 'Arisa Satô', 'Nanase Nishino', 'Naoto Takenaka', 'Kendô Kobayashi', 'Toru Furuya', 'Kenji Nomura', 'Cho']",3.46,2.0,"['Animation', 'Action', 'Adventure', 'Comedy']",120,['Japan'],Japanese,['Japanese'],"['Fuji Television Network', 'Funimation Global Group', 'Toei Animation', 'Toei Company']",21226,2659,4399,42,37,99,147,628,1226,3836,3754,3181,695,1069,14672,https://letterboxd.com/film/one-piece-film-gold/
The Witch,2015,Robert Eggers,"['Anya Taylor-Joy', 'Ralph Ineson', 'Kate Dickie', 'Harvey Scrimshaw', 'Ellie Grainger', 'Lucas Dawson', 'Julian Richings', 'Bathsheba Garnett', 'Sarah Stephens', 'Daniel Malik', 'Axtun Henry Dube', 'Athan Conrad Dube', 'Vivien Moore', 'Karen Kaeja', 'Brandy Leary', 'R. Hope Terry', 'Carrie Eklund', 'Madlen Sopadzhiyan', 'Paul Kenworthy', 'Mark Millmna', 'Andy Volpe', 'Phillip Wynne', 'Annawon Weeden', ""Michael O'Hare"", 'Chris Messier', 'Ron Young', 'Nora Messier', 'Bill Rudder', 'Grace Duffy', 'Sophie Bermudez', 'Corrine Manning', 'Heather Huntington Stewart', 'Jeff Smith']",3.84,5.0,"['Drama', 'Mystery', 'Horror']",92,"['Canada', 'USA', 'UK']",English,['English'],"['Very Special Projects', 'Parts & Labor', 'RT Features', 'Rooks Nest Entertainment', 'Maiden Voyage Pictures', 'Pulse Films', 'Scythia Films', 'Code Red Productions', 'Mott Street Pictures']",1195334,244490,398323,13000,3719,9782,5823,28189,27154,105857,130835,272793,113562,150794,848508,https://letterboxd.com/film/the-witch-2015/
The Last: Naruto the Movie,2014,Tsuneo Kobayashi,"['Junko Takeuchi', 'Nana Mizuki', 'Jun Fukuyama', 'Chie Nakamura', 'Showtaro Morikubo', 'Kazuhiko Inoue', 'Akira Ishida', 'Hideaki Tezuka', 'Yurika Hino', 'Tomomichi Nishimura', 'Hisao Egawa', 'Masako Katsuki', 'Keiko Nemoto', 'Masashi Ebara', 'Ikue Otani', 'Satoshi Hino', 'Noriaki Sugiyama']",3.4,2.5,"['Action', 'Animation', 'Romance']",114,['Japan'],Japanese,['Japanese'],['Aniplex'],31536,3219,6150,185,241,410,414,1285,1637,4692,4213,4407,1078,2154,20531,https://letterboxd.com/film/the-last-naruto-the-movie/
Captain America: The First Avenger,2011,Joe Johnston,"['Chris Evans', 'Tommy Lee Jones', 'Hugo Weaving', 'Hayley Atwell', 'Sebastian Stan', 'Dominic Cooper', 'Toby Jones', 'Neal McDonough', 'Derek Luke', 'Bruno Ricci', 'JJ Feild', 'Kenneth Choi', 'Richard Armitage', 'Stanley Tucci', 'Samuel L. Jackson', 'Lex Shrapnel', 'Michael Brandon', 'Martin Sherman', 'Natalie Dormer', 'Oscar Pearce', 'William Hope', 'Nicholas Pinnock', 'Marek Oravec', 'David Bradley', 'Leander Deeny', 'Sam Hoare', 'Simon Kunz', ""Kieran O'Connor"", 'Jenna Coleman', 'Sophie Colquhoun', 'Doug Cockle', 'Ben Batt', 'Mollie Fitzgerald', 'Damon Driver', 'David McKail', 'Amanda Walker', 'Richard Freeman', 'Katherine Press', 'Sergio James', 'Marcello Walton', 'Anatole Taubman', 'Jan Pohl', 'Erich Redman', 'Rosanna Hoult', 'Naomi Slights', 'Kirsty Mather', 'Laura Haddock', 'James Payton', 'Ronan Raftery', 'Nick Hendrix', 'Luke Allen-Gale', 'Jack Gordon', 'Benjamin Uttley', 'Patrick Monckeberg', 'Amanda Righetti', 'Stan Lee', 'Fabrizio Santino', 'Caroline Royce']",3.26,3.5,"['Science Fiction', 'Action', 'Adventure']",124,['USA'],English,"['English', 'French', 'Norwegian']","['Marvel Studios', 'Marvel Entertainment']",1803252,206778,342892,1100,5323,17244,13466,67401,80174,267118,191875,202265,35553,67735,948154,https://letterboxd.com/film/captain-america-the-first-avenger/
Scott Pilgrim vs. the World,2010,Edgar Wright,"['Michael Cera', 'Mary Elizabeth Winstead', 'Ellen Wong', 'Kieran Culkin', 'Alison Pill', 'Mark Webber', 'Johnny Simmons', 'Jason Schwartzman', 'Anna Kendrick', 'Aubrey Plaza', 'Satya Bhabha', 'Chris Evans', 'Brandon Routh', 'Mae Whitman', 'Brie Larson', 'Keita Saito', 'Shota Saito', 'Will Bowes', 'Celine Lepage', 'Mark Leroy', 'Kjartan Hewitt', 'Ben Lewis', 'Nelson Franklin', 'Kristina Pesic', 'Matt Watts', 'Ingrid Haas', 'Maurie W. Kaufmann', 'Marley Otto', 'Christine Watson', 'Chantelle Chung', 'Don McKellar', 'Jung-Yul Kim', 'Erik Knudsen', 'Abigail Chu', 'Tennessee Thomas', 'Emily Kassie', 'Michael Lazarovitch', 'John Patrick Amedori', 'Joe Dinicol', 'Craig Stickland', 'Bill Hader', 'Thomas Jane', 'Clifton Collins Jr.', ""Bryan Lee O'Malley""]",3.87,3.5,"['Comedy', 'Romance', 'Action']",113,"['Japan', 'UK', 'USA']",English,['English'],"['Marc Platt Productions', 'Big Talk Studios', 'Closed on Mondays Entertainment', 'dentsu']",2181209,250681,873074,55000,6520,14518,8610,44234,40363,190585,199236,429776,166514,327836,1428192,https://letterboxd.com/film/scott-pilgrim-vs-the-world/
Date Night,2010,Shawn Levy,"['Steve Carell', 'Tina Fey', 'Mark Wahlberg', 'Taraji P. Henson', 'Jimmi Simpson', 'Common', 'William Fichtner', 'Leighton Meester', 'J.B. Smoove', 'Kristen Wiig', 'Mark Ruffalo', 'James Franco', 'Mila Kunis', 'Bill Burr', 'Jonathan Morgan Heit', 'Savannah Paige Rae', 'Nick Kroll', 'Olivia Munn', 'Gal Gadot', 'Lauren Weedman', 'Darren Le Gallo', 'Jaye Razor', 'Gillian Vigman', 'Chayim Frenkel', 'Jon Bernthal', 'Ari Graynor', 'Will.i.am', 'Sho Brown', 'Jahnel Curfman', 'Stella Angelova', 'Joe Starr', 'John Cenatiempo', 'Katie Gill', 'Michelle Galdenzi', 'Stacey Scowley', 'Lourdes Regala', 'Hal Devi', 'Dani Playel', 'Kat Howland', 'Alandrea Martin', 'January Adams', 'Michelle Celeste Assil', 'Jeff Barry', 'Samantha Bee', 'Rachel Bernstein', 'David Block', 'Theo Breaux', 'Rich Campbell', 'Etalvia Cashin', 'Natalie Cohen', 'Peter Conboy', 'Tracy Dali', 'Tony DeSean', 'Evans Forlidas', 'Jim Garrity', 'Jeff Grossman', 'Chris Haemmerle', 'Lauren Hayes', 'Jason Jones', 'Keven Kaddi', 'Vivian Khouri', 'Dianne Kwon', 'Ray Liotta', 'Karina Michel', 'Kate Rogal', 'Dylan Saccoccio', 'John J. Schneider', 'Woody Schultz', 'Sabella Shake', 'Jordan Stone', 'Paul Thornton', 'Nikki Tomlinson', 'Joseph Williams']",2.83,3.5,"['Adventure', 'Action', 'Comedy']",88,['USA'],English,"['English', 'Hebrew (modern)']","['Dune Entertainment', '21 Laps Entertainment', '20th Century Fox']",184795,12419,16105,19,620,2318,3225,13046,16042,28235,12074,7129,896,1600,85185,https://letterboxd.com/film/date-night/
Evangelion: 2.0 You Can (Not) Advance,2009,Hideaki Anno,"['Megumi Ogata', 'Megumi Hayashibara', 'Yuko Miyamura', 'Maaya Sakamoto', 'Kotono Mitsuishi', 'Yuriko Yamaguchi', 'Koichi Yamadera', 'Fumihiko Tachiki', 'Motomu Kiyokawa', 'Miki Nagasawa', 'Takehito Koyasu', 'Hiro Yuuki', 'Tomokazu Seki', 'Tetsuya Iwanaga', 'Junko Iwao', 'Mugihito', 'Joe Fria']",3.94,3.5,"['Action', 'Animation', 'Drama', 'Science Fiction']",112,['Japan'],Japanese,"['Japanese', 'English']",['khara'],103197,14796,31214,261,169,355,407,1409,2158,7858,12618,25644,10757,9598,70973,https://letterboxd.com/film/evangelion-20-you-can-not-advance/
Inglourious Basterds,2009,Quentin Tarantino,"['Brad Pitt', 'Mélanie Laurent', 'Christoph Waltz', 'Eli Roth', 'Michael Fassbender', 'Diane Kruger', 'Daniel Brühl', 'Til Schweiger', 'Gedeon Burkhard', 'Jacky Ido', 'B.J. Novak', 'Omar Doom', 'August Diehl', 'Denis Ménochet', 'Sylvester Groth', 'Martin Wuttke', 'Mike Myers', 'Julie Dreyfus', 'Léa Seydoux', 'Richard Sammel', 'Alexander Fehling', 'Rod Taylor', 'Samm Levine', 'Paul Rust', 'Michael Bacall', 'Arndt Schwering-Sohnrey', 'Petra Hartung', 'Volker Michalowski', 'Ken Duken', 'Christian Berkel', 'Anne-Sophie Franck', 'Tina Rodriguez', 'Lena Friedrich', 'Ludger Pistor', 'Jana Pallaske', 'Wolfgang Lindner', 'Michael Kranz', 'Rainer Bock', 'André Penvern', 'Sebastian Hülk', 'Buddy Joe Hooker', 'Sönke Möhring', 'Carlos Fidel', 'Hilmar Eichhorn', 'Patrick Elias', 'Eva Löbau', 'Salvadore Brandt', 'Jasper Linnewedel', 'Wilfried Hochholdinger', 'Olivier Girard', 'Michael Scheel', 'Leo Plank', 'Andreas Tietz', 'Bo Svenson', 'Enzo G. Castellari', 'Christian Brückner', 'Samuel L. Jackson', 'Bela B.', 'Noemi Besedes', 'Hélène Cardona', 'Jake Garber', 'Sabrina Rattey', 'Alex Boden', 'Guido Föhrweißer', 'Harvey Keitel', 'Andrew Napier', 'Greg Nicotero', 'Quentin Tarantino', 'Vitus Wieser', 'Bea-Marie Rück', 'Daniela Schwerdt']",4.34,4.5,"['Drama', 'Thriller', 'War']",153,"['France', 'Germany', 'USA']",English,"['English', 'German', 'French', 'Italian']","['The Weinstein Company', 'Universal Pictures', 'A Band Apart', 'Zehnte Babelsberg Film', 'Visiona Romantica', 'Peninsula Films']",2597806,339162,1083809,50000,1685,4381,2564,16286,15170,107000,131951,505616,332441,626988,1744082,https://letterboxd.com/film/inglourious-basterds/
Watchmen,2009,Zack Snyder,"['Malin Åkerman', 'Patrick Wilson', 'Billy Crudup', 'Matthew Goode', 'Jackie Earle Haley', 'Jeffrey Dean Morgan', 'Carla Gugino', 'Laura Mennell', 'Matt Frewer', 'Stephen McHattie', 'Rob LaBelle', 'Gary Houston', 'James M. Connor', 'Mary Ann Burger', 'John Shaw', 'Robert Wisden', 'Jerry Wasserman', 'Don Thompson', 'Frank Novak', 'Sean Allan', 'Garry Chalk', 'Stephanie Belding', 'Michael Kopsa', 'William S. Taylor', 'Chris Burns', 'Malcolm Scott', 'Danny Wattley', 'Nhi Do', 'Walter Addison', 'David MacKay', 'Keith Martin Gordey', 'Fulvio Cecere', 'Ted Cole', 'Mark Acheson', 'John Destry', 'Chris Gauthier', 'L. Harvey Gold', 'Jay Brazeau', 'Jesse Reid', 'Manoj Sood', 'Dan Payne', 'Niall Matter', 'Apollonia Vanova', 'Glenn Ennis', 'Darryl Scheelar', 'Clint Carleton', 'Brett Stimely', 'Carrie Genzel', 'Greg Travis', 'Greg Armstrong-Morris', 'Andrew Colthart', 'Bruce Crawford', 'Sal Sortino', 'Eli Snyder', 'Lori Watt', 'Tony Bardach', 'John Kobylka', 'Carmen Lavigne', 'J.R. Killigrew', 'Steven Stojkovic', 'Martin Reiss', 'Frank Cassini', 'John R. Taylor', 'Tara Frederick', 'Daryl Shuttleworth', 'Jaryd Heydrick', 'Ron Chartier', 'Carly Bentall', 'Matt Drake', 'Haley Guiel', 'Sonya Salomaa', 'Tyler McClendon', 'Salli Saffioti', 'Neil Schell', 'Michael Eklund', 'Deborah Finkel', 'Louis Chirillo', 'Marsha Regis', 'Patrick Sabongui', 'John Tench', 'Santo Lombardo', 'Jason Schombing', 'Darren Shahlavi', 'Marshall Virtue', 'Colin Lawrence', 'Chris Weber', 'Alessandro Juliani', 'Alison Araya', 'Sahar Biniaz', 'Matthew Harrison', 'Bernadeta Wrobel', 'Youri Obryvtchenko', 'Heidi Iro', 'Kit Noon', 'Parm Soor', 'Cristina Menz', 'Lynn Colliar', 'Tony Ali', 'Katie Bennison', 'Ian Farthing', 'Calvin Lee', 'Alexander Mandra', 'Isabelle Champeau', ""Ashley O'Connell"", 'Mark Gash', 'Suzanne E. Smith', 'Agam Darshi', 'Tom McBeath', 'Kevin McNulty', 'Mark Docherty', 'Clay St. Thomas', 'Dale Wolfe', 'Ken Tremblett', 'Dawn Chubai', 'Manuelita Kinsey', 'Tamara Stanners', 'Sahara Davis', 'Dave Hospes', 'Greig Hospess', 'Ali Dunn', 'Jeffrey Frieler', 'Kurt Evans', 'Sylvesta Stuart', 'Terence Kelly', 'Mi-Jung Lee', 'Ted Friend', 'Tiffany Burns', 'Michael Adamthwaite', 'Danny Woodburn', 'Zack Snyder', 'Clay Enos']",3.64,4.5,"['Mystery', 'Science Fiction', 'Action']",163,['USA'],English,['English'],"['Warner Bros. Pictures', 'Paramount', 'Legendary Pictures', 'DC Comics', 'Lawrence Gordon Productions', 'Lloyd Levin Productions']",672355,76607,158895,3100,2585,5926,5089,20655,23435,68747,76674,110850,39653,42211,395825,https://letterboxd.com/film/watchmen/
(500) Days of Summer,2009,Marc Webb,"['Joseph Gordon-Levitt', 'Zooey Deschanel', 'Geoffrey Arend', 'Chloë Grace Moretz', 'Matthew Gray Gubler', 'Clark Gregg', 'Patricia Belcher', 'Rachel Boston', 'Minka Kelly', 'Charles Walker', 'Ian Reed Kesler', 'Darryl Alan Reed', 'Valente Rodriguez', 'Yvette Nicole Brown', 'Nicole Vicius', 'Natalie Boren', 'Maile Flanagan', 'Darryl Sivad', 'Gregory A. Thompson', 'Michael Bodie', 'John Mackie', 'Jacob Stroop', 'Kevin Michael', 'Sid Wilner', 'Richard McGonagle', 'Jean-Paul Vignon', 'Bryan Anthony', 'Sybil Azur', 'Cheryl Baxter', 'Gustavo Carr', 'John R. Corella', 'Nadine Ellis', 'Alejandro Estornel', 'Nathaniel Flatt', 'Reshma Gajjar', 'Tiffany Granath', 'Jennifer Hamilton', 'Brandon Henschel', 'Michael Higgins', 'Kenneth Hughes', 'Alexandra Nicole Hulme', 'John Jacquet Jr.', 'Jennifer Lee Keyes', 'Tim Lacatena', 'Rebecca Lin', 'Gelsey Weiss', 'Katie Malia', 'Anthony Marciona', 'Christopher Martinez', 'Vivian Nixon', 'Tracy Phillips', 'Nathan Prevost', 'Jamie Shea', 'Ryan Thomas', 'Christian Vincent', 'Jull Weber', 'Adam Emery', 'Olivia Howard Bagg', 'Chris Connell', 'Samantha Krutzfeldt', 'Jason Robinson', 'Kathryn Weisbeck', 'Eileen Álvarez', 'Jennifer Hetrick', 'Pleasant Wayne']",3.66,4.5,"['Romance', 'Comedy', 'Drama']",95,['USA'],English,"['English', 'French', 'Swedish']","['Fox Searchlight Pictures', 'Watermark Pictures', 'Dune Entertainment III']",1761935,176609,528145,24000,5321,13393,8378,43904,45920,193887,201615,334830,99279,170568,1117095,https://letterboxd.com/film/500-days-of-summer/
Evangelion: 1.0 You Are (Not) Alone,2007,Hideaki Anno,"['Megumi Ogata', 'Megumi Hayashibara', 'Kotono Mitsuishi', 'Yuriko Yamaguchi', 'Akira Ishida', 'Fumihiko Tachiki', 'Motomu Kiyokawa', 'Miki Nagasawa', 'Takehito Koyasu', 'Tomokazu Seki', 'Hiro Yuuki', 'Tetsuya Iwanaga', 'Junko Iwao', 'Mugihito', 'Joe Fria']",3.67,4.0,"['Drama', 'Animation', 'Action', 'Science Fiction']",98,['Japan'],Japanese,['Japanese'],['khara'],110766,14395,29093,99,160,330,371,1843,3508,15094,19970,23725,4321,6368,75690,https://letterboxd.com/film/evangelion-10-you-are-not-alone/
The Simpsons Movie,2007,David Silverman,"['Dan Castellaneta', 'Julie Kavner', 'Nancy Cartwright', 'Yeardley Smith', 'Hank Azaria', 'Harry Shearer', 'Pamela Hayden', 'Tress MacNeille', 'Albert Brooks', 'Karl Wiedergott', 'Marcia Wallace', 'Russi Taylor', 'Maggie Roswell', 'Philip Rosenthal', 'Billie Joe Armstrong', 'Mike Dirnt', 'Tre Cool', 'Joe Mantegna', 'Tom Hanks']",3.44,3.0,"['Family', 'Comedy', 'Animation']",87,['USA'],English,['English'],"['Gracie Films', '20th Century Fox']",766374,40356,119249,1000,1158,3895,3933,20393,27094,99759,83435,81931,15154,25841,362593,https://letterboxd.com/film/the-simpsons-movie/
She's the Man,2006,Andy Fickman,"['Amanda Bynes', 'Channing Tatum', 'Laura Ramsey', 'Vinnie Jones', 'David Cross', 'Julie Hagerty', 'Robert Hoffman', 'Alexandra Breckenridge', 'Jonathan Sadowski', 'Amanda Crew', 'Jessica Lucas', 'Brandon Jay McLaren', 'Clifton MaCabe Murray', 'James Snyder', 'James Kirk', 'Emily Perkins', 'Robert Torti', 'Lynda Boyd', 'John Pyper-Ferguson', 'Katie Stuart', 'Colby Wilson', 'Jeffrey Ballard', 'Brenda McDonald', 'Patricia Idlette', 'Ken Kirby', 'Alberto Ghisi', 'David Richmond-Peck', 'Mark Acheson', 'Dee Jay Jackson', 'Barbara Kottmeier', 'Chad Krowchuk', 'Cassandra Sawtell', 'Stuart Cowan', 'Debbie Timuss', 'Michelle Brownlee', 'Mara Branscombe', 'Katharine Horsman', 'Alex Price', 'Natasha Gorrie', 'Deena Minichiello', 'Tania Saulnier', 'Melissa Robertson', 'Michelle Grigor', 'Aaron Young', 'Justin Carvery', 'Andrew Hutson', 'Luca Bellisome', 'Giovanni Valente', 'Ivan Estrada', 'Glen Krizek', 'Evan Turner', 'Daniel Rogic', 'Alvaro Picado', 'Brady Horvath', 'Ryan Horvath', 'C.J. Greenside', 'Devon Greenside', ""Chris D'Andrea"", 'Meysam Soltani', 'Struan Saddler', 'Andrew Reed', 'Luke Moger', 'Riyad Zuber', 'Jason Mosberian', 'Sofia Hidalgo', 'Deena Sparling', 'Melissa Howard', 'Nicola Elbro', 'Carly Barkley', 'Shannon McDonald', 'Daniel Colletti', 'Sandra-Jessica Couturier', 'Michael Kozak', 'Michael Logie', 'Doug Murray', 'Duncan Pattillo', 'Adrianna Spence', 'Celeste White Steele']",3.32,3.5,"['Comedy', 'Romance']",105,['USA'],English,['English'],"['Lakeshore Entertainment', 'DreamWorks Pictures', ""The Donners' Company""]",602553,76020,125319,4400,2224,5804,6038,22129,25445,70579,48037,64389,14951,50267,309863,https://letterboxd.com/film/shes-the-man/
Just Friends,2005,Roger Kumble,"['Ryan Reynolds', 'Amy Smart', 'Anna Faris', 'Chris Klein', 'Christopher Marquette', 'Julie Hagerty', 'Amy Matysio', 'Giacomo Beltrami', 'Fred Ewanuick', 'Wendy Anderson', 'Barry Flatman', ""Mike O'Brien"", 'Ty Olsson', 'Devyn Burant', 'Jaden Ryan', 'Annie Brebner', 'Justin Kirby', 'Jackie Mitchell', 'Stephen Root', 'Ashley Scott', 'Grace Kumble', 'Lorelei Gibson', 'Jason Bryant', 'John Levin', 'Trace Fairgrieve', 'Glen W. Thompson', 'Amanda Park', 'James Bitonti', 'Sally Crooks', 'Dayna Devon', 'Simon Chin', 'Jody Peters', 'Cavan Cunningham', 'Jillian Walchuck', 'Maria Arcé', 'Sharon Bakker', 'Trenna Keating', 'Robin Dunne', 'Todd William Lewis', 'Rachel Wittman']",2.58,2.5,"['Romance', 'Comedy']",96,"['Canada', 'Germany', 'USA']",English,['English'],"['BenderSpink', 'Cinezeta']",144421,17535,16479,169,2317,4666,4656,12112,11311,18266,8325,6936,1219,3018,72826,https://letterboxd.com/film/just-friends/
Love Wrecked,2005,Randal Kleiser,"['Amanda Bynes', 'Chris Carmack', 'Fred Willard', 'Jamie-Lynn Sigler', 'Jonathan Bennett', 'Kathy Griffin', 'Joey Kern', 'Jackie Long', 'Susan Duerden', 'Lance Bass', 'Suzanne Kent', 'Alfonso Ribeiro', 'Connor Matheus', 'Caleb Moody', 'Brian Peck']",2.36,3.0,"['Romance', 'Family']",87,['USA'],English,"['English', 'Italian']","['Media 8 Entertainment', 'Santo Domingo Film & Music Video', 'Bacon & Eggs']",23581,2972,1689,4,519,1117,975,2123,1476,2054,662,732,97,438,10193,https://letterboxd.com/film/love-wrecked/
The 40 Year Old Virgin,2005,Judd Apatow,"['Steve Carell', 'Catherine Keener', 'Paul Rudd', 'Romany Malco', 'Seth Rogen', 'Elizabeth Banks', 'Leslie Mann', 'Jane Lynch', 'Gerry Bednob', 'Shelley Malil', 'Kat Dennings', 'Jordan Masterson', 'Chelsea Smith', 'Jonah Hill', 'Erica Vittina Phillips', 'Marika Domińczyk', 'Mindy Kaling', 'Mo Collins', 'Gillian Vigman', 'Kimberly Page', 'Siena Goines', 'Charlie Hartsock', 'Nancy Carell', 'Cedric Yarbrough', 'David Koechner', 'Jeff Kahn', 'Nick Lashaway', 'Loren Berman', 'Julian Foster', 'Loudon Wainwright III', 'Lee Weaver', 'Gloria Helena Jones', 'Jazzmun', 'Miki Mia', 'Denise Meyerson', 'Shannon Bradley', 'Brianna Brown', 'Liz Carey', 'Elizabeth DeCicco', 'Hilary Shepard', 'Barret Swatek', 'Carla Gallo', 'Michael Bierman', 'Marisa Guterman', 'Stormy Daniels', 'Kevin Hart', 'Wayne Federman', 'Ron Marasco', 'Joseph T. Mastrolia', 'Kate Luyben', 'Joe Nuñez', 'Matthew McKane', 'Rose Abdoo', 'Steve Bannos', 'Brooke Hamlin', 'Miyoko Shimosawa', 'Marilyn Dodds Frank', 'Ann Christine', 'Brandon Killham', 'Phyllis Smith', 'Nicole Randall Johnson', 'Suzy Nakamura', 'Jenna Fischer', 'Stephanie Lemelin', 'Jamie Elle Mann', 'Leah McCormick', 'Samantha J. Reese', 'Brittney Skye', 'Christopher T. Wood', 'Wyatt Smith', 'Kira Turnage', 'Penny Vital', 'Christa Nicole Wells']",3.31,4.0,"['Romance', 'Comedy']",116,['USA'],English,"['English', 'Spanish']","['Universal Pictures', 'Apatow Productions']",744978,48283,118025,366,2451,6594,5874,25592,31913,102520,87445,85022,16486,19307,383204,https://letterboxd.com/film/the-40-year-old-virgin/
War of the Worlds,2005,Steven Spielberg,"['Tom Cruise', 'Dakota Fanning', 'Justin Chatwin', 'Miranda Otto', 'Tim Robbins', 'Rick Gonzalez', 'Yul Vazquez', 'Lenny Venito', 'Lisa Ann Walter', 'Ann Robinson', 'Gene Barry', 'David Alan Basche', 'Roz Abrams', 'Camillia Monet', 'Michael Brownlee', 'Marlon Young', 'John Eddins', 'Peter Gerety', 'David Harbour', 'Miguel Antonio Ferrer', 'January LaVoy', 'Stephen Gevedon', 'Julie White', 'Marianne Ebert', 'Rafael Sardina', 'Amy Ryan', 'Ed Vassallo', 'Michael Arthur', 'Danny Hoch', 'Sharrieff Pugh', 'Erika LaVonn', 'Christopher Evan Welch', 'John Michael Bolger', 'Omar Jermaine', 'Robert Cicchini', 'Jim Hanna', 'Tracy Howe', 'Adam Lazarre-White', ""Vito D'Ambrosio"", 'Laura Zoe Quist', 'Ana Maria Quintana', 'Lorelei Llee', 'Mark Manley', 'John Scurti', 'Becky Ann Baker', 'Mariann Mayberry', 'Ty Simpkins', 'Jerry Walsh', 'Tommy Guiffre', 'Daniel Franzese', 'Ed Schiff', 'Ellen Barry', 'Amy Hohn', 'Dan Ziskie', 'David Conley', 'Daniel Eric Gold', 'Booker T. Washington', 'Maggie Lacey', 'Eric Zuckerman', 'Daniel A. Jacobs', 'Asha R. Nanavati', 'Joaquin Perez-Campbell', 'Dendrie Taylor', 'James DuMont', 'Travis Aaron Wade', 'Benny Ciaramello', 'Ricky Luna', 'Columbus Short', 'Kent Faulcon', 'Kevin Collins', 'Terry Thomas', 'Clay Bringhurst', 'Jorge-Luis Pallo', 'Suanne Spoke', 'Kirsten Nelson', 'Melody Garrett', 'Lauri Johnson', 'Takayo Fischer', 'Shanna Collins', 'Elizabeth Jayne Hong', 'Art Chudabala', 'Jeffrey Hutchinson', 'Dempsey Pappion', 'Chris Todd', 'Johnny Kastl', 'Juan Carlos Hernández', 'Bruce W. Derdoski Jr.', 'John N. Morales', 'Morgan Freeman', 'Peter E. Tasciotti', 'David Gere', 'James Boss', 'Martin Dew', 'Joe Duffy', 'Freddie Johnson', 'Anthony Jennings', 'Ingrid Johnson', 'Tanda Kerín', 'Victor Magnusson', ""Robert O'Connor"", 'Miho Nakamura', 'Vladislav Kozlov', 'Channing Tatum', 'Kyle S. Brown', 'Benjamin Popolukus', 'Jason Latief Anderson', 'Dustin Ardine', 'Cass Asher', 'Claudia Barroso', 'Alan Kemper Armani', 'Timothy Burd', 'Paul Bunnell', 'Stella Croxon', 'Joseph DeBona']",3.28,3.0,"['Science Fiction', 'Adventure', 'Thriller']",117,['USA'],English,['English'],"['Paramount', 'DreamWorks Pictures', 'Amblin Entertainment', 'Cruise/Wagner Productions']",412580,58513,64383,790,1135,3310,4190,17212,24480,65946,53485,45219,9486,9552,234015,https://letterboxd.com/film/war-of-the-worlds/
The Lord of the Rings: The Two Towers,2002,Peter Jackson,"['Elijah Wood', 'Sean Astin', 'Andy Serkis', 'Viggo Mortensen', 'Ian McKellen', 'Bernard Hill', 'Dominic Monaghan', 'Billy Boyd', 'John Rhys-Davies', 'Orlando Bloom', 'Christopher Lee', 'Miranda Otto', 'David Wenham', 'Brad Dourif', 'Karl Urban', 'Liv Tyler', 'Cate Blanchett', 'Hugo Weaving', 'Craig Parker', 'Bruce Allpress', 'John Bach', 'Sala Baker', 'Jed Brophy', 'Sam Comery', 'Calum Gittins', 'Phil Grieve', 'Bruce Hopkins', 'Paris Howe Strewe', 'Nathaniel Lees', 'John Leigh', 'Robbie Magasiva', 'Robyn Malcolm', 'Bruce Phillips', 'Robert Pollock', 'Olivia Tennet', 'Raymond Trickitt', 'Stephen Ure', 'Billy Jackson', 'Katie Jackson', 'Sean Bean', 'John Noble', 'Victoria Beynon-Cole', 'Lee Hartley', 'Frazer Anderson', 'Ben Barrington', 'Jarl Benzon', 'Jørn Benzon', 'Owen Black', 'Dorothy Anne Bonner', 'Ben Britton', 'Riley Brophy', 'Alistair Browning', 'Alix Bushnell', 'Sean Button', 'Ryan Carey', 'Rodney Cook', 'Augie Davis', 'Mana Hira Davis', 'Shane Dawson', 'Karlos Drinkwater', 'Aron Eastwood', 'Frank Edwards', 'Clint Elvy', 'Alexia Fairbrother', 'Daniel Falconer', 'Siaosi Fonua', 'Kester Fordham', 'Michael Fowler', 'Ben Fransham', 'Frank Goldingham', 'Winham Hammond', 'Jonathan Harding', 'Lucas Hayward', 'Dan Hennah', 'Jason Hood', 'Lani Jackson', 'Peter Jackson', 'Gareth Jensen', 'Sam Kelly', 'Richard Knowles', 'Sandro Kopp', 'Sam La Hood', 'Don Langridge', 'Michael Lawrence', 'Alan Lee', 'Jono Manks', 'Brent McIntyre', 'Dra McKay', 'Joseph Mika-Hunt', 'Dean Morganty', 'Henry Mortensen', 'Francis Mountjoy', 'Paul Norell', 'Barrie M. Osborne', 'Allan Poppleton', 'Gareth Reeves', 'Miranda Rivers', 'Campbell Rousselle', 'Matthew J. Saville', 'Samuel E. Shore', 'Allan Smith', 'Greg Tozer', 'Piripi Waretini', 'Tim Wong', 'John Wraight', 'Kelley Kerr Young', 'Robert Young']",4.39,4.5,"['Fantasy', 'Adventure', 'Action']",179,"['New Zealand', 'USA']",English,['English'],"['New Line Cinema', 'WingNut Films', 'The Saul Zaentz Company']",1841316,193465,598856,19000,1531,4215,1733,12256,10474,66477,71251,256253,181741,448363,1054294,https://letterboxd.com/film/the-lord-of-the-rings-the-two-towers/
The Lord of the Rings: The Fellowship of the Ring,2001,Peter Jackson,"['Elijah Wood', 'Ian McKellen', 'Viggo Mortensen', 'Sean Astin', 'Sean Bean', 'Billy Boyd', 'Dominic Monaghan', 'Ian Holm', 'Christopher Lee', 'Liv Tyler', 'John Rhys-Davies', 'Orlando Bloom', 'Hugo Weaving', 'Cate Blanchett', 'Brent McIntyre', 'Sala Baker', 'Andy Serkis', 'Lawrence Makoare', 'Craig Parker', 'Marton Csokas', 'Peter McKenzie', 'Mark Ferguson', 'Harry Sinclair', 'Noel Appleby', 'Megan Edwards', 'Sarah McLeod', 'David Weatherley', 'Ian Mune', 'Michael Elsworth', 'Cameron Rhodes', 'Martyn Sanderson', 'Billy Jackson', 'Katie Jackson', 'Alan Howard', 'Victoria Beynon-Cole', 'Paul Bryson', 'Lance Fabian Kemp', 'Phil Grieve', 'Lee Hartley', 'Jonathan Jordan', 'Semi Kuresa', 'Sam La Hood', 'Jono Manks', 'Ben Price', 'Chris Streeter', 'Clinton Ulyatt', 'Peter Jackson', 'Chris Ryan', 'Bret McKenzie', 'Betty Adams', 'Timothy Bartlett', 'Bob Blackwell', 'David Houma', 'Jo Surgison', 'Liz Merton', 'Zo Hartley', 'Norman Cates', 'Jeff Kingsford-Brown', 'Marta Martí', 'Riley Brophy', 'Phoebe Gittins', 'Taea Hartwell', 'Shane Rangi', 'Jed Brophy', 'Paul Shapcott', 'Alan Lee', 'Larry Rew', 'Gino Acevedo', 'Xander Forterie', 'Richard Maybery', 'Sabine Crossen', 'Gareth Jensen', 'Ben Britton', 'Kester Fordham', 'Jarl Benzon', 'Sam Kelly', 'Matt Appleton', 'Blair Morton', 'Ray Henwood', 'Ralph Johnson', 'Jonathan Harding', 'Jørn Benzon', 'Ben Fransham', 'Tim Kano', 'Sacha Lee', 'Thomas Robins', 'Randall William Cook', 'Rachel Clentworth', 'Lani Jackson', 'Sharon Maxwell', 'David J. Muzzerall', 'Winham Hammond', 'Mana Hira Davis', 'Warren Green', 'Stu Johnson', 'Peter Lyon', 'Peter Daube', 'Samuel E. Shore', 'Rodney Bane', 'Daniel Andrews', 'Siaosi Fonua', 'Ken Stratton', 'Lynden Berrymen', 'Ryan Carey', 'Tack Daniel', 'Shane Dawson', 'Branko Dordevich', 'Greg Lane', 'Tim McLachlan', 'Dean Morganty', 'Greg Morrison', 'Andrew Munro', 'Grant Roa', 'Vincent Roxburgh', 'Mike Stearne', 'Andrew Stehlin', 'Tim Wong']",4.36,4.0,"['Fantasy', 'Adventure', 'Action']",179,"['New Zealand', 'USA']",English,['English'],"['New Line Cinema', 'WingNut Films', 'The Saul Zaentz Company']",2355949,258200,836986,42000,2721,7642,2634,18949,13709,91466,90342,339243,215266,604456,1386428,https://letterboxd.com/film/the-lord-of-the-rings-the-fellowship-of-the-ring/
Donnie Darko,2001,Richard Kelly,"['Jake Gyllenhaal', 'Jena Malone', 'James Duval', 'Drew Barrymore', 'Beth Grant', 'Maggie Gyllenhaal', 'Mary McDonnell', 'Holmes Osborne', 'Noah Wyle', 'Katharine Ross', 'Patrick Swayze', 'Daveigh Chase', 'Arthur Taxier', 'David St. James', 'Patience Cleveland', 'Jazzie Mahannah', 'Jolene Purdy', 'David Moreland', 'Kristina Malota', 'Marina Malota', 'Scotty Leavenworth', 'Phyllis Lyons', 'Gary Lundy', 'Alex Greenwald', 'Stuart Stone', 'Joan Blair', 'Seth Rogen', 'Mark Hoffman', 'Jerry Trainor', 'Tom Tangen', 'Carly Naples', 'Lisa K. Wyatt', 'Rachel Winfree', 'Ashley Tisdale', 'Tiler Peck', 'Fran Kranz', 'Sarah Hudson', 'Alison Jones', 'Lee Weaver', 'Jack Salvatore, Jr.']",3.97,4.5,"['Fantasy', 'Mystery', 'Drama']",114,['USA'],English,['English'],"['Flower Films', 'Gaylord Films', 'Adam Fields Productions', 'Pandora Cinema']",1658952,235885,601260,49000,3154,8196,5057,27525,26827,127109,145329,341416,142780,253599,1080992,https://letterboxd.com/film/donnie-darko/
She's All That,1999,Robert Iscove,"['Freddie Prinze Jr.', 'Rachael Leigh Cook', 'Paul Walker', ""Jodi Lyn O'Keefe"", 'Kevin Pollak', 'Anna Paquin', 'Kieran Culkin', 'Elden Henson', 'Matthew Lillard', 'Usher', ""Lil' Kim"", 'Gabrielle Union', 'Dulé Hill', 'Tamara Mello', 'Clea DuVall', 'Tim Matheson', 'Debbi Morgan', 'Alexis Arquette', 'Dave Buzzotta', 'Chris Owen', 'Charlie Dell', 'Michael Milhoan', 'Carlos Jacott', 'Ashlee Levitch', 'Vanessa Lee Chester', 'Patricia Charbonneau', 'Katharine Towne', 'Wendy Fowler', 'Flex Alexander', 'Robert Baglia', 'Debbie Lee Carrington', 'Sara Rivas', 'Clay Rivers', 'Amon Bourne', 'Takbir Bashir', ""Anthony 'Click' Rivera"", 'Jarrett Lennon', 'Brandon Mychal Smith', 'Milo Ventimiglia', 'Kente Scott', 'Kim Cottom', 'T.J. Espinoza', 'Brian Friedman', 'Tony Fugate', 'Caroline Girvin', 'Alicia Gilley', 'Scott Hislop', 'Jennifer Lee Keyes', 'Richard Kim', 'Stephanie Landwehr', 'Dani Lee', 'Joe Loera', 'Mayah McCoy', 'Ayesha Orange', 'Robert Schultz', 'Josh Seffinger', 'Sarah Christine Smith', 'Christopher Smith', 'Bree Turner', 'Christine Vincent', ""Jerry 'Flo Master' Randolph"", 'Sarah Michelle Gellar']",2.86,4.0,"['Romance', 'Comedy']",95,['USA'],English,['English'],"['Tapestry Films', 'FilmColony', 'Miramax']",310493,40318,46633,616,1802,5172,5545,21245,23063,45939,21189,21231,3644,10748,159578,https://letterboxd.com/film/shes-all-that/
There's Something About Mary,1998,"Bobby Farrelly, Peter Farrelly","['Cameron Diaz', 'Matt Dillon', 'Ben Stiller', 'Lee Evans', 'Chris Elliott', 'Lin Shaye', 'Jeffrey Tambor', 'Markie Post', 'Keith David', 'W. Earl Brown', 'Sarah Silverman', 'Khandi Alexander', 'Marnie Alexenburg', 'Danny Murphy', 'Richard Tyson', 'Rob Moran', 'Jackie Flynn', 'Hillary Matthews', 'Willie Garson', 'David Shackelford', 'David Goryl', 'Lori Brener', 'Jeffrey P. Lerner', 'Cory Pendergast', 'Brett Favre', 'Warren Tashjian', 'Kelly Roarke', 'Herbie Flynn', 'Caryl Lippman West', 'Ken Rogerson', 'Brad Blank', 'Steve Sweeney', 'Cindy Oliver', 'Will Coogan', 'Steve Tyler', 'Maureen Griffin', 'Mariann Farrelly', 'Jonathan Richman', 'Tommy Larkins', 'Lenny Clarke', 'Daniel Greene', 'Michael Budge', 'James Gifford', 'Sean Gildea', 'Zen Gesner', 'Tracy Anne George', 'Jesse Farrelly', 'A.B. Cassidy', 'Zack Lee', 'Valerie Bruce', ""Kelly O'Brien"", 'Mike Charpentier', 'Peter Grundy', ""Michael 'The Cannon' Gannon"", 'Peter Conway', 'Ann Conway', ""Susan O'Day"", 'Heather Rosbeck', 'Jack Shields', 'Fallon Shields', 'Bob Grundy', 'Nancy Farrelly', 'Bill Beauchene', 'Kathy Beauchene', 'Manny Barrows', 'Max Murphy', 'Sheila Mone', ""Barbara O'Connor"", 'Tim Sheehan', 'Richie Balsbaugh', 'Jim Blake', 'Tim Robbie', 'Providence Wissel', 'Ruth Michelle Meyer', 'Billy Meyer', 'Brian McGlaughlin', 'Brian Mone', 'John Stroehman', 'Pete Anicelli', 'Duana Knight', 'Kelley Schneider', 'Meda Thomas', 'Jeanie Flynn', 'Kevin Civale', 'Tom Leasca', 'Mercy Lopez', 'Michael Cheney', 'Scott Rosenberg', 'George Bedard', 'Terry Mullany', 'Rick Coleman', 'Michael Burke', 'Kris Meyer', 'Emilio Diaz', 'Billy Smith', 'Ed Nelson', 'Brian Stuebe', 'Don Daley', 'Clem Franek', 'Julia Hissom', ""James 'Sporty' Ahern"", 'Robin Gau', 'Paul Pelletier', 'Monique Pelletier', 'Jon Mone', 'Nicholas Greenbury', 'Andrew Greenbury', 'Phil Rosenberg', 'John-Eliot Jordan', 'John Adamonis', 'Kyle Adamonis', 'Neil Pomfret', 'Ruth Pomfret', 'Josh Miller', 'Richard Fitzpatrick', 'Deborah Smith Ford', 'James Gaiero', 'Paul Homza', 'Debbie Howard', 'Richard Jenkins', 'Don Julio', 'Rick Michaels', 'Cord Newman', 'Al Quinn', 'Jevon White', 'Harland Williams']",3.24,3.5,"['Romance', 'Comedy']",119,['USA'],English,['English'],['20th Century Fox'],333690,34314,44964,234,1677,3801,3373,12667,14617,42531,33009,30356,6235,7866,156132,https://letterboxd.com/film/theres-something-about-mary/
Starship Troopers,1997,Paul Verhoeven,"['Casper Van Dien', 'Dina Meyer', 'Denise Richards', 'Jake Busey', 'Neil Patrick Harris', 'Clancy Brown', 'Michael Ironside', 'Patrick Muldoon', 'Seth Gilliam', 'Rue McClanahan', 'Blake Lindsley', 'Steven Ford', 'Ungela Brockman', 'Bruce Gray', 'Denise Dowse', 'Amy Smart', 'Tami-Adrian George', 'Julianna McCarthy', 'Dale Dye', 'Dean Norris', 'Marshall Bell', 'Eric Bruskotter', 'Matt Levin', 'Anthony Ruivivar', 'Brenda Strong', 'Christopher Curry', 'Lenore Kasdorf', 'Teo', 'Curnal Achilles Aulisio', 'Greg Travis', 'John Cunningham', 'Timothy McNeil', 'Robert David Hall', 'Brad Kane', 'Timothy Omundson', 'Patrick Bishop', 'Hunter Bodine', 'Travis Lowen', 'Patrick Wolff', 'Mara Duronslet', 'Tyrone Tann', 'Matt Entriken', 'Eric DaRe', 'Ronald L. Botchan', 'Walter Adrian', 'Stephanie Erb', 'Alexi Lakatos', 'Nathaniel Marshall', 'Austin Sanderford', 'Rhiannon Vigil', 'Mylin Brooks', 'Julie Pinson', 'Armand Darrius', 'Kai Lennox', 'Brooke Morales', 'Mike Stokey', 'Mary Ann Schmidt', 'Aaron Stielstra', 'Edward Neumeier', 'Michael Papajohn', 'Michael A. Valenzano', 'Mo Faisal', 'R. Lee Ermey', 'Matt Duggan', 'Whitney Hall', 'Betty Hankins', 'Kaius Harrison', 'Bruce Holman', 'Michael Gerald', 'Jon Davison', 'Dawn E. Anderson', 'Tony Nichols', 'Dan Olivo', 'Zoë Poledouris', 'Ashley Prendergast', 'Ray Quiroga', 'David Rey', 'Dennis Collins', 'Farnaz Samiinia', 'Joleen Sanders', 'Julia Self', 'Claude Stuart', 'Parry Shen', 'Cari Vega', 'Jim Temple', 'Justin Ward', 'Sam P. Whitehead', 'Melissa J. Ward', 'Johnny Mansbach', 'David Beckett']",3.8,3.5,"['Adventure', 'Thriller', 'Action', 'Science Fiction']",129,['USA'],English,['English'],"['TriStar Pictures', 'Touchstone Pictures', 'Jon Davison Productions', 'Big Bug Pictures']",319997,53752,90439,2400,573,1590,1337,6016,7761,29086,41217,65842,23375,23252,200049,https://letterboxd.com/film/starship-troopers/
Toy Story,1995,John Lasseter,"['Tom Hanks', 'Tim Allen', 'Don Rickles', 'Jim Varney', 'Wallace Shawn', 'John Ratzenberger', 'Annie Potts', 'John Morris', 'Erik von Detten', 'Laurie Metcalf', 'R. Lee Ermey', 'Sarah Freeman', 'Penn Jillette', 'Jack Angel', 'Spencer Aste', 'Greg Berg', 'Lisa Bradley', 'Kendall Cunningham', 'Debi Derryberry', 'Cody Dorkin', 'Bill Farmer', 'Craig Good', 'Gregory Grudt', 'Danielle Judovits', 'Sam Lasseter', 'Brittany Levenbrown', 'Sherry Lynn', 'Scott McAfee', 'Mickie McGowan', ""Ryan O'Donohue"", 'Jeff Pidgeon', 'Patrick Pinney', 'Phil Proctor', 'Jan Rabson', 'Joe Ranft', 'Andrew Stanton', 'Shane Sweet', 'John Lasseter', 'Jonathan Benair', 'Anthony Burch', 'Tracy Fraim']",4.13,5.0,"['Comedy', 'Animation', 'Family', 'Adventure']",81,['USA'],English,['English'],['Pixar'],2562079,205093,653586,6800,1417,4626,2364,19740,17252,133696,130977,411514,154325,359120,1235031,https://letterboxd.com/film/toy-story/
Army of Darkness,1992,Sam Raimi,"['Bruce Campbell', 'Embeth Davidtz', 'Marcus Gilbert', 'Ian Abercrombie', 'Richard Grove', 'Timothy Patrick Quill', 'Michael Earl Reid', 'Bridget Fonda', 'Patricia Tallman', 'Ted Raimi', 'Deke Anderson', 'Bruce Thomas', 'Sara Shearer', 'Shiva Gordon', 'Billy Bryan', 'Nadine Grycan', 'Bill Moseley', 'Micheal Kenney', 'Andy Bale', 'Robert Brent Lappin', 'Rad Milo', 'Brad Bradbury', 'Sol Abrams', 'Lorraine Axeman', 'Josh Becker', 'Sheri Burke', 'Don Campbell', 'Charlie Campbell', 'Harley Cokeliss', 'Ken Jepson', 'William Lustig', ""David O'Malley"", 'David Pollison', 'Ivan Raimi', 'Bernard Rose', 'Bill Vincent', 'Chris Webster', 'Ron Zwang', 'Angela Featherstone', 'Patricia Anne Isgate-Hayward', 'Bridget Hoffman', 'Lisa Michelle Axelrod', 'J Michael Briggs', 'Eric Clarke', 'Courtney Pakiz', 'Sam Raimi', 'Jerry Rector', 'Monique Yates Jr.']",3.71,3.5,"['Comedy', 'Horror', 'Fantasy']",81,['USA'],English,['English'],"['Renaissance Pictures', 'Dino De Laurentiis Company', 'Introvision International', 'Universal Pictures']",293176,86471,98116,2600,597,1460,1464,5825,8622,31829,42559,60218,20721,26581,199876,https://letterboxd.com/film/army-of-darkness/
Reservoir Dogs,1992,Quentin Tarantino,"['Harvey Keitel', 'Tim Roth', 'Michael Madsen', 'Chris Penn', 'Steve Buscemi', 'Lawrence Tierney', 'Randy Brooks', 'Kirk Baltz', 'Edward Bunker', 'Quentin Tarantino', 'Rich Turner', 'David Steen', 'Tony Cosmo', 'Stevo Polyi', 'Michael Sottile', 'Robert Ruth', 'Lawrence Bender', 'Linda Kaye', 'Suzanne Celeste', 'Steven Wright', 'Laurie Lathem', 'Maria Strova', 'Burr Steers', 'Craig Hamann', 'Rowland Wafford']",4.15,4.0,"['Crime', 'Thriller']",99,['USA'],English,['English'],"['Live Entertainment', 'Dog Eat Dog Productions']",1424856,234505,487036,14000,1147,2963,2178,11463,13031,73981,113485,329121,178368,202286,928023,https://letterboxd.com/film/reservoir-dogs/
The Rocketeer,1991,Joe Johnston,"['Billy Campbell', 'Jennifer Connelly', 'Alan Arkin', 'Timothy Dalton', 'Paul Sorvino', ""Terry O'Quinn"", 'Ed Lauter', 'Jon Polito', 'James Handy', 'William Sanderson', 'Margo Martindale', 'Clint Howard', 'John Lavachielli', 'Eddie Jones', 'Max Grodénchik', ""Daniel O'Shea"", 'Pat Crawford Brown', 'Julian Barnes', 'Charlie Stavola', 'William Boyett', 'William Frankfather', 'Norbert Weisser', 'Michael Francis Clarke', 'Darryl Henriques', 'Scanlon Gail', 'Melora Hardin', 'Rick Overton', 'Dick Warlock', 'David Pressman', 'Taylor Gilbert', 'Ele Keats', 'Chance Michael Corbitt', 'Merritt Yohnka', 'Craig Hosking', 'Tiny Ron', 'Michael Milhoan', ""Joe D'Angerio"", 'Tommy J. Huff', 'Doug McGrath', 'Herman Poppe', 'Robert Miranda', 'Don Pugsley', 'Nada Despotovich', 'America Martin', 'Paul DeSouza', 'Sam Vincent', 'Lisa Pedersen', 'Peter Bromilow', 'Tom Kindle', 'Heinrich James', 'Bob Leeman', 'Gene Daily', 'Thomas Lee Tully', 'Mike Finneran', 'Dave Adams', 'Arlee Reed', 'Kim Sebastian', 'Lila Finn', 'Perry Cook', 'Danielle Bedau', 'Bob Sandman', 'Lori Lynn Ross', 'Kathleen Michaels', 'Peter Frankland', 'Kristopher Logan', 'Paul Forsyth', 'Steve Hinton Sr.', 'Jim Franklin', 'Richard T. Brickert', 'Chuck Wentworth', 'Bill Turner', 'Chuck Riley']",3.4,3.0,"['Adventure', 'Science Fiction', 'Family', 'Action']",108,['USA'],English,['English'],"['Walt Disney Pictures', 'Gordon Company', 'Dark Horse Entertainment', 'Silver Screen Partners IV']",69088,14875,14166,190,71,323,406,2087,3042,10157,9238,8539,1764,1984,37611,https://letterboxd.com/film/the-rocketeer/
Teenage Mutant Ninja Turtles,1990,Steve Barron,"['Judith Hoag', 'Elias Koteas', 'Josh Pais', 'Brian Tochi', 'Corey Feldman', 'Robbie Rist', 'Kevin Clash', 'David McCharen', 'James Saito', 'David Forman', 'Leif Tilden', 'Michelan Sisti', 'Toshishiro Obata', 'Michael McConnohie', 'Michael Turney', 'Jay Patterson', 'Raymond Serra', 'Sam Rockwell', 'Kenn Scott', 'Kevin Eastman', 'Skeet Ulrich', 'Scott Wolf']",3.32,3.0,"['Comedy', 'Family', 'Science Fiction', 'Action', 'Adventure']",93,"['Hong Kong', 'USA']",English,"['English', 'French']","['New Line Cinema', 'Orange Sky Golden Harvest', 'Mirage Studios']",159431,27111,33249,1000,309,1107,1336,5282,7452,22966,16818,16418,3616,7692,82996,https://letterboxd.com/film/teenage-mutant-ninja-turtles/
Evil Dead II,1987,Sam Raimi,"['Bruce Campbell', 'Sarah Berry', 'Dan Hicks', 'Kassie DePaiva', 'Richard Domeier', 'Ted Raimi', 'Denise Bixler', 'John Peakes', 'Lou Hancock', 'Snowy Winters', 'Sol Abrams', 'Josh Becker', 'Scott Spiegel', 'Thomas Kidd', 'Mitch Cantor', 'Jenny Griffith', 'William Preston Robertson', 'Tony Elwood', 'David Goodman', 'Gary Jones', 'Greg Nicotero', 'Sam Raimi', 'Tom Sullivan', 'Robert Tapert', 'John W. Walter']",4.02,3.5,"['Horror', 'Comedy', 'Fantasy']",84,['USA'],English,['English'],"['Rosebud Releasing Corporation', 'Renaissance Pictures', 'Dino De Laurentiis Company']",396732,139748,147473,11000,716,1712,1521,6153,7237,27316,36553,81653,43186,68949,274996,https://letterboxd.com/film/evil-dead-ii/
Aliens,1986,James Cameron,"['Sigourney Weaver', 'Michael Biehn', 'Lance Henriksen', 'Bill Paxton', 'Jenette Goldstein', 'Carrie Henn', 'Paul Reiser', 'Mark Rolston', 'William Hope', 'Al Matthews', 'Colette Hiller', 'Ricco Ross', 'Daniel Kash', 'Cynthia Dale Scott', 'Tip Tipping', 'Trevor Steedman', 'Paul Maxwell', 'Valerie Colgan', 'Alan Polonsky', 'Alibe Parsons', 'Blain Fairman', 'Barbara Coles', 'Carl Toop', 'John Lees', 'Mac McDonald', 'William Armstrong', 'Holly De Jong', 'Eddie Powell', 'Jill Goldston', 'Jay Benedict', 'Elizabeth Inglis', 'Stuart Milligan', 'Bob Sherman', 'Chris Webb', 'Tom Woodruff Jr.', 'Alec Gillis']",4.15,4.0,"['Science Fiction', 'Horror', 'Thriller', 'Action']",137,['USA'],English,['English'],"['SLM Production Group', '20th Century Fox', 'Brandywine Productions']",717869,160115,225841,8900,495,1324,1441,6861,8656,40033,54364,139068,80557,117369,450168,https://letterboxd.com/film/aliens/
Ferris Bueller's Day Off,1986,John Hughes,"['Matthew Broderick', 'Alan Ruck', 'Mia Sara', 'Jeffrey Jones', 'Jennifer Grey', 'Cindy Pickett', 'Lyman Ward', 'Edie McClurg', 'Charlie Sheen', 'Ben Stein', 'Del Close', 'Virginia Capers', 'Richard Edson', 'Larry Jenkins', 'Kristy Swanson', 'Lisa Bellard', 'Max Perlich', 'Scott Coffey', 'Eric Saiet', 'Jason Alderman', 'Joey Garfield', 'Kristin Graziano', 'Bridgett Baron', 'Annie Ryan', 'Eric Edidin', 'Brendan Baber', 'Tiffany Chance', 'Jonathan Schmock', 'Tom Spratley', 'Dave Silvestri', 'Debra Montague', 'Joey D. Vieira', 'Louie Anderson', 'Stephanie Blake', 'Robert McKibbon', 'Paul Manzanero', 'Miranda Whittle', 'Robert Kim', 'Dick Sollenberger', 'Bob Parkinson', 'Richard Rohrbough', 'Edward Le Beau', 'Polly Noonan', 'DeeDee Rescher', 'John Hughes', 'Lee Ann Marie']",3.93,5.0,['Comedy'],103,['USA'],English,['English'],['Paramount'],1426557,166965,455342,24000,1790,4552,3147,17653,19469,103376,119424,258133,93136,183097,803777,https://letterboxd.com/film/ferris-buellers-day-off/
Return of the Jedi,1983,Richard Marquand,"['Mark Hamill', 'Harrison Ford', 'Carrie Fisher', 'Billy Dee Williams', 'Anthony Daniels', 'Peter Mayhew', 'Sebastian Shaw', 'Ian McDiarmid', 'Frank Oz', 'James Earl Jones', 'David Prowse', 'Alec Guinness', 'Kenny Baker', 'Michael Pennington', 'Kenneth Colley', 'Michael Carter', 'Denis Lawson', 'Tim Rose', 'Dermot Crowley', 'Caroline Blakiston', 'Warwick Davis', 'Jeremy Bulloch', 'Femi Taylor', 'Annie Arbogast', 'Claire Davenport', 'Jack Purvis', 'Mike Edmonds', 'Jane Busby', 'Malcolm Dixon', 'Mike Cottrell', 'Nicki Reade', 'Adam Bareham', 'Jonathan Oliver', 'Pip Miller', 'Tom Mannion', 'Margo Apostolos', 'Ray Armstrong', 'Eileen Baker', 'Michael Henbury Ballan', 'Bobby Bell', 'Patty Bell', 'Alan Bennett', 'Sarah Bennett', 'Pamela Betts', 'Danny Blackner', 'Linda Bowley', 'Peter Burroughs', 'Debbie Lee Carrington', 'Maureen Charlton', 'Willie Coppen', 'Sadie Corre', 'Tony Cox', 'John Cumming', ""Jean D'Agostino"", 'Luis De Jesus', 'Debbie Dixon', 'Margarita Fernández', 'Phil Fondacaro', 'Sal Fondacaro', 'Tony Friel', 'Daniel Frishman', 'John Ghavan', 'Michael Gilden', 'Paul Grant', 'Lydia Green', 'Lars Green', 'Pam Grizz', 'Andrew Herd', 'J.J. Jackson', 'Richard Jones', 'Trevor Jones', 'Glynn Jones', 'Karen Lay', 'John Lummiss', 'Nancy MacLean', 'Peter Mandell', 'Carole Morris', 'Stacie Nichols', 'Chris Nunn', ""Barbara O'Laughlin"", 'Brian Orenstein', 'Harrell Parker Jr.', 'John Pedrick', 'April Perkins', 'Ronnie Phillips', 'Katie Purvis', 'Carol Read', 'Nicholas Read', 'Diana Reynolds', 'Danielle Rodgers', 'Chris Romano', 'Dean Shackelford', 'Kiran Shah', 'Felix Silla', 'Linda Spriggs', 'Gerald Staddon', 'Josephine Staddon', 'Kevin Thompson', 'Kendra Wall', 'Brian Wheeler', 'Butch Wilhelm', 'Mark Dodson', 'Simon J. Williamson', 'Richard Bonehill', 'David Gonzales', 'Peter Roy', 'Erik Bauersfeld', 'Mike Quinn', 'Bill Kipsang Rotich', 'Deep Roy', 'Alisa Berk', 'Hugh Spight', 'Swee Lim', 'Richard Robinson', 'Gerald Home', 'Phil Herbert', 'Tim Dry', 'Sean Crawford', 'Phil Tippett', 'Toby Philpott', 'David Alan Barclay', 'Jasper Jacob', 'Peter Allen', 'John Altman', 'Glyn Baker', 'Dickey Beer', 'Ailsa Berk', 'Don Bies', 'Paul Brooke', 'Ben Burtt', 'Maurice Bush', 'Trevor Butterfield', 'Vivienne Chandler', 'Tony Clarkin', 'Kenneth Coombs', 'Andy Cunningham', 'Peter Diamond', 'Richard Driscoll', 'Douglas Farrell', 'Alan Flyng', 'Ernie Fosselius', 'Stuart Fox', 'Isaac Grand', 'Gordon Hann', 'Alan Harris', 'Walter Henry', 'Philip Herbert', 'Larry Holt', 'William Hoyland', 'Colin Hunt', 'Monty Jordan', 'Michael Josephs', 'Eiji Kusuhara', 'Anthony Lang', 'Arnold Lee', 'Julius LeFlore', 'John Maloney', 'Paul Markham', 'Richard Marquand', 'Hilton McRae', 'Billy J. Mitchell', 'Amanda Noar', 'Terry Sach', 'Errol Shaker', 'Guy Standeven', 'Jules Walters', 'Robert Watts', 'Paul Weston', 'Corey Dee Williams', 'Michael Stevens', 'Michael McCormick', 'David Stone', 'Lynne Hazelden', 'Paul Springer', 'Ronny Cush', 'Larry Ward', 'John Cannon', 'Dalyn Chew', 'Celia Fushille-Burke', 'Mercedes Ngoh', 'Jennifer Jaffe', 'Tina Simmons', 'Hayden Christensen']",4.04,4.5,"['Action', 'Science Fiction', 'Adventure']",132,['USA'],English,['English'],['Lucasfilm Ltd.'],1756311,227233,516515,9700,941,2722,1924,13165,17255,109195,139075,337126,137157,215756,974316,https://letterboxd.com/film/return-of-the-jedi/
Halloween II,1981,Rick Rosenthal,"['Jamie Lee Curtis', 'Donald Pleasence', 'Charles Cyphers', 'Jeffrey Kramer', 'Lance Guest', 'Pamela Susan Shoop', 'Ana Alicia', 'Kyle Richards', 'Tawny Moyer', 'Anne-Marie Martin', 'Nancy Stephens', 'Leo Rossi', 'Cliff Emmich', 'Hunter von Leer', 'Ty Mitchell', 'Nancy Kyes', 'Ford Rainey', 'Dick Warlock', 'Gloria Gifford', 'Anne Bruner', 'Dana Carvey', 'Lucille Benson', 'Billy Warlock', 'Jack Verbois', 'Adam Gunn', 'Pamela McMyler', 'Dennis Holahan', 'Howard Culver', 'John Zenda', 'Ken Smolka', 'Roger Hampton', 'Robin Coleman', 'Tony Moran', 'Brian Andrews', 'Helen Kelly', 'Kim Gottlieb', 'Don Ramey Logan', 'Nancy Platt Jacoby', 'Lance Warlock']",3.17,3.0,"['Horror', 'Thriller']",92,['USA'],English,['English'],"['Universal Pictures', 'Dino De Laurentiis Company']",222093,70717,46119,355,491,1673,2276,10713,15749,44619,30620,24941,5232,7603,143917,https://letterboxd.com/film/halloween-ii-1981/
The Evil Dead,1981,Sam Raimi,"['Bruce Campbell', 'Ellen Sandweiss', 'Richard DeManincor', 'Betsy Baker', 'Theresa Tilly', 'Philip A. Gillis', 'Dorothy Tapert', 'Cheryl Guttridge', 'Barbara Carey', 'David Horton', 'Wendall Thomas', 'Don Long', 'Stu Smith', 'Kurt Rauf', 'Ted Raimi', 'Ivan Raimi', 'Bill Vincent', 'Mary Beth Tapert', 'Scott Spiegel', 'John Cameron', 'Joanne Kruse', 'Gwen Cochanski', 'Debie Jarczewski', 'Josh Becker', 'Bob Dorian', 'Sam Raimi', 'Tom Sullivan', 'Robert Tapert']",3.66,3.0,['Horror'],85,['USA'],English,['English'],"['New Line Cinema', 'Renaissance Pictures']",534019,149534,161073,4700,1444,3132,3236,12199,16477,60252,72364,108923,32287,45112,355426,https://letterboxd.com/film/the-evil-dead/
The Shining,1980,Stanley Kubrick,"['Jack Nicholson', 'Shelley Duvall', 'Danny Lloyd', 'Scatman Crothers', 'Barry Nelson', 'Philip Stone', 'Joe Turkel', 'Anne Jackson', 'Tony Burton', 'Lia Beldam', 'Billie Gibson', 'Barry Dennen', 'David Baxt', 'Manning Redwood', 'Lisa Burns', 'Louise Burns', 'Robin Pappas', 'Alison Coleridge', 'Burnell Tucker', 'Jana Shelden', 'Kate Phelps', 'Norman Gay', 'Paul Desbois', 'Vivian Kubrick', 'Derek Lyons', 'Alan Harris', 'Peter McNamara', 'Guy Standeven', 'Reg Thomason']",4.24,4.5,"['Horror', 'Thriller']",144,"['UK', 'USA']",English,['English'],"['Warner Bros. Pictures', 'Peregrine', 'Hawk Films', 'The Producer Circle Co.']",2551482,416629,1017785,44000,2489,7021,3864,26647,21388,137655,133634,467790,253109,592539,1646136,https://letterboxd.com/film/the-shining/
Alien,1979,Ridley Scott,"['Tom Skerritt', 'Sigourney Weaver', 'Veronica Cartwright', 'Harry Dean Stanton', 'John Hurt', 'Ian Holm', 'Yaphet Kotto', 'Bolaji Badejo', 'Helen Horton']",4.28,3.0,"['Horror', 'Science Fiction']",117,"['USA', 'UK']",English,"['English', 'Spanish']","['20th Century Fox', 'Brandywine Productions']",1436867,298426,511810,30000,869,2597,1707,10747,11061,67535,83917,265359,160135,310635,914562,https://letterboxd.com/film/alien/
Halloween,1978,John Carpenter,"['Donald Pleasence', 'Jamie Lee Curtis', 'P.J. Soles', 'Nancy Kyes', 'Charles Cyphers', 'Kyle Richards', 'Brian Andrews', 'John Michael Graham', 'Nancy Stephens', 'Nick Castle', 'Arthur Malet', 'Mickey Yablans', 'Brent Le Page', 'Adam Hollander', 'Robert Phalen', 'Tony Moran', 'Will Sandin', 'Sandy Johnson', 'David Kyle', 'Peter Griffith', 'Barry Bernardi', 'Joseph Cornelius', ""George O'Hanlon Jr."", 'Darla Rae', 'John Carpenter', 'Tommy Lee Wallace', 'Gwen Van Dam', 'Jennifer Rhodes']",3.8,5.0,"['Horror', 'Thriller']",91,['USA'],English,['English'],"['Compass International Pictures', 'Falcon International Productions']",994864,256962,299242,16000,1824,5353,4397,20997,23416,95856,98143,184750,65642,137039,637417,https://letterboxd.com/film/halloween-1978/
Annie Hall,1977,Woody Allen,"['Woody Allen', 'Diane Keaton', 'Tony Roberts', 'Carol Kane', 'Paul Simon', 'Shelley Duvall', 'Janet Margolin', 'Colleen Dewhurst', 'Christopher Walken', 'Donald Symington', 'Helen Ludlam', 'Mordecai Lawner', 'Joan Neuman', 'Jonathan Munk', 'Ruth Volner', 'Martin Rosenblatt', 'Hy Anzell', 'Rashel Novikoff', 'Russell Horton', 'Marshall McLuhan', 'Christine Jones', 'Mary Boylan', 'Wendy Girard', 'John Doumanian', 'Bob Maroff', 'Rick Petrucelli', 'Lee Callahan', 'Chris Gampel', 'Dick Cavett', 'Mark Lenard', 'Dan Ruskin', 'John Glover', 'Bernie Styles', 'Johnny Haymer', 'Ved Bandhu', 'John Dennis Johnston', 'Laurie Bird', 'Jim McKrell', 'Jeff Goldblum', 'William Callaway', 'Roger Newman', 'Alan Landers', 'Jean Sarah Frost', ""Vince O'Brien"", 'Humphrey Davis', 'Veronica Radburn', 'Robin Mary Paris', 'Charles Levin', 'Wayne Carson', 'Michael Karm', 'Petronia Johnson', 'Shaun Casey', 'Riccardo Bertoni', 'Michael Aronin', 'Lou Picetti', 'Loretta Tupper', 'James Burge', 'Shelley Hack', 'Albert M. Ottenheimer', 'Paula Trueman', ""Beverly D'Angelo"", 'Tracey Walter', 'David Wier', 'Keith Dentice', 'Susan Mellinger', 'Hamit Perezic', 'James Balter', 'Eric Bear', 'Amy Levitan', 'Gary Allen', 'Frank Vohs', 'Sybil Bowan', 'Margaretta Warwick', 'Lucy Lee Flippin', 'Gary Mule Deer', 'Sigourney Weaver', 'Walter Bernstein', 'Truman Capote', 'Gregory Doucette', 'Harrison Ressler', 'Billie Perkins', 'Kathryn Janssen', 'Juliet Graham']",4.04,4.0,"['Drama', 'Romance', 'Comedy']",93,['USA'],English,"['English', 'German']","['United Artists', 'Rollins-Joffe Productions']",380551,99801,99861,5100,1280,2322,1544,6239,6710,24450,29938,67203,34890,50277,224853,https://letterboxd.com/film/annie-hall/
Suspiria,1977,Dario Argento,"['Jessica Harper', 'Stefania Casini', 'Flavio Bucci', 'Miguel Bosé', 'Barbara Magnolfi', 'Susanna Javicoli', 'Eva Axén', 'Rudolf Schündler', 'Udo Kier', 'Alida Valli', 'Joan Bennett', 'Margherita Horowitz', 'Jacopo Mariani', 'Fulvio Mingozzi', 'Franca Scagnetti', 'Renato Scarpa', 'Serafina Scorceletti', 'Giuseppe Transocchi', 'Renata Zamengo', 'Alessandra Capozzi', 'Salvatore Capozzi', 'Diana Ferrara', 'Cristina Latini', 'Alfredo Raino', 'Claudia Zaccari', 'Dario Argento', 'Giovanni di Bernardo', 'Daria Nicolodi', 'Marina Pierro', 'Lela Svasta']",3.95,4.5,['Horror'],99,['Italy'],English,"['English', 'French', 'Latin', 'German', 'Italian']",['Seda Spettacoli'],478061,169916,169954,10000,806,2079,2013,8128,10502,39372,52298,105875,47528,69429,338030,https://letterboxd.com/film/suspiria/
Carrie,1976,Brian De Palma,"['Sissy Spacek', 'Piper Laurie', 'Amy Irving', 'William Katt', 'Nancy Allen', 'Betty Buckley', 'John Travolta', 'P.J. Soles', 'Priscilla Pointer', 'Sydney Lassick', 'Stefan Gierasch', 'Michael Talbott', 'Doug Cox', 'Harry Gold', 'Noelle North', 'Cindy Daly', 'Deirdre Berthrong', 'Anson Downes', 'Rory Stevens', 'Edie McClurg', 'Cameron De Palma', 'Sharon Benson', 'Terry Bolo', 'Jean Glaudé', 'Katie Irving', 'Cynthia Schuler Larsen', 'Dan Protheroe', 'James Saad', 'Janie Squire', 'Mike Towers', 'Glen Vance']",3.85,4.0,"['Horror', 'Thriller']",98,['USA'],English,['English'],['United Artists'],737094,178657,216534,5500,618,1820,1694,9836,12257,63121,76782,150895,48859,73329,439211,https://letterboxd.com/film/carrie-1976/
Taxi Driver,1976,Martin Scorsese,"['Robert De Niro', 'Jodie Foster', 'Cybill Shepherd', 'Harvey Keitel', 'Peter Boyle', 'Leonard Harris', 'Albert Brooks', 'Diahnne Déa', 'Frank Adu', 'Victor Argo', 'Gino Ardito', 'Garth Avery', 'Harry Cohn', 'Cooper Cunningham', 'Brenda Dickson', 'Harry Fischler', 'Nat Grant', 'Richard Higgs', 'Beau Kayser', 'Victor Magnotta', 'Bob Maroff', 'Norman Matlock', 'Bill Minkin', 'Murray Moston', 'Harry Northup', 'Gene Palma', 'Harlan Cary Poe', 'Steven Prince', 'Peter Savage', 'Martin Scorsese', 'Nicholas Shields', 'Ralph S. Singleton', 'Joe Spinell', 'Maria Turner', 'Robin Utt', 'Tommy Ardolino', 'Joseph Bergmann', 'Robert P. Cohen', 'William Donovan', 'Jean Elliott', 'Annie Gagen', 'Trent Gough', 'Carson Grant', 'Mary-Pat Green', 'Robert John Keiber', 'James Mapes', 'Debbi Morgan', 'David Nichols', 'Antone Pagán', 'Billie Perkins', 'Michael Phillips', 'Frankie Verroca']",4.17,5.0,"['Drama', 'Crime']",114,['USA'],English,"['English', 'Spanish']","['Italo/Judeo Productions', 'Bill/Phillips', 'Columbia Pictures']",1806966,314407,651911,42000,2850,6693,4278,23058,22500,107734,127716,353896,203460,371068,1223253,https://letterboxd.com/film/taxi-driver/
The Texas Chain Saw Massacre,1974,Tobe Hooper,"['Marilyn Burns', 'Allen Danziger', 'Paul A. Partain', 'William Vail', 'Teri McMinn', 'Edwin Neal', 'Jim Siedow', 'Gunnar Hansen', 'John Dugan', 'Robert Courtin', 'William Creamer', 'John Henry Faulk', 'Jerry Green', 'Ed Guinn', 'Joe Bill Hogan', 'Perry Lorenz', 'John Larroquette']",3.85,5.0,['Horror'],83,['USA'],English,['English'],"['Vortex', 'Henkel Productions', 'Hooper Productions', 'Bryanston Pictures']",685769,190784,205809,12000,2218,5147,3934,16011,16809,60715,65339,127612,55130,96690,449605,https://letterboxd.com/film/the-texas-chain-saw-massacre/
A Clockwork Orange,1971,Stanley Kubrick,"['Malcolm McDowell', 'Patrick Magee', 'Michael Bates', 'Carl Duering', 'Warren Clarke', 'James Marcus', 'Michael Tarn', 'Miriam Karlin', 'Adrienne Corri', 'Sheila Raynor', 'Philip Stone', 'Aubrey Morris', 'Clive Francis', 'John Clive', 'Paul Farrell', 'Michael Gover', 'Godfrey Quigley', 'Madge Ryan', 'Anthony Sharp', 'Pauline Taylor', 'Margaret Tyzack', 'Steven Berkoff', 'Lindsay Campbell', 'David Prowse', 'Barrie Cookson', 'Jan Adair', 'Gaye Brown', 'Peter Burton', 'John J. Carney', 'Alec Wallis', 'John Savident', 'Vivienne Chandler', 'Richard Connaught', 'Prudence Drage', 'Carol Drinkwater', 'Lee Fox', 'Cheryl Grunwald', 'Gillian Hills', 'Craig Hunter', 'Shirley Jaffe', 'Virginia Wetherell', 'Neil Wilson', 'Katya Wyeth', 'Jack Arrow', 'Shane Shelton']",4.13,4.0,"['Science Fiction', 'Crime']",137,"['UK', 'USA']",English,['English'],"['Warner Bros. Pictures', 'Hawk Films']",1325976,235722,435717,29000,5054,9032,4108,19500,16145,73505,82793,236240,138257,246063,830697,https://letterboxd.com/film/a-clockwork-orange/
2001: A Space Odyssey,1968,Stanley Kubrick,"['Keir Dullea', 'Gary Lockwood', 'William Sylvester', 'Douglas Rain', 'Daniel Richter', 'Leonard Rossiter', 'Margaret Tyzack', 'Robert Beatty', 'Sean Sullivan', 'Frank Miller', 'Ed Bishop', 'Edwina Carroll', 'Heather Downham', 'Penny Brahms', 'Maggie London', 'Chela Matthison', 'Judy Kiern', 'Alan Gifford', 'Ann Gillis', 'Vivian Kubrick', 'Kenneth Kendall', 'Kevin Scott', 'Martin Amor', 'Bill Weston', 'Glenn Beck', 'Mike Lovell', 'John Ashley', 'Jimmy Bell', 'David Charkham', 'Simon Davis', 'Jonathan Daw', 'Péter Delmár', 'Terry Duggan', 'David Fleetwood', 'Danny Grover', 'Brian Hawley', 'David Hines', 'Tony Jackson', 'John Jordan', 'Scott MacKee', 'Laurence Marchant', 'Darryl Paes', 'Joe Refalo', 'Andy Wallace', 'Bob Wilyman', 'Richard Woods', 'S. Newton Anderson', 'Sheraton Blount', 'Ann Bormann', 'Julie Croft', 'Penny Francis', 'Marcella Markham', 'Irena Marr', 'Krystyna Marr', 'Kim Neil', 'Jane Pearl', 'Penny Pearl', 'Burnell Tucker', 'John Swindells', 'John Clifford', 'Stanley Kubrick', 'Anthony Jackson', 'Frank W. Miller', 'Harry Fielder']",4.3,5.0,"['Adventure', 'Mystery', 'Science Fiction']",149,"['UK', 'USA']",English,"['English', 'Russian']","['Stanley Kubrick Productions', 'Metro-Goldwyn-Mayer']",1265059,299810,455664,43000,4520,9239,4524,20181,15518,60951,58522,176239,123686,350867,824247,https://letterboxd.com/film/2001-a-space-odyssey/
