Film_title,Release_year,Director,Cast,Average_rating,Owner_rating,Genres,Runtime,Countries,Original_language,Spoken_languages,Studios,Watches,List_appearances,Likes,Fans,½,★,★½,★★,★★½,★★★,★★★½,★★★★,★★★★½,★★★★★,Total_ratings,Film_URL
Madonna: The Celebration Tour in Rio,2024,Jonas Åkerlund,"['Madonna', 'Pabllo Vittar', 'Anitta', 'Pretinho da Serrinha']",4.22,nan,['Music'],130,['Brazil'],English,['English'],"['Bonus Track', 'TV Globo Rio de Janeiro', 'Multishow', 'Globoplay']",10268,232,5796,8,21,15,4,13,14,49,65,443,341,8283,9248,https://letterboxd.com/film/madonna-the-celebration-tour-in-rio/
Jovem Lisboa,2024,Lorenzo Cisari,"['Miguel Barreto', 'Vasco Carvalho', 'Manuel Tan', 'Simão Cruz', 'Lorenzo Cisari']",nan,2.0,"['Romance', 'Comedy']",2,['Portugal'],Portuguese,"['Portuguese', 'English']",nan,51,4,29,1,1,0,1,1,0,0,0,2,2,27,34,https://letterboxd.com/film/jovem-lisboa/
Everything/Nothing,2024,César F.P Falkenburg,"['César F.P Falkenburg', 'Ana Lucia Falkenburg', 'Mauricio Falkenburg', 'Jesper', 'Ana Luiza Padeti', 'Alessandra Gerbelli', 'Brida Laisla', 'Daniela Ancesque', 'Felipe Araujo', 'Julia Renzo', 'Pietro Perez', 'Pedro Munhoz', 'Rafaela Moura', 'Alice Faria', 'Bruna Accioly', 'Fernanda Astolpho', 'Giulia Gandolfi', 'Ísis Saraiva', 'Júlia Blaz', 'Kaique Affonso', 'Mariana Castro', 'Marina Buaiz', 'Pedro Fonseca Ianhez']",nan,nan,['Documentary'],1,['Brazil'],Portuguese,['Portuguese'],nan,36,1,20,0,0,0,1,0,1,1,1,2,0,11,17,https://letterboxd.com/film/everything-nothing-2024/
A Vampire in the Family,2023,Ale McHaddo,"['Leandro Hassum', 'Rômulo Arantes Neto', 'Edson Celulari', 'Monique Alfradique', 'Mel Maia', 'Caio Mendonça', 'Renata Bras', 'Maria Flor Franco', 'Zico', 'Antonio Fragoso', 'Eliezer Motta', 'Aramis Trindade', 'Cézar Maracujá', 'Paula Frascari', 'Jana Guinond', 'Gui Soarrê', 'Andréia Rocha', 'Natállia Lorran', 'Jasmini Victoria', 'Bruno Buaiz', 'André Mattos', 'Charles Paraventi', 'Ale McHaddo', 'Bernardo Carrati Mizrahy', 'Nanda Boechat', 'Ygor Marçal', 'Stella McHaddo', 'Maurício Andrade Fernandes']",2.28,1.5,['Comedy'],90,['Brazil'],Portuguese,['Portuguese'],['Camisa Listrada'],11000,1286,1675,6,540,908,686,1746,1454,2108,819,797,147,715,9920,https://letterboxd.com/film/a-vampire-in-the-family/
Craig Before the Creek,2023,"Matt Burnett, Ben Levin","['Philip Solomon', 'Noël Wells', 'Michael Croner', 'Vico Ortiz', 'Kimberly Hebert Gregory', 'Byron Marc Newsome', 'Lucia Cunningham', 'Phil LaMarr', 'Jeff Trammell', 'Jolie Hoang-Rappaport', 'Zehra Fazal', 'Ben Levin', 'Matt Burnett', 'Jessica McKenna', 'Gunnar Sizemore', 'Andree Vermeulen', 'Dana Davis', 'Najja Porter', 'Analesa Fisher', 'Terrence Hardy Jr.', 'Ashleigh Crystal Hairston', 'Karen Fukuhara']",3.63,3.5,"['Adventure', 'TV Movie', 'Family', 'Animation', 'Fantasy', 'Comedy']",88,['USA'],English,['English'],['Cartoon Network Studios'],1289,398,617,5,3,1,5,14,33,142,215,367,93,205,1078,https://letterboxd.com/film/craig-before-the-creek/
Scott Pilgrim Takes Off,2023,"Abel Góngora, Tomohisa Shimoyama","['Michael Cera', 'Mary Elizabeth Winstead', 'Satya Bhabha', 'Kieran Culkin', 'Chris Evans', 'Brie Larson', 'Alison Pill', 'Brandon Routh', 'Jason Schwartzman', 'Mae Whitman', 'Anna Kendrick', 'Aubrey Plaza', 'Johnny Simmons', 'Mark Webber', 'Ellen Wong']",4.16,3.5,"['Animation', 'Comedy']",217,"['Japan', 'UK', 'USA']",English,"['English', 'French', 'Japanese']","['Science SARU', 'UCP', 'Complete Fiction', 'Marc Platt Productions']",109497,10335,55742,387,177,268,259,885,1277,5033,9716,26553,19045,25063,88276,https://letterboxd.com/film/scott-pilgrim-takes-off-2023/
Death Whisperer,2023,Taweewat Wantha,"['Nadech Kugimiya', 'Kajbhunditt Jaidee', 'Peerakrit Phacharaboonyakiat', 'Denise Jelilcha Kapaun', 'Rattanawadee Wongtong', 'Nutthacha Padovan', 'Paramej Noiam', 'Arisara Wongchalee', 'Ong-art Cheamcharoenpornkul', 'Porjed Kaenpetch', 'Manita Chobchuen', 'Jampar Saenprom', 'Samiha Lamloet Haque', 'Peerapol Kijreunpiromsuk', 'Natda Chawawanid', 'Sorabodee Changsiri', 'Panida Sararat', 'Autthawikorn Tookaew', 'Phitchayapha Salaesakul', 'Kunyapak Noppawong Na Ayutthya', 'Neennara Boonnithipaisit', 'Aitsaranuchat Homhuan', 'Jiranya Pakhiao', 'Sasipa Sedboobpa', 'Suriwipa Yimlamai', 'Warinthorn Phupakrae']",2.65,0.5,"['Thriller', 'Horror']",121,['Thailand'],Thai,['Thai'],"['Minds@Work', 'M Pictures']",4728,651,577,3,97,193,219,617,631,1042,614,425,84,96,4018,https://letterboxd.com/film/death-whisperer/
Taylor Swift: The Eras Tour,2023,Sam Wrench,"['Taylor Swift', 'Mike Meadows', 'Max Bernstein', 'Paul Sidoti', 'Amos Heller', 'Matt Billingslea', 'Karina DePiano', 'Melanie Nyema', 'Kamilah Marshall', 'Jeslyn Gorman', 'Eliotte Woodford', 'Amanda Balen', 'Tori Evans', 'Raphael Thomas', 'Audrey Douglass', 'Kevin Scheitzbach', 'Jan Ravnik', 'Kameron Saunders', 'Taylor Banks', 'Natalie Peterson', 'Sydney Moss', 'Tamiya Lewis', 'Natalie Lecznar', 'Sam McWilliams', 'Whyley Yoshimura', 'Karen Chuang']",4.31,1.0,['Music'],169,['USA'],English,['English'],"['Taylor Swift Productions', 'Silent House Productions']",263986,35288,131807,3600,6233,1729,459,1631,1878,8100,7933,27314,14983,139687,209947,https://letterboxd.com/film/taylor-swift-the-eras-tour/
Poison,2023,Wes Anderson,"['Benedict Cumberbatch', 'Dev Patel', 'Ben Kingsley', 'Ralph Fiennes', 'Eliel Ford', 'Benoît Herlin']",3.6,2.5,['Comedy'],17,['USA'],English,['English'],"['American Empirical Pictures', 'Indian Paintbrush']",191552,28529,47483,18,231,576,685,3571,6536,29309,38142,43420,9897,7124,139491,https://letterboxd.com/film/poison-2023/
The Killer,2023,David Fincher,"['Michael Fassbender', 'Tilda Swinton', 'Charles Parnell', 'Arliss Howard', ""Kerry O'Malley"", 'Sophie Charlotte', 'Emiliano Pernia', 'Gabriel Polanco', 'Sala Baker', 'Endre Hules', 'Bernard Bygott', 'Monique Ganderton', 'Daran Norris', 'Nikki Dixon', 'Paloma Palacio Colon', 'Lía Lockhart', 'Arturo Duvergé', 'Génesis Estévez', 'Leroy Edwards III', 'Kellan Rhude', 'Sacha Beaubier', 'Branden Mitch', 'Brandon Morales', 'Kyrstal Ortiz', 'Erik Hellman', 'Carlos Rogelio Diaz', 'Ilyssa Fradin', 'Julia Rowley', 'Jack Kesy', 'Eric Tolzmann', 'Jirus Tillman', 'Kev Morris Sr.', 'Brett C. Johnson', 'Tariq Azikiue', 'Jérôme Keen', 'Stéphane Vasseur', 'François Patissier', 'Dzianis Chpoutalau', 'Cécile Coves', 'Claire Patronikn', 'Lila Espinasse', 'Sara Mezouar', 'Zacharia Mezouar', 'Marie Bessière', 'Nino Viard', 'Antoine Matichard', 'Anna Cosmao', 'Alexandra Holzhammer']",3.41,4.0,"['Thriller', 'Crime']",118,['USA'],English,"['English', 'French', 'Spanish']",['Netflix'],646273,146075,155851,471,2081,6169,6262,29425,41253,121669,144256,149098,31801,15242,547256,https://letterboxd.com/film/the-killer-2023/
Barbie,2023,Greta Gerwig,"['Margot Robbie', 'Ryan Gosling', 'America Ferrera', 'Ariana Greenblatt', 'Issa Rae', 'Kate McKinnon', 'Alexandra Shipp', 'Emma Mackey', 'Hari Nef', 'Sharon Rooney', 'Ana Cruz Kayne', 'Ritu Arya', 'Dua Lipa', 'Nicola Coughlan', 'Emerald Fennell', 'Simu Liu', 'Kingsley Ben-Adir', 'Ncuti Gatwa', 'Scott Evans', 'John Cena', 'Michael Cera', 'Rhea Perlman', 'Helen Mirren', 'Will Ferrell', 'Connor Swindells', 'Jamie Demetriou', 'Andrew Leung', 'Will Merrick', 'Zheng Xi Yong', 'Asim Chaudhry', 'Ray Fearon', 'Erica Ford', 'Hannah Khalique-Brown', 'Mette', 'Marisa Abela', 'Lucy Boynton', 'Rob Brydon', 'Tom Stourton', 'Chris Taylor', 'David Mumeni', 'Olivia Brody', 'Isla Ashworth', 'Eire Farrell', 'Daisy Duczmal', 'Genvieve Toussaint', 'Isabella Nightingale-Mercado', 'Millie-Rose Crossley', 'Anvita Nehru', 'Kayla-Mai Alvares', 'Luke Mullen', 'Patrick Luwis', 'Mac Brandt', 'Paul Jurewicz', 'Oraldo Austin', 'Benjamin Arthur', 'Carlos Jacott', 'Adam Ray', 'George Basil', 'Ptolemy Slocum', 'Deb Hiett', 'James Leon', 'Oliver Vaquer', 'Tony Noto', 'Christopher T. Wood', 'Ann Roth', 'Annie Mumolo', 'Elise Gallup', 'McKenna Roberts', 'Brylee Hsu', 'Sasha Milstein', 'Lauren Holt', 'Sterling Jones', 'Ryan Piers Williams', 'Jamaal Lewis', 'Kathryn Akin', 'Grace Jabbari', 'Ira Mandela Siobhan', 'Lisa Spencer', 'Naomi Weijand', 'Tom Clark', 'Ireanne Abenoja', 'Davide Albonetti', 'Charlotte Anderson', 'Michael Anderson', 'Rico Bakker', 'James Bamford', 'William John Banks', 'Callum Bell', 'Adam Blaug', 'Mason Boyce', 'Taylor Bradshaw', 'Alex Brown', 'Miekaile Browne', 'Lewis Calcutt', 'Nikkita Chadha', 'Oliver Chapman', 'Megan Charles', 'Callum Clack', 'Danny Coburn', 'Kat Collings', 'Adam Crossley', 'Sia Dauda', 'Gustave Die', 'Grace Durkin', 'Joelle Dyson', 'Lewis Easter', 'Onyemachi Ejimofor', 'Cameron Everitt', 'Luke Field-Wright', 'Sasha Flesch', 'Adam Fogarty', 'Michael John French', 'Anna-Kay Gayle', 'Charlie Goddard', 'Marlie Goddard', 'Ellis Harman', 'Yasmin Harrison', 'Josh Hawkins', 'James Healy', 'Tim Hodges', 'Mira Jebari', 'Beccy Jones', 'Thomas Kalek', 'Lily Laight', 'Maiya Leeke', 'Cristian Liberti', 'Prodromos Marneros', 'Nahum McLean', 'Jordan Melchor', 'Ramzan Miah', 'Andy Monaghan', 'Florivaldo Mossi', 'Hannah Nazareth', 'Grant Neal', 'Freja Nicole', 'Shaun Niles', 'Ella Nonini', 'Jack William Parry', 'Josie Pocock', 'Barnaby Quarendon', 'Redmand Rance', 'Zara Richards', 'Liam Riddick', 'Alana Rixon', 'Adam Paul Robertson', 'Kingdom Sibanda', 'Sebastian Skov', 'Aaron J. Smith', 'Joshua Smith', 'Lucia-Rose Sokolowski', 'Janine Somcio', 'Alex Sturman', 'Callum Sterling', 'Todd Talbot', 'Charles Tatman', 'Grant Thresh', 'Connor Tidman', 'Wahchi Vong', 'Jerry Wan', 'Sasha Wareham', 'Stan West', 'Oliver Wheeler', 'Josh Wild', 'Joe Wolstenholme', 'Richard Womersley', 'Ashley Young']",3.87,3.0,"['Comedy', 'Adventure']",114,"['UK', 'USA']",English,['English'],"['LuckyChap Entertainment', 'Heyday Films', 'NB/GG Pictures', 'Mattel', 'Warner Bros. Pictures']",3568333,443294,1547958,26000,12199,26104,17506,86649,92760,373379,387388,810505,342387,767043,2915920,https://letterboxd.com/film/barbie/
Scream VI,2023,"Matt Bettinelli-Olpin, Tyler Gillett","['Melissa Barrera', 'Jenna Ortega', 'Jasmin Savoy Brown', 'Mason Gooding', 'Jack Champion', 'Roger L. Jackson', 'Liana Liberato', 'Dermot Mulroney', 'Devyn Nekoda', 'Josh Segarra', 'Hayden Panettiere', 'Henry Czerny', 'Tony Revolori', 'Skeet Ulrich', 'Samara Weaving', 'Courteney Cox', 'Matthew Giuffrida', 'Andre Anthony', 'Thomas Cadrot', 'Barry Morgan', 'Chanel Mings', 'Erika Prevost', 'Jesse Camacho', 'Jenna Wheeler-Hughes', 'Mizinga Mwinga', 'Céleste Dubé', 'André Bédard', 'Eric Davis', 'Lydia Zadel', 'Elizabeth Neale', 'Justin Johnson', 'Stephane Ishmael', 'Max Laferriere', 'Jack Quaid', 'Jason Cavalier', 'Thom Newell', 'Tim Robinson', 'Akiva Schaffer']",3.39,2.0,"['Crime', 'Horror', 'Thriller']",123,['USA'],English,['English'],"['Radio Silence', 'Project X Entertainment', 'Spyglass Media Group', 'Paramount']",618155,163428,188357,2500,3458,7612,7787,25917,33718,91880,100358,129339,42679,58144,500892,https://letterboxd.com/film/scream-vi/
Last Week,2022,"Kanye West, Nico Ballesteros",['Kanye West'],3.34,nan,['Documentary'],30,"['Japan', 'USA']",English,['English'],nan,656,80,143,2,21,17,12,25,21,55,29,37,7,54,278,https://letterboxd.com/film/last-week/
Hellraiser,2022,David Bruckner,"[""Odessa A'zion"", 'Jamie Clayton', 'Adam Faison', 'Drew Starkey', 'Brandon Flynn', 'Aoife Hinds', 'Goran Visnjic', 'Hiam Abbass', 'Kit Clarke', 'Jason Liles', 'Yinka Olorunnife', 'Selina Lo', 'Zachary Hing', 'Predrag Bjelac', 'Gorica Regodić', 'Vukašin Jovanović', 'Ivona Kustudić', 'Greg De Cuir', 'Miodrag Milovanov', 'Nikola Kent', 'Katarina Gojković']",2.9,1.5,"['Mystery', 'Horror']",121,['USA'],English,['English'],"['Phantom Four', 'Spyglass Media Group']",139639,36510,28779,88,1282,3166,3777,12566,16313,32244,22108,15871,2687,3193,113207,https://letterboxd.com/film/hellraiser-2022/
Paws of Fury: The Legend of Hank,2022,"Mark Koetsier, Rob Minkoff","['Michael Cera', 'Samuel L. Jackson', 'Ricky Gervais', 'Kylie Kuioka', 'Mel Brooks', 'George Takei', 'Gabriel Iglesias', 'Djimon Hounsou', 'Michelle Yeoh', 'Aasif Mandvi', 'Cathy Shim', 'Stephen Apostolina', 'Kirk Baily', 'Steve Blum', 'Ranjani Brow', 'William Calvert', 'David Chen', 'Miles Clark', 'Seth Clark', 'Matt Corboy', 'Jeff Fischer', 'Jason Griffith', 'Larry Herron', 'Bridget Hoffman', 'Rif Hutton', 'Ashley Lambert', 'Lex Lang', 'Terence Mathews', 'Tom McGrath', 'Scott Menville', 'David Michie', 'Rob Minkoff', 'Zoe Minkoff', 'Edie Mirman', 'Juan Pacheco', 'Michelle Ruff', 'Warren Sroka', 'Kelly Stables', ""Jaquita Ta'le"", 'Arianna Trames', 'Floyd Van Buskirk', 'Kirk Wise', 'Matthew Wolf']",2.33,nan,"['Comedy', 'Adventure', 'Action', 'Family', 'Animation']",94,"['China', 'UK', 'USA']",English,['English'],"['Flying Tigers Entertainment', 'Aniventure', 'HB Wink Animation', 'Cinesite Animation', 'Align', 'GFM Animation', 'Brooksfilms Ltd.', 'Mass Animation', 'Blazing Productions']",10276,4530,1188,6,535,922,1035,1743,1402,1403,540,342,59,206,8187,https://letterboxd.com/film/paws-of-fury-the-legend-of-hank/
South Park the Streaming Wars,2022,Trey Parker,"['Trey Parker', 'Matt Stone', 'April Stewart', 'Kimberly Brooks', 'Adrien Beard', 'Vernon Chatman']",3.21,2.5,"['Animation', 'Comedy', 'TV Movie']",49,['USA'],English,['English'],['MTV Entertainment Studios'],18213,2477,3606,14,52,113,221,788,1545,4178,2720,1821,260,582,12280,https://letterboxd.com/film/south-park-the-streaming-wars/
jeen-yuhs: A Kanye Trilogy,2022,"Chike Ozah, Coodie Simmons","['Kanye West', 'Coodie Simmons']",4.16,4.0,"['Documentary', 'Music']",270,['USA'],English,['English'],"['Creative Control', 'TIME Studios']",63832,6907,24120,305,103,93,127,494,773,3235,5553,14618,8643,10837,44476,https://letterboxd.com/film/jeen-yuhs-a-kanye-trilogy/
South Park: Post COVID: The Return of COVID,2021,Trey Parker,"['Trey Parker', 'Matt Stone', 'April Stewart', 'Kimberly Brooks', 'Mona Marshall', 'Delilah Kujala', 'Betty Boogie Parker', 'Adrien Beard', 'Nanami Iwasaki']",3.61,3.0,"['Comedy', 'Animation', 'TV Movie']",62,['USA'],English,"['English', 'Hebrew (modern)']",['MTV Entertainment Studios'],29275,3229,7464,33,37,108,124,514,938,3890,4850,5812,1261,1746,19280,https://letterboxd.com/film/south-park-post-covid-the-return-of-covid/
South Park: Post COVID,2021,Trey Parker,"['Trey Parker', 'Matt Stone', 'April Stewart', 'Mona Marshall', 'Kimberly Brooks', 'Adrien Beard', 'Delilah Kujala', 'Betty Boogie Parker', 'Nanami Iwasaki']",3.56,3.0,"['Comedy', 'Animation', 'TV Movie']",59,['USA'],English,['English'],['MTV Entertainment Studios'],36346,3986,9031,29,74,162,166,717,1270,5100,6280,7162,1317,1898,24146,https://letterboxd.com/film/south-park-post-covid/
All Too Well: The Short Film,2021,Taylor Swift,"['Sadie Sink', ""Dylan O'Brien"", 'Taylor Swift', 'Jake Lyon', 'Shawn Levy', 'Rashauna Eastman', 'Anthony Espino', 'Jeffrey Castillo Peña', 'Elise Turin', 'Mariama Bonetti', 'Laura Krstovska-Guerrero', 'Sophie Levy', 'Tess Levy', 'Charlie Levy', 'Colette Levy', 'Christine Brown', 'Megan Harris', 'Taylor Hennings', 'Erik Dawson', 'Jeremiah Corley', 'Mitchell Sink', 'Alex Penagos', 'Jodie Taylor', 'Diana Byrd', 'Matt Carignan', 'Jorge Dorsinville', 'Oscar Eli', 'Brianna Figueroa', 'Jason Homayoon', 'Ava Hsu', 'Molly Karow', 'Olivia Karow', 'Taylor Kobryn', 'Kamilah Marshall', 'Sokhna Mbaye', 'Ivey Monroe', 'Justine Newman', 'Melanie Nyema', 'Tara Prangell', 'Tiffany Shinn', 'Ally Woss', 'Liz June', 'Mira Moore', 'Cami Arrow', 'Thaddeus Langly', 'Anna Leonard', 'Doug Moritz', 'Stella Amberiadis', 'Julia Barnard', 'Bernadette Fong', 'Junio Enrique', 'Omar Ezat', 'Emily Garcia', 'Adam Lochridge Gerhardt', 'Martina Gordon', 'Candice Jean-Jacques', 'Acei Martin', 'Stephanie Theresa Pabon', 'Miroslav Piurko', 'Jalil Reddick', 'Tiana Soares', 'Khiry Walker']",4.17,0.5,"['Music', 'Drama']",15,['USA'],English,['English'],"['Taylor Swift Productions', 'Saul Projects']",378743,23483,136287,1400,3720,2527,1375,4317,4363,15578,13649,37656,14265,135563,233013,https://letterboxd.com/film/all-too-well-the-short-film/
Craig of the Creek: Capture The Flag,2021,Martin Ansolabehere,"['Philip Solomon', 'Noël Wells', 'Michael Croner', 'Ben Levin', 'Dana Davis', 'Zeno Robinson', 'Charles Dewayne', 'Sydney Mikayla', 'Izabella Alvarez', 'Gunnar Sizemore', 'Michaela Dietz', 'Ashleigh Crystal Hairston', 'Jeff Trammell', 'Teren Delvon Jones', 'Phil LaMarr', 'Kamali Minter', 'Karen Fukuhara', 'Zehra Fazal']",3.72,3.5,"['Animation', 'Adventure', 'Comedy', 'TV Movie']",66,nan,English,['English'],nan,362,75,183,3,0,1,2,2,2,7,21,81,22,99,237,https://letterboxd.com/film/craig-of-the-creek-capture-the-flag/
Host,2020,Rob Savage,"['Haley Bishop', 'Jemma Moore', 'Emma Louise Webb', 'Radina Drandova', 'Caroline Ward', 'Edward Linard', 'Seylan Baxter', 'Alan Emrys', 'Jinny Lofthouse', 'James Swanton', 'Jack Brydon', 'Patrick Ward']",3.2,4.5,"['Thriller', 'Horror', 'Mystery']",57,['UK'],English,['English'],"['Shadowhouse Films', 'BOO-URNS']",165969,38480,34959,107,1909,3480,2953,8872,11172,30828,29105,28245,5590,6644,128798,https://letterboxd.com/film/host-2020/
Coming Out,2020,Cressa Maeve Áine,nan,4.1,4.0,['Animation'],2,['USA'],No spoken language,['No spoken language'],nan,14527,3317,6590,14,154,69,42,104,146,558,743,1959,679,3216,7670,https://letterboxd.com/film/coming-out-2020-1/
No Gogó do Paulinho,2020,Roberto Santucci,"['Maurício Manfrini', 'Cacau Protásio', 'Estevam Nabote', 'Giovani Braz', 'Maurício de Barros', 'Carlos Alberto de Nóbrega', 'Serjão Loroza', 'Bemvindo Sequeira', 'Gabriel Moreira', 'Alice Donath', 'Alan Rocha', 'Alex Teix', 'Anderson Leonardo', 'Aramis Trindade', 'Ataíde Arcoverde', 'Buiú da Praça', 'Carol Groetaers', 'Castorine', 'Castrinho', 'Cláudio Amado', 'Danyzinha Ferreira', 'Flávia Martins', 'Gigante Léo', 'Gustavo Salgado', 'Henrique Manoel Pinho', 'Ian Pimenta', 'Ícaro Zulo', 'Iran Meu Nêgo', 'José Santa Cruz', 'Juliana Guimarães', 'Léo Lins', 'Marcos Levy', 'Mariana Rebelo', 'Marlei Cevada', 'Messias Ferreira do Carmo', 'Paulo Pioli', 'Pedro Monteiro', 'Ramon Zapata', 'Raphael Carvalho', 'Rafael Monteiro', 'Anderson Antunes', 'Ronaldo Tortelli', 'Sandro Barros', 'Saulo Laranjeira', 'Sofia Starling', 'Sylvia Massari', 'Tiago Neymar', 'Vanessa Carvalho']",2.92,nan,['Comedy'],98,['Brazil'],Portuguese,['Portuguese'],"['Camisa Listrada', 'Panorama Filmes', 'Telecine', '20th Century Fox Brazil']",779,103,116,1,61,55,39,83,72,128,44,59,9,73,623,https://letterboxd.com/film/no-gogo-do-paulinho/
The Puzzle,2020,"Vitória Moraes, Felipe Didonih","['Vitória Moraes', 'Maria Venture', 'Lucas Berti', 'Vivi Wanderley', 'Muca Muriçoca']",2.77,0.5,"['Drama', 'Thriller']",142,nan,Portuguese,['Portuguese'],nan,325,23,40,0,108,28,11,9,8,10,2,9,1,31,217,https://letterboxd.com/film/the-puzzle-2020/
Helluva Boss,2019,Vivienne Medrano,"['Brandon Rogers', 'Richard Steven Horvitz', 'Erica Lindbeck', 'Brock Baker']",3.55,4.5,"['Comedy', 'Animation']",11,['USA'],English,['English'],['SpindleHorse Toons'],9042,1136,3418,108,173,194,155,305,327,836,1023,1486,571,1390,6460,https://letterboxd.com/film/helluva-boss/
The Dirt,2019,Jeff Tremaine,"['Machine Gun Kelly', 'Douglas Booth', 'Daniel Webber', 'Iwan Rheon', 'Pete Davidson', 'David Costabile', 'Aaron Jay Rome', 'Alyssa Marie Stilwell', 'Brittany Furlan', 'Trace Masters', 'Erin Ownbey', 'Matthew Underwood', 'Kathryn Morris', 'Vince Mattis', 'Mark Ashworth', 'Avis-Marie Barnes', 'Eleanor Threatt', 'Joe Chrest', 'Elena Evangelo', 'Courtney Dietz', 'Kabby Borders', 'Carol Ann Scruggs', 'Peter Jaymes Jr.', 'Katherine Neff', 'Bernard Hocke', 'David Kallaway', 'Ethan McGee', 'Betsy Holt', 'Sylvia Grace Crim', 'Lucius Falick', 'Christian Gehring', 'Alexanne Wagner', 'Melanie Hebert', 'Tony Cavalero', 'Leven Rambin', 'Max Milner', 'Jordan Lane Price', 'Kristin Brock', 'Rebekah Graf', 'Scott Walker', ""Iris D'Aquin"", ""Lyra D'Aquin"", 'Joshua Mikel', 'Blaine Kern III', 'Martin Bats Bradford', 'Anthony Marble', 'Kamryn Ragsdale', 'Anthony Vincent Valbiro', 'Ladson Deyne', 'Michael Hodson', 'Martin Covert', 'Kennedy Anthony', 'Michael Anthony', 'Katira Banks', 'Charles Barber', 'William Buster Benefield', 'Johnathan Calton', 'Kadrolsha Ona Carole', 'Alisha Carter', 'Mary Cazes', 'Devin Lord Chachere', 'Rebecca Chulew', 'Renee Compton', 'Karen Dalferes', 'Gordon Dexheimer', 'Sean P Douglas', 'John Frederick', 'Chad Governale', 'Sammy Hagar', 'Forrest Jade', 'Zelda Kimble', 'Steve Kish', 'Tommy Lee', 'Gary Wayne Loper', 'Jocelyn-Brooke Manuel', 'Mick Mars', 'Woodrow Eduard McCarthy', 'Mike R. Moreau', 'Christopher Morris', 'Vince Neil', 'Erik Olsen', 'Edward Parker', 'Sean Powell', 'Lindsey Reimann', 'Helena Sadvary', 'Leanne Scarbro', 'Nikki Sixx', 'Clayton Smith', 'Toney Chapman Steele', 'Jessica Dawson Strong', 'Richard Blake Suarez', 'Sue-Lynn Ansari', 'Meiyee Apple Tam', 'Alex Van Halen', 'Eddie Van Halen', 'Amanda Marie Wilkinson', 'Christina Michelle Williams']",3.13,1.0,"['History', 'Music', 'Drama', 'Comedy']",108,['USA'],English,['English'],"['10th Street Entertainment', 'Estrella Media']",119435,14577,27165,1000,1269,2507,2767,7423,9013,21548,16165,15012,3624,8021,87349,https://letterboxd.com/film/the-dirt/
Ghost Killers vs. Bloody Mary,2018,Fabrício Bittar,"['Danilo Gentili', 'Pietra Quintela', 'Dani Calabresa', 'Léo Lins', 'Murilo Couto', 'Matheus Ueta', 'Ratinho', 'Antonio Tabet', 'Sikêra Junior', 'Bárbara Bruno', 'Francisco Carvalho', 'Digão Ribeiro', 'Gustavo Rangel', 'Jean Paulo Campos', 'Celso Portiolli', 'Diguinho Coruja', 'Mingau', 'Bacalhau', 'Marcos Kleine', 'Marcão do Povo', 'Roger Rocha Moreira', 'Vinicius Henrique', 'Nelson Rubens', 'Boris Casoy', 'Hermano Henning', 'Ronnie Von', 'Igor Guimarães', 'Diogo Portugal', 'Sérgio Mallandro', 'Luciana Gimenez']",2.75,2.5,"['Comedy', 'Horror']",103,['Brazil'],Portuguese,['Portuguese'],"['Warner Bros. Pictures', 'Clube Filmes', 'Galeria Distribuidora']",3711,924,604,9,181,223,169,364,408,670,411,305,59,129,2919,https://letterboxd.com/film/ghost-killers-vs-bloody-mary/
Lords of Chaos,2018,Jonas Åkerlund,"['Rory Culkin', 'Emory Cohen', 'Jack Kilmer', 'Sky Ferreira', 'Valter Skarsgård', 'Anthony De La Torre', 'Sam Coleman', 'Jonathan Barnwell', 'Wilson Gonzalez Ochsenknecht', 'Lucian Charles Collier', 'Andrew Lavelle', 'James Edwyn', 'Gustaf Hammarsten', 'Jon Øigarden', 'Arion Csihar', 'Jason Arnopp', 'Levente Törköly', 'Petra Anita Mark', 'Flóra Zsoldos', 'Anna Zsoldos', 'Dzsenifer Bagi', 'Ivett Leszkovszki', 'Anna Fésus', 'Zsuzsanna Bíró', 'Melinda Mária Mátay', 'LaJosné Gyongyi Gyurkovszki', 'Dorina Fülop', 'Patrick McMenamin', 'Eric Casey Lamme', 'Matt Devere', 'Tom van Heesch', 'Gábor Meszlényi', 'Álmos Kovács', 'Anette Martinsen', 'Adrian Mills', 'Jørn Madislien', 'Espen Aas', 'Viktor Filep', 'Marina Miraglia', 'Antonio Mancino', 'Yukari Snapes', 'Klemens Koehring']",3.04,1.0,"['Horror', 'Drama', 'Music', 'Thriller']",118,"['Norway', 'Sweden', 'UK']",English,['English'],"['ELEVEN ARTS Studios', 'Chimney Poland', 'Insurgent Docs', 'RSA Films', 'Scott Free Productions', '4 1/2', '20th Century Fox', 'Vice Studios']",64192,12125,13876,410,1247,2112,1839,4800,5482,11943,9073,8415,1659,2792,49362,https://letterboxd.com/film/lords-of-chaos/
WHAT DID JACK DO?,2017,David Lynch,"['Jack Cruz', 'David Lynch', 'Emily Stofle']",3.32,3.5,"['Crime', 'Comedy', 'Mystery']",20,['USA'],English,['English'],['Absurda'],142075,13734,34433,48,1157,2196,1734,5734,6708,20377,15629,15865,2804,6433,78637,https://letterboxd.com/film/what-did-jack-do/
Legalize it!,2017,"Johnny Araújo, Gustavo Bonafé","['Renato Góes', 'Ícaro Silva', 'Marina Provenzzano', 'Stepan Nercessian', 'Shirley Cruz', 'Ernesto Alterio', 'Rafaela Mandelli', 'Paulete Maldonado', 'Eduardo Ravenna', 'Ricardo Ventura', 'Romulo Simões', 'Camillo Borges', 'Marcelinton PJ', 'Marcelo Cavalcanti', 'Joana Castro', 'Manoel Gomes', 'José Antonio', 'Gisele Machado', 'Rafael Zolly', 'Flavio Carriço', 'Thiago Diniz', 'Zé Mário Farias', 'Luciano Vidigal', 'Lenin Maranhão', 'Pedrinhu Junqueira', 'Nobru Pederneiras', 'Bernardo Mendes', 'Rodrigo de Arruda', 'Diogo Rodrigo', 'Guilherme Ferraz', 'Adriano de Jesus', 'Agles Steib', 'Alexandre Liuzzi', 'Bruno Pêgo', 'Ricardo Ferreira']",3.52,3.5,['Drama'],95,['Brazil'],Portuguese,['Portuguese'],['Academia de Filmes'],2483,407,710,10,2,16,13,59,99,379,429,578,111,303,1989,https://letterboxd.com/film/legalize-it/
Baby Driver,2017,Edgar Wright,"['Ansel Elgort', 'Kevin Spacey', 'Lily James', 'Jon Hamm', 'Jamie Foxx', 'Jon Bernthal', 'Eiza González', 'Flea', 'CJ Jones', 'Lanny Joon', 'Micah Howard', 'Morgan Brown', 'Morse Diggs', 'Sky Ferreira', 'Lance Palmer', 'Hudson Meek', 'Viviana Chavez', 'Hal Whiteside', 'Clay Donahue Fontenot', 'Brigitte Kali Canales', 'Patrick Walker', 'Ben VanderMey', 'David Robert Lewis', 'Big Boi', 'Killer Mike', 'Brogan Hall', 'Allison King', 'R. Marcos Taylor', 'Paul Williams', 'Joe Loya', 'Andy McDermott', 'Christopher Beanland', 'Andrea Frye', 'Thomas E. Haynes', 'Russell B. Spencer', 'Cynne Simpson', 'Keith Hudson', 'Sidney Sewell', 'Thurman Sewell', 'Elijah Everett', 'Jon Spencer', 'Walter Hill', 'Wilbur Fitzgerald', 'Jeff Chase', 'Shellita Boxie', 'Marshall Choka', 'Juliette Sicard', 'Marvin E. West', 'Connie Lee', 'James Blackshear', 'Erica Frene', 'Elizabeth Davidovich', 'Duke Jackson', 'Colin Lacativa', 'Trey McGriff', 'Donald K. Overstreet', 'Danny Le Boyer', 'David Conk', 'Troy Faruk', 'Mark Smith', 'Kenneth Manos', 'Nathaniel Perry', 'Kent Wagner', 'Whit Whitman', 'Perry Zulu Jr.', 'Chad Joyce']",3.72,4.0,"['Crime', 'Action']",113,"['UK', 'USA']",English,['English'],"['Big Talk Studios', 'Working Title Films', 'Working Title Films']",2542340,205564,891495,27000,4801,16290,9617,66882,58476,298658,271394,530842,168689,239012,1664661,https://letterboxd.com/film/baby-driver/
Internet - The Movie,2017,Filippo Capuzzi Lapietra,"['Patrícia dos Reis', 'Felipe Castanhari', 'Rafinha Bastos', 'Gustavo Stockler', 'T3ddy', 'Paulinho Serra', 'Mauro Nakada', 'Cauê Moura', 'Júlio Cocielo', 'PC Siqueira', 'Christian Figueiredo', 'Maurício Meirelles', 'Victor Meyniel', 'Igor Cavalari', 'Muca Muriçoca', 'Thaynara OG', 'Gabi Lopes', 'Gabriel Tenório Dantas', 'Palmirinha Onofre', 'Raul Gil', 'Mr. Catra', 'Jefferson Barbosa', 'Suellen Barbosa', 'Rafael Lange', ""Lucas 'Inutilismo' da Silva"", 'Maurício Cid']",1.96,0.5,['Comedy'],90,['Brazil'],Portuguese,['Portuguese'],"['Paris Filmes', 'Paris Entretenimento']",10188,756,662,57,3556,1610,465,544,173,187,37,79,15,623,7289,https://letterboxd.com/film/internet-the-movie/
La La Land,2016,Damien Chazelle,"['Ryan Gosling', 'Emma Stone', 'John Legend', 'Rosemarie DeWitt', 'J.K. Simmons', 'Amiée Conn', 'Terry Walters', 'Thom Shelton', 'Cinda Adams', 'Callie Hernandez', 'Jessica Rothe', 'Sonoya Mizuno', 'Claudine Claudio', 'Jason Fuchs', 'D.A. Wallach', 'Trevor Lissauer', 'Olivia Hamilton', 'Anna Chazelle', 'Marius de Vries', 'Finn Wittrock', 'Josh Pence', 'Nicole Coulon', 'Damon Gupton', 'Christopher Michael Stevens', 'Keith Harris', 'Kaveh Rastegar', 'David Douglas', 'Miles Anderson', 'Bobo Chang', 'Meagen Fay', 'John Hindman', 'Valarie Rae Miller', 'Nicole Wolf', 'Corrin Evans', 'Kiff VandenHeuvel', 'Tom Everett Scott', 'Hemky Madera', 'Zoë Hall', 'Dempsey Pappion', ""Clifton 'Fou Fou' Eddie"", 'Cal Bennett', 'Nedra Wheeler', 'Javier Gonzalez', 'Khirye Tyler', 'Briana Lee', 'Shaylah J. Stevens', 'Natalie Imani', 'Camryn Ray Cavaliero', 'Sandra Rosko', 'Arthur Horowitz', 'Reshma Gajjar', 'Candice Coke', 'Hunter Hamilton', 'Damian Gomez', 'Amanda Balen', 'Lou Becker', 'Dominic Chaiduang', 'Cindera Che', 'Chris Moss', 'Marissa Labog', 'Tiffany Daniels', 'Melinda Sullivan', 'Stephanie Landwehr', 'Britt Stewart', 'Clarice Ordaz', 'Nathan Prevost', 'Mecca Vazie Andrews', 'Scott Hislop', 'KC Monnie', 'Krystal Ellsworth', 'Sarah Mitchell', 'Khasan Brailsford', 'Morgan Larson', 'Becca Sweitzer', 'Gakenia Muigai', 'Michael Stein', 'Mario Diaz', 'Julie Schmid', 'Samantha Abrantes', 'Lexie Contursi', 'Eartha Robinson', 'Sybil Azur', 'Tara Nicole Hughes', 'Kayla Kalbfleisch', 'Martha Nichols', 'Anthony Marciona', 'Bill Prudich', 'Robert Roldan', 'Ryan Novak', 'Demian Boergadine', 'Gustavo Vargas', 'Robert Haynes', 'Jesse Houk', 'Ana Flavia Gavlak', 'Kristin Slaysman', 'Cameron Brinkman', 'Jordan Ray Fox', 'C.J. Stussi', 'Margaret Newborn', 'Nadia Tumanova', 'Crystal Nichol', 'Kristin Elliott', 'Andrea Lareo', 'Christopher Aber', 'Anna Lunberry', 'Shannon Leann', 'Jenna Curtis', 'Noah James', 'Tommy Cooley', 'Morgan Cohen', 'Jeremy Nathan Tisser', 'Patty Tobin', 'Heather Turman', 'Ottavio Taddei', 'April Martucci', 'Trent Kerpsack', 'Kaye L. Morris', 'Vince Donvito', 'Steffen Dziczek', 'Melvin LaThomas Brimm', 'Kelly Kennedy', 'Destinee Handly', 'Tommy Otis', 'Doran Butler', 'Matt Cady', 'Carol Connors', 'Patrick Cook', ""Aaron 'Deuce' Cooke"", 'Bubba Dean Rambo', 'Nick Drago', 'Shaun Evaristo', 'Dana Fukagawa', 'Daniel Gaymon', 'Liz Imperio', 'Casey Johansen', 'Cris Judd', 'Yoori Kim', 'Bradley M. Rapier', 'Dana Wilson', 'Terrance Yates', 'Tracy Shibata', 'Dominique Domingo', 'Asiel Hardison', 'Corey Anderson', 'Nick Baga', 'Leah Adler', 'Noel Bajandas', 'Denzel Chisolm', 'Montana Efaw', 'Natalie Gilmore', 'Shannon Holtzapffel', 'Galen Hooks', 'Jeremy Hudson', 'George Lawrence Jr.', 'Scott Myrick', 'Cassidy Noblett', 'Brittany Parks', 'Víctor Rojas', 'Tony Bellissimo', 'Ryan Ramirez', 'Catalina Cat Rendic', 'Bryan Tanaka', 'Ava Bernstine', 'Quinn Lipton', 'Monie Adamson', 'Matthew Aylward', 'McKenzie Anderson', 'Pamela Chu', 'Mallauri Esquibel', 'Michael Higgins', 'Chris Jarosz', 'Matthew Kazmierczak', 'Paul Kirkland', 'Megan Lawson', 'Michael Munday', ""Brandon O'Neal"", 'Chelsea Thedinga', 'Danny Valle', 'Emily Williams', 'Deniz Altunay', 'Holly Houk', 'Clarence Robinson', 'Dapo Torimiro', 'Sasha Fine', 'Eren Kayakıran', 'Ali Arda Özdeniz', 'Phillip E. Walker', 'Susie Ganiere', 'Lynn Moore', 'Nilla Elizabeth Watkins', 'Andres Perez-Molina', 'Milica Govich', 'Frederick Keeve', 'Amanda Fields']",4.08,4.5,"['Drama', 'Comedy', 'Music', 'Romance']",129,"['Hong Kong', 'USA']",English,['English'],"['Summit Entertainment', 'Black Label Media', 'Gilbert Films', 'Impostor Pictures', 'Marc Platt Productions', 'TIK Films']",3135964,453581,1389495,199000,10724,33193,11102,79356,45349,231970,176723,530277,281870,836771,2237335,https://letterboxd.com/film/la-la-land/
Carrossel 2: O Sumiço de Maria Joaquina,2016,Maurício Eça,"['Larissa Manoela', 'Jean Paulo Campos', 'Maisa Silva', 'Fernanda Concon', 'Nicholas Torres', 'Stefany Vaz', 'Lucas Santos', 'Ana Vitória Zimmermann', 'Konstantino Atanassopolus', 'Thomaz Costa', 'Guilherme Seta', 'Gustavo Daneluz', 'Aysha Benelli', 'Matheus Ueta', 'Victória Diniz', 'Esther Marcos', 'Léo Belmonte', 'Rosanne Mulholland', 'Miá Mello', 'Oscar Filho', 'Paulo Miklos', 'Noemi Gerbelli', 'Márcia de Oliveira', 'Fernando Benini', 'Elke Maravilha', 'Orival Pessini', 'Falcão', 'Carlos Bertolazzi']",2.72,1.5,"['Family', 'Adventure', 'Comedy']",93,['Brazil'],Portuguese,['Portuguese'],"['RioFilme', 'SBT', 'Televisa', 'Paris Entretenimento']",7732,509,586,4,272,495,333,790,515,900,307,423,75,377,4487,https://letterboxd.com/film/carrossel-2-o-sumico-de-maria-joaquina/
The Nice Guys,2016,Shane Black,"['Ryan Gosling', 'Russell Crowe', 'Angourie Rice', 'Margaret Qualley', 'Matt Bomer', 'Beau Knapp', 'Keith David', 'Yaya DaCosta', 'Kim Basinger', 'Lois Smith', 'Murielle Telio', 'Gil Gerard', 'Daisy Tahan', 'Jack Kilmer', 'Lance Valentine Butler', 'Ty Simpkins', 'Cayla Brady', 'Tammi Arender', 'Rebecca Dalton Rusk', 'Terence Rosemore', 'John L. Morris', 'Michelle Rivera Huckaby', ""Nathaniel 'Nate' Scott"", 'Amy Goddard', 'Frank Mottek', 'Joanne Spracklen', 'Greg Lindsay', 'Maddie Compton', 'J. Todd Anderson', 'Meredith Berg', 'Lauren Marini', 'Ward Roberts', 'Ryan Powers', 'Lauren Bair', 'Zarah Kulczycki', 'Hana Yuka Sano', 'Marvin Ross', 'Rachele Brooke Smith', 'Adriana Karras', 'Milo Wesley', 'Marilyn Chen', 'Matthew Warzel', 'Jordan Hairston', 'Angela Everhart', 'Joshua Hoover', 'Yvonne Zima', 'Lexi Johnson', 'Chloe Hurst', 'Gary Weeks', 'Charles Green', 'Gary Wolf', 'Hannibal Buress', 'Steve Wilder', 'Garrett Carpenter', 'Hank Quillen', 'Michael Beasley', 'Dominic Bagarozzi', 'Karrueche Tran', 'Carson Meyer', 'Sala Baker', 'Kimberly Battista', 'Courtlyn Cannan', 'Mark Kubr', 'Dana Clark McPherson', 'Elayne Boosler', 'Emily Brobst']",3.82,3.5,"['Action', 'Comedy', 'Crime']",116,['USA'],English,['English'],"['Silver Pictures', 'Waypoint Entertainment']",1043764,137109,341775,9700,970,3432,2952,16451,22460,102128,149967,261035,95117,84661,739173,https://letterboxd.com/film/the-nice-guys/
Kanye West: 808s & Heartbreak Live at the Hollywood Bowl,2015,Kanye West,"['Kanye West', 'Kid Cudi', 'Mr. Hudson', 'Young Jeezy', 'Lil Wayne']",nan,nan,"['Music', 'Documentary']",77,nan,English,['English'],nan,308,40,134,1,1,0,0,0,2,2,8,38,30,87,168,https://letterboxd.com/film/kanye-west-808s-heartbreak-live-at-the-hollywood-bowl/
Regular Show: The Movie,2015,J.G. Quintel,"['J.G. Quintel', 'William Salyers', 'Sam Marin', 'Mark Hamill', 'Minty Lewis', 'Jason Mantzoukas', 'David Koechner', 'Roger Craig Smith', 'Ali Hillis', 'Kurtwood Smith', 'Eddie Pepitone', 'Paul F. Tompkins', 'Fred Tatasciore', 'Steve Blum', 'Janie Haddad Tompkins']",3.69,3.5,"['Animation', 'TV Movie', 'Action', 'Comedy', 'Science Fiction', 'Adventure']",70,['USA'],English,['English'],['Cartoon Network Studios'],24768,3408,7569,105,15,51,70,355,714,3011,4121,5065,1124,2269,16795,https://letterboxd.com/film/regular-show-the-movie/
Pixels,2015,Chris Columbus,"['Adam Sandler', 'Kevin James', 'Michelle Monaghan', 'Peter Dinklage', 'Josh Gad', 'Matt Lintz', 'Brian Cox', 'Denis Akiyama', 'Sean Bean', 'Jane Krakowski', 'Dan Aykroyd', 'Affion Crockett', 'Lainie Kazan', 'Ashley Benson', 'Tom McCarthy', 'Tim Herlihy', 'Jackie Sandler', 'Jared Sandler', 'William S. Taylor', 'Rose Rollins', 'Tucker Smallwood', 'Serena Williams', 'Martha Stewart', 'Allen Covert', 'Bill Lake', 'Mark Whelan', 'Dan Patrick', 'Robert Smigel', 'Steve Koren', 'Sadie Sandler', 'Sunny Sandler', 'Hannah Covert', 'Abigail Covert', 'Sienna James', 'Shea James', 'Chris Titone', 'Jonathan Loughran', 'Toru Iwatani', 'Anthony Ippolito', 'Jared Riley', 'Andrew Bambridge', 'Jacob Shinder', 'Jack Fulton', 'Kevin Grady', 'Bridget Graham', 'Jocelyn Hudon', 'Margaret Killingbeck', 'Ron Mustafaa', 'Meher Pavri', 'Annika Pergament', 'Lamont James', 'James Preston Rogers', 'Bola Olubowale', 'Rob Archer', 'Mark Sparks', 'Steve Wiebe', 'Sara Haines', 'Derwin Philips', 'Michael Boisvert', 'Colleen Reynolds', 'Jimi Shlag', 'Emily Jenkins', 'Sistah Lois', 'Andrew McMichael', 'Gary Douglas', 'Eric Trask', 'Susie McLean', 'Daryl Hall', 'John Oates', 'Matt Frewer', 'Billy West', 'Holly Beavon', 'Fiona Shaw', 'Nick Swardson', 'Joshua Holmes', 'Jean Christophe Loustau', 'Dave Reachill', 'Tyler Malazo']",2.12,3.0,"['Action', 'Science Fiction', 'Comedy']",105,"['China', 'France', 'India', 'USA']",English,['English'],"['Columbia Pictures', 'Happy Madison Productions', '1492 Pictures', 'LStar Capital', 'China Film Group Corporation', 'Film Croppers Entertainment', 'Prime Focus']",366764,24587,32079,501,17027,30461,22287,40018,27061,35349,14511,12344,2239,7405,208702,https://letterboxd.com/film/pixels-2015/
The Human Centipede 3 (Final Sequence),2015,Tom Six,"['Dieter Laser', 'Bree Olson', 'Eric Roberts', 'Laurence R. Harvey', 'Robert LaSardo', 'Tommy Lister Jr.', 'Jay Tavare', 'Clayton Rohner', 'Tom Six', 'Peter Blankenstein', 'Bill Hutchens', 'Hamzah Saman', 'Chris Clanton']",1.41,0.5,"['Horror', 'Comedy']",103,"['Netherlands', 'USA']",English,"['English', 'German']","['Six Entertainment', 'Six Entertainment Company']",38976,7552,2042,85,10399,5618,2100,2539,1184,1649,581,589,131,550,25340,https://letterboxd.com/film/the-human-centipede-3-final-sequence/
Amy,2015,Asif Kapadia,"['Amy Winehouse', 'Mark Ronson', 'Tony Bennett', 'Pete Doherty', 'Blake Fielder', 'Juliette Ashby', 'Salaam Remi', 'Yasiin Bey', 'Mitch Winehouse', 'Tyler James', 'Russell Brand', 'Jay Leno', 'Frankie Boyle', 'Tom Myers']",4.02,nan,"['Documentary', 'Music']",128,['UK'],English,['English'],"['On the Corner Films', 'Film4 Productions']",155238,28396,37230,275,74,213,211,1189,1785,9465,13842,34400,10936,16039,88154,https://letterboxd.com/film/amy-2015/
Necropolis Symphony,2014,Juliana Rojas,"['Eduardo Gomes', 'Luciana Paes', 'Hugo Villavicenzio', 'Paulo Jordão', 'Germano Melo', 'Luís Mármora', 'Adriana Mendonça', 'Antonio Velloso', 'Augusto Pompeo', 'Lilian Blanc', 'Kiko Bertholini', 'Lucélia Maquiavelli', 'Wandré Gouveia', 'Mariza Junqueira', 'Rodrigo Bolzan', 'Satiko Takao', 'Beto Matos', 'Amina Jorge', 'Sara Silveira', 'Thiago Ricarte', 'Gilda Nomacce', 'Daniel Chaia', 'Rony Koren', 'Sergio Silva', 'João Marcos de Almeida', 'Tony Germano']",3.55,4.5,"['Music', 'Comedy', 'Romance']",85,['Brazil'],Portuguese,['Portuguese'],"['Avoa Filmes', 'Filmes do Caixote']",5278,2593,1488,23,19,39,29,126,176,681,872,1328,354,277,3901,https://letterboxd.com/film/necropolis-symphony/
Oldboy,2013,Spike Lee,"['Josh Brolin', 'Elizabeth Olsen', 'Sharlto Copley', 'Samuel L. Jackson', 'Michael Imperioli', 'Pom Klementieff', 'James Ransone', 'Max Casella', 'Linda Emond', 'Elvis Nolasco', 'Rami Malek', 'Lance Reddick', 'Hannah Ware', 'Richard Portnow', 'Hannah Simone', 'Ciera Payton', 'Cinqué Lee', 'Steven Hauck', 'Caitlin Dulany', 'Ilfenesh Hadera', 'Phyllis Montana LeBlanc', 'Michael J. Burg', 'Lizzy DeClement', 'Erik Gersovitz', 'Gralen Bryant Banks', 'Dustan Costine', 'Lennie Hsiao', 'Joe Chrest', 'Linda Jewell', 'Kerry Cahill', 'Douglas M. Griffin', 'Brett Lapeyrouse', 'Victoria Geil', 'Violet Hill', 'Grey Damon', 'Jung Tan', 'Jordan Salloum', 'Sharon Gee', 'Elvy', 'Carol Sutton', 'Taryn Terrell', 'Marco Umana', 'Giovanni Silva', 'Steve Kim', 'Brian Oerly', 'Josh Diogo', 'Jeff Ward', 'Billy Tilk', 'Ronn Surels', 'Walter Garcia', 'Joe Nin Williams', 'Eric Salas', 'Shannon Rockweiler', 'Altonio Jackson', 'Louis Tucci', 'William J. Vines', 'David Dahlgren', 'Jodie Moore', 'Shelton Alexander', 'Mary Glackmeyer', 'Brianna Nowlin', 'Alexa Kobylarz', 'Iman Marshall', 'Renata Granger', 'Leslie Saubat', 'Donna Crump', 'Catherine Caldwell', 'Wilheisha Lucien', 'Syndi Russell', 'Nicole Norman', 'Niki Kleinberger', 'Peryn St. Raymond', 'Al Palagonia', 'Alvin Chon', 'William D. Green', 'Anthony Tien Quang', 'Gino Galento']",2.14,2.0,"['Mystery', 'Action', 'Drama', 'Thriller']",104,['USA'],English,['English'],"['40 Acres and a Mule Filmworks', 'Vertigo Entertainment', 'Good Universe', 'FilmDistrict', 'Mandate International']",76910,10106,5506,74,7835,7601,5164,9194,6307,7627,3600,2908,598,991,51825,https://letterboxd.com/film/oldboy-2013/
Her,2013,Spike Jonze,"['Joaquin Phoenix', 'Scarlett Johansson', 'Amy Adams', 'Rooney Mara', 'Chris Pratt', 'Olivia Wilde', 'Matt Letscher', 'Portia Doubleday', 'Spike Jonze', 'Bill Hader', 'Kristen Wiig', 'Artt Butler', 'SoKo', 'Brian Cox', 'Luka Jones', 'Sam Jaeger', 'Pramod Kumar', 'Evelyn Edwards', 'Lil Buck', 'Lynn Adrianna', 'Lisa Renee Pitts', 'Gabe Gomez', 'May Lindstrom', 'David Azar', 'Guy Lewis', 'Melanie Seacat', 'Steve Zissis', 'Dane White', 'Nicole Grother', 'James Ozasky', 'Samantha Sarakanti', 'Gracie Prewitt', 'Claudia Choi', 'Laura Kai Chen', 'Wendy Leon', 'Alia Janine', 'Brian D. Johnson', 'Robert Benard', 'Lisa Cohen', 'Grant Samson']",4.02,4.0,"['Science Fiction', 'Drama', 'Romance']",126,['USA'],English,['English'],['Annapurna Pictures'],1971100,256476,730062,33000,4135,11504,5921,36586,29306,153072,155685,421146,189255,315193,1321803,https://letterboxd.com/film/her/
My Mom Is a Character,2013,André Pellenz,"['Paulo Gustavo', 'Mariana Xavier', 'Rodrigo Pandolfo', 'Herson Capri', 'Alexandra Richter', 'Suely Franco', 'Ingrid Guimarães', 'Samantha Schmütz', 'Mônica Martelli', 'Malu Valle', 'Jefferson Schroeder', 'Bruno Bebianno', 'Renata Ricci', 'Gabriel Galvão', 'Ana Karolina Lannes', 'Marcus Majella', 'Augusto César Jr.', 'Luan Assimos', 'Ronaldo Tortelli', 'Antônio Arraes', 'Lucas Cordeiro', 'Guida Vianna', 'Edmilson Barros', 'Raul Labancca', 'Marina Palha', 'Maria Lídia Fonseca da Costa', 'Vânia de Brito', 'Cristiana Pompeo', 'Michelly Campos', 'Elisa Pinheiro', 'Dany Espinelli', 'Ronaldo Reis', 'Caio Vydal', 'Pollyanna Rocha', 'Pablo Sanábio', 'Robert Guimarães', 'Saulo Rodrigues', 'Vitor Hugo', 'Felippe de Santis', 'Cauê Campos', 'Sofia Viamonte', 'Georgiana Góes', 'Adriana Quadros', 'Marcella Muniz', 'João Florenço', 'Beto Naci', 'Renner Avillis', 'Bruno Bennec', 'Edi Raffa', 'Bernardo Mendes', 'Ana Lu Rehder', 'Flávia Rinaldi', 'Gisela Saldanha', 'Juliana Nunes', 'Sheila Matos', 'Letícia Pedro', 'Patrícia Niedermeier', 'Camila Samara']",3.66,2.5,['Comedy'],85,['Brazil'],Portuguese,['Portuguese'],"['Cenoura Filmes', 'Globo Filmes', 'Migdal Filmes', 'Paris Filmes', 'RioFilme', 'Downtown Filmes', 'Telecine']",51356,4793,11372,259,133,337,265,957,1129,4620,4322,8507,2201,10728,33199,https://letterboxd.com/film/my-mom-is-a-character/
Despicable Me 2,2013,"Pierre Coffin, Chris Renaud","['Steve Carell', 'Kristen Wiig', 'Benjamin Bratt', 'Miranda Cosgrove', 'Russell Brand', 'Ken Jeong', 'Steve Coogan', 'Elsie Fisher', 'Dana Gaier', 'Moisés Arias', 'Nasim Pedrad', 'Kristen Schaal', 'Pierre Coffin', 'Chris Renaud', 'Nickolai Stoilov', 'Vanessa Bayer', 'Ava Acres', 'Lori Alan', 'Jack Angel', 'Eva Bella', 'Georgia Cook', 'John Cygan', 'Debi Derryberry', 'Jess Harnell', 'Danny Mann', 'Mona Marshall', 'Mickie McGowan', 'Mason McNulty', 'Alec Medlock', 'Laraine Newman', 'Jan Rabson', 'Andre Robinson', 'Katie Silverman', 'Casey Simpson', 'Claira Nicole Titman', 'Jim Ward', 'April Winchell', 'Joe Matthews']",3.1,3.5,"['Animation', 'Comedy', 'Family']",98,['USA'],English,"['English', 'Spanish']","['Illumination', 'Universal Pictures']",845343,44437,95294,599,2878,9473,10123,37726,42980,109809,60010,58528,10030,27071,368628,https://letterboxd.com/film/despicable-me-2/
Skyfall,2012,Sam Mendes,"['Daniel Craig', 'Judi Dench', 'Javier Bardem', 'Ralph Fiennes', 'Naomie Harris', 'Bérénice Marlohe', 'Ben Whishaw', 'Albert Finney', 'Rory Kinnear', 'Ola Rapace', 'Helen McCrory', 'Nicholas Woodeson', 'Bill Buckhurst', 'Elize du Toit', 'Ian Bonar', 'Gordon Milne', 'Peter Basham', 'Ben Loyd-Holmes', 'Tonia Sotiropoulou', 'Wolf Blitzer', 'David Gillies', 'James Li', 'Kenneth Hazeldine', 'Orion Lee', 'Dave Wong', 'Tank Dong', 'Roger Yuan', 'Yang Liang', 'Yennis Cheung', 'Chooye Bay', 'Sid Man', 'Angela Tran', 'Milorad Kapor', 'Huw Edwards', 'Adebayo Bolaji', 'Elio Lo Tauro', 'Amir Boutrous', 'Khan Bonfils', 'Nicholas Goh', 'John Hodgkinson', 'Kurt Egyiawan', 'Oliver Johnstone', 'Harry Kershaw', 'Burt Caesar', 'Paul Venables', 'Crispin Letts', 'Kammy Darweish', 'Beatrice Curnew', 'Dominique Anne Jones', 'Ross Waiton', 'Jim Conway', 'Jens Hultén', 'Michael Pink', 'Jo Cameron Brown', ""Anthony O'Donnell"", 'Hannah Stokely', 'Wayne Gordon', 'Ene Frost', 'Tom Wu', 'Jake Fairbrother', 'Christopher Sciueref', 'Daniel Adegboyega', 'Selva Rasalingam', 'Joss Skottowe', 'Steve Barnett', 'Lee Nicholas Harris', 'Duncan Casey', 'Tom Coulston']",3.9,4.0,"['Adventure', 'Thriller', 'Action']",143,"['UK', 'USA']",English,['English'],"['Metro-Goldwyn-Mayer', 'EON Productions', 'Danjaq', 'Columbia Pictures']",1090471,112562,247477,2700,757,2781,2233,13834,16614,83091,102657,209834,80206,73412,585419,https://letterboxd.com/film/skyfall/
Hamster Hell,2012,Lee Hardcastle,nan,3.31,nan,"['Comedy', 'Horror', 'Animation']",7,['UK'],English,['English'],['Missing Head Limited'],3741,659,672,1,57,59,37,129,129,484,424,357,81,150,1907,https://letterboxd.com/film/hamster-hell/
Thingu,2012,Lee Hardcastle,nan,4.0,nan,"['Science Fiction', 'Horror', 'Animation']",2,['UK'],No spoken language,['No spoken language'],nan,9730,1731,3557,10,9,36,24,67,126,625,688,1559,423,1504,5061,https://letterboxd.com/film/thingu/
Alvin and the Chipmunks: Chipwrecked,2011,Mike Mitchell,"['Jason Lee', 'David Cross', 'Jenny Slate', 'Justin Long', 'Matthew Gray Gubler', 'Jesse McCartney', 'Amy Poehler', 'Anna Faris', 'Christina Applegate', 'Alan Tudyk', 'Michael P. Northey', 'Sophia Aguiar', 'Lauren Gottlieb', 'Tera Perez', 'Andy Buckley', 'Chad Krowchuk', ""Luisa d'Oliveira"", 'Tucker Albrizzi', 'Nelson Wong', 'Michael Bagdasarian', 'Amber-Rochelle DeMarco', 'Marcela Caceres', 'Natalie Sutcliffe', 'Ian Harmon', 'Phyllis Smith', 'Ross Bagdasarian, Jr.', 'Janice Karman', 'Steve Vining', 'Eoin Bates', 'Seth Robert Dusky', 'Wendell Kinney', 'Jeremy Palko', 'Rachael Wegener']",2.19,1.5,"['Fantasy', 'Animation', 'Family', 'Music', 'Comedy']",87,['USA'],English,['English'],"['Fox 2000 Pictures', '20th Century Fox', 'Regency Enterprises', 'Dune Entertainment', 'Bagdasarian Productions']",183674,13270,14485,400,8796,12948,8434,14082,8223,12367,4976,6094,1364,7043,84327,https://letterboxd.com/film/alvin-and-the-chipmunks-chipwrecked/
Hard Labor,2011,"Juliana Rojas, Marco Dutra","['Helena Albergaria', 'Marat Descartes', 'Naloana Lima', 'Marina Flores', 'Gilda Nomacce', 'Hugo Villavicenzio', 'Thiago Carreira', 'Luiz Serra', 'Eliana Teruel', 'Antônio Januzelli', 'Lucélia Maquiavelli', 'Ney Piacentini', 'Orides Vicente da Silva', 'Anderson Jesus', 'Fred Mesquita', 'Júlio Machado', 'Laerte Késsimos', 'Beto Matos', 'Sílvio Restiffe', 'Luís Mármora', 'Lilian Blanc', 'Thais Rangel', 'Daniela Smith', 'Ruben Pignatari', 'Clarissa Kiste', 'Thiago Ledier', 'Guilherme Gorski', 'Ana Petta', 'Tibério César', 'Eduardo Gomes', 'Marina Corazza', 'Mariana Loiola', 'Maxwell Pontes', 'Matheuz Pedroso', 'Lucas Hansen', 'Gustavo Peres']",3.55,5.0,"['Drama', 'Horror']",99,['Brazil'],Portuguese,['Portuguese'],"['África Filmes', 'Filmes do Caixote', 'Dezenove Som e Imagem']",5159,3049,1319,31,13,38,30,114,182,542,877,1191,391,372,3750,https://letterboxd.com/film/hard-labor/
Runaway,2010,Kanye West,"['Kanye West', 'Selita Ebanks', 'Radka Pavlovčinová', 'Pavlína Červíčková', 'Jade Clayton', 'Romana Novotná', 'Lucia Šenková', 'Hana Riegerová', 'Galina Sadirova', 'Lenka Bartůňková', 'Esther Lubadika', 'Lucie Pěkná', 'Petra Slavíková', 'Sára Kocanová', 'Veronika Zítová', 'Nikola Márová', 'Dominika Horová', 'Tereza Janoudová', 'Barbora Tučková', 'Eva Ružičková', 'Naďa Uvančíková', 'Zuzana Šimáková', 'Gábina Michalíčková', 'Ivanna Illienko', 'Zuzana Kábrtová', 'Veronika Kohútová', 'Larisa Budaeva', 'Anet Antošová', 'Bedřich Smetana', 'Milan Rohwk', 'Bruno Vodicka', 'Petr Mark', 'Petr Pirnas', 'Miroslav Bili', 'Jakub Olek', 'Maximilian Cikán', 'Michal Kovac', 'Karel Mrnous', 'Petr Materne', 'Milan Stránský', 'Jozef Polak', 'Pavel Jan', 'Přemysl Otakar', 'Tereza Georgievová', 'Linda Mikolášková', 'Štěpán Coufal', 'Petr Kosek', 'Václav Hanuš', 'Lucie Koňaříková-Salamé', 'Dominika Jablonská']",4.09,4.0,"['Romance', 'Fantasy', 'Music']",34,['Czechia'],English,['English'],['The Island Def Jam Music Group'],20869,2075,8417,102,40,62,62,236,311,1080,1372,3412,1576,3922,12073,https://letterboxd.com/film/runaway-2010/
Scott Pilgrim vs. the Animation,2010,Bryan Lee O'Malley,"['Michael Cera', 'Alison Pill', 'Georgette Perna', 'Mae Whitman', 'Jason Schwartzman', 'Steve Blum']",3.66,2.0,"['Action', 'Animation', 'Romance', 'Comedy']",4,['USA'],English,['English'],"['Titmouse', 'Adult Swim']",12191,1066,3487,9,15,26,28,115,218,1113,1368,1838,283,830,5834,https://letterboxd.com/film/scott-pilgrim-vs-the-animation/
Fantasmas,2010,André Novais Oliveira,"['Gabriel Martins', 'Maurílio Martins', 'Gabriela Monteiro']",3.72,4.0,['Drama'],11,['Brazil'],Portuguese,['Portuguese'],['Filmes de Plástico'],6231,1250,2143,34,29,40,29,75,110,495,523,1289,485,861,3936,https://letterboxd.com/film/fantasmas/
Alvin and the Chipmunks: The Squeakquel,2009,Betty Thomas,"['Zachary Levi', 'David Cross', 'Jason Lee', 'Justin Long', 'Matthew Gray Gubler', 'Jesse McCartney', 'Amy Poehler', 'Anna Faris', 'Christina Applegate', 'Wendie Malick', 'Anjelah Johnson-Reyes', 'Kathryn Joosten', 'Kevin G. Schmidt', 'Chris Warren', 'Bridgit Mendler', 'Aimee Carrero', 'Alexandra Shipp', 'Gregg Binkley', 'Jake Zyrus', 'Bernard White', 'Adele Jacques', 'Joy Osmanski', 'Archie Hahn', 'Lanny Joon', 'Brando Eaton', 'Michael Bruno', 'Andrew Lee Schmidt', 'Alexander Noyes', 'Jason Rosen', 'Ali Mikles', 'Eric Bauza', 'Sean Astin', 'Marty Dew', 'Richy Jackson', 'Mihran Kirakosian', 'Janelle Ginestra', 'Thomasina Gross', 'Rachele Brooke Smith', 'Ryan Conferido', ""Hokuto 'Hok' Konishi"", 'Ryan Feng', 'D-Trix', 'Brian Hirano', 'Steve Terada', 'Victor Kim', 'Brittany Anne Pirtle', 'Ross Bagdasarian, Jr.', 'Janice Karman', 'Steve Vining', 'Courtney Galiano', 'Gee Alexander', 'Mark Alkofer', 'Tallie Brinson', 'Ericka Clevenger', 'Sean Decker', 'Sarah Fontenot', 'Paul Gonzales', 'David Lautman', 'Casper Smart', ""Andrew 'Drew' Thompson""]",2.18,2.0,"['Fantasy', 'Family', 'Music', 'Animation', 'Comedy']",88,['USA'],English,"['English', 'French']","['Fox 2000 Pictures', 'Bagdasarian Productions', 'Regency Enterprises', '20th Century Fox', 'Dune Entertainment']",299708,15838,18729,321,9590,17746,12317,23825,13209,19626,6826,8249,1328,7358,120074,https://letterboxd.com/film/alvin-and-the-chipmunks-the-squeakquel/
Inglourious Basterds,2009,Quentin Tarantino,"['Brad Pitt', 'Mélanie Laurent', 'Christoph Waltz', 'Eli Roth', 'Michael Fassbender', 'Diane Kruger', 'Daniel Brühl', 'Til Schweiger', 'Gedeon Burkhard', 'Jacky Ido', 'B.J. Novak', 'Omar Doom', 'August Diehl', 'Denis Ménochet', 'Sylvester Groth', 'Martin Wuttke', 'Mike Myers', 'Julie Dreyfus', 'Léa Seydoux', 'Richard Sammel', 'Alexander Fehling', 'Rod Taylor', 'Samm Levine', 'Paul Rust', 'Michael Bacall', 'Arndt Schwering-Sohnrey', 'Petra Hartung', 'Volker Michalowski', 'Ken Duken', 'Christian Berkel', 'Anne-Sophie Franck', 'Tina Rodriguez', 'Lena Friedrich', 'Ludger Pistor', 'Jana Pallaske', 'Wolfgang Lindner', 'Michael Kranz', 'Rainer Bock', 'André Penvern', 'Sebastian Hülk', 'Buddy Joe Hooker', 'Sönke Möhring', 'Carlos Fidel', 'Hilmar Eichhorn', 'Patrick Elias', 'Eva Löbau', 'Salvadore Brandt', 'Jasper Linnewedel', 'Wilfried Hochholdinger', 'Olivier Girard', 'Michael Scheel', 'Leo Plank', 'Andreas Tietz', 'Bo Svenson', 'Enzo G. Castellari', 'Christian Brückner', 'Samuel L. Jackson', 'Bela B.', 'Noemi Besedes', 'Hélène Cardona', 'Jake Garber', 'Sabrina Rattey', 'Alex Boden', 'Guido Föhrweißer', 'Harvey Keitel', 'Andrew Napier', 'Greg Nicotero', 'Quentin Tarantino', 'Vitus Wieser', 'Bea-Marie Rück', 'Daniela Schwerdt']",4.34,4.0,"['Drama', 'Thriller', 'War']",153,"['France', 'Germany', 'USA']",English,"['English', 'German', 'French', 'Italian']","['The Weinstein Company', 'Universal Pictures', 'A Band Apart', 'Zehnte Babelsberg Film', 'Visiona Romantica', 'Peninsula Films']",2604722,339886,1086848,50000,1686,4390,2571,16345,15198,107304,132352,507071,333413,628952,1749282,https://letterboxd.com/film/inglourious-basterds/
Ecos de Cannes,2008,Paloma Rocha,"['Glauber Rocha', 'Odete Lara', ""Neville D'Almeida""]",nan,nan,['Documentary'],nan,['Brazil'],Portuguese,['Portuguese'],nan,8,6,2,0,0,0,0,0,0,1,1,3,0,0,5,https://letterboxd.com/film/ecos-de-cannes/
Alvin and the Chipmunks,2007,Tim Hill,"['Jason Lee', 'David Cross', 'Cameron Richardson', 'Jane Lynch', 'Justin Long', 'Matthew Gray Gubler', 'Jesse McCartney', 'Veronica Alicino', 'Allison Karman', 'Tiara Parker', 'Kira Verrastro', 'Beth Riesgraf', 'Adriane Lenox', 'Don Tiffany', 'Frank Maharajh', 'Kevin Symons', 'Jayden Lund', 'Alexis Boyd', 'Kyndra Reevey', 'Jay Bird', 'Natalie Cohen', 'Kevin Fung', 'Kevin Fisher', 'Jillian Warry Barberie', 'Lorne Green', ""Greg 'G-Spot' Siebel"", 'Oliver Muirhead', 'Erin Chambers', 'Chris Classic', 'Adam Riancho', 'Axel Alba', 'Rosero McCoy', 'Criscilla Anderson', 'Tucker Barkley', 'Celestina Aladekoba', 'Laura Edwards', 'Christopher Scott', 'Miss Prissy', 'Bryan Gaw', 'Michelle Maniscalco', 'Nick Drago', 'Melanie Lewis', 'Ross Bagdasarian, Jr.', 'Janice Karman', 'Steve Vining', 'Colette Claire', 'Sommer Fehmel', 'Lisa Mason Lee', 'Rae Sunshine Lee', 'Eddie Mariano', 'Meghan Noone', 'Chris Rossi', 'Jameel Saleem', 'Melanie Stephens', 'Brianna Womick', 'Maria Zambrana', 'Gregg Lee']",2.54,3.0,"['Fantasy', 'Family', 'Animation', 'Comedy']",92,['USA'],English,"['English', 'Spanish', 'French', 'Japanese']","['Fox 2000 Pictures', 'Regency Enterprises', 'Bagdasarian Productions', 'Dune Entertainment', '20th Century Fox']",581733,26816,45143,524,9745,22915,17448,42475,29640,49390,18948,21118,3293,16986,231958,https://letterboxd.com/film/alvin-and-the-chipmunks/
Playing,2007,Eduardo Coutinho,"['Marília Pêra', 'Andréa Beltrão', 'Fernanda Torres', 'Aleta Gomes Vieira', 'Mary Sheila', 'Débora Almeida', 'Gisele Alves Moura', 'Jeckie Brown', 'Lana Guelero', 'Maria de Fátima Barbosa', ""Marina D'Elia"", 'Sarita Houli Brumer', 'Claudiléa Cerqueira de Lemos']",4.23,5.0,['Documentary'],100,['Brazil'],Portuguese,['Portuguese'],"['Matizar', 'VideoFilmes']",14661,7284,6711,545,7,14,21,41,63,336,526,2029,1800,5701,10538,https://letterboxd.com/film/playing/
Drive Thru,2007,"Brendan Cowles, Shane Kuhn","['Leighton Meester', 'Van De La Plante', ""Nicholas D'Agosto"", 'Melora Hardin', 'Penn Badgley', 'Lola Glaudini', 'Larry Joe Campbell', 'Morgan Spurlock', 'Rachael Bella', 'Shedrack Anderson III', 'Sita Young', 'Karis Campbell', 'John Gilbert', 'Danielle Taddei', 'Maliabeth Johnson', 'Edward DeRuiter', 'Haven Lamoureux', 'Paul Ganus', 'Robert Curtis Brown', 'Sean Whalen', 'Tyler King', 'Sarah Buehler', 'Jessica Landon', 'Nicole Cavazos', 'Clyde Kusatsu', 'Caia Coley']",2.31,0.5,"['Horror', 'Comedy', 'Thriller']",82,['USA'],English,['English'],"['Lions Gate Films', 'Lionsgate Premiere']",4000,1847,599,5,199,392,320,570,402,472,177,155,26,98,2811,https://letterboxd.com/film/drive-thru/
Open Season,2006,"Jill Culton, Roger Allers","['Martin Lawrence', 'Ashton Kutcher', 'Gary Sinise', 'Debra Messing', 'Billy Connolly', 'Georgia Engel', 'Jon Favreau', 'Jane Krakowski', 'Gordon Tootoosis', 'Patrick Warburton', 'Cody Cameron', 'Nika Futterman', 'Danny Mann', 'Jack McGee', 'Michelle Murdocca', 'Fergal Reilly', 'Maddie Taylor', 'Kirk Baily', 'Jack Blessing', 'Ranjani Brow', 'David Cowgill', 'Caitlin Cutt', 'Elisa Gabrielli', 'Jackie Gonneau', 'Wendy Hoffmann', 'Scott Menville', 'Renee Robert', 'André Sogliuzzo', 'John Hans Tester', 'Jackie Harris Greenberg']",2.8,2.5,"['Comedy', 'Animation', 'Adventure', 'Family']",86,['USA'],English,['English'],"['Sony Pictures Animation', 'Columbia Pictures']",245069,16937,20605,158,1605,5039,5661,16722,16582,27255,11188,9332,1477,5265,100126,https://letterboxd.com/film/open-season/
Saw II,2005,Darren Lynn Bousman,"['Tobin Bell', 'Donnie Wahlberg', 'Shawnee Smith', 'Erik Knudsen', 'Franky G', 'Glenn Plummer', 'Emmanuelle Vaugier', 'Beverley Mitchell', 'Noam Jenkins', 'Timothy Burd', 'Dina Meyer', 'Lyriq Bent', 'Tony Nappo', 'Kelly Jones', 'Vincent Rother', 'Linette Doherty', 'Kofi Payton', 'Gretchen Helbig', 'Leigh Whannell', 'Cary Elwes', 'Ho Chow']",3.15,2.0,['Horror'],93,['USA'],English,['English'],"['Got Films', 'Twisted Pictures', 'Evolution Entertainment', 'Saw 2 Productions', 'Lionsgate']",479330,71137,82778,1600,1692,5267,6342,25486,31316,81501,52394,49907,11711,20253,285869,https://letterboxd.com/film/saw-ii/
Million Dollar Baby,2004,Clint Eastwood,"['Clint Eastwood', 'Hilary Swank', 'Morgan Freeman', 'Jay Baruchel', 'Mike Colter', 'Lucia Rijker', ""Brían F. O'Byrne"", 'Anthony Mackie', 'Margo Martindale', 'Riki Lindhome', 'Michael Peña', 'Benito Martinez', 'Bruce MacVittie', 'David Powledge', ""Joe D'Angerio"", 'Marcus Chait', 'Tom McCleister', 'Erica Grant', 'Naveen', 'Morgan Eastwood', 'Jamison Yang', 'Susan Krebs', 'Vincent Foster', 'Steven M. Porter', 'Ming Lo', 'Miguel Pérez', 'Jim Cantafio', 'Ted Grossman', 'Ned Eisenberg', 'Marco Rodríguez', 'Mark Thomason', 'Brian T. Finney', 'Spice Williams-Crosby', 'Kim Strauss', 'Kirsten Berman', 'Jimmy Alioto', 'Jason Williams', 'Nina Avetisova', 'Michael Bentt', 'Bruce Gerard Brown Jr.', 'McKay Stewart', 'Jude Ciccolella', 'Kimberly Estrada', 'Sean LoGrasso', 'Maher McClung', ""Sean O'Kane"", 'Vladimir Rajčić', 'Marty Sammon', 'Robert Maron', ""Rosine 'Ace' Hatem"", 'Boni Yanagisawa', 'Christina Cox', 'Mimi Lesseos', 'Bridgett Riley']",3.97,5.0,['Drama'],132,"['Switzerland', 'USA']",English,"['English', 'Irish']","['Lakeshore Entertainment', 'Malpaso Productions', 'Epsilon Motion Pictures', 'Albert S. Ruddy Productions', 'Warner Bros. Pictures']",428022,72164,91111,1600,461,1280,1066,5349,6424,28864,41073,86827,37039,34493,242876,https://letterboxd.com/film/million-dollar-baby/
Shrek 2,2004,"Andrew Adamson, Kelly Asbury","['Mike Myers', 'Eddie Murphy', 'Cameron Diaz', 'Julie Andrews', 'Antonio Banderas', 'John Cleese', 'Rupert Everett', 'Jennifer Saunders', 'Aron Warner', 'Kelly Asbury', 'Cody Cameron', 'Conrad Vernon', 'Christopher Knights', 'David P. Smith', 'Mark Moseley', 'Kelly Cooney Cilella', 'Wendy Bilanski', 'Larry King', 'Guillaume Aretos', 'Chris Miller', 'Latifa Ouaou', 'Alina Phelan', 'Erika Thomas', 'Joan Rivers', 'Andrew Adamson']",4.03,5.0,"['Family', 'Adventure', 'Comedy', 'Animation', 'Fantasy']",93,['USA'],English,['English'],"['DreamWorks Animation', 'Pacific Data Images']",1908594,137253,467204,20000,1947,5917,4268,26316,25205,121191,105159,232208,94366,312965,929542,https://letterboxd.com/film/shrek-2/
Mean Girls,2004,Mark Waters,"['Lindsay Lohan', 'Rachel McAdams', 'Lizzy Caplan', 'Lacey Chabert', 'Amanda Seyfried', 'Daniel Franzese', 'Jonathan Bennett', 'Rajiv Surendra', 'Tim Meadows', 'Tina Fey', 'Ana Gasteyer', 'Neil Flynn', 'Amy Poehler', 'Ky Pham', 'Dwayne Hill', 'Diego Klattenhoff', 'Alexandra Stapley', 'Laura de Carteret', 'Molly Shanahan', 'Elana Shilling', 'Graham Kartna', 'Ely Henry', 'David Aherne', 'Ayo Agbonkpolo', 'Jonathan Malen', 'Jeff Moser', 'Danielle Nguyen', 'Miranda Edwards', 'Les Porter', 'Eve Crawford', 'Jack Newman', 'Michelyn Emelle', 'Bathsheba Garnett', 'Daniel DeSanto', 'Alisha Morrison', 'Chris Anton', 'Jan Caruana', 'Wai Choy', 'Julia Chantrey', 'Jacky Chamberlain', 'Olympia Lukis', 'Stefanie Drummond', 'Kristen Bone', 'Jessie Wright', 'Tyson Fennell', 'Stephan Dickson', 'Andreja Punkris', 'Noelle Boggio', 'Jordan Dawe', 'Nicole Crimi', 'Erin Norah Thompson', 'Dan Willmott', 'Michelle Hoffman', 'Valerie Casault', 'Sharron Matthews', 'Bruce Hunter', 'Jo Chim', 'Randi Lee Butcher', 'Erin Jarvis', 'Kaylen Christensen', 'Jill Morrison', 'David Sazant', 'Clare Preuss', 'Megan Millington', 'Tara Shelley', 'Shannon Todd', 'David Reale', 'Krysta Carter']",3.83,3.5,"['Comedy', 'Drama']",97,['USA'],English,"['English', 'Swahili', 'German', 'Vietnamese']","['Broadway Video', 'Paramount', 'M.G. Films']",2338732,189408,714889,19000,2430,6939,5578,32929,37149,197734,189740,401872,104785,338994,1318150,https://letterboxd.com/film/mean-girls/
Oldboy,2003,Park Chan-wook,"['Choi Min-sik', 'Yoo Ji-tae', 'Kang Hye-jung', 'Kim Byeong-ok', 'Ji Dae-han', 'Oh Dal-su', 'Seung-shin Lee', 'Yoon Jin-seo', 'Oh Tae-kyung', 'Yoo Yeon-seok', 'You Il-han', 'Lee Young-hee', 'Kim Yeong-ae', 'Lee Mi-Mi', 'Han Jae-duk', 'Kwak Jung-ae', 'Kim San', 'Chae-soo Jang', 'Seol-a Im', 'Syd Lim', 'Chang-hak Choi', 'Bi-Joon Shin', 'Seok-jae Seong', 'Choi Jae-sup', 'Yoon Jin-yul', 'Mun Seong-bok', 'Park Jae-Woong', 'Oh Soon-tae', 'Lee Hong-pyo', 'Geun-Seok Park', 'Heo Myeong-haeng', 'Kim Won-jung', 'Sung-Gyu Park', 'Jung-pil Lee', 'Seon-Rang Han', 'Beom-sik Sin', 'Jung-ok Han', 'Baek Dong-hyun', 'Ju Myeong-cheol', 'Park Ji-hun', 'Choon-Beom Choi', 'Seo Myeong-Seok', 'Jeon Woo-jae', 'Cho Sang-kyung', 'Oh Young-joo', 'Lee Ji-hye', 'Joong-hyun Ji', 'Sang-moo Moon', 'Oh Kwang-rok', 'Lee Dae-yeon', 'Park Myung-shin', 'Kim Su-hyun', 'Yong-ih']",4.39,4.0,"['Thriller', 'Mystery', 'Drama', 'Action']",120,['South Korea'],Korean,['Korean'],"['Show East', 'CJ Entertainment', 'Egg Film', 'Cineclick Asia']",1009084,214884,377382,31000,1841,2684,1915,7427,8266,34545,54890,187070,163971,260222,722831,https://letterboxd.com/film/oldboy/
Kill Bill: The Origin of O-Ren,2003,"Quentin Tarantino, Kazuto Nakazawa",['Uma Thurman'],4.22,nan,"['Animation', 'Action']",8,"['Japan', 'USA']",English,['English'],['Production I.G'],32593,1918,8827,22,31,43,10,97,139,888,1454,5450,2418,5596,16126,https://letterboxd.com/film/kill-bill-the-origin-of-o-ren/
Kill Bill: Vol. 1,2003,Quentin Tarantino,"['Uma Thurman', 'Lucy Liu', 'Vivica A. Fox', 'Daryl Hannah', 'David Carradine', 'Michael Madsen', 'Julie Dreyfus', 'Chiaki Kuriyama', 'Sonny Chiba', 'Gordon Liu Chia-hui', 'Michael Parks', 'Michael Bowen', 'Jun Kunimura', 'Kenji Ohba', 'Yuki Kazamatsuri', 'James Parks', 'Sakichi Sato', 'Jonathan Loughran', 'Yoshiyuki Morishita', 'Tetsuro Shimaguchi', 'Kazuki Kitamura', 'Yoji Tanaka', 'Sō Yamanaka', 'Juri Manase', 'Akaji Maro', 'Goro Daimon', 'Shun Sugata', 'Zhang Jinzhan', 'Hu Xiaohui', 'Ambrosia Kelley', 'Sachiko Fujii', 'Shu Lan Tuan', 'Ai Maeda', 'Naomi Kusumi', 'Hikaru Midorikawa', 'Issey Takahashi', 'Yoshiko Yamaguchi', 'Ronnie Yoshiko Fujiyama']",4.19,5.0,"['Crime', 'Action']",111,['USA'],English,"['English', 'Japanese', 'French']","['Miramax', 'A Band Apart', 'Super Cool ManChu']",2274633,280344,865817,40000,2155,6568,3391,21894,18932,120849,137021,449120,221302,442375,1423607,https://letterboxd.com/film/kill-bill-vol-1/
2 Fast 2 Furious,2003,John Singleton,"['Paul Walker', 'Tyrese Gibson', 'Eva Mendes', 'Cole Hauser', 'Ludacris', 'James Remar', 'Thom Barry', 'Michael Ealy', 'Mark Boone Junior', 'Devon Aoki', ""Roberto 'Sanz' Sanchez"", 'Mo Gallini', 'Edward Finlay', 'Jin Au-Yeung', 'Amaury Nolasco', 'Eric Etebari', 'John Cenatiempo', 'Neal H. Moritz', 'Troy Brown', 'Corey Michael Eubanks', 'Sammy Maloof', 'Troy Robinson', 'Sincerely A. Ward', 'Nievecita Dubuque', 'Mateo Herreros', 'Kerry Rossall', 'Marc Macaulay', 'Tony Bolano', 'Marianne M. Arreaga', 'Tara Carroll', 'Tamara Jones']",2.91,2.0,"['Action', 'Crime', 'Thriller']",108,"['Germany', 'USA']",English,"['English', 'Spanish']","['Ardustry Entertainment', 'Mikona Productions', 'Original Film', 'Universal Pictures']",464207,50934,70768,1800,2592,8423,10792,35442,36472,66045,34522,32491,7479,20123,254381,https://letterboxd.com/film/2-fast-2-furious/
Tribute to Zgougou the Cat,2002,Agnès Varda,nan,3.93,4.0,['Documentary'],2,['France'],French,['French'],nan,6579,1660,2610,15,5,19,16,45,104,402,438,727,145,796,2697,https://letterboxd.com/film/tribute-to-zgougou-the-cat/
"Meu Compadre, Zé Ketti",2001,Nelson Pereira dos Santos,"['Walter Alfaiate', 'Délcio Carvalho', 'Colombo', 'Zé Cruz', 'Noca da Portela', 'Guilherme de Brito', 'Jair do Cavaquinho', 'Elton Medeiros', 'Hildmar Diniz', 'Wilson Moreira', 'Nelson Sargento']",nan,nan,"['Music', 'Documentary']",12,['Brazil'],Portuguese,['Portuguese'],"['Regina Filmes', 'VideoFilmes']",281,148,96,0,0,0,0,1,11,21,43,54,12,28,170,https://letterboxd.com/film/meu-compadre-ze-ketti/
Porrada!,2000,Eduardo Coutinho,nan,nan,nan,"['Documentary', 'Comedy']",5,['Brazil'],Portuguese,['Portuguese'],nan,282,50,46,0,1,1,2,2,11,48,17,12,4,14,112,https://letterboxd.com/film/porrada/
Scary Movie,2000,Keenen Ivory Wayans,"['Anna Faris', 'Jon Abrahams', 'Marlon Wayans', 'Shawn Wayans', 'Regina Hall', 'Shannon Elizabeth', 'Cheri Oteri', 'Carmen Electra', 'Tanja Reichert', 'Lochlyn Munro', 'Dave Sheridan', 'Kurt Fuller', 'Rick Ducommun', 'Keenen Ivory Wayans', 'Marissa Jaret Winokur', 'Dan Joffre', 'Lloyd Berry', 'David L. Lander', 'Kelly Coffield Park', 'Trevor Roberts', 'Jayne Trcka', 'Karen Kruper', 'Kendall Saunders', 'Glynis Davies', 'Jessica Van der Veen', 'Jennifer Ann Lee', 'Frank B. Moore', 'Giacomo Baessato', 'Kyle Graham', 'Leanne Santos', 'Mark McConchie', 'Matthew Paxman', 'Chris Robson', 'Susan Shears', 'Peter Bryant', 'Andrea Nemeth', 'Craig Bruhnanski', 'Reg Tupper', 'Babe Dolan', 'David Neale', 'Nels Lennarson', 'Nicola Crosbie', 'Ian Bliss', 'Chris Wilding', 'Peter Hanlon', 'Ted Cole', 'Doreen Ramus', 'Lee R. Mayes', 'Mark Hoeppner', 'Jim Shepard', 'Dexter Bell', 'Ted Gill', 'Andrew Keilty', 'James Van Der Beek', 'Johnny Hawkes', 'Kevin Hansen', 'Art Hives', 'Bruce Mahler', 'Zahf Paroo', 'Aubrey Tennant']",3.05,3.5,['Comedy'],88,['USA'],English,['English'],"['Brad Grey Pictures', 'Gold/Miller Productions', 'Wayans Bros. Entertainment', 'Dimension Films']",697632,52703,109681,1400,5781,13839,11683,37085,38891,96867,53056,56454,10404,31122,355182,https://letterboxd.com/film/scary-movie-2000/
Fight Club,1999,David Fincher,"['Edward Norton', 'Brad Pitt', 'Helena Bonham Carter', 'Meat Loaf', 'Jared Leto', 'Zach Grenier', 'Holt McCallany', 'Eion Bailey', 'Richmond Arquette', 'David Andrews', 'George Maguire', 'Eugenie Bondurant', 'Christina Cabot', ""Sydney 'Big Dawg' Colston"", 'Rachel Singer', 'Christie Cronenweth', 'Tim DeZarn', 'Ezra Buzzington', 'Dierdre Downing-Jackson', 'Bob Stephenson', 'Charlie Dell', 'Rob Lanza', 'David Lee Smith', 'Joel Bissonnette', 'Evan Mirand', 'Robby Robinson', 'Lou Beatty Jr.', 'Thom Gossom Jr.', 'Valerie Bickford', 'Peter Iacangelo', 'Carl Ciarfalio', 'Stuart Blumberg', 'Todd Peirce', 'Mark Fite', 'Matt Winston', 'Joon Kim', 'Bennie Moore', 'Lauren Sánchez', 'Pat McNamara', 'Tyrone R. Livingston', 'Owen Masterson', 'David Jean Thomas', 'Paul Carafotes', 'Christopher John Fields', 'Anderson Bourell', 'Scotch Ellis Loring', 'Michael Shamus Wiles', 'Andi Carnick', 'Ed Kowalczyk', 'Leonard Termo', 'Van Quattro', 'Markus Redmond', 'Michael Girardin', 'Michael Arturo', 'Greg Bronson', 'Matt Cinquanta', 'Paul Dillon', 'Eddie Hargitay', 'Phil Hawn', 'Bruce Holman', 'Jawara', 'Baron Jay', 'Jim Jenkins', 'Kevin Scott Mack', 'Trey Ore', 'Louis Ortiz', 'Hugh Peddy', 'J.T. Pontino', 'Chad Randau', 'Marcio Rosario', 'Gregory Silva', 'Brian Tochi', 'Michael Zagst', 'Marc Cinquanta', 'Summer Moore']",4.27,2.5,['Drama'],139,"['Germany', 'USA']",English,['English'],"['Fox 2000 Pictures', 'Regency Enterprises', 'The Linson Company', '20th Century Fox', 'Taurus Film']",3658583,409580,1684863,112000,3462,9274,4485,30823,25423,170385,182310,701579,408009,982966,2518716,https://letterboxd.com/film/fight-club/
10 Things I Hate About You,1999,Gil Junger,"['Heath Ledger', 'Julia Stiles', 'Joseph Gordon-Levitt', 'Larisa Oleynik', 'David Krumholtz', 'Andrew Keegan', 'Susan May Pratt', 'Gabrielle Union', 'Larry Miller', 'Daryl Mitchell', 'Allison Janney', 'David Leisure', 'Greg Jackson', 'Kyle Cease', 'Terence Heuston', 'Cameron Fraser', 'Eric Riedmann', 'Quinn Maixner', 'Demegio Kimbrough', 'Todd Butler', 'Dennis Mosley', 'Bianca Kajlich', 'Nick Vukelic', 'Ben Laurance', 'Aidan Kennedy', 'Jelani Quinn', 'Jesse Dyer', 'Aaron Therol', 'Carlos Lacámara', 'Heather Taylor', 'Joshua Thorpe', 'J.R. Johnson', 'Wendy Gottlieb', 'Brian Hood', 'Travis Muller', 'Ari Karczag', 'Laura Kenny', 'Alice Evans', 'Jesper Inglis', 'Nick Brown', 'Monique Powell', 'Brian Mashburn', 'Kay Hanley', 'Michael Eisenstein']",3.99,3.5,"['Comedy', 'Romance', 'Drama']",97,['USA'],English,"['English', 'French']","['Mad Chance', 'Jaret Entertainment']",2156189,281790,891057,72000,1544,4829,3806,23744,28838,158486,169858,385239,127457,470687,1374488,https://letterboxd.com/film/10-things-i-hate-about-you/
The Blair Witch Project,1999,"Daniel Myrick, Eduardo Sánchez","['Heather Donahue', 'Joshua Leonard', 'Michael C. Williams', 'Bob Griffin', 'Jim King', 'Sandra Sánchez', 'Ed Swanson', 'Patricia DeCou', 'Mark Mason', 'Susie Gooch']",3.31,2.0,"['Mystery', 'Horror']",81,['USA'],English,['English'],"['Haxan Films', 'Artisan Entertainment']",783317,125101,158439,3300,7080,15597,10806,39011,35353,99790,78990,104091,29332,43750,463800,https://letterboxd.com/film/the-blair-witch-project/
O Auto da Compadecida,1999,Guel Arraes,"['Matheus Nachtergaele', 'Selton Mello', 'Rogério Cardoso', 'Denise Fraga', 'Diogo Vilela', 'Luís Melo', 'Virginia Cavendish', 'Bruno Garcia', 'Enrique Díaz', 'Maurício Gonçalves', 'Aramis Trindade', 'Marco Nanini', 'Paulo Goulart', 'Lima Duarte', 'Fernanda Montenegro']",4.3,nan,"['Drama', 'Comedy']",174,['Brazil'],Portuguese,['Portuguese'],['Estúdios Globo'],44055,4947,20513,2100,224,73,36,98,94,458,658,3564,2970,24518,32693,https://letterboxd.com/film/o-auto-da-compadecida/
Song of Avignon,1998,Jonas Mekas,"['Angus MacLise', 'Jonas Mekas']",4.19,nan,['Documentary'],9,['USA'],English,['English'],nan,10404,2790,4772,145,22,26,24,69,89,349,499,1380,996,1925,5379,https://letterboxd.com/film/song-of-avignon/
Doodlebug,1997,Christopher Nolan,['Jeremy Theobald'],3.19,2.5,['Mystery'],3,['UK'],No spoken language,['No spoken language'],nan,52470,6910,8024,5,183,497,561,2006,3115,9277,5622,3804,595,936,26596,https://letterboxd.com/film/doodlebug/
Scream,1996,Wes Craven,"['David Arquette', 'Neve Campbell', 'Courteney Cox', 'Matthew Lillard', 'Rose McGowan', 'Skeet Ulrich', 'Jamie Kennedy', 'W. Earl Brown', 'Joseph Whipp', 'Liev Schreiber', 'Drew Barrymore', 'Roger L. Jackson', 'Kevin Patrick Walls', 'David Booth', 'Carla Hatley', 'Lawrence Hecht', 'Lois Saunders', 'Lisa Beach', 'Tony Kilbert', 'C.W. Morgan', 'Frances Lee McCain', 'Troy Bishop', 'Ryan Kennedy', 'Leonora Scelfo', 'Nancy Anne Ridder', 'Lisa Canning', 'Bonnie Wood', 'Aurora Draper', 'Kenny Kwong', 'Justin Sullivan', 'Kurtis Bedford', 'Angela Miller', 'Henry Winkler', 'Linda Blair', 'Wes Craven', 'Matt McDonald', 'Freddy W. Smith']",4.02,5.0,"['Mystery', 'Crime', 'Horror']",112,['USA'],English,['English'],"['Dimension Films', 'Woods Entertainment', 'Miramax']",1496282,326627,552895,59000,1233,4029,2697,18175,19145,105793,118946,297590,122918,292734,983260,https://letterboxd.com/film/scream/
The Killer Bean,1996,Jeff Lew,['Jeff Lew'],3.25,nan,"['Action', 'Animation']",2,nan,English,['English'],nan,393,33,86,4,9,16,9,24,27,54,32,15,1,35,222,https://letterboxd.com/film/the-killer-bean/
Alice In Chains: MTV Unplugged,1996,Joe Perota,"['Layne Staley', 'Jerry Cantrell', 'Mike Inez', 'Sean Kinney']",4.47,nan,"['Documentary', 'Music']",72,['USA'],English,['English'],['MTV Productions'],7788,792,3594,34,7,9,2,8,16,110,160,664,557,3176,4709,https://letterboxd.com/film/alice-in-chains-mtv-unplugged/
The Bridges of Madison County,1995,Clint Eastwood,"['Clint Eastwood', 'Meryl Streep', 'Annie Corley', 'Victor Slezak', 'Jim Haynie', 'Sarah Zahn', 'Christopher Kroon', 'Phyllis Lyons', 'Debra Monk', 'Richard Lage', 'Michelle Benes', 'Alison Wiegert', 'Brandon Bobst', 'Pearl Faessler', ""R.E. 'Stick' Faessler"", 'Tania Burt', 'Billie McNabb', 'Art Breese', 'Lana Schwab', 'Larry Loury', 'James Rivers', 'Mark A. Brooks', 'Peter Cho', 'Eddie Dejean Sr.', 'Jason C. Brewer', 'Kyle Eastwood', 'George Orrison', 'Ken Billeter', 'Judy Trask', 'David Trask', 'Edna Dolson', 'Dennis McCool', 'Michael C. Pommier', 'Jana Corkrean', 'M. Jane Seymour', 'Karla Jo Soper']",4.0,5.0,"['Drama', 'Romance']",135,['USA'],English,['English'],"['Amblin Entertainment', 'Malpaso Productions', 'Warner Bros. Pictures']",92854,27415,28492,1600,149,330,260,1322,1624,6278,8524,18125,8974,15033,60619,https://letterboxd.com/film/the-bridges-of-madison-county/
Pulp Fiction,1994,Quentin Tarantino,"['John Travolta', 'Samuel L. Jackson', 'Uma Thurman', 'Bruce Willis', 'Ving Rhames', 'Harvey Keitel', 'Eric Stoltz', 'Tim Roth', 'Amanda Plummer', 'Maria de Medeiros', 'Quentin Tarantino', 'Christopher Walken', 'Rosanna Arquette', 'Peter Greene', 'Duane Whitaker', 'Angela Jones', 'Phil LaMarr', 'Steve Buscemi', 'Bronagh Gallagher', 'Laura Lovelace', 'Frank Whaley', 'Burr Steers', 'Paul Calderon', 'Jerome Patrick Hoban', 'Michael Gilden', 'Gary Shorelle', 'Susan Griffiths', 'Eric Clark', 'Joseph Pilato', 'Brad Blumenthal', 'Lorelei Leslie', 'Emil Sitka', 'Brenda Hillhouse', 'Chandler Lindauer', 'Sy Sher', 'Robert Ruth', 'Rich Turner', 'Don Blakely', 'Carl Allen', 'Karen Maruyama', 'Kathy Griffin', 'Venessia Valentino', 'Linda Kaye', 'Stephen Hibbert', 'Alexis Arquette', 'Julia Sweeney', 'Lawrence Bender', 'Cie Allman', 'Rene Beard', 'Lori Pizzo', 'Glendon Rich', 'Devan Richardson', 'Ani Sava', 'Richard Rossi']",4.26,4.5,"['Crime', 'Thriller']",154,['USA'],English,"['English', 'Spanish', 'French']","['Miramax', 'A Band Apart', 'Jersey Films']",3282407,405026,1451916,70000,4316,11320,4832,34409,25262,167725,155543,588250,334231,829905,2155793,https://letterboxd.com/film/pulp-fiction/
"Hail, Sarajevo",1993,Jean-Luc Godard,['Jean-Luc Godard'],4.05,5.0,['War'],2,['France'],French,['French'],['Périphéria'],13616,3025,4438,80,27,36,34,120,158,577,778,1882,958,2150,6720,https://letterboxd.com/film/hail-sarajevo/
Rogério Sganzerla manda recado ao Brasil,1991,Ivan Cardoso,['Rogério Sganzerla'],nan,nan,['Documentary'],1,nan,Portuguese,['Portuguese'],nan,359,45,121,1,6,5,1,3,3,11,6,16,5,55,111,https://letterboxd.com/film/rogerio-sganzerla-manda-recado-ao-brasil/
Isle of Flowers,1989,Jorge Furtado,"['Paulo José', 'Júlia Barth', 'Luciane Azevedo', 'Ciça Reckziegel', 'Igor Costa', 'Douglas Trainini', 'Irene Schmidt', 'Gosei Kitajima', 'Takehiro Suzuki', 'Antônio da Silva', 'Marcos Crespo']",4.23,4.5,['Documentary'],13,['Brazil'],Portuguese,['Portuguese'],['Casa de Cinema de Porto Alegre'],38230,7017,11227,115,62,71,49,206,261,1106,1737,6263,3697,9335,22787,https://letterboxd.com/film/isle-of-flowers/
Kiki's Delivery Service,1989,Hayao Miyazaki,"['Minami Takayama', 'Rei Sakuma', 'Kappei Yamaguchi', 'Keiko Toda', 'Mieko Nobusawa', 'Koichi Miura', 'Haruko Katō', 'Hiroko Seki', 'Yuriko Fuchizaki', 'Koichi Yamadera', 'Kikuko Inoue', 'Yuko Kobayashi', 'Mika Doi', 'Takaya Hashi', 'Chika Sakamoto', 'Yoshiko Asai', 'Hiroko Maruyama', 'Shinpachi Tsuji', 'Yuko Maruyama', 'Masa Saitō', 'Yuko Tsuga', 'Tomomichi Nishimura', 'Akio Otsuka', 'Yoshiko Kamei', 'Keiko Kagimoto', 'Takashi Taguchi', 'Michihiro Ikemizu']",4.13,4.0,"['Family', 'Fantasy', 'Animation']",103,['Japan'],Japanese,['Japanese'],"['Studio Ghibli', 'Nibariki', 'Studio Fuga', 'Tokuma Shoten', 'Nippon Television Network Corporation']",901976,162290,337788,16000,207,648,638,4371,7133,48349,77444,188750,81835,156638,566013,https://letterboxd.com/film/kikis-delivery-service/
My Neighbor Totoro,1988,Hayao Miyazaki,"['Noriko Hidaka', 'Chika Sakamoto', 'Hitoshi Takagi', 'Shigesato Itoi', 'Sumi Shimamoto', 'Tanie Kitabayashi', 'Toshiyuki Amagasa', 'Yuko Maruyama', 'Masashi Hirose', 'Reiko Suzuki', 'Machiko Washio', 'Naoki Tatsuta', 'Tomohiro Nishimura', 'Chie Koujiro', 'Yuko Mizutani', 'Shigeru Chiba', 'TARAKO', 'Mitsuko Ishida', 'Daiki Nakamura', 'Akiko Hiramatsu', 'Ikue Otani', 'Frank Welker']",4.19,5.0,"['Fantasy', 'Animation', 'Family']",86,['Japan'],Japanese,['Japanese'],"['Studio Ghibli', 'Nibariki', 'Tokuma Shoten']",1538645,223112,586845,16000,721,2059,1656,10207,13230,79709,105608,291633,133023,313842,951688,https://letterboxd.com/film/my-neighbor-totoro/
Bad,1987,Martin Scorsese,"['Michael Jackson', 'Wesley Snipes', 'Jaime Perry', 'Adam Nathan', 'Pedro Sanchez', 'Gregory Holtz Sr.', 'Paul Calderon', 'Alberto Alejandrino', 'Horace Bailey', 'Marvin Foster', 'Dennis Price', 'Roberta Flack', 'Nelson Vasquez', 'Catherine Scorsese', 'Charles Scorsese']",3.85,4.0,['Music'],18,['USA'],English,['English'],['Optimum Productions'],29828,1936,5854,4,25,71,48,233,361,1717,1942,3886,829,2616,11728,https://letterboxd.com/film/bad-1987-1/
Full Metal Jacket,1987,Stanley Kubrick,"['Matthew Modine', 'Adam Baldwin', ""Vincent D'Onofrio"", 'R. Lee Ermey', 'Dorian Harewood', 'Arliss Howard', 'Kevyn Major Howard', ""Ed O'Ross"", 'John Terry', 'Bruce Boa', 'Kieron Jecchinis', 'Jon Stafford', 'Tim Colceri', 'Peter Edmund', 'Kirk Taylor', 'Ian Tyler', 'Gary Landon Mills', 'Sal Lopez', 'Papillon Soo', 'Ngoc Le', 'Tan Hung Francione', ""Marcus D'Amico"", 'Costas Dino Chimona', 'Keith Hodiak', 'Peter Merrill', 'Herbert Norville', 'Leanne Hong', 'Duc Hu Ta', 'Nguyen Hue Phong', 'Gil Kopel', 'Philip Bailey', 'Robert E. Hartenberger', 'Steve Hudson', 'John Curtis', 'Del Anderson', 'Chris Maybach', 'Gary Smith', 'Michael Anthony Williams', 'John Wilson', 'Kevin Albridge', 'Martin Adams', 'Louis Barlotti', 'John Beddows', 'Patrick Benn', 'Steve Boucher', 'Adrian Bush', 'Gary Cheeseman', 'Tony Carey', 'Wayne Clark', 'Chris Cornibert', 'Danny Cornibert', 'John Davis', 'Harry Davies', 'Gordon Duncan', 'Phil Elmer', 'Colin Elvis', 'Hadrian Follett', 'Sean Frank', 'Vivian Kubrick', 'Stanley Kubrick', 'David Palffy', 'John Ward', 'David George']",4.2,5.0,"['Drama', 'War']",117,"['UK', 'USA']",English,"['English', 'Vietnamese']","['Natant', 'Stanley Kubrick Productions', 'Warner Bros. Pictures']",886925,150714,271716,6500,449,1249,921,5521,7434,41304,69057,200952,119864,117555,564306,https://letterboxd.com/film/full-metal-jacket/
Little Vampire Taints,1987,José Adalto Cardoso,"['Renalto Alves', 'Chumbinho', 'Bim Bim', 'Makerley Reis', 'Eliane Gabarron', 'Walter Gabarron', 'Walter Alvarenga']",nan,1.0,['Horror'],61,['Brazil'],Portuguese,['Portuguese'],nan,47,65,6,0,0,6,4,4,4,5,2,2,0,2,29,https://letterboxd.com/film/little-vampire-taints/
A Gunman Named Papaco,1986,Mário Vaz Filho,"['Fernando Benini', 'Paco Sanches', 'Márcia Ferro', 'Chumbinho', 'Satã', 'Custódio Gomes', 'Nikita', 'Agnaldo Costa', 'Denise Clair', 'Angélica Belmont', 'Camila Gordon', 'Priscila Presley']",3.48,2.5,"['Romance', 'Comedy', 'Western']",70,['Brazil'],Portuguese,"['Portuguese', 'Spanish']",['Olympus Filmes'],1148,270,317,5,20,41,18,39,49,124,84,91,38,228,732,https://letterboxd.com/film/a-gunman-named-papaco/
Christine,1983,John Carpenter,"['Keith Gordon', 'John Stockwell', 'Alexandra Paul', 'Robert Prosky', 'Harry Dean Stanton', 'Christine Belford', 'Roberts Blossom', 'William Ostrander', 'David Spielberg', 'Malcolm Danare', 'Steven Tash', 'Stuart Charno', 'Kelly Preston', 'Marc Poppel', 'Robert Darnell', 'Douglas Warhit', 'Richard Collier', 'Bruce French', 'Keri Montgomery', 'Jan Burrell', 'Charles Steak', 'Art Evans', 'John Richard Petersen']",3.49,4.5,['Horror'],110,['USA'],English,['English'],"['Columbia Pictures', 'Polar Film']",162146,52709,40125,407,220,789,921,4449,6815,24078,26665,27622,6224,6591,104374,https://letterboxd.com/film/christine-1983/
Michael Jackson's Thriller,1983,John Landis,"['Michael Jackson', 'Ola Ray', 'Vincent Price', 'Cynthia Garris', ""Tiana Davidson 'Thelma' Davis"", 'Mick Garris', 'Hanala Sagal', 'Forrest J. Ackerman', 'Reed Armstrong', 'Rick Baker', 'Miko C. Brando', 'James Canino', 'Greg Cannom', 'Michael DeLorenzo', 'Kim Blank', 'John Command', 'Michelle Defevre', 'Tony Fields', 'Richard Gaines', 'Tony Gardner', 'Cory Hawkins', 'Tom Hester', 'DeAnne Holliday', 'Tim Lawrence', 'Ben Lokey', 'Ned Nalle', 'Jeff Parker', 'Vincent Paterson', 'Michael Peters', 'Mark Sellers', 'Cheryl L. Sington', 'Kevin Yagher', 'Stephen Bishop', 'Bill Bray', 'Casey Cole', 'Ian A. Stevens', 'Kevin Brennan']",4.27,4.5,"['Mystery', 'Horror', 'Music']",14,['USA'],English,['English'],['Optimum Productions'],81369,6098,18799,32,76,126,54,336,444,2563,2939,9415,3760,12850,32563,https://letterboxd.com/film/michael-jacksons-thriller/
The Woman Who Invented Love,1980,Jean Garrett,"['Aldine Müller', 'Rodolfo Arena', 'Edgard Franco', 'Lola Brah', 'Heloísa Raso', 'Roberto Miranda', 'Orlando Parolini', 'Carlos Reichenbach', 'Simone Carvalho', 'Genésio de Carvalho', 'Carlos Arena', 'Oswaldo Cirillo', 'Renée Casemart', 'Theresa Bianchi', 'Nerzídio Bonacin', 'Walter Coletti', 'Marcelo Dantas', 'Zécarlos de Andrade', 'Rita de Cássia', 'Osly Delano', 'Jairo Ferreira', 'Dulce Garcia', 'Lano Grandi', 'Nair Isaguirre', 'Paulo Leite', 'Célia Lima', 'José Lucas', 'André Luiz', 'Bubby Montenegro', 'Cavagnole Neto', 'Aluizio Pontes', 'Francisco Rodrigues', 'Irupê Rodrigues', 'Jorge Sales', 'Wilson Sampson', 'Waldir Siebert', 'Néa Simões', 'Zelia Toledo', 'Paulo Valvassori', 'Luiz Vizeu', 'Nana Vogel', 'Eduardo Zá']",3.91,5.0,['Drama'],100,['Brazil'],Portuguese,['Portuguese'],"['E.C. Filmes', 'Marte Filmes']",2801,2470,1317,116,10,12,9,31,44,120,215,598,461,655,2155,https://letterboxd.com/film/the-woman-who-invented-love/
Life of Brian,1979,Terry Jones,"['Graham Chapman', 'John Cleese', 'Terry Gilliam', 'Eric Idle', 'Terry Jones', 'Michael Palin', 'Terence Bayler', 'Carol Cleveland', 'Kenneth Colley', 'Neil Innes', 'Charles McKeown', 'John Young', 'Gwen Taylor', 'Sue Jones-Davies', 'Peter Brett', 'John Case', 'Chris Langham', 'Andrew MacLachlan', 'Bernard McKenna', 'Spike Milligan', 'George Harrison', 'Charles Knode']",3.97,4.0,['Comedy'],94,['UK'],English,"['English', 'Latin']","['Handmade Films', 'Python (Monty) Pictures Limited', 'Cinema International Corporation (CIC)']",458915,64697,121263,2600,730,1569,1273,5484,7259,30992,44651,89115,38145,44153,263371,https://letterboxd.com/film/life-of-brian/
A Banda das Velhas Virgens,1979,"Amacio Mazzaropi, Pio Zamuner","['Amacio Mazzaropi', 'Geny Prado', 'Denise Assunção', 'Heloísa Raso', 'Guiomar Pimenta', 'Cristina Neves', 'Rose Garcia', 'Maria Aparecida Baxter', 'Lélia Barroso Pereira', 'Gilda Valença', 'Renato Restier', 'Paulo Pinheiro', 'André Luiz de Toledo', 'Wilson Damas', 'Marcos Wainberg', 'José Velloni', 'Felipe Levy', 'Péricles Campos', 'Augusto César Guará', 'Crisógenes Pinheiro Faria', 'Edson Gallo', 'Douglas Tadeu', 'Tani', 'José Minelli Filho', 'Antônio Rodi', 'Carlos Garcia', 'José Luiz de Lima', 'Eliseu Tinonin', 'Leonardo Camilo', 'Rennan Kleber', 'Arcílio Custódio', 'Roberval de Paula']",nan,2.5,['Comedy'],100,['Brazil'],Portuguese,['Portuguese'],['Produções Amacio Mazzaropi (PAM Filmes)'],232,77,28,0,6,10,7,19,18,27,19,13,1,16,136,https://letterboxd.com/film/a-banda-das-velhas-virgens/
Grease,1978,Randal Kleiser,"['John Travolta', 'Olivia Newton-John', 'Stockard Channing', 'Jeff Conaway', 'Barry Pearl', 'Michael Tucci', 'Kelly Ward', 'Didi Conn', 'Jamie Donnelly', 'Dinah Manoff', 'Eve Arden', 'Frankie Avalon', 'Joan Blondell', 'Edd Byrnes', 'Sid Caesar', 'Alice Ghostley', 'Dody Goodman', 'Lorenzo Lamas', 'Fannie Flagg', 'Dick Patterson', 'Eddie Deezen', 'Darrell Zwerling', 'Ellen Travolta', 'Annette Charles', 'Dennis Stewart', 'Barbi Alison', 'Helena Andreyko', 'Jennifer Buchanan', 'Carol Culver', 'Cindy DeVore', 'Deborah Fishman', 'Antonia Franceschi', 'Sandra Gray', 'Mimi Lieber', 'Judy Susman', 'Dennis Daniels', 'Larry Dusich', 'John Robert Garrett', 'Daniel Levins', 'Sean Moran', 'Greg Rosatti', 'Andy Roth', 'Lou Spadaccini', 'Andy Tennant', 'Richard Weisman', 'Michael Biehn', 'Wendie Jo Sperber', 'Susan Buckner']",3.48,nan,"['Comedy', 'Romance']",110,"['UK', 'USA']",English,['English'],"['Paramount', 'Robert Stigwood Organization', 'Fine Arts Films']",1106804,103824,221502,7700,3361,8648,6691,30708,32666,119016,92821,125857,27996,77447,525211,https://letterboxd.com/film/grease/
Monty Python and the Holy Grail,1975,"Terry Gilliam, Terry Jones","['Graham Chapman', 'John Cleese', 'Eric Idle', 'Terry Gilliam', 'Terry Jones', 'Michael Palin', 'Connie Booth', 'Carol Cleveland', 'Neil Innes', 'Bee Duffell', 'John Young', 'Rita Davies', 'Avril Stewart', 'Sally Kinghorn', 'Mark Zycon', 'Elspeth Cameron', 'Mitsuko Forstater', 'Sandy Johnson', 'Sandy Rose', 'Romilly Squire', 'Joni Flynn', 'Alison Walker', 'Loraine Ward', 'Anna Lanski', 'Sally Coombe', 'Vivienne MacDonald', 'Yvonne Dick', 'Daphne Darling', 'Fiona Gordon', 'Judy Lamb', 'Tracy Sneddon', 'Joyce Pollner', 'Mary Allen', 'Gloria Graham', 'Sylvia Taylor', 'Iain Banks', 'Julian Doyle', 'Margarita Doyle', 'Charles Knode', 'Zack Matalon', 'Scott Mike', 'William Palin', 'Tom Raeburn', 'Brian Ross', 'Roy Forge Smith', 'Maggie Weston', 'John Thornton']",4.13,4.5,"['Fantasy', 'Comedy', 'Adventure']",91,['UK'],English,"['English', 'French', 'Latin']","['Python (Monty) Pictures Limited', 'Michael White Productions', 'National Film Trustee Company']",755540,101704,236714,7600,1256,2553,1760,7457,8436,38066,52774,133797,67838,105606,419543,https://letterboxd.com/film/monty-python-and-the-holy-grail/
Fantastic Planet,1973,René Laloux,"['Gérard Hernandez', 'Jean Valmont', 'Jennifer Drake', 'Yves Barsacq', 'Jeanine Forney', 'Éric Baugin', 'Jean Topart', 'William Coryn', 'Sylvie Lenoir', 'Philippe Ogouz', 'Irina Tarassov', 'Yvette Robin', 'Michèle Chahan', 'Madeleine Clervanne', 'Poupy de Monneron', 'Max Amyl', 'Denis Boileau', 'Hubert de Lapparent', 'Christian de Tillière', 'Christian Echelard', 'Claude Joseph', 'Pascal Kominakis', 'André Lambert', 'Mark Lesser', 'Serge Netter', 'André Rouyer', 'Jacques Ruisseau', 'Julien Thomast', 'Gilbert Vilhon', 'Paul Villé']",4.02,4.5,"['Animation', 'Science Fiction']",72,"['Czechoslovakia', 'France']",French,['French'],"['Argos Films', 'Les Films Armorial', 'Ina', 'Office de Radiodiffusion Télévision Française', 'Krátký film Praha – Studio Jiřího Trnky']",214556,67468,78256,3700,280,565,512,2304,3415,15099,24012,54318,21051,27014,148570,https://letterboxd.com/film/fantastic-planet/
High Plains Drifter,1973,Clint Eastwood,"['Clint Eastwood', 'Verna Bloom', 'Marianna Hill', 'Mitchell Ryan', 'Jack Ging', 'Stefan Gierasch', 'Ted Hartley', 'Billy Curtis', 'Geoffrey Lewis', 'Scott Walker', 'Walter Barnes', 'Paul Brinegar', 'Richard Bull', 'Robert Donner', 'John Hillerman', 'Anthony James', ""William O'Connell"", 'John Quade', 'Jane Aull', 'Dan Vadis', 'Reid Cruickshanks', 'Jim Gosa', 'Jack Kosslyn', 'Russ McCubbin', 'Belle Mitchell', 'John Mitchum', 'Carl Pitti', 'Chuck Waters', 'Buddy Van Horn']",3.71,3.5,"['Drama', 'Western', 'Mystery']",105,['USA'],English,['English'],"['Malpaso Productions', 'Universal Pictures']",59250,21810,14714,144,139,250,283,1161,1727,6646,9841,13416,4130,3072,40665,https://letterboxd.com/film/high-plains-drifter/
The Act of Seeing with One's Own Eyes,1971,Stan Brakhage,nan,3.9,4.0,['Documentary'],32,['USA'],No spoken language,['No spoken language'],nan,8296,6226,2170,51,46,54,47,143,167,496,550,1097,477,898,3975,https://letterboxd.com/film/the-act-of-seeing-with-ones-own-eyes/
Bang Bang,1971,Andrea Tonacci,"['Paulo César Peréio', 'Abrahão Farc', 'Ezequias Marques', 'Thales Penna', 'Milton Gontijo', 'Jura Otero', 'Luís Otávio Madureira Horta', 'Antonio Naddeo', 'José Aurélio Vieira']",3.8,5.0,"['Fantasy', 'Crime', 'Comedy']",80,['Brazil'],Portuguese,['Portuguese'],['Total Filmes'],2703,2136,856,30,14,17,17,62,63,169,220,451,287,400,1700,https://letterboxd.com/film/bang-bang-1971/
The Song of Moscow,1970,Jonas Mekas,nan,3.44,nan,['Documentary'],3,['USA'],No spoken language,['No spoken language'],nan,1199,264,205,0,2,7,6,36,41,125,108,80,14,16,435,https://letterboxd.com/film/the-song-of-moscow/
Antonio das Mortes,1969,Glauber Rocha,"['Maurício do Valle', 'Odete Lara', 'Othon Bastos', 'Jofre Soares', 'Lorival Pariz', 'Hugo Carvana', 'Rosa Maria Penna', 'Emmanuel Cavalcanti', 'Conceição Senna', 'Mário Gusmão', 'Sante Scaldaferri', 'Vinícius Salvatori', 'Paulo Lima']",3.82,4.0,"['Drama', 'Action', 'Western', 'Crime', 'History']",100,"['Germany', 'Brazil', 'France']",Portuguese,['Portuguese'],"['Mapa Filmes', 'Claude Antoine Films', 'Munich Tele-Pool']",10408,7414,3414,199,25,43,55,156,210,616,898,2044,1195,1885,7127,https://letterboxd.com/film/antonio-das-mortes/
The Red Light Bandit,1968,Rogério Sganzerla,"['Paulo Villaça', 'Helena Ignez', 'Pagano Sobrinho', 'Luiz Linhares', 'Sônia Braga', 'Sérgio Hingst', 'Sérgio Mamberti', 'Ítala Nandi', 'Carlos Reichenbach', 'Ozualdo Ribeiro Candeias', 'Maurice Capovila', 'Miriam Mehler', ""Neville D'Almeida"", 'José Lopes', 'Hélio Aguiar', 'Luís Alberto', 'Armando Barreto', 'Lenoir Bittencourt', 'Lola Brah', 'Júlio Calasso Jr.', 'Renato Consorte', 'Carlos Farah', 'Gaúcho', 'Júlio Grimberg', 'Miroslav Jadrov', 'Antônio Lima', 'Roberto Luna', 'José Marinho', 'Ezequiel Neves', 'Índio Palito', 'Paula Ramos', 'Rogério Sganzerla', 'José Alberto Reis', 'Maurice Segall', 'Renata Souza Dantas', 'Maria Carolina Withaker', 'Gabriel Pereira']",3.91,4.5,"['Crime', 'Thriller']",92,['Brazil'],Portuguese,['Portuguese'],['Urano Filmes'],13470,7174,4811,386,28,52,48,184,225,742,1058,2472,1458,3246,9513,https://letterboxd.com/film/the-red-light-bandit/
The Song of Avila,1967,Jonas Mekas,['Jonas Mekas'],3.56,nan,['Documentary'],3,['USA'],English,['English'],nan,1935,395,472,2,1,8,9,27,67,199,191,184,35,44,765,https://letterboxd.com/film/the-song-of-avila/
Notes on the Circus,1967,Jonas Mekas,nan,3.56,nan,['Documentary'],12,['USA'],No spoken language,['No spoken language'],nan,1867,925,432,1,2,9,9,34,66,174,188,176,49,72,779,https://letterboxd.com/film/notes-on-the-circus/
Hare Krishna,1967,Jonas Mekas,"['Srila Prabhupada', 'Barbara Rubin', 'Philip Corner', 'Allen Ginsberg']",3.4,nan,"['Music', 'Documentary']",4,['USA'],English,['English'],nan,2266,645,434,0,1,17,24,59,115,275,169,135,22,40,857,https://letterboxd.com/film/hare-krishna/
Persona,1966,Ingmar Bergman,"['Bibi Andersson', 'Liv Ullmann', 'Margaretha Krook', 'Gunnar Björnstrand', 'Jörgen Lindström']",4.41,5.0,['Drama'],83,['Sweden'],Swedish,['Swedish'],['SF Studios'],360798,146310,136317,14000,563,896,687,2738,3354,13004,18989,59631,49658,98205,247725,https://letterboxd.com/film/persona/
Django,1966,Sergio Corbucci,"['Franco Nero', 'José Bódalo', 'Loredana Nusciak', 'Ángel Álvarez', 'Eduardo Fajardo', 'Gino Pernice', 'Simón Arriaga', 'Giovanni Ivan Scratuglia', 'Remo De Angelis', 'Rafael Albaicín', 'José Canalejas', 'Luciano Rossi', 'Lucio De Santis', 'José Terrón', 'Yvonne Sanson', 'Flora Carosello', 'Romano Moraschini']",3.79,2.5,"['Action', 'Western']",93,"['Italy', 'Spain']",Italian,['Italian'],"['Tecisa Film', 'B.R.C. Produzione Film']",55019,19171,16003,256,61,148,162,726,1273,5944,9267,13312,3943,3744,38580,https://letterboxd.com/film/django/
Maranhão 66,1966,Glauber Rocha,['José Sarney'],3.67,4.0,['Documentary'],11,['Brazil'],Portuguese,['Portuguese'],"['Difilm', 'Mapa Filmes']",2119,605,412,1,4,4,5,23,26,161,244,458,75,125,1125,https://letterboxd.com/film/maranhao-66/
At Midnight I'll Take Your Soul,1964,José Mojica Marins,"['José Mojica Marins', 'Magda Mei', 'Nivaldo Lima', 'Valéria Vasquez', 'Ilídio Martins Simões', 'Eucaris Moraes', 'Mario Lima', 'Arildo Iruam', 'Genésio de Carvalho', 'Vânia Rangel', 'Graveto', 'Robinson Aielo', 'Avelino Morais', 'Leandro Vieira', 'Antônio Marins', 'Eurípedes da Silva', 'Luiz Gonçalves', 'Carmen Marins', 'Cícero Paulino', 'Waldomiro França', 'Jonny Grégio', 'José Vilar', 'Suzy Barros', 'Tomás Sebastião', 'Iko Galdine', 'Laura Duarte', 'Renato Melo', 'Almir Barbosa', 'Raul Malentaqui', 'Geraldo Bueno', 'Laércio Laurelli']",3.58,4.5,"['Thriller', 'Horror']",83,['Brazil'],Portuguese,['Portuguese'],['Indústria Cinematográfica Apolo'],17381,11443,5496,145,30,52,68,284,466,1720,2373,4346,1409,1843,12591,https://letterboxd.com/film/at-midnight-ill-take-your-soul/
"Black God, White Devil",1964,Glauber Rocha,"['Geraldo del Rey', 'Yoná Magalhães', 'Othon Bastos', 'Sonia dos Humildes', 'Maurício do Valle', 'Lídio Silva', 'João Gama', 'Antônio Pinto']",3.78,5.0,"['Drama', 'Western', 'Crime', 'Adventure']",120,['Brazil'],Portuguese,['Portuguese'],"['Copacabana Filmes', 'Luiz Augusto Mendes Produções Cinematográficas', 'Banco Nacional de Minas Gerais']",26552,18008,8443,603,64,128,161,436,530,1531,1979,4604,2732,5555,17720,https://letterboxd.com/film/black-god-white-devil/
Psycho,1960,Alfred Hitchcock,"['Anthony Perkins', 'Janet Leigh', 'Vera Miles', 'John Gavin', 'Martin Balsam', 'John McIntire', 'Simon Oakland', 'Frank Albertson', 'Patricia Hitchcock', 'Vaughn Taylor', 'Lurene Tuttle', 'John Anderson', 'Mort Mills', 'Fletcher Allen', 'Walter Bacon', 'Kit Carson', 'Francis De Sales', 'George Dockstader', 'George Eldredge', 'Harper Flaherty', 'Sam Flint', 'Virginia Gregg', 'Alfred Hitchcock', 'Paul Jasmin', 'Lee Kass', 'Frank Killmond', 'Ted Knight', 'Pat McCaffrie', 'Hans Moebus', 'Jeanette Nolan', ""Lillian O'Malley"", 'Robert Osborne', 'Fred Scheiwiller', 'Helen Wallace']",4.32,nan,"['Mystery', 'Thriller', 'Horror']",109,['USA'],English,['English'],['Shamley Productions'],1210267,278528,412316,12000,532,1221,863,6059,6977,50288,63576,227998,139897,252744,750155,https://letterboxd.com/film/psycho/
Arnulf Rainer,1960,Peter Kubelka,nan,2.9,2.0,['Drama'],7,['Austria'],No spoken language,['No spoken language'],nan,3894,1504,545,8,217,166,77,168,144,252,161,205,56,161,1607,https://letterboxd.com/film/arnulf-rainer/
Pátio,1959,Glauber Rocha,"['Solon Barreto', 'Helena Ignez']",3.12,4.0,nan,11,['Brazil'],No spoken language,['No spoken language'],nan,1997,487,225,1,8,26,24,138,137,286,115,76,16,29,855,https://letterboxd.com/film/patio/
Vertigo,1958,Alfred Hitchcock,"['James Stewart', 'Kim Novak', 'Barbara Bel Geddes', 'Tom Helmore', 'Henry Jones', 'Raymond Bailey', 'Ellen Corby', 'Konstantin Shayne', 'Lee Patrick', 'Bess Flowers', 'Alfred Hitchcock', 'David Ahdar', 'Sara Taft', 'Ezelle Poule', 'John Benson', 'Paul Bryar', 'Steve Conte', 'Fred Graham', 'Forbes Murray']",4.24,5.0,"['Romance', 'Thriller', 'Mystery']",129,['USA'],English,['English'],"['Paramount', 'Alfred J. Hitchcock Productions']",710130,197881,224097,12000,630,1466,1245,6339,7924,36412,50230,132295,79624,135545,451710,https://letterboxd.com/film/vertigo/
"Rio, Zona Norte",1957,Nelson Pereira dos Santos,"['Grande Otelo', 'Jece Valadão', 'Paulo Goulart', 'Maria Petar', 'Malu Maia', 'Haroldo de Oliveira', 'Artur Vargas Jr.', 'Carlos Aquino', 'Ferreira Maia', 'Washington Fernandes', 'Walkiria Barbosa', 'Erley Freitas', 'Pedro Farah', 'Nicolino Cupello', 'Sérgio Malta', 'Carlos Miranda', 'Mozart Cintra', 'Carlos de Sousa', 'Edson Vitoriano', 'Odair Abrantes', 'Madalena de Jesus', 'Almir Lopes', 'Aloizio Costa', 'Tião Pimentel', 'Mário Luiz Prata', 'Zé Keti', 'Iracema Vitória', 'Turco Fernandinho', 'Ângela Maria']",4.21,5.0,"['Music', 'Drama']",83,['Brazil'],Portuguese,['Portuguese'],['Nelson Pereira dos Santos'],6699,5095,2841,295,5,13,23,40,61,232,377,1028,902,2139,4820,https://letterboxd.com/film/rio-zona-norte/
Seven Samurai,1954,Akira Kurosawa,"['Toshirō Mifune', 'Takashi Shimura', 'Yoshio Inaba', 'Seiji Miyaguchi', 'Minoru Chiaki', 'Daisuke Katō', 'Isao Kimura', 'Keiko Tsushima', 'Yukiko Shimazaki', 'Kamatari Fujiwara', 'Yoshio Kosugi', 'Bokuzen Hidari', 'Yoshio Tsuchiya', 'Kokuten Kōdō', 'Eijirō Tōno', 'Jun Tatara', 'Atsushi Watanabe', 'Toranosuke Ogawa', 'Isao Yamagata', 'Kichijirō Ueda', 'Sôjin Kamiyama', 'Gen Shimizu', 'Keiji Sakakida', 'Shinpei Takagi', 'Shin Ōtomo', 'Toshio Takahara', 'Hiroshi Sugi', 'Hiroshi Hayashi', 'Sachio Sakai', 'Sôkichi Maki', 'Ichirō Chiba', 'Noriko Sengoku', 'Noriko Honma', 'Masanobu Ôkubo', 'Etsuo Saijo', 'Minoru Itō', 'Haruya Sakamoto', 'Gorô Sakurai', 'Hideo Shibuya', 'Kiyoshi Kamoda', 'Senkichi Ōmura', 'Takashi Narita', 'Shōichi Hirose', 'Kôji Uno', 'Masaaki Tachibana', 'Kamayuki Tsubono', 'Taiji Naka', 'Chindanji Miyagawa', 'Shigemi Sunagawa', 'Akira Tani', 'Akio Kusama', 'Ryûtarô Amami', 'Jun Mikami', 'Haruo Nakajima', 'Sanpei Mine', 'Masahide Matsushita', 'Kaneo Ikeda', 'Takuzô Kumagaya', 'Ippei Kawagoe', 'Jirô Suzukawa', 'Junpei Natsuki', 'Kyôichi Kamiyama', 'Haruo Suzuki', 'Gorô Amano', 'Akira Kitchôji', 'Kōji Iwamoto', 'Hiroshi Akitsu', 'Akira Yamada', 'Kazuo Imai', 'Eisuke Nakanishi', 'Toku Ihara', 'Hideo Ôtsuka', 'Shû Ôe', 'Yasuhisa Tsutsumi', 'Yasumasa Ônishi', 'Tsuneo Katagiri', 'Megeru Shimoda', 'Masayoshi Kawabe', 'Shigeo Katô', 'Yoshikazu Kawamata', 'Takeshi Seki', 'Haruko Toyama', 'Tsuruko Mano', 'Matsue Ono', 'Tsurue Ichimanji', 'Masako Ôshiro', 'Kyōko Ozawa', 'Michiko Kadono', 'Toshiko Nakano', 'Shizuko Azuma', 'Michiko Kawabe', 'Yûko Togawa', 'Yayoko Kitano', 'Kyoko Mori', 'Misao Suyama', 'Toriko Takahara', 'Takeshi Katō', 'Tatsuya Nakadai', 'Ken Utsui', 'Ren Yamamoto']",4.6,nan,"['Drama', 'Action']",207,['Japan'],Japanese,['Japanese'],['TOHO'],357299,149322,138381,9500,226,360,252,1290,1508,8130,12266,47562,46977,118384,236955,https://letterboxd.com/film/seven-samurai/
Day of the Fight,1951,Stanley Kubrick,"['Vincent Cartier', 'Walter Cartier', 'Nat Fleischer', 'Bobby James', 'Judy Singer', 'Stanley Kubrick', 'Alexander Singer', 'Douglas Edwards']",3.03,2.5,['Documentary'],13,['USA'],English,['English'],['RKO Radio Pictures'],18032,4122,2246,0,47,193,245,1132,2032,3863,1236,619,65,150,9582,https://letterboxd.com/film/day-of-the-fight/
Bicycle Thieves,1948,Vittorio De Sica,"['Lamberto Maggiorani', 'Enzo Staiola', 'Lianella Carell', 'Elena Altieri', 'Gino Saltamerenda', 'Giulio Chiari', 'Vittorio Antonucci', 'Michele Sakara', 'Carlo Jachino', 'Emma Druetti', 'Giulio Battiferri', 'Sergio Leone', 'Mario Meniconi', 'Checco Rissone', 'Peppino Spadaro', 'Nando Bruno', 'Eolo Capritti', 'Memmo Carotenuto', 'Umberto Spadaro', 'Fausto Guerzoni', 'Piero Heliczer', 'Massimo Randisi']",4.31,5.0,['Drama'],89,['Italy'],Italian,['Italian'],['Produzioni De Sica'],261613,94639,81217,2800,146,384,366,1662,2285,10749,17723,51249,35061,48824,168449,https://letterboxd.com/film/bicycle-thieves/
Man with a Movie Camera,1929,Dziga Vertov,"['Mikhail Kaufman', 'Elizaveta Svilova']",4.28,5.0,['Documentary'],68,['USSR'],No spoken language,['No spoken language'],['VUFKU'],103712,49077,32073,920,210,402,315,1012,1187,4431,5653,15946,10273,20335,59764,https://letterboxd.com/film/man-with-a-movie-camera/
A Trip to the Moon,1902,Georges Méliès,"['Georges Méliès', 'Bleuette Bernon', 'François Lallement', 'Henri Delannoy', 'Victor André', 'Brunnet', 'Depierre', 'Farjaut', 'Kelm', ""Jehanne d'Alcy"", 'Jules-Eugène Legris']",3.99,4.0,"['Science Fiction', 'Adventure']",15,['France'],No spoken language,['No spoken language'],['Star-Film'],371456,46780,80735,358,585,1170,793,3775,4514,23180,22073,60824,14432,40284,171630,https://letterboxd.com/film/a-trip-to-the-moon/
Washerwomen on the River,1897,"Auguste Lumière, Louis Lumière",nan,3.44,nan,['Documentary'],1,['France'],No spoken language,['No spoken language'],['Lumière'],3149,507,496,1,22,55,35,80,108,251,119,149,62,211,1092,https://letterboxd.com/film/washerwomen-on-the-river/
The Kiss,1896,William Heise,"['May Irwin', 'John C. Rice']",3.1,nan,"['Drama', 'Romance']",1,['USA'],No spoken language,['No spoken language'],['Edison Studios'],22495,3150,2114,3,186,298,190,729,891,2073,635,681,83,512,6278,https://letterboxd.com/film/the-kiss-1896/
Baby's Meal,1895,Louis Lumière,"['Auguste Lumière', 'Andrée Lumière', 'Mrs. Auguste Lumière']",3.12,3.5,"['Documentary', 'Family']",1,['France'],No spoken language,['No spoken language'],['Lumière'],18658,2264,1494,1,91,203,143,516,807,1559,478,514,93,318,4722,https://letterboxd.com/film/babys-meal/
The Kiss,1882,Eadweard Muybridge,nan,3.56,nan,['Documentary'],1,['USA'],No spoken language,['No spoken language'],nan,12879,1773,2582,11,147,163,107,277,293,936,491,725,150,1183,4472,https://letterboxd.com/film/the-kiss-1882/
