Film_title,Release_year,Director,Cast,Average_rating,Owner_rating,Genres,Runtime,Countries,Original_language,Spoken_languages,Studios,Watches,List_appearances,Likes,Fans,½,★,★½,★★,★★½,★★★,★★★½,★★★★,★★★★½,★★★★★,Total_ratings,Film_URL
Malignant,2021,James Wan,"['Annabelle Wallis', 'Maddie Hasson', 'George Young', 'Michole Briana White', 'Susanna Thompson', 'Ingrid Bisu', 'Jean Louisa Kelly', 'Jake Abel', 'Jacqueline McKenzie', 'Christian Clemenson', 'Amir Aboulela', 'Mercedes Colon', 'Ruben Pla', 'Jon Lee Brody', 'Paula Marshall', 'Zoë Bell', 'Shaunte Lynette Johnson', 'Natalia Safran', 'Mike Mendez', 'Randy Haynie', 'Cord Walker', 'Jesus Trujillo', 'Lisa Catara', 'Danielle Nottingham', 'Ray Chase', 'Marina Mazepa', 'Mckenna Grace', 'Madison Wolfe', 'Andy Bean', 'Patricia Velásquez', 'Patrick Cox', 'Gregory Garcia', 'Emir García', 'Renee Harbek', 'Janet Hsieh', 'Paul Mabon', 'Gino Montesinos', 'Josh Rutgers', 'Halston Van Atta', 'Louise Van Veenendaal', 'Kalina Vanska', 'Christina Veronica', 'Rachel Winfree']",3.06,2.0,['Horror'],111,['USA'],English,['English'],"['New Line Cinema', 'Atomic Monster', 'Starlight Media', 'My Entertainment']",422635,94959,100625,1000,6651,13110,11458,32696,33873,74250,64573,64678,16355,17992,335636,https://letterboxd.com/film/malignant-2021/
Star Wars: The Rise of Skywalker,2019,J.J. Abrams,"['Carrie Fisher', 'Mark Hamill', 'Daisy Ridley', 'Adam Driver', 'John Boyega', 'Oscar Isaac', 'Anthony Daniels', 'Naomi Ackie', 'Domhnall Gleeson', 'Richard E. Grant', ""Lupita Nyong'o"", 'Keri Russell', 'Joonas Suotamo', 'Kelly Marie Tran', 'Ian McDiarmid', 'Billy Dee Williams', 'Greg Grunberg', 'Shirley Henderson', 'Billie Lourd', 'Dominic Monaghan', 'Hassan Taj', 'Lee Towersey', 'Brian Herring', 'Dave Chapman', 'Richard Guiver', 'Lynn Robertson Bruce', 'J.J. Abrams', 'Claire Roi Harvey', 'Richard Coombs', 'Matt Denton', 'Nick Kellington', 'Mandeep Dhillon', 'Alison Rose', 'Amanda Lawrence', 'Tanya Moodie', 'Simon Paisley Day', 'Geff Francis', 'Amanda Hale', 'Amir El-Masry', 'Aidan Cook', 'Martin Wilde', 'Anton Simpson-Tidy', 'Lukaz Leong', 'Tom Rodgers', 'Joe Kennard', 'Ashley Beck', 'Bryony Miller', 'Cyril Nri', 'Angela Christian', 'Indra Ové', 'Richard Bremmer', 'Richard Durden', 'Andrew Havill', 'Nasser Memarzia', 'Patrick Kennedy', 'Aaron Neil', 'Joe Hewetson', 'Raghad Chaar', 'Mimî M. Khayisa', 'Tom Wilton', 'Chris Terrio', 'Kiran Shah', 'Debra Wilson', 'Josef Altin', 'Vinette Robinson', 'Mike Quinn', 'Bill Kipsang Rotich', 'Ann Firbank', 'Diana Kent', 'Warwick Davis', 'Harrison Davis', 'Elliot Hawkes', 'Philicia Saunders', 'John Williams', 'Nigel Godrich', 'Dhani Harrison', 'J.D. Dillard', 'Dave Hearn', 'Rochenda Sandall', 'Jacob Fortune-Lloyd', 'Andreea Diac', 'Liam Cook', 'Denis Lawson', 'Carolyn Hennesy', 'Paul Kasey', 'Matthew Wood', 'James Earl Jones', 'Andy Serkis', 'Josefine Irrera Jackson', 'Cailey Fleming', 'Jodie Comer', 'Billy Howle', 'Hayden Christensen', ""Olivia d'Abo"", 'Ashley Eckstein', 'Jennifer Hale', 'Samuel L. Jackson', 'Ewan McGregor', 'Alec Guinness', 'Frank Oz', 'Angelique Perrin', 'Freddie Prinze Jr.', 'Liam Neeson', 'Harrison Ford', 'Lin-Manuel Miranda', 'Ed Sheeran', 'Gerald W. Abrams', 'Jeff Garlin', 'Karl Urban', 'Kevin Smith']",2.36,2.5,"['Adventure', 'Action', 'Science Fiction']",142,['USA'],English,['English'],"['Lucasfilm Ltd.', 'Bad Robot']",1415069,185572,182785,510,71051,101009,69429,154166,106301,169459,75613,77492,14218,30562,869300,https://letterboxd.com/film/star-wars-the-rise-of-skywalker/
Jojo Rabbit,2019,Taika Waititi,"['Roman Griffin Davis', 'Thomasin McKenzie', 'Scarlett Johansson', 'Taika Waititi', 'Sam Rockwell', 'Rebel Wilson', 'Alfie Allen', 'Stephen Merchant', 'Archie Yates', 'Luke Brandon Field', 'Joe Weintraub', 'Brian Caspe', 'James McVan', 'Judith Georgi', 'Victoria Hogan', 'Bethany Adams', 'Iva Šindelková', 'Matej Seifert', 'Trish Osmond', 'Odeta Cali', 'Samuel Bogner', 'Robert East', 'Curtis Matthew', 'Hardy Griffin Davis', 'Christian Howlings', 'Billy Rayner', 'Gabriel Andrews', 'Stanislav Callas', 'Sam Haygarth', 'Issy Stewart', 'Gilby Griffin Davis', 'Adolf Hitler']",4.03,4.0,"['War', 'Drama', 'Comedy']",108,"['Czechia', 'New Zealand', 'USA']",English,"['English', 'German']","['Fox Searchlight Pictures', 'Defender Films', 'Piki Films', 'TSG Entertainment', 'Czech Anglo Productions']",1914778,222931,768399,19000,3419,7599,5182,26103,27511,134951,171851,454739,201970,323117,1356442,https://letterboxd.com/film/jojo-rabbit/
Joker,2019,Todd Phillips,"['Joaquin Phoenix', 'Robert De Niro', 'Zazie Beetz', 'Frances Conroy', 'Brett Cullen', 'Shea Whigham', 'Bill Camp', 'Glenn Fleshler', 'Leigh Gill', 'Josh Pais', 'Rocco Luna', 'Marc Maron', 'Sondra James', 'Murphy Guyer', 'Douglas Hodge', 'Dante Pereira-Olson', 'Carrie Louise Putrello', 'Sharon Washington', 'Hannah Gross', 'Frank Wood', 'Brian Tyree Henry', 'April Grace', 'Mick Szal', 'Carl Lundstedt', 'Michael Benz', 'Ben Warheit', 'Gary Gulman', 'Sam Morril', 'Chris Redd', 'Mandela Bellamy', 'Demetrius Dotson II', 'Greer Barnes', 'Ray Iannicelli', 'Bryan Callen', 'Peter Hans Benson', 'Vito Gerbino', 'Adam Quezada', 'Xavyer Ureña', 'Evan Rosado', 'Damian Emmanuel', 'Mike Troll', 'Jane Fergus', 'David Gibson', 'Tony D. Head', 'Jeff McCarthy', 'Kim Brockington', 'Troy Roberts', 'Lou Young', 'Michael-Scott Druckenmiller', 'Craig Austin', 'John Cenatiempo', 'Danny Schoch', 'Keith Buterbaugh', 'James Ciccone', 'Rich Campbell', 'Roger Squitero', 'Steven Elson', 'Graham Mabry', 'John Alldred', 'Alonzo Wright', 'Jack Wilkins', 'Richard Baratta', 'Mary Kate Malat', 'Adrienne Acevedo Lovette', 'Justin Theroux', 'Alissa Bourne', 'Jamaal Burcher', 'John Cashin', 'Jason John Cicalese', 'Brendan Patrick Connor', 'Blaise Corrigan', 'Dennis Jay Funny', 'James P. Harkins', 'Joseph Hernandez', 'Ben Heyman', 'Graham Maby', 'Jesse Schratz', 'Isabella Ferreira', 'Shade Rupe']",3.84,5.0,"['Crime', 'Drama', 'Thriller']",122,"['Canada', 'USA']",English,['English'],"['Warner Bros. Pictures', 'Joint Effort', 'Village Roadshow Pictures', 'Bron Studios', 'DC Films']",3758685,288877,1534915,23000,9926,25831,16555,87902,74911,340044,311501,838137,303159,608437,2616403,https://letterboxd.com/film/joker-2019/
Once Upon a Time… in Hollywood,2019,Quentin Tarantino,"['Leonardo DiCaprio', 'Brad Pitt', 'Margot Robbie', 'Emile Hirsch', 'Margaret Qualley', 'Timothy Olyphant', 'Julia Butters', 'Austin Butler', 'Dakota Fanning', 'Bruce Dern', 'Mike Moh', 'Luke Perry', 'Damian Lewis', 'Al Pacino', 'Nicholas Hammond', 'Samantha Robinson', 'Rafał Zawierucha', 'Lorenza Izzo', 'Costa Ronin', 'Damon Herriman', 'Lena Dunham', 'Madisen Beaty', 'Mikey Madison', 'James Landry Hébert', 'Maya Hawke', 'Victoria Pedretti', 'Sydney Sweeney', 'Harley Quinn Smith', 'Dallas Jay Hunter', 'Kansas Bowling', 'Parker Love Bowling', 'Cassidy Vick Hice', 'Ruby Rose Skotchdopole', 'Danielle Harris', 'Josephine Valentina Clark', 'Scoot McNairy', 'Clifton Collins Jr.', 'Marco Rodríguez', 'Ramón Franco', 'Raúl Cardona', 'Courtney Hoffman', 'Dreama Walker', 'Rachel Redleaf', 'Rebecca Rittenhouse', 'Rumer Willis', 'Spencer Garrett', 'Clu Gulager', 'Martin Kove', 'Rebecca Gayheart', 'Kurt Russell', 'Zoë Bell', 'Michael Madsen', 'Perla Haney-Jardine', 'James Remar', 'Monica Staggs', 'Craig Stark', 'Keith Jefferson', 'Omar Doom', 'Kate Berlant', 'Victoria Truscott', 'Allison Yaple', 'Bruce Del Castillo', 'Brenda Vaccaro', 'Lew Temple', 'Daniella Pick', 'David Steen', 'Mark Warrack', 'Gabriela Flores', 'Heba Thorisdottir', 'Breanna Wing', 'Kenneth Sonny Donato', 'Sergio Gonzalez', ""Casey O'Neill"", 'Michael Graham', 'Emile Williams', 'Vincent Laresca', 'JLouis Mills', 'Gilbert Saldivar', 'Maurice Compte', 'Eddie Perez', 'Hugh McCallum', 'Zander Grable', 'Ed Regine', 'Michael Bissett', 'Lenny Langley Jr.', 'Gillian M. Berrow', 'Chad Ridgely', 'Chic Daniel', 'Corey Burton', 'Michaela Sprague', 'Ryan Ramirez', 'Kayla Jenee Radomski', 'Kerry Westcott', 'William DeAtley', 'Brianna Joy Chomer', 'Quentin Tarantino', 'Johnny Otto', 'Gina Aponte', 'Adam West', 'Burt Ward', 'Katarína Paveleková', 'Weston Razooli']",3.76,5.0,"['Drama', 'Thriller', 'Comedy']",162,"['China', 'UK', 'USA']",English,"['English', 'Italian', 'Spanish']","['Heyday Films', 'Columbia Pictures', 'Bona Film Group']",2470257,330283,861879,19000,6725,22344,11581,75180,59959,279663,262946,542512,204782,271121,1736813,https://letterboxd.com/film/once-upon-a-time-in-hollywood/
Parasite,2019,Bong Joon-ho,"['Song Kang-ho', 'Lee Sun-kyun', 'Cho Yeo-jeong', 'Choi Woo-shik', 'Park So-dam', 'Lee Jung-eun', 'Jang Hye-jin', 'Park Myung-hoon', 'Jung Ji-so', 'Jung Hyeon-jun', 'Park Keun-rok', 'Jung Yi-seo', 'Cho Jae-myung', 'Jeong Ik-han', 'Kim Kyu-baek', 'Ahn Seong-bong', 'Yoon Young-woo', 'Park Jae-wook', 'Lee Dong-yong', 'Jeon Eun-mi', 'Kim Geon', 'Lee Joo-hyung', 'Lee Ji-hye', 'Kim Bo-ryeong', 'Park Hye-sook', 'Baek Seung-hwan', 'Riccardo Ferraresso', 'Ko Kwan-jae', 'Lee Si-hoon', 'Seo Bok-hyeon', 'Shim Soo-mi', 'Yoon Hye-ree', 'Andreas Fronk', 'Anna Elisabeth Rihlmann', 'Rosie Peralta', 'Shin Seung-min', 'Park Seo-jun', 'Kwak Sin-ae', 'Choi Jeong-hyun', 'Kim Ha-eon', 'Lee Eun-hee', 'Choi Ji-won', 'Park Jae-wan', 'Hwang In-gyeong', 'Kim Yeong-jo', 'Kim Jung-woo', 'Lee Sang-kyung', 'Lee Si-hoo', 'Ahn Jin-sang']",4.56,5.0,"['Comedy', 'Thriller', 'Drama']",133,['South Korea'],Korean,"['Korean', 'English', 'German']",['Barunson E&A'],3760185,516583,2155186,89000,2477,5467,2298,15243,12691,91688,106575,570974,473080,1532249,2812742,https://letterboxd.com/film/parasite-2019/
Incredibles 2,2018,Brad Bird,"['Craig T. Nelson', 'Holly Hunter', 'Sarah Vowell', 'Huck Milner', 'Samuel L. Jackson', 'Bob Odenkirk', 'Catherine Keener', 'Jonathan Banks', 'Brad Bird', 'John Ratzenberger', 'Eli Fucile', 'Nicholas Bird', 'Bill Wise', 'Michael Bird', 'Sophia Bush', 'Phil LaMarr', 'Paul Eiding', 'Isabella Rossellini', 'Barry Bostwick', 'Adam Rodriguez', 'Jere Burns', 'Kimberly Adair Clark', 'Usher', 'Adam Gates', 'Michael B. Johnson', 'A.J. LoCascio', 'Alyson Stoner', 'Andrew Kishino', 'Austin Madison', 'Brian Dluhy', 'Cathy Cavadini', 'Dave Fennoy', 'David Cowgill', 'Debi Derryberry', 'Fred Tatasciore', 'Teddy Newton', 'Dennis Singletary', 'Diamond White', 'Eddie Frierson', 'Grace Geller', 'Greg Dykstra', 'Jackie Gonneau', 'Jacqueline Pinol', 'Jean Gilpin', 'Matthew Wood', 'Steve Blum', 'Wally Wingert', 'Max Mittelman']",3.44,nan,"['Animation', 'Adventure', 'Family', 'Action']",118,['USA'],English,['English'],"['Walt Disney Pictures', 'Pixar']",1658035,130740,322618,260,2718,9245,9514,51736,60935,213965,172751,217926,45978,73025,857793,https://letterboxd.com/film/incredibles-2/
mother!,2017,Darren Aronofsky,"['Jennifer Lawrence', 'Javier Bardem', 'Ed Harris', 'Michelle Pfeiffer', 'Brian Gleeson', 'Domhnall Gleeson', 'Jovan Adepo', 'Amanda Chiu', 'Patricia Summersett', 'Eric Davis', 'Raphael Grosz-Harvey', 'Emily Hampshire', 'Abraham Aronofsky', 'Luis Oliva', 'Stephanie Ng Wan', 'Chris Gartin', 'Stephen McHattie', 'Ambrosio De Luca', 'Gregg Bello', 'Arthur Holden', 'Henry Kwok', 'Alex Bisping', 'Koumba Ball', 'Robert Higden', 'Elizabeth Neale', 'Kristen Wiig', 'Scott Humphrey', 'Marcia Jean Kurtz', 'Anton Koval', 'Carolyn Fe', 'Anana Rydvald', 'Cristina Rosato', 'Pierre Simpson', 'Mylene Savoie', 'Gitz Crazyboy', ""Shaun O'Hagan"", 'Sabrina Campilii', 'Stanley B. Herman', 'Mizinga Mwinga', 'Genti Bejko', 'Andreas Apergis', 'Julianne Jain', 'Julien Irwin Dupuy', 'Bronwen Mantel', 'Amanda Warren', 'Mason Franklin', 'Laurence Leboeuf', 'Sarah-Jeanne Labrosse', 'Xiao Sun', 'Melissa Toussaint', 'Fred Nguyen Khan', 'Danny MAlin', 'Adam Bernett', 'Bineyam Girma', 'Oliver Koomsatira', 'Mercedes Leggett', 'Alain Chanoine', 'Kimberly Laferriere', 'Deena Aziz', 'Izabela Dąbrowska', 'Hamza Haq', 'Vitali Makarov', 'Daniela Sandiford', 'Nathaly Thibault', 'Chloë Bellande', 'Nobuya Shimamoto']",3.47,3.5,"['Drama', 'Horror', 'Thriller']",121,['USA'],English,['English'],"['Paramount', 'Protozoa Pictures']",808443,140877,211970,7600,11595,19535,11169,36925,31662,87993,84040,140088,51509,84651,559167,https://letterboxd.com/film/mother-2017/
Okja,2017,Bong Joon-ho,"['Tilda Swinton', 'Ahn Seo-hyun', 'Paul Dano', 'Jake Gyllenhaal', 'Lily Collins', 'Steven Yeun', 'Giancarlo Esposito', 'Devon Bostick', 'Byun Hee-bong', 'Yoon Je-moon', 'Shirley Henderson', 'Daniel Henshall', 'Choi Woo-shik', 'Sheena Kamal', 'Michael Mitton', 'Colm Hill', 'Kathryn Kirkpatrick', 'Jose Carias', 'Nancy Amelia Bell', 'Lee Jung-eun', 'Kim Jae-in', 'Choi Hee-seo', 'Jang Ji-woong', 'Lee Bong-ryeon', 'Park Ki-seon', 'Yoon Kyung-ho', 'Cho Wan-ki', 'Kyul Hwi', 'Kwak Jin-seok', 'Park Ji-hoon', 'Lee Jae-hyeok', 'Clayton Elliot Jones', 'Seoyoung Lim', 'Jungsook Park', 'Jooman Hong', 'Kyungwook Lim', 'Seungchang Lee', 'Byeonghee Lee', 'Hyunwoo Choi', 'Kim Moon-hak', 'Park Keun-rok', 'Daehyun Kim', 'Gwangjae Woo', 'Wonjin Jang', 'Hyunzun Yu', 'Yangwon Kim', 'Yonghee Kim', 'Dylan Ratigan', 'Milo Shandel', 'Mikaela Kingsbury', 'Sangyoon Lee', 'Bae Young-ran', 'Park Jeong-gi', 'Yoon Jung-ro', 'Kim Woo-hyeon', 'Kim Chul-moo', 'Seo Woo-sik', 'Yerin Shin', 'Erik De Boer', 'Stephen Clee', 'Pavel Hajek', 'David Congourdeau Nicolas', 'Lucas Körmer', 'Ahn Seong-bong', 'Timmo Polajev', 'Steven Garr', 'David Bloom', 'Cory Gruter-Andrew', 'Barbara Wallace', 'Frans Weterrings IV', 'Boyd Ferguson', 'Niall Cunningham', 'Marian Volk', 'Conor Reeves', 'Adam Auslander', 'Waris Ahluwalia', 'T. Sahara Meer', 'J.C. Williams', 'Hye-Jo Yu', 'Lorne Edward Oliver', 'Alex Kabel', 'Amir Ardalan Latifi', 'Jose Vargas', 'Elizabeth Urrea', 'Luis Javier', 'Phillip Garcia', 'Andreas Fronk', 'Jack Lyons', 'Bettina Skye', 'Kristoffe Brodeur', 'Myles Humphus', 'Lena Avgust', 'Jamar Greene', 'Michael D. Joseph', 'Eha Urbsalu', 'Rebecca Husain', 'Carl Montoya', 'Martin Lo Rimorin', 'Amber Snow', 'Ann Evans', 'Rickland Powell', 'Michelle Clarke-Brown', 'Justin McGriff', 'Lynn Marocola', 'Jason Scott Nelson']",3.7,nan,"['Drama', 'Science Fiction', 'Adventure']",122,"['South Korea', 'USA']",English,"['English', 'Spanish', 'Korean']","['Kate Street Picture Company', 'Plan B Entertainment', 'Lewis Pictures', 'Next Entertainment World']",541270,75566,133799,1300,1214,3038,2449,11745,15230,59388,77924,110952,32447,35295,349682,https://letterboxd.com/film/okja/
Baby Driver,2017,Edgar Wright,"['Ansel Elgort', 'Kevin Spacey', 'Lily James', 'Jon Hamm', 'Jamie Foxx', 'Jon Bernthal', 'Eiza González', 'Flea', 'CJ Jones', 'Lanny Joon', 'Micah Howard', 'Morgan Brown', 'Morse Diggs', 'Sky Ferreira', 'Lance Palmer', 'Hudson Meek', 'Viviana Chavez', 'Hal Whiteside', 'Clay Donahue Fontenot', 'Brigitte Kali Canales', 'Patrick Walker', 'Ben VanderMey', 'David Robert Lewis', 'Big Boi', 'Killer Mike', 'Brogan Hall', 'Allison King', 'R. Marcos Taylor', 'Paul Williams', 'Joe Loya', 'Andy McDermott', 'Christopher Beanland', 'Andrea Frye', 'Thomas E. Haynes', 'Russell B. Spencer', 'Cynne Simpson', 'Keith Hudson', 'Sidney Sewell', 'Thurman Sewell', 'Elijah Everett', 'Jon Spencer', 'Walter Hill', 'Wilbur Fitzgerald', 'Jeff Chase', 'Shellita Boxie', 'Marshall Choka', 'Juliette Sicard', 'Marvin E. West', 'Connie Lee', 'James Blackshear', 'Erica Frene', 'Elizabeth Davidovich', 'Duke Jackson', 'Colin Lacativa', 'Trey McGriff', 'Donald K. Overstreet', 'Danny Le Boyer', 'David Conk', 'Troy Faruk', 'Mark Smith', 'Kenneth Manos', 'Nathaniel Perry', 'Kent Wagner', 'Whit Whitman', 'Perry Zulu Jr.', 'Chad Joyce']",3.72,4.5,"['Crime', 'Action']",113,"['UK', 'USA']",English,['English'],"['Big Talk Studios', 'Working Title Films', 'Working Title Films']",2555553,206417,896084,27000,4833,16371,9678,67248,58845,300373,272917,533672,169555,240576,1674068,https://letterboxd.com/film/baby-driver/
Doctor Strange,2016,Scott Derrickson,"['Benedict Cumberbatch', 'Chiwetel Ejiofor', 'Rachel McAdams', 'Benedict Wong', 'Mads Mikkelsen', 'Tilda Swinton', 'Michael Stuhlbarg', 'Benjamin Bratt', 'Scott Adkins', 'Zara Phythian', 'Alaa Safi', 'Katrina Durden', 'Topo Wresniwiro', 'Umit Ulgen', 'Linda Louise Duan', 'Mark Anthony Brighton', 'Meera Syal', 'Amy Landecker', 'Adam Pelta-Pauls', 'Sarah Malin', 'Eben Young', 'Kobna Holdbrook-Smith', 'Elizabeth Healey', 'Guillaume Faure', 'Daniel Dow', 'Stan Lee', 'Ezra Faroque Khan', 'Kimberly Van Luin', 'Pat Kiernan', 'Raj Awasti', 'Jill Buchanan', 'Daniel Eghan', 'Juani Feliz', 'Mo Idriss', 'Tamika Katon-Donegal', 'Pezh Maan', 'Kei Miura', 'Cameron Moon', 'Emeson Nwolie', 'Clem So', 'Chris Hemsworth', 'Samantha Russell', 'Tina Simmons']",3.44,nan,"['Action', 'Adventure', 'Fantasy']",115,['USA'],English,['English'],['Marvel Studios'],2146631,214762,510137,1900,3736,13097,10587,60985,74502,298313,253338,323295,60696,110757,1209306,https://letterboxd.com/film/doctor-strange-2016/
La La Land,2016,Damien Chazelle,"['Ryan Gosling', 'Emma Stone', 'John Legend', 'Rosemarie DeWitt', 'J.K. Simmons', 'Amiée Conn', 'Terry Walters', 'Thom Shelton', 'Cinda Adams', 'Callie Hernandez', 'Jessica Rothe', 'Sonoya Mizuno', 'Claudine Claudio', 'Jason Fuchs', 'D.A. Wallach', 'Trevor Lissauer', 'Olivia Hamilton', 'Anna Chazelle', 'Marius de Vries', 'Finn Wittrock', 'Josh Pence', 'Nicole Coulon', 'Damon Gupton', 'Christopher Michael Stevens', 'Keith Harris', 'Kaveh Rastegar', 'David Douglas', 'Miles Anderson', 'Bobo Chang', 'Meagen Fay', 'John Hindman', 'Valarie Rae Miller', 'Nicole Wolf', 'Corrin Evans', 'Kiff VandenHeuvel', 'Tom Everett Scott', 'Hemky Madera', 'Zoë Hall', 'Dempsey Pappion', ""Clifton 'Fou Fou' Eddie"", 'Cal Bennett', 'Nedra Wheeler', 'Javier Gonzalez', 'Khirye Tyler', 'Briana Lee', 'Shaylah J. Stevens', 'Natalie Imani', 'Camryn Ray Cavaliero', 'Sandra Rosko', 'Arthur Horowitz', 'Reshma Gajjar', 'Candice Coke', 'Hunter Hamilton', 'Damian Gomez', 'Amanda Balen', 'Lou Becker', 'Dominic Chaiduang', 'Cindera Che', 'Chris Moss', 'Marissa Labog', 'Tiffany Daniels', 'Melinda Sullivan', 'Stephanie Landwehr', 'Britt Stewart', 'Clarice Ordaz', 'Nathan Prevost', 'Mecca Vazie Andrews', 'Scott Hislop', 'KC Monnie', 'Krystal Ellsworth', 'Sarah Mitchell', 'Khasan Brailsford', 'Morgan Larson', 'Becca Sweitzer', 'Gakenia Muigai', 'Michael Stein', 'Mario Diaz', 'Julie Schmid', 'Samantha Abrantes', 'Lexie Contursi', 'Eartha Robinson', 'Sybil Azur', 'Tara Nicole Hughes', 'Kayla Kalbfleisch', 'Martha Nichols', 'Anthony Marciona', 'Bill Prudich', 'Robert Roldan', 'Ryan Novak', 'Demian Boergadine', 'Gustavo Vargas', 'Robert Haynes', 'Jesse Houk', 'Ana Flavia Gavlak', 'Kristin Slaysman', 'Cameron Brinkman', 'Jordan Ray Fox', 'C.J. Stussi', 'Margaret Newborn', 'Nadia Tumanova', 'Crystal Nichol', 'Kristin Elliott', 'Andrea Lareo', 'Christopher Aber', 'Anna Lunberry', 'Shannon Leann', 'Jenna Curtis', 'Noah James', 'Tommy Cooley', 'Morgan Cohen', 'Jeremy Nathan Tisser', 'Patty Tobin', 'Heather Turman', 'Ottavio Taddei', 'April Martucci', 'Trent Kerpsack', 'Kaye L. Morris', 'Vince Donvito', 'Steffen Dziczek', 'Melvin LaThomas Brimm', 'Kelly Kennedy', 'Destinee Handly', 'Tommy Otis', 'Doran Butler', 'Matt Cady', 'Carol Connors', 'Patrick Cook', ""Aaron 'Deuce' Cooke"", 'Bubba Dean Rambo', 'Nick Drago', 'Shaun Evaristo', 'Dana Fukagawa', 'Daniel Gaymon', 'Liz Imperio', 'Casey Johansen', 'Cris Judd', 'Yoori Kim', 'Bradley M. Rapier', 'Dana Wilson', 'Terrance Yates', 'Tracy Shibata', 'Dominique Domingo', 'Asiel Hardison', 'Corey Anderson', 'Nick Baga', 'Leah Adler', 'Noel Bajandas', 'Denzel Chisolm', 'Montana Efaw', 'Natalie Gilmore', 'Shannon Holtzapffel', 'Galen Hooks', 'Jeremy Hudson', 'George Lawrence Jr.', 'Scott Myrick', 'Cassidy Noblett', 'Brittany Parks', 'Víctor Rojas', 'Tony Bellissimo', 'Ryan Ramirez', 'Catalina Cat Rendic', 'Bryan Tanaka', 'Ava Bernstine-Mitchell', 'Quinn Lipton', 'Monie Adamson', 'Matthew Aylward', 'McKenzie Anderson', 'Pamela Chu', 'Mallauri Esquibel', 'Michael Higgins', 'Chris Jarosz', 'Matthew Kazmierczak', 'Paul Kirkland', 'Megan Lawson', 'Michael Munday', ""Brandon O'Neal"", 'Chelsea Thedinga', 'Danny Valle', 'Emily Williams', 'Deniz Altunay', 'Holly Houk', 'Clarence Robinson', 'Dapo Torimiro', 'Sasha Fine', 'Eren Kayakıran', 'Ali Arda Özdeniz', 'Phillip E. Walker', 'Susie Ganiere', 'Lynn Moore', 'Nilla Elizabeth Watkins', 'Andres Perez-Molina', 'Milica Govich', 'Frederick Keeve', 'Amanda Fields']",4.08,nan,"['Drama', 'Comedy', 'Music', 'Romance']",129,"['Hong Kong', 'USA']",English,['English'],"['Summit Entertainment', 'Black Label Media', 'Gilbert Films', 'Impostor Pictures', 'Marc Platt Productions', 'TIK Films']",3154611,456403,1399384,201000,10758,33350,11139,79694,45535,233085,177653,533348,283627,843462,2251651,https://letterboxd.com/film/la-la-land/
Captain Fantastic,2016,Matt Ross,"['Viggo Mortensen', 'George MacKay', 'Samantha Isler', 'Annalise Basso', 'Nicholas Hamilton', 'Shree Crooks', 'Charlie Shotwell', 'Trin Miller', 'Frank Langella', 'Ann Dowd', 'Steve Zahn', 'Kathryn Hahn', 'Elijah Stevenson', 'Teddy Van Ee', 'Erin Moriarty', 'Missi Pyle', 'Galen Osier', 'Hannah Horton', 'Rex Young', 'Thomas Brophy', 'Mike Miller', 'Greg Crooks', 'Louis Hobson', 'Elena Stecca', 'Paul Alan Amend', 'Hafid Abdelmoula', 'Richard Beal', 'Alan Humphrey']",3.92,5.0,"['Drama', 'Adventure']",118,['USA'],English,"['English', 'Esperanto']","['Electric City Entertainment', 'ShivHans Pictures']",436775,60827,137156,6700,794,1687,1485,5818,8521,32788,52576,99802,38468,51128,293067,https://letterboxd.com/film/captain-fantastic/
The Revenant,2015,Alejandro González Iñárritu,"['Leonardo DiCaprio', 'Tom Hardy', 'Domhnall Gleeson', 'Will Poulter', 'Forrest Goodluck', 'Duane Howard', 'Arthur RedCloud', ""Melaw Nakehk'o"", 'Grace Dove', 'Lukas Haas', 'Paul Anderson', 'Kristoffer Joner', 'Joshua Burge', 'Fabrice Adde', 'Christopher Rosamond', 'Robert Moloney', 'Brendan Fletcher', 'Tyson Wood', 'McCaleb Burnett', 'Vincent Leclerc', 'Stephane Legault', 'Emmanuel Bilodeau', 'Cole Vandale', 'Tom Guiry', 'Scott Olynek', 'Amelia Crow Show', 'Peter Strand Rumpel', 'Timothy Lyle', 'Kory Grim', 'Anthony Starlight', 'Jamie Medicine Crane', 'Veronica Marlowe', 'Clarence Hoof', 'Dion Little Child', 'Blake Wildcat', 'Paul Young Pine', 'Cody Big Tobacco', 'Dallas Young Pine', 'Chesley Wilson', 'Michael Fraser', 'Scott Duncan', 'Mariah Old Shoes', 'Adrian Glynn McMorran', 'Isaiah Tootoosis', 'Alex Bisping', 'Chris Ippolito', 'Jeffrey Olynek', 'C. Adam Leigh', 'Kevin Corey', 'Daniel Rampanen', 'Javier Botet', 'Haysam Kadri', 'Jordan Crawford', 'David Rampanen', 'Brad Carter', 'Rootie J. Boyd', 'Ray Chase', 'Glenn Ennis', 'Charles Fathy', 'Mark Krysko', 'Stephen Richard Lofstrom', 'T. Michael Morris', 'Bruno Stephane', 'Jay Tavare', 'Michael Villar', 'Jay Cardinal Villeneuve', 'Del Zamora', 'Duff Zayonce', 'Tighe Gill']",3.87,5.0,"['Western', 'Adventure', 'Drama']",157,"['Canada', 'Hong Kong', 'Taiwan', 'USA']",English,"['English', 'French']","['Monarchy Enterprises S.a.r.l.', 'Regency Enterprises', 'Appian Way', 'CatchPlay', 'Anonymous Content', 'New Regency Pictures', 'Hong Kong Alpha Motion Pictures Co.', 'M Productions', 'RatPac Entertainment']",1340849,127385,340826,4400,2091,6970,4321,26147,25433,118519,137448,286050,109364,118608,834951,https://letterboxd.com/film/the-revenant-2015/
Mad Max: Fury Road,2015,George Miller,"['Tom Hardy', 'Charlize Theron', 'Nicholas Hoult', 'Hugh Keays-Byrne', 'Josh Helman', 'Nathan Jones', 'Zoë Kravitz', 'Rosie Huntington-Whiteley', 'Riley Keough', 'Abbey Lee', 'Courtney Eaton', 'John Howard', 'Richard Carter', 'Iota', 'Angus Sampson', 'Jennifer Hagan', 'Megan Gale', 'Melissa Jaffer', 'Melita Jurišić', 'Gillian Jones', 'Joy Smithers', 'Antoinette Kellerman', 'Christina Koch', 'Jon Iles', 'Quentin Kenihan', 'Coco Jack Gillies', 'Chris Patton', 'Stephen Dunlevy', 'Richard Norton', 'Vincent Roxburgh', 'John Walton', 'Ben Smith-Petersen', 'Russ McCarroll', 'Judd Wild', 'Elizabeth Cunico', 'Greg Van Borssum', 'Robert Jones', 'Sebastian Dickins', 'Darren Mitchell', 'Crusoe Kurddal', 'Shyan Tonga', 'Cass Cumerford', 'Albert Lee', 'Ripley Voeten', 'Riley Paton', 'Maycn Van Borssum', 'Hunter Stratton Boland', 'Nathan Jenkins', 'Fletcher Gill', 'Whiley Toll', 'Ferdinand Hengombe', 'Gadaffi Davsab', 'Noddy Alfred', 'Jackson Hengombe', 'Christian Fane', 'Callum Gallagher', 'Abel Hofflin', 'Lee Perry', 'Hiroshi Kasuga']",4.16,5.0,"['Adventure', 'Science Fiction', 'Action']",121,"['Australia', 'USA']",English,['English'],"['Warner Bros. Pictures', 'Village Roadshow Pictures', 'Kennedy Miller Mitchell', 'Kennedy Miller Productions']",1881004,249636,705211,27000,3132,9771,4578,28999,22381,119732,118809,350338,196540,367741,1222021,https://letterboxd.com/film/mad-max-fury-road/
The Hobbit: The Battle of the Five Armies,2014,Peter Jackson,"['Martin Freeman', 'Ian McKellen', 'Richard Armitage', 'Luke Evans', 'Orlando Bloom', 'Lee Pace', 'Evangeline Lilly', 'Ken Stott', 'James Nesbitt', 'Aidan Turner', ""Dean O'Gorman"", 'Graham McTavish', 'Benedict Cumberbatch', 'Billy Connolly', 'Stephen Fry', 'Ryan Gage', 'Hugo Weaving', 'Cate Blanchett', 'Ian Holm', 'Christopher Lee', 'Mikael Persbrandt', 'Sylvester McCoy', 'Peter Hambleton', 'John Callen', 'Mark Hadlow', 'Jed Brophy', 'William Kircher', 'Stephen Hunter', 'Adam Brown', 'John Bell', 'Manu Bennett', 'John Tui', 'Peggy Nesbitt', 'Mary Nesbitt', 'Kelly Kilgour', 'Mark Mitchinson', 'Sarah Peirse', 'Nick Blake', 'Simon London', 'Conan Stevens', 'Allan Smith', 'Miranda Harcourt', 'Thomasin McKenzie', 'Erin Banks', 'Brian Hotter', 'Timothy Bartlett', 'Martin Kwok', 'Dee Bradley Baker', 'Olof Johnsson', 'Jon Olson', 'Otep Shamaya', 'Debra Wilson', 'Abraham Wream', 'Jack Binding', 'Terry Binding', 'Stephen Gledhill', 'Billy Jackson', 'Katie Jackson', 'Peter Jackson', 'Terry Notary', 'Vanessa Cater']",3.16,nan,"['Fantasy', 'Action', 'Adventure']",144,"['New Zealand', 'USA']",English,['English'],"['New Line Cinema', 'Metro-Goldwyn-Mayer', 'WingNut Films', 'Warner Bros. Pictures']",846911,60433,139072,729,5957,16499,14364,46226,45077,103803,66606,74414,24964,52044,449954,https://letterboxd.com/film/the-hobbit-the-battle-of-the-five-armies-extended-version/
Interstellar,2014,Christopher Nolan,"['Matthew McConaughey', 'Anne Hathaway', 'Jessica Chastain', 'Michael Caine', 'Bill Irwin', 'Ellen Burstyn', 'Mackenzie Foy', 'Casey Affleck', 'John Lithgow', 'Wes Bentley', 'David Gyasi', 'Matt Damon', 'Topher Grace', 'Timothée Chalamet', 'David Oyelowo', 'William Devane', 'Josh Stewart', 'Collette Wolfe', 'Leah Cairns', 'Russ Fega', 'Lena Georgas', 'Jeff Hephner', 'Elyes Gabel', 'Brooke Smith', 'Liam Dickinson', 'Francis X. McCarthy', 'Andrew Borba', 'Flora Nolan', 'Griffen Fraser', 'William Patrick Brown', 'Kristian Van der Heyden', 'Joseph Oliveira', 'Ryan Irving', 'Alexander Michael Helisek', 'Benjamin Hardy']",4.34,5.0,"['Science Fiction', 'Drama', 'Adventure']",169,"['UK', 'USA']",English,['English'],"['Legendary Pictures', 'Syncopy', 'Lynda Obst Productions']",3447518,440331,1598194,191000,4092,10560,5320,35965,28484,157370,153061,516270,349348,1150051,2410521,https://letterboxd.com/film/interstellar/
Birdman or (The Unexpected Virtue of Ignorance),2014,Alejandro González Iñárritu,"['Michael Keaton', 'Emma Stone', 'Zach Galifianakis', 'Edward Norton', 'Andrea Riseborough', 'Amy Ryan', 'Naomi Watts', 'Lindsay Duncan', 'Merritt Wever', 'Jeremy Shamos', 'Damian Young', 'Bill Camp', 'Kenny Chin', 'Jamahl Garrison-Lowe', ""Katherine O'Sullivan"", 'Keenan Shimizu', 'Akira Ito', 'Natalie Gold', 'Michael Siberry', 'Clark Middleton', 'William Youmans', 'Paula Pell', 'David Fierro', 'Hudson Flynn', 'Warren Kelley', 'Joel Marsh Garland', 'Brent Bateman', 'Donna Lynne Champlin', 'Valentino Musumeci', 'Taylor Schwencke', 'Craig muMs Grant', 'Kyle Knauf', 'Dave Neal', 'Kelly Southerland', 'Roberta Colindrez', 'Catherine Peppers', 'Frank Ridley', 'Janis Corsair', 'Rakesh G. Shah', 'Malachi Weir', 'Jackie Hoffman', 'Stephen Adly Guirgis', 'Glenn Wein', 'Ebrahim Jaffer', 'Rain Noe', 'Susan Blackwell', 'Anna Hardwick', 'Dusan Dukic', 'Helena-Alexis Seymour', 'Ian Finlay', 'Lynn Marocola', 'Paugh Shadow', 'Seth MacFarlane']",3.99,5.0,"['Drama', 'Comedy']",120,['USA'],English,['English'],"['TSG Entertainment', 'Worldview Entertainment', 'New Regency Pictures', 'M Productions', 'Le Grisbi Productions']",1244893,166256,374050,11000,3277,9782,4769,26265,20970,92327,104595,256698,129787,152449,800919,https://letterboxd.com/film/birdman-or-the-unexpected-virtue-of-ignorance/
The Grand Budapest Hotel,2014,Wes Anderson,"['Ralph Fiennes', 'F. Murray Abraham', 'Mathieu Amalric', 'Adrien Brody', 'Willem Dafoe', 'Jeff Goldblum', 'Harvey Keitel', 'Jude Law', 'Bill Murray', 'Edward Norton', 'Saoirse Ronan', 'Jason Schwartzman', 'Léa Seydoux', 'Tilda Swinton', 'Tom Wilkinson', 'Owen Wilson', 'Tony Revolori', 'Larry Pine', 'Giselda Volodi', 'Florian Lukas', 'Karl Markovics', 'Volker Michalowski', 'Neal Huff', 'Bob Balaban', 'Fisher Stevens', 'Wallace Wolodarsky', 'Waris Ahluwalia', 'Jella Niemann', 'Marcel Mazur', 'Robert Bienas', 'Manfred Lindner', 'Oliver Claridge', 'Bernhard Kremser', 'Kunichi Nomura', 'Sister Anna Rademacher', 'Heinz-Werner Jeschkowski', 'Steffen Scheumann', 'Sabine Euler', 'Renate Klein', 'Uwe Holoubek', 'Francesco Zippel', 'Enrico Hoffmann', 'Daniel Steiner', 'Marie Goyette', 'Hendrik von Bültzingslöwen', 'Paul Schlase', 'Jenő Orosz', 'Gyula Lukács', 'Darin Damjanow', 'Dar Ronge', 'Georg Rittmannsperger', 'Dirk Bossmann', 'Arwin Lobedann', 'Robin Hurlstone', 'Jutta Westphal', 'Matthias Holfert', 'Lisa Kreuzer', 'Gisela Bech', 'Birgit Müller', 'Ursula Kuhnt', 'Monika Krüger', 'Wolfram Nielacny', 'Reinhold Hegelow', 'Steffen Nixdorf', 'Rainer Reiners', 'Milton Welsh', 'Piet Paes', 'Michaela Caspar', 'Sabine Urig', 'Heike Hanold-Lynch', 'Roy Macready', 'John Peet', 'Carl Sprague', 'Golo Euler', 'Jürgen Schwämmle', 'Frank Jacob', 'Claudia Jung', 'Roman Berger', 'Michael Benthin', 'Matthias Matschke', 'Lennart Meyer', 'Alfred Hänel', 'Manpreet Gerlach', 'David Adamik', 'Moritz Hepper', 'David Cioffi', 'Lucas Hedges', 'Wolfgang Czeczor', 'Philipp Sonntag', 'Hans Martin Stier', 'Georg Tryphon', 'Gabriel Rush', 'Hannes Wegener', 'Gerald Sullivan', 'Oliver Hazell', 'Ben Howard', 'Bohumil Váchal', 'Marko Dyrlich', 'Ed Munro']",4.24,4.5,"['Drama', 'Comedy']",100,"['Germany', 'USA']",English,"['English', 'French']","['Fox Searchlight Pictures', 'Scott Rudin Productions', 'Studio Babelsberg', 'Indian Paintbrush', 'TSG Entertainment', 'American Empirical Pictures']",2504684,358454,1094333,57000,1643,5936,2797,23178,18855,136525,147636,525259,295026,546143,1702998,https://letterboxd.com/film/the-grand-budapest-hotel/
Whiplash,2014,Damien Chazelle,"['Miles Teller', 'J.K. Simmons', 'Paul Reiser', 'Melissa Benoist', 'Austin Stowell', 'Chris Mulkey', 'Nate Lang', 'Charlie Ian', 'Jayson Blair', 'Kavita Patil', 'Damon Gupton', 'Suanne Spoke', 'Max Kasch', 'Kofi Siriboe', 'C.J. Vana', 'Tarik Lowe', 'Tyler Kimball', 'Rogelio Douglas Jr.', 'Adrian Burks', 'Joseph Bruno', 'Michael D. Cohen', 'Jocelyn Ayanna', 'Keenan Henson', 'Janet Hoskins', 'April Grace', ""Clifton 'Fou Fou' Eddie"", 'Calvin C. Winbush', 'Marcus Henderson', 'Tony Baker', 'Henry G. Sanders', 'Sam Campisi', 'Jimmie Kirkpatrick', 'Keenan Allen', 'Ayinde Vaughan', 'Shai Golan', 'Yancey Wells', 'Candace Roberge', 'Krista Kilber', 'Stephen Hsu', 'Herman Johansen', 'Wendee Lee', 'Joseph Oliveira', 'Michelle Ruff', 'Daniel Weidlein']",4.43,5.0,"['Drama', 'Music']",107,['USA'],English,['English'],"['Bold Films', 'Blumhouse Productions', 'Right of Way Films']",2858217,372789,1353283,109000,2219,5347,2602,17331,14892,102668,126661,527358,396877,915608,2111563,https://letterboxd.com/film/whiplash-2014/
The Hobbit: The Desolation of Smaug,2013,Peter Jackson,"['Martin Freeman', 'Ian McKellen', 'Richard Armitage', 'Ken Stott', 'James Nesbitt', 'Orlando Bloom', 'Luke Evans', 'Lee Pace', 'Benedict Cumberbatch', 'Mikael Persbrandt', 'Sylvester McCoy', 'Stephen Fry', 'Evangeline Lilly', 'Aidan Turner', ""Dean O'Gorman"", 'Graham McTavish', 'Adam Brown', 'Peter Hambleton', 'John Callen', 'Mark Hadlow', 'Jed Brophy', 'William Kircher', 'Stephen Hunter', 'Ryan Gage', 'John Bell', 'Manu Bennett', 'Lawrence Makoare', 'Cate Blanchett', 'Peggy Nesbitt', 'Mary Nesbitt', 'Ben Mitchell', 'Stephen Ure', 'Craig Hall', 'Robin Kerr', 'Eli Kent', 'Simon London', 'Brian Sergent', 'Peter Vere-Jones', 'Mark Mitchinson', 'Kelly Kilgour', 'Sarah Peirse', 'Nick Blake', 'Dallas Barnett', 'Matt Smith', 'Katie Jackson', 'Richard Whiteside', 'Greg Ellis', 'Ray Henwood', 'Tim Gordon', 'Jabez Olssen', 'Stephen Colbert', 'Evelyn McGee-Colbert', 'Peter Colbert', 'John Colbert', 'Norman Kali', 'Carter Nixon', 'Zane Weiner', 'Allan Smith', 'Jack Binding', 'Terry Binding', 'Frank Edwards', 'Peter Jackson', 'Terry Notary', 'Emma Smith', 'Phoebe Gittins']",3.37,nan,"['Fantasy', 'Action', 'Adventure']",161,"['New Zealand', 'USA']",English,['English'],"['New Line Cinema', 'Metro-Goldwyn-Mayer', 'WingNut Films', 'Warner Bros. Pictures']",925729,64173,163408,877,3321,10608,8791,36431,38114,109938,88891,102433,28479,59224,486230,https://letterboxd.com/film/the-hobbit-the-desolation-of-smaug/
Her,2013,Spike Jonze,"['Joaquin Phoenix', 'Scarlett Johansson', 'Amy Adams', 'Rooney Mara', 'Chris Pratt', 'Olivia Wilde', 'Matt Letscher', 'Portia Doubleday', 'Spike Jonze', 'Bill Hader', 'Kristen Wiig', 'Artt Butler', 'SoKo', 'Brian Cox', 'Luka Jones', 'Sam Jaeger', 'Pramod Kumar', 'Evelyn Edwards', 'Lil Buck', 'Lynn Adrianna', 'Lisa Renee Pitts', 'Gabe Gomez', 'May Lindstrom', 'David Azar', 'Guy Lewis', 'Melanie Seacat', 'Steve Zissis', 'Dane White', 'Nicole Grother', 'James Ozasky', 'Samantha Sarakanti', 'Gracie Prewitt', 'Claudia Choi', 'Laura Kai Chen', 'Wendy Leon', 'Alia Janine', 'Brian D. Johnson', 'Robert Benard', 'Lisa Cohen', 'Grant Samson']",4.02,5.0,"['Science Fiction', 'Drama', 'Romance']",126,['USA'],English,['English'],['Annapurna Pictures'],1978319,257252,732518,33000,4161,11555,5942,36757,29464,153714,156387,422842,189929,316178,1326929,https://letterboxd.com/film/her/
The Hobbit: An Unexpected Journey,2012,Peter Jackson,"['Martin Freeman', 'Ian McKellen', 'Richard Armitage', 'Graham McTavish', 'Ken Stott', 'Aidan Turner', ""Dean O'Gorman"", 'James Nesbitt', 'Mark Hadlow', 'Stephen Hunter', 'William Kircher', 'John Callen', 'Peter Hambleton', 'Jed Brophy', 'Adam Brown', 'Ian Holm', 'Hugo Weaving', 'Cate Blanchett', 'Christopher Lee', 'Andy Serkis', 'Elijah Wood', 'Sylvester McCoy', 'Lee Pace', 'Barry Humphries', 'Jeffrey Thomas', 'Michael Mizrahi', 'Manu Bennett', 'Conan Stevens', 'John Rawls', 'Stephen Ure', 'Timothy Bartlett', 'Bret McKenzie', 'Kiran Shah', 'Benedict Cumberbatch', 'Glenn Boswell', 'Thomas Robins', 'Ruby Acevedo', 'Katie Jackson', 'Isaac Miller', 'Ella Olssen', 'Louis Ashbourne Serkis', 'Sonny Ashbourne Serkis', 'Ruby Ashbourne Serkis', 'Terry Notary', 'Peter Jackson', 'Brendan Casey']",3.46,nan,"['Fantasy', 'Action', 'Adventure']",169,"['New Zealand', 'USA']",English,['English'],"['New Line Cinema', 'Metro-Goldwyn-Mayer', 'WingNut Films', 'Warner Bros. Pictures']",1114141,75135,196244,2400,2974,9898,7291,36571,39626,134657,115343,137874,31541,58731,574506,https://letterboxd.com/film/the-hobbit-an-unexpected-journey/
Harry Potter and the Deathly Hallows: Part 2,2011,David Yates,"['Daniel Radcliffe', 'Emma Watson', 'Rupert Grint', 'Ralph Fiennes', 'Alan Rickman', 'Michael Gambon', 'Warwick Davis', 'Helena Bonham Carter', 'Ciarán Hinds', 'Matthew Lewis', 'John Hurt', 'Evanna Lynch', 'Robbie Coltrane', 'Kelly Macdonald', 'Tom Felton', 'Helen McCrory', 'Jason Isaacs', 'Maggie Smith', 'David Thewlis', 'Gary Oldman', 'David Bradley', 'Julie Walters', 'Gemma Jones', 'Dave Legeno', 'Miriam Margolyes', 'Nick Moran', 'James Phelps', 'Oliver Phelps', 'Clémence Poésy', 'Natalia Tena', 'Mark Williams', 'Bonnie Wright', 'Domhnall Gleeson', 'Graham Duff', 'Anthony Allgood', 'Rusty Goffe', 'Jon Key', 'Ian Peck', 'Benn Northover', 'Hebe Beardsall', 'Devon Murray', 'Jessie Cave', 'Afshan Azad', 'Isabella Laughland', 'Anna Shaffer', 'Georgina Leonidas', 'Freddie Stroma', 'Alfred Enoch', 'Katie Leung', 'William Melling', 'Sian Grace Phillips', 'Ralph Ineson', 'Suzie Toase', 'Jim Broadbent', 'Scarlett Hefner', 'Josh Herdman', 'Louis Cordice', 'Amber Evans', 'Ruby Evans', 'George Harris', 'Chris Rankin', 'Guy Henry', 'Phil Wright', 'Gary Sayer', 'Tony Adkins', 'Penelope McGhie', 'Emma Thompson', 'Ellie Darcey-Alden', 'Ariella Paradise', 'Benedict Clarke', 'Leslie Phillips', 'Alfie McIlwain', 'Rohan Gotobed', 'Geraldine Somerville', 'Adrian Rawlins', 'Toby Papworth', 'Timothy Spall', 'Peter G. Reed', 'Judith Sharp', 'Emil Hostina', 'Bob Yves Van Hellenberg Hubar', 'Granville Saxton', 'Tony Kirwood', 'Ashley McGuire', 'Arthur Bowen', 'Daphne de Beistegui', 'Will Dunn', 'Jade Gordon', 'Bertie Gilbert', 'Helena Barlow', 'Ryan Turner', 'Paul Bailey', 'Sean Biggerstaff', 'Vinnie Clarke', 'David Heyman', 'Charlie Hobbs', 'Luke Newberry', 'Keijo J. Salmela', 'Pauline Stone', 'Spencer Wilding', 'Harrison Davis', 'Annabelle Davis', 'Samantha Davis']",3.96,nan,"['Fantasy', 'Adventure']",130,"['UK', 'USA']",English,['English'],"['Warner Bros. Pictures', 'Heyday Films']",2094442,160769,487319,4300,2873,6953,4483,24762,27843,131884,141426,309607,124690,249896,1024417,https://letterboxd.com/film/harry-potter-and-the-deathly-hallows-part-2/
Harry Potter and the Deathly Hallows: Part 1,2010,David Yates,"['Daniel Radcliffe', 'Emma Watson', 'Rupert Grint', 'Toby Jones', 'Helena Bonham Carter', 'Alan Rickman', 'Ralph Fiennes', 'Bill Nighy', 'Simon McBurney', 'Rhys Ifans', 'Evanna Lynch', 'Andy Linden', 'Guy Henry', 'Jason Isaacs', 'Brendan Gleeson', 'John Hurt', 'Robbie Coltrane', 'David Thewlis', 'Richard Griffiths', 'Julie Walters', 'Michael Gambon', 'Warwick Davis', 'Imelda Staunton', 'Tom Felton', 'Timothy Spall', 'Fiona Shaw', 'Dave Legeno', 'Helen McCrory', 'Nick Moran', 'Peter Mullan', ""David O'Hara"", 'Clémence Poésy', 'Natalia Tena', 'Mark Williams', 'Bonnie Wright', 'Harry Melling', 'Ian Kelly', 'Michelle Fairley', 'Carolyn Pickles', 'Graham Duff', 'Arben Bajraktaraj', 'Rod Hunt', 'Suzie Toase', 'Ralph Ineson', 'Adrian Annis', 'Emil Hostina', 'Paul Khanna', 'Richard Strange', 'Anthony John Crocker', 'Peter G. Reed', 'Granville Saxton', 'Judith Sharp', 'Ashley McGuire', 'Penelope McGhie', 'Bob Yves Van Hellenberg Hubar', 'Tony Kirwood', 'David Ryall', 'James Phelps', 'Oliver Phelps', 'George Harris', 'Domhnall Gleeson', 'Frances de la Tour', 'Matyelok Gibbs', 'Eva Alexander', 'Matthew Lewis', 'Jon Campling', 'Devon Murray', 'William Melling', 'Simon Grover', 'Freddie Stroma', 'Isabella Laughland', 'Jessie Cave', 'Anna Shaffer', 'Josh Herdman', 'Amber Evans', 'Ruby Evans', 'Katie Leung', 'Georgina Leonidas', 'Louis Cordice', 'Scarlett Hefner', 'Afshan Azad', 'Steffan Rhodri', 'Sophie Thompson', 'Daniel Tuite', 'Daisy Haggard', 'George Potts', 'Rose Keegan', 'Ned Dennehy', 'Kate Fleetwood', 'Daniel Hill', 'Rade Šerbedžija', 'Jamie Campbell Bower', 'Hazel Douglas', 'Adrian Rawlins', 'Geraldine Somerville', 'Miranda Richardson', 'Michael Byrne', 'Samuel Roukin', 'Toby Regbo', 'Lewis Young']",3.69,nan,"['Fantasy', 'Adventure']",146,"['UK', 'USA']",English,['English'],"['Warner Bros. Pictures', 'Heyday Films']",1964548,139644,407773,1200,3196,8535,6485,34023,41850,175096,170670,272163,71330,159854,943202,https://letterboxd.com/film/harry-potter-and-the-deathly-hallows-part-1/
Submarine,2010,Richard Ayoade,"['Craig Roberts', 'Yasmin Paige', 'Sally Hawkins', 'Noah Taylor', 'Paddy Considine', 'Steffan Rhodri', 'Darren Evans', 'Osian Cai Dulais', 'Lily McCann', 'Otis Lloyd', 'Elinor Crawley', 'Gemma Chan', 'Melanie Walters', 'Sion Tudor Owen', ""Adrienne O'Sullivan"", 'Jonny Wier', 'Lydia Fox', 'Lynn Hunter', 'Claire Cage', 'Edwin Ashcroft', 'Andrew Phillips', 'James Alexander Hill', 'Rikki Hall', 'Tom Ryan', 'James Jones', 'Sophy Brady-Halligan', 'Tanya Brady-Halligan', 'Sarah Pasquali', 'Ben Stiller']",3.83,nan,"['Romance', 'Drama', 'Comedy']",97,['UK'],English,['English'],"['Warp Films', 'Film4 Productions', 'UK Film Council']",314506,52741,99516,8100,444,1013,969,4659,6662,28035,40118,65032,21543,29834,198309,https://letterboxd.com/film/submarine/
Scott Pilgrim vs. the World,2010,Edgar Wright,"['Michael Cera', 'Mary Elizabeth Winstead', 'Ellen Wong', 'Kieran Culkin', 'Alison Pill', 'Mark Webber', 'Johnny Simmons', 'Jason Schwartzman', 'Anna Kendrick', 'Aubrey Plaza', 'Satya Bhabha', 'Chris Evans', 'Brandon Routh', 'Mae Whitman', 'Brie Larson', 'Keita Saito', 'Shota Saito', 'Will Bowes', 'Celine Lepage', 'Mark Leroy', 'Kjartan Hewitt', 'Ben Lewis', 'Nelson Franklin', 'Kristina Pesic', 'Matt Watts', 'Ingrid Haas', 'Maurie W. Kaufmann', 'Marley Otto', 'Christine Watson', 'Chantelle Chung', 'Don McKellar', 'Jung-Yul Kim', 'Erik Knudsen', 'Abigail Chu', 'Tennessee Thomas', 'Emily Kassie', 'Michael Lazarovitch', 'John Patrick Amedori', 'Joe Dinicol', 'Craig Stickland', 'Bill Hader', 'Thomas Jane', 'Clifton Collins Jr.', ""Bryan Lee O'Malley""]",3.87,4.0,"['Comedy', 'Romance', 'Action']",113,"['Japan', 'UK', 'USA']",English,['English'],"['Marc Platt Productions', 'Big Talk Studios', 'Closed on Mondays Entertainment', 'dentsu']",2195451,251988,878984,56000,6556,14623,8689,44483,40665,191884,200568,432748,167550,330300,1438066,https://letterboxd.com/film/scott-pilgrim-vs-the-world/
Avatar,2009,James Cameron,"['Sam Worthington', 'Zoe Saldaña', 'Sigourney Weaver', 'Stephen Lang', 'Michelle Rodriguez', 'Giovanni Ribisi', 'Joel David Moore', 'CCH Pounder', 'Wes Studi', 'Laz Alonso', 'Dileep Rao', 'Matt Gerald', 'Sean Anthony Moran', 'Jason Whyte', 'Scott Lawrence', 'Kelly Kilgour', 'James Patrick Pitt', 'Sean Patrick Murphy', 'Peter Dillon', 'Kevin Dorman', 'Kelson Henderson', 'David Van Horn', 'Jacob Tomuri', 'Michael Blain-Rozgay', 'Jon Curry', 'Julene Renee', 'Luke Hawker', 'Woody Schultz', 'Peter Mensah', 'Sonia Yee', 'Jahnel Curfman', 'Ilram Choi', 'Kyla Warren', 'Lisa Roumain', 'Debra Wilson', 'Taylor Kibby', 'Jodie Landau', 'Chris Mala', 'Julie Lamm', 'Cullen B. Madden', 'Joseph Brady Madden', 'Frankie Torres', 'Austin Wilson', 'Sara Wilson', 'Tamica Washington-Miller', 'Lucy Briant', 'Nathan Meister', 'Gerry Blair', 'Matthew Chamberlain', 'Paul Yates', 'Wray Wilson', 'James Gaylyn', 'Melvin Leno Clark III', 'Carvon Futrell', 'Brandon Jelkes', 'Micah Moch', 'Haniyyah Tahirah', 'Christopher Nolen', 'Christa Oliver', 'April Marie Thomas', 'Bravita A. Threatt', 'Alicia Vela-Bailey', 'Larry Rew', 'Dina Morrone', 'Rodney Cook']",3.57,nan,"['Fantasy', 'Science Fiction', 'Adventure', 'Action']",162,"['USA', 'UK']",English,"['English', 'Spanish']","['Dune Entertainment', 'Lightstorm Entertainment', '20th Century Fox', 'Ingenious Media']",2488079,150968,552994,14000,12062,29421,17467,81222,73576,254141,208484,352635,107863,238417,1375288,https://letterboxd.com/film/avatar/
The Twilight Saga: New Moon,2009,Chris Weitz,"['Kristen Stewart', 'Robert Pattinson', 'Taylor Lautner', 'Dakota Fanning', 'Michael Sheen', 'Ashley Greene', 'Rachelle Lefevre', 'Billy Burke', 'Peter Facinelli', 'Elizabeth Reaser', 'Jackson Rathbone', 'Kellan Lutz', 'Nikki Reed', 'Edi Gathegi', 'Graham Greene', 'Gil Birmingham', 'Anna Kendrick', 'Michael Welch', 'Justin Chon', 'Christian Serratos', 'Jamie Campbell Bower', 'Christina Jastrzembska', 'Russell Roberts', 'Christopher Heyerdahl', 'Curtis Caravaggio', 'Daniel Cudmore', 'Charlie Bewley', 'Chaske Spencer', 'Adrien Dorval', 'Michael Adamthwaite', 'Alexander Mendeluk', 'Hunter Jackson', 'Gavin Bristol', 'Sean McGrath', 'Tyson Houseman', 'Kiowa Gordon', 'Alex Meraz', 'Bronson Pelletier', 'Tinsel Korey', 'Corinna Russo', 'Maria Grazia Pompei', 'Roberto Marchetti', 'Alessandro Federico', 'Justine Wachsberger', 'Cameron Bright', 'Noot Seear']",2.57,4.0,"['Romance', 'Adventure', 'Drama', 'Fantasy']",131,['USA'],English,"['English', 'Italian']","['Summit Entertainment', 'Temple Hill Entertainment', 'Maverick Films', 'Imprint Entertainment', 'Sunswept Entertainment']",912859,66829,118860,2900,20458,41365,29623,76689,46934,86113,31797,45839,8238,48031,435087,https://letterboxd.com/film/the-twilight-saga-new-moon/
Mr. Nobody,2009,Jaco Van Dormael,"['Jared Leto', 'Sarah Polley', 'Diane Kruger', 'Linh-Dan Pham', 'Rhys Ifans', 'Natasha Little', 'Toby Regbo', 'Juno Temple', 'Allan Corduner', 'Daniel Mays', 'Clare Stone', 'Audrey Giacomini', 'Thomas Byrne', 'Laura Brumagne', 'Noa De Costanzo', 'Léa Thonus', 'Anaïs Van Belle', 'Harold Manning', 'Pascal Duquenne', 'David Schaal', 'Laurent Capelluto', 'Harry Cleven', 'Andrew Simms', 'Ben Mansfield', 'Emily Tilson', 'Roline Skehan', 'Anders Morris', 'Nathan Boydell', 'Vincent Dupont', 'Jenna Wheeler-Hughes', 'Valérie-Marie Chadelaud', 'Stéphane Thiry', 'Bruno Verstraete', 'Alice van Dormael', 'Juliette Van Dormael', 'Tedd Dillon', 'Melanie Doerr', 'Talya Rubin', 'Vito DeFilippo', 'Corey Cleve Bentivegna', 'Sandrine Laroche', 'Olivier Bony', 'Laura Van Hove', 'Jack Proudlove', 'Marc Zinga', 'Martin Swabey', 'Philippe Godeau', 'Sarah Gravel', 'John Canoe', 'Donna Kanerahtenha Jacobs', 'Fujio Ishimaru', 'Robin Carette', 'Hugo Harold-Harrison', 'Sylvie Olivé', 'Stéphane Taillasson', 'Jules Taillasson', 'Jan Hammenecker', 'Serge Larivière', 'Leni Parker', 'Katharina Pejcic', 'Alexander Türk', 'Tanya Trombetta', 'Lola Pauwels', 'Daniel Brochu', 'Louise Sophia Engel', 'Aaron Landt', 'Christelle Cornil', 'Tawny Andersen', 'Christophe Beaucarne', 'Jules Eerdekens', 'Philippe Lévy', 'Renaud Alcalde', 'Dominique Warnier', 'Catherine Demaiffe', 'Pierre Chaves', 'Nicholas Beveney', 'David Kennedy', 'Josselin Moinet', 'Virginie Bordes', 'Carlo Mestroni', 'Nicolas Ross', 'Marie-Ève Beauregard', 'Manfred Andrae', 'Thi-Mai Nguyen', 'John Churchill']",3.67,5.0,"['Romance', 'Drama', 'Science Fiction']",141,"['Belgium', 'Canada', 'France', 'Germany']",English,['English'],"['Pan-Européenne', 'Integral Films', 'Lago Film', 'Christal Films', 'France 2 Cinéma', 'France 3 Cinéma', 'Toto & Co Films']",233913,31376,54733,5000,1122,2306,1905,6277,6753,19205,23142,34896,14091,22047,131744,https://letterboxd.com/film/mr-nobody/
Harry Potter and the Half-Blood Prince,2009,David Yates,"['Daniel Radcliffe', 'Rupert Grint', 'Emma Watson', 'Jim Broadbent', 'Michael Gambon', 'Tom Felton', 'Alan Rickman', 'Bonnie Wright', 'Jessie Cave', 'Evanna Lynch', 'Freddie Stroma', 'Robbie Coltrane', 'Helena Bonham Carter', 'Maggie Smith', 'Timothy Spall', 'David Thewlis', 'Julie Walters', 'David Bradley', 'Warwick Davis', 'Gemma Jones', 'Helen McCrory', 'Natalia Tena', 'Mark Williams', 'Dave Legeno', 'Elarica Johnson', 'Geraldine Somerville', 'Oliver Phelps', 'James Phelps', 'Alfred Enoch', 'Robert Knox', 'Amber Evans', 'Ruby Evans', 'Louis Cordice', 'Scarlett Hefner', 'Jamie Waylett', 'Josh Herdman', 'Matthew Lewis', 'William Melling', 'Anna Shaffer', 'Devon Murray', 'Georgina Leonidas', 'Isabella Laughland', 'Afshan Azad', 'Shefali Chowdhury', 'Amelda Brown', 'Hero Fiennes Tiffin', 'Jack Pryor', 'Mark Lockyer', 'Paul Ritter', 'Frank Dillane', 'Joerg Stadler', 'Caroline Wildi', 'Ralph Ineson', 'Suzie Toase', 'Rod Hunt', 'Katie Leung', 'Nathan Clarke', 'Olivia Jewson', 'Freddie Rose', 'Jason Isaacs']",3.66,nan,"['Adventure', 'Fantasy']",153,"['UK', 'USA']",English,['English'],"['Warner Bros. Pictures', 'Heyday Films']",1958871,140318,409282,4000,3325,8795,6747,36173,44796,183497,171690,260174,68449,157220,940866,https://letterboxd.com/film/harry-potter-and-the-half-blood-prince/
Up,2009,Pete Docter,"['Ed Asner', 'Christopher Plummer', 'Jordan Nagai', 'Bob Peterson', 'Delroy Lindo', 'Jerome Ranft', 'John Ratzenberger', 'David Kaye', 'Elie Docter', 'Jeremy Leary', 'Mickie McGowan', 'Danny Mann', 'Donald Fullilove', 'Jess Harnell', 'Josh Cooley', 'Pete Docter', 'Mark Andrews', 'Bob Bergen', 'Brenda Chapman', 'Emma Coats', 'John Cygan', 'Paul Eiding', 'Tony Fucile', 'Teresa Ganzel', 'Sherry Lynn', 'Laraine Newman', 'Teddy Newton', 'Jeff Pidgeon', 'Valerie LaPointe', 'Jan Rabson', 'Bob Scott']",4.09,nan,"['Animation', 'Adventure', 'Family', 'Comedy']",96,['USA'],English,['English'],['Pixar'],2912703,202694,853026,6400,1380,4593,3065,23112,23769,163694,176961,503498,187439,420662,1508173,https://letterboxd.com/film/up/
(500) Days of Summer,2009,Marc Webb,"['Joseph Gordon-Levitt', 'Zooey Deschanel', 'Geoffrey Arend', 'Chloë Grace Moretz', 'Matthew Gray Gubler', 'Clark Gregg', 'Patricia Belcher', 'Rachel Boston', 'Minka Kelly', 'Charles Walker', 'Ian Reed Kesler', 'Darryl Alan Reed', 'Valente Rodriguez', 'Yvette Nicole Brown', 'Nicole Vicius', 'Natalie Boren', 'Maile Flanagan', 'Darryl Sivad', 'Gregory A. Thompson', 'Michael Bodie', 'John Mackie', 'Jacob Stroop', 'Kevin Michael', 'Sid Wilner', 'Richard McGonagle', 'Jean-Paul Vignon', 'Bryan Anthony', 'Sybil Azur', 'Cheryl Baxter', 'Gustavo Carr', 'John R. Corella', 'Nadine Ellis', 'Alejandro Estornel', 'Nathaniel Flatt', 'Reshma Gajjar', 'Tiffany Granath', 'Jennifer Hamilton', 'Brandon Henschel', 'Michael Higgins', 'Kenneth Hughes', 'Alexandra Nicole Hulme', 'John Jacquet Jr.', 'Jennifer Lee Keyes', 'Tim Lacatena', 'Rebecca Lin', 'Gelsey Weiss', 'Katie Malia', 'Anthony Marciona', 'Christopher Martinez', 'Vivian Nixon', 'Tracy Phillips', 'Nathan Prevost', 'Jamie Shea', 'Ryan Thomas', 'Christian Vincent', 'Jull Weber', 'Adam Emery', 'Olivia Howard Bagg', 'Chris Connell', 'Samantha Krutzfeldt', 'Jason Robinson', 'Kathryn Weisbeck', 'Eileen Álvarez', 'Jennifer Hetrick', 'Pleasant Wayne']",3.66,nan,"['Romance', 'Comedy', 'Drama']",95,['USA'],English,"['English', 'French', 'Swedish']","['Fox Searchlight Pictures', 'Watermark Pictures', 'Dune Entertainment III']",1783161,178703,536114,25000,5382,13594,8474,44450,46481,196381,204229,339587,100696,173821,1133095,https://letterboxd.com/film/500-days-of-summer/
Into the Wild,2007,Sean Penn,"['Emile Hirsch', 'Marcia Gay Harden', 'William Hurt', 'Jena Malone', 'Brian H. Dierker', 'Catherine Keener', 'Vince Vaughn', 'Kristen Stewart', 'Hal Holbrook', 'Thure Lindhardt', 'Signe Egholm Olsen', 'Jim Gallien', ""James J. O'Neill"", 'Malinda McCollum', 'Paul Knauls', 'Zach Galifianakis', 'Craig Mutsch', 'Jim Beidler', 'John Decker', 'John Hofer', 'Jerry Hofer', 'Terry Waldner', 'Robin Mathews', 'Candice Campos', 'Steven Wiig', 'Floyd Wall', 'Bryce Walters', 'Jim Davis', 'Cheryl Francis Harrington', 'R. D. Call', 'Haley Ramm', 'Merritt Wever', ""Everett 'Insane Wayne' Smith"", 'John Jabaley', 'Leonard Knight', 'Matt Contreras', 'Denise Sitton', 'Sharon Olds', 'Carine McCandless', 'J. Nathan Simmons', 'Parris Mosteller', 'Timothy Levine', 'Haley Sweet', 'Aaron Wayne Hill', 'Bart the Bear II']",3.79,5.0,"['Drama', 'Adventure']",148,['USA'],English,"['English', 'Danish']","['River Road Entertainment', 'Paramount Vantage', 'Into the Wild', 'The Linson Company', 'Square One C.I.H.']",653224,73094,159948,11000,1953,4370,3234,13567,14762,55622,63080,109256,40011,61793,367648,https://letterboxd.com/film/into-the-wild/
Juno,2007,Jason Reitman,"['Elliot Page', 'Michael Cera', 'Jennifer Garner', 'Jason Bateman', 'J.K. Simmons', 'Allison Janney', 'Olivia Thirlby', 'Eileen Pedde', 'Rainn Wilson', 'Daniel Clark', 'Darla Fay', 'Aman Johal', 'Valerie Tian', 'Emily Perkins', 'Kaaren de Zilva', 'Steven Christopher Parker', 'Candice King', 'Sierra Pitkin', 'Cut Chemist', 'Eve Harlow', 'Kirsten Alter', 'Emily Tennant', 'Ashley Whillans', 'Jeff Witzke', 'Colin McSween', 'Peggy Logan', 'Cameron Bright', 'Joy Galmut', 'Wendy Russell', 'Robyn Ross']",3.73,nan,"['Romance', 'Comedy', 'Drama']",96,['USA'],English,['English'],"['Mandate Pictures', 'Mr. Mudd Production', 'Fox Searchlight Pictures']",1401968,149913,388325,19000,2577,6743,4603,26826,27916,135967,140702,240148,69131,126953,781566,https://letterboxd.com/film/juno/
Harry Potter and the Order of the Phoenix,2007,David Yates,"['Daniel Radcliffe', 'Rupert Grint', 'Emma Watson', 'Imelda Staunton', 'Helena Bonham Carter', 'Robbie Coltrane', 'Gary Oldman', 'Ralph Fiennes', 'Michael Gambon', 'Alan Rickman', 'Richard Griffiths', 'Brendan Gleeson', 'Jason Isaacs', 'Evanna Lynch', 'Katie Leung', 'Warwick Davis', 'Fiona Shaw', 'Maggie Smith', 'David Thewlis', 'Emma Thompson', 'Julie Walters', 'David Bradley', 'Tom Felton', 'Robert Hardy', 'George Harris', 'Natalia Tena', 'Mark Williams', 'Harry Melling', 'Jason Boyd', 'Richard Macklin', 'Kathryn Hunter', 'Miles Jupp', 'Jessica Hynes', 'Adrian Rawlins', 'Geraldine Somerville', 'Peter Cartwright', 'Brigitte Millar', 'Timothy Bateson', 'James Phelps', 'Oliver Phelps', 'Bonnie Wright', 'Jamie Wolpert', 'Nicholas Blane', 'Daisy Haggard', 'Chris Rankin', 'Sian Thomas', 'Jamie Waylett', 'Josh Herdman', 'Matthew Lewis', 'Ryan Nelson', 'William Melling', 'Apple Brook', 'Devon Murray', 'Alfred Enoch', 'Afshan Azad', 'Shefali Chowdhury', 'Jim McManus', 'Nick Shirm', 'Sam Beazley', 'John Atterbury', 'Arben Bajraktaraj', 'Richard Leaf', 'Tony Maudsley', 'Alec Hopkins', 'Robbie Jarvis', 'James Walters', 'Charles Hughes', 'James Utechin', 'Jason Piper', 'Michael Wildman', 'Richard Cubison', 'Peter Best', 'Tav MacDougall', 'Richard Trinder', 'Nathan Clarke', 'David Heyman', 'Cliff Lanning', 'James Payton', 'Christopher Rithin', 'Lauren Shotton', 'Timothy Spall', 'Lisa Wood', 'Saskia Strallen', 'Robert Pattinson']",3.64,nan,"['Adventure', 'Fantasy']",138,"['UK', 'USA']",English,['English'],"['Warner Bros. Pictures', 'Heyday Films']",2046491,141091,430725,2900,3069,7915,6067,36050,46332,202167,188367,272038,65043,158057,985105,https://letterboxd.com/film/harry-potter-and-the-order-of-the-phoenix/
High School Musical,2006,Kenny Ortega,"['Zac Efron', 'Vanessa Hudgens', 'Ashley Tisdale', 'Lucas Grabeel', 'Corbin Bleu', 'Monique Coleman', 'Bart Johnson', 'Alyson Reed', 'Chris Warren', 'Olesya Rulin', 'Joey Miyashima', 'Ryan Templeman', 'Irene Santiago', 'Leslie Wing', 'Joyce Cohen', 'Anne Kathryn Parma', 'Charles Klapow', 'Brad Tobler', 'Allison Holker', 'Britt Stewart', 'Mollee Gray', 'Michelle Parker', 'Thayne Jasperson', 'Shawn Carter', 'Malinda Money', 'Dutch Whitlock', 'Ryne Sanborn', 'Socorro Herrera', 'Kaycee Stroh', 'Brett Yoder', 'Sarah K. Aezer', 'Amanda Garrett', 'Nick Whitaker', 'Falon Grace', 'Sami Roe', 'Melissa Hildebrant', 'David Huff', 'Jared Murillo', 'Roger Malaga', 'Todd Michael Schwartzman', ""Da' Jon Lang"", 'Tina Pituckul', 'Raquel Goodsell', 'Kelli Baker', 'Bayli Baker', 'Jessie Tan', 'Breanna Phillips', 'Skyler Holman', 'Andrew Winston', 'Afton Delgrosso', 'Falisha Fehoko', 'Eldon Johnson', 'Josh Murillo', 'Sabra Johnson', 'Drew Seeley', 'Tisha Vaculin', 'Joseph Paul Branca', 'Joe Cappelletti', 'Matthew Miles Carter', 'Kara Dupell', 'Jason Fullmer', 'Joe Jurisic', 'Bryson Kuan', 'Camille Lynne Matthews', 'Chase Ramsey', 'Stephen Rippey', 'Carleton Bluford']",3.15,5.0,"['Music', 'Comedy', 'Family', 'TV Movie', 'Romance', 'Drama']",98,['USA'],English,['English'],"['Salty Pictures', 'First Street Films']",856944,60042,122658,1600,6974,14647,9957,35376,31045,87219,45719,60992,11318,51826,355073,https://letterboxd.com/film/high-school-musical/
Harry Potter and the Goblet of Fire,2005,Mike Newell,"['Daniel Radcliffe', 'Rupert Grint', 'Emma Watson', 'Brendan Gleeson', 'Michael Gambon', 'Robert Pattinson', 'Ralph Fiennes', 'Robbie Coltrane', 'Alan Rickman', 'David Tennant', 'Predrag Bjelac', 'Clémence Poésy', 'Stanislav Yanevski', 'Frances de la Tour', 'Roger Lloyd Pack', 'Miranda Richardson', 'Gary Oldman', 'Jason Isaacs', 'Maggie Smith', 'Timothy Spall', 'David Bradley', 'Warwick Davis', 'Tom Felton', 'Robert Hardy', 'Shirley Henderson', 'Mark Williams', 'Eric Sykes', 'James Phelps', 'Oliver Phelps', 'Bonnie Wright', 'Jeff Rawle', 'Philip Rham', 'Olivia Higginbottom', 'Ashley Artus', 'Alex Palmer', 'Paschal Friel', 'Richard Rosson', 'Sheila Allen', 'Su Elliot', 'Anne Lacy', 'Flip Webster', 'David Sterne', 'Christopher Whittingham', 'Liam McKenna', 'Campbell Graham', 'Margery Mason', 'Katie Leung', 'Matthew Lewis', 'William Melling', 'Devon Murray', 'Afshan Azad', 'Shefali Chowdhury', 'Angelica Mandy', 'Tolga Safer', 'Alfred Enoch', 'Louis Doyle', 'Jamie Waylett', 'Josh Herdman', 'Charlotte Skeoch', 'Robert Wilfort', 'Tiana Benjamin', 'Henry Lloyd-Hughes', 'Jarvis Cocker', 'Jonny Greenwood', 'Philip Selway', 'Steve Mackey', 'Jason Buckle', 'Steve Claydon', 'Alan Watts', 'Adrian Rawlins', 'Geraldine Somerville']",3.81,nan,"['Adventure', 'Fantasy']",157,"['UK', 'USA']",English,"['English', 'French']","['Warner Bros. Pictures', 'Heyday Films', 'Patalex IV Productions Limited']",2187218,158819,517387,6900,2720,6770,5079,30095,38492,176446,181535,328032,97053,216589,1082811,https://letterboxd.com/film/harry-potter-and-the-goblet-of-fire/
Harry Potter and the Prisoner of Azkaban,2004,Alfonso Cuarón,"['Daniel Radcliffe', 'Rupert Grint', 'Emma Watson', 'Robbie Coltrane', 'Michael Gambon', 'Gary Oldman', 'David Thewlis', 'Timothy Spall', 'Alan Rickman', 'Tom Felton', 'Emma Thompson', 'Julie Walters', 'Richard Griffiths', 'Fiona Shaw', 'Maggie Smith', 'David Bradley', 'Pam Ferris', 'Dawn French', 'Julie Christie', 'Robert Hardy', 'Mark Williams', 'Harry Melling', 'Adrian Rawlins', 'Geraldine Somerville', 'Lee Ingleby', 'Lenny Henry', 'Jimmy Gardner', 'Jim Tavaré', 'Abby Ford', 'Oliver Phelps', 'James Phelps', 'Chris Rankin', 'Bonnie Wright', 'Devon Murray', 'Warwick Davis', 'Matthew Lewis', 'Sitara Shah', 'Jennifer Smith', 'Bronson Webb', 'Josh Herdman', 'Genevieve Gaunt', 'Kandice Morris', 'Alfred Enoch', 'Annalisa Bugliani', 'Tess Bu Cuarón', 'Violet Columbus', 'Paul Whitehouse', 'Ekow Quartey', 'Ricky Sahota', 'Jamie Waylett', 'Sharon Sandhu', 'Danielle Tabor', 'Freddie Davies', 'Peter Best', 'Lewis Barnshaw', 'Ian Brown', 'Samantha Clinch', 'Marianne Chase', 'Tom Ackerley']",4.09,nan,"['Fantasy', 'Adventure']",141,"['UK', 'USA']",English,['English'],"['Warner Bros. Pictures', '1492 Pictures', 'Heyday Films', 'P of A Productions Limited']",2552810,213355,771258,25000,2320,5419,2747,19757,20986,141227,153918,414798,170746,392845,1324763,https://letterboxd.com/film/harry-potter-and-the-prisoner-of-azkaban/
The Lord of the Rings: The Return of the King,2003,Peter Jackson,"['Elijah Wood', 'Sean Astin', 'Viggo Mortensen', 'Ian McKellen', 'Andy Serkis', 'Dominic Monaghan', 'Billy Boyd', 'John Noble', 'David Wenham', 'Miranda Otto', 'John Rhys-Davies', 'Orlando Bloom', 'Bernard Hill', 'Karl Urban', 'Lawrence Makoare', 'Liv Tyler', 'Hugo Weaving', 'Cate Blanchett', 'Ian Holm', 'Sean Bean', 'Marton Csokas', 'Paul Norell', 'Noel Appleby', 'Ali Astin', 'David Aston', 'John Bach', 'Sadwyn Brophy', 'Alistair Browning', 'Richard Edge', 'Jason Fitch', 'Bruce Hopkins', 'Ian Hughes', 'Bret McKenzie', 'Sarah McLeod', 'Maisy McLeod-Riera', 'Bruce Phillips', 'Shane Rangi', 'Todd Rippon', 'Thomas Robins', 'Harry Sinclair', 'Peter Tait', 'Joel Tobeck', 'Stephen Ure', 'Sala Baker', 'Robert Pollock', 'Ross Duncan', 'Pete Smith', 'Jed Brophy', 'Lee Hartley', 'Billy Jackson', 'Katie Jackson', 'Alan Howard', 'Jane Abbott', 'Gino Acevedo', 'Aidan Bell', 'Jarl Benzon', 'Jørn Benzon', 'Emma Deakin', 'Michael Elsworth', 'Clint Elvy', 'Zo Hartley', 'Peter Jackson', 'Sandro Kopp', 'Andrew Lesnie', 'Joseph Mika-Hunt', 'Henry Mortensen', 'Craig Parker', 'Rick Porras', 'Christian Rivers', 'Michael Semanick', 'Howard Shore', 'John Stephenson', 'Richard Taylor', 'Royd Tolkien']",4.5,nan,"['Fantasy', 'Adventure', 'Action']",201,"['New Zealand', 'USA']",English,['English'],"['New Line Cinema', 'WingNut Films', 'The Saul Zaentz Company']",1900442,237169,654659,50000,1558,4358,1600,11787,8945,60205,56895,218209,166627,563194,1093378,https://letterboxd.com/film/the-lord-of-the-rings-the-return-of-the-king/
School of Rock,2003,Richard Linklater,"['Jack Black', 'Joan Cusack', 'Mike White', 'Sarah Silverman', 'Miranda Cosgrove', 'Joey Gaydos Jr.', 'Kevin Alexander Clark', 'Rivkah Reyes', 'Robert Tsai', 'Maryam Hassan', 'Aleisha Allen', 'Caitlin Hale', 'Brian Falduto', 'Z Infante', 'James Hosey', 'Angelo Massagli', 'Cole Hawkins', 'Lee Wilkof', 'Kate McGregor-Stewart', 'Adam Pascal', 'Lucas Babin', 'Lucas Papaelias', 'Chris Stack', 'Frank Whaley', 'Suzzanne Douglas', 'Jordan-Claire Green', 'Veronica Afflerbach', 'Jaclyn Neidenthal', 'Eron Otcasek', 'Carlos Velazquez', 'Kimberly Grigsby', 'Wally Dunn', 'Tim Hopper', 'Michael Dominguez-Rudolph', 'Crash Cortez', 'Nicky Katt', 'John Highsmith', 'Heather Goldenhersh', 'Timothy ""Speed"" Levitch', 'Scott Graham', 'Sharon Washington', 'Kim Brockington', 'Marty Murphy', 'Kathleen McNenny', 'Joanna Adler', 'Robert Lin', 'Barry Shurchin', 'MacIntyre Dixon', 'Amy Sedaris', 'Mary Fortune', 'Mandy Siegfried', 'Elle Key', 'Carlos J. Da Silva', ""Ian O'Malley"", 'Chris Line', 'Kyle Meaney', 'Lauren Adler', 'Kelly Anne Burns', 'Leanne Cabrera', 'Catherine A. Callahan', 'Cedric Cannon', 'Anivile Daniel', 'Jane DeNoble', 'Caileigh Scott', 'Karen Nazarov', 'Riley G. Matthews, Jr.', ""Ryan O'Connor"", 'Scott Ross', 'Johnny Sullivan', 'Jamie Vergan', 'Joe Wachowski']",3.75,nan,"['Music', 'Comedy']",110,['USA'],English,['English'],"['Paramount', 'Scott Rudin Productions']",1311718,100159,326776,9500,1572,4824,3856,21836,25910,121015,122880,194447,55707,112865,664912,https://letterboxd.com/film/school-of-rock/
The Lord of the Rings: The Two Towers,2002,Peter Jackson,"['Elijah Wood', 'Sean Astin', 'Andy Serkis', 'Viggo Mortensen', 'Ian McKellen', 'Bernard Hill', 'Dominic Monaghan', 'Billy Boyd', 'John Rhys-Davies', 'Orlando Bloom', 'Christopher Lee', 'Miranda Otto', 'David Wenham', 'Brad Dourif', 'Karl Urban', 'Liv Tyler', 'Cate Blanchett', 'Hugo Weaving', 'Craig Parker', 'Bruce Allpress', 'John Bach', 'Sala Baker', 'Jed Brophy', 'Sam Comery', 'Calum Gittins', 'Phil Grieve', 'Bruce Hopkins', 'Paris Howe Strewe', 'Nathaniel Lees', 'John Leigh', 'Robbie Magasiva', 'Robyn Malcolm', 'Bruce Phillips', 'Robert Pollock', 'Olivia Tennet', 'Raymond Trickitt', 'Stephen Ure', 'Billy Jackson', 'Katie Jackson', 'Sean Bean', 'John Noble', 'Victoria Beynon-Cole', 'Lee Hartley', 'Frazer Anderson', 'Ben Barrington', 'Jarl Benzon', 'Jørn Benzon', 'Owen Black', 'Dorothy Anne Bonner', 'Ben Britton', 'Riley Brophy', 'Alistair Browning', 'Alix Bushnell', 'Sean Button', 'Ryan Carey', 'Rodney Cook', 'Augie Davis', 'Mana Hira Davis', 'Shane Dawson', 'Karlos Drinkwater', 'Aron Eastwood', 'Frank Edwards', 'Clint Elvy', 'Alexia Fairbrother', 'Daniel Falconer', 'Siaosi Fonua', 'Kester Fordham', 'Michael Fowler', 'Ben Fransham', 'Frank Goldingham', 'Winham Hammond', 'Jonathan Harding', 'Lucas Hayward', 'Dan Hennah', 'Jason Hood', 'Lani Jackson', 'Peter Jackson', 'Gareth Jensen', 'Sam Kelly', 'Richard Knowles', 'Sandro Kopp', 'Sam La Hood', 'Don Langridge', 'Michael Lawrence', 'Alan Lee', 'Jono Manks', 'Brent McIntyre', 'Dra McKay', 'Joseph Mika-Hunt', 'Dean Morganty', 'Henry Mortensen', 'Francis Mountjoy', 'Paul Norell', 'Barrie M. Osborne', 'Allan Poppleton', 'Gareth Reeves', 'Miranda Rivers', 'Campbell Rousselle', 'Matthew J. Saville', 'Samuel E. Shore', 'Allan Smith', 'Greg Tozer', 'Piripi Waretini', 'Tim Wong', 'John Wraight', 'Kelley Kerr Young', 'Robert Young']",4.39,nan,"['Fantasy', 'Adventure', 'Action']",179,"['New Zealand', 'USA']",English,['English'],"['New Line Cinema', 'WingNut Films', 'The Saul Zaentz Company']",1853758,194885,603080,19000,1540,4239,1742,12374,10521,66972,71700,258043,183025,452028,1062184,https://letterboxd.com/film/the-lord-of-the-rings-the-two-towers/
Harry Potter and the Chamber of Secrets,2002,Chris Columbus,"['Daniel Radcliffe', 'Rupert Grint', 'Emma Watson', 'Kenneth Branagh', 'Toby Jones', 'Robbie Coltrane', 'Richard Harris', 'Alan Rickman', 'Tom Felton', 'Jason Isaacs', 'Shirley Henderson', 'Richard Griffiths', 'Julie Walters', 'Bonnie Wright', 'Fiona Shaw', 'Maggie Smith', 'Warwick Davis', 'David Bradley', 'Sean Biggerstaff', 'Robert Hardy', 'John Cleese', 'Gemma Jones', 'Miriam Margolyes', 'Mark Williams', 'Harry Melling', 'James Phelps', 'Oliver Phelps', 'Chris Rankin', 'Josh Herdman', 'Jamie Waylett', 'Christian Coulson', 'Matthew Lewis', 'Alfred Enoch', 'Devon Murray', 'Luke Youngblood', 'Hugh Mitchell', 'Edward Randell', 'Veronica Clifford', 'Jim Norton', 'Tom Knight', 'Heather Bleasdale', 'Ben Borowiecki', 'Isabella Columbus', 'Edward Tudor-Pole', 'Gemma Padley', 'Jenny Tarren', ""Peter O'Farrell"", 'Eleanor Columbus', 'Harry Taylor', 'Rochelle Douglas', 'Emily Dale', 'Danielle Tabor', 'Jamie Yeates', 'Violet Columbus', 'Peter Taylor', 'Scot Fearn', 'David Holmes', 'David Massam', 'Tony Christian', 'David Churchyard', 'Sally Mortemore', 'Louis Doyle', 'Charlotte Skeoch', 'Brendan Columbus', 'Robert Ayres', 'Alfred Burke', 'Leslie Phillips', 'Helen Stuart', 'Daisy Bates', 'David Tysall', 'Martin Bayfield', 'Julian Glover', 'Les Bubb', 'Ana Mulvoy Ten', 'Zoe Sugg']",3.58,nan,"['Fantasy', 'Adventure']",161,"['UK', 'USA']",English,['English'],"['Warner Bros. Pictures', 'Heyday Films', '1492 Pictures']",2222429,149406,488571,2100,2782,8439,6970,45707,56293,244853,209035,280303,59308,173447,1087137,https://letterboxd.com/film/harry-potter-and-the-chamber-of-secrets/
The Lord of the Rings: The Fellowship of the Ring,2001,Peter Jackson,"['Elijah Wood', 'Ian McKellen', 'Viggo Mortensen', 'Sean Astin', 'Sean Bean', 'Billy Boyd', 'Dominic Monaghan', 'Ian Holm', 'Christopher Lee', 'Liv Tyler', 'John Rhys-Davies', 'Orlando Bloom', 'Hugo Weaving', 'Cate Blanchett', 'Brent McIntyre', 'Sala Baker', 'Andy Serkis', 'Lawrence Makoare', 'Craig Parker', 'Marton Csokas', 'Peter McKenzie', 'Mark Ferguson', 'Harry Sinclair', 'Noel Appleby', 'Megan Edwards', 'Sarah McLeod', 'David Weatherley', 'Ian Mune', 'Michael Elsworth', 'Cameron Rhodes', 'Martyn Sanderson', 'Billy Jackson', 'Katie Jackson', 'Alan Howard', 'Victoria Beynon-Cole', 'Paul Bryson', 'Lance Fabian Kemp', 'Phil Grieve', 'Lee Hartley', 'Jonathan Jordan', 'Semi Kuresa', 'Sam La Hood', 'Jono Manks', 'Ben Price', 'Chris Streeter', 'Clinton Ulyatt', 'Peter Jackson', 'Chris Ryan', 'Bret McKenzie', 'Betty Adams', 'Timothy Bartlett', 'Bob Blackwell', 'David Houma', 'Jo Surgison', 'Liz Merton', 'Zo Hartley', 'Norman Cates', 'Jeff Kingsford-Brown', 'Marta Martí', 'Riley Brophy', 'Phoebe Gittins', 'Taea Hartwell', 'Shane Rangi', 'Jed Brophy', 'Paul Shapcott', 'Alan Lee', 'Larry Rew', 'Gino Acevedo', 'Xander Forterie', 'Richard Maybery', 'Sabine Crossen', 'Gareth Jensen', 'Ben Britton', 'Kester Fordham', 'Jarl Benzon', 'Sam Kelly', 'Matt Appleton', 'Blair Morton', 'Ray Henwood', 'Ralph Johnson', 'Jonathan Harding', 'Jørn Benzon', 'Ben Fransham', 'Tim Kano', 'Sacha Lee', 'Thomas Robins', 'Randall William Cook', 'Rachel Clentworth', 'Lani Jackson', 'Sharon Maxwell', 'David J. Muzzerall', 'Winham Hammond', 'Mana Hira Davis', 'Warren Green', 'Stu Johnson', 'Peter Lyon', 'Peter Daube', 'Samuel E. Shore', 'Rodney Bane', 'Daniel Andrews', 'Siaosi Fonua', 'Ken Stratton', 'Lynden Berrymen', 'Ryan Carey', 'Tack Daniel', 'Shane Dawson', 'Branko Dordevich', 'Greg Lane', 'Tim McLachlan', 'Dean Morganty', 'Greg Morrison', 'Andrew Munro', 'Grant Roa', 'Vincent Roxburgh', 'Mike Stearne', 'Andrew Stehlin', 'Tim Wong']",4.37,nan,"['Fantasy', 'Adventure', 'Action']",179,"['New Zealand', 'USA']",English,['English'],"['New Line Cinema', 'WingNut Films', 'The Saul Zaentz Company']",2373140,260093,843417,43000,2747,7696,2655,19134,13823,92234,91030,341857,216830,609571,1397577,https://letterboxd.com/film/the-lord-of-the-rings-the-fellowship-of-the-ring/
Harry Potter and the Philosopher's Stone,2001,Chris Columbus,"['Daniel Radcliffe', 'Rupert Grint', 'Emma Watson', 'Richard Harris', 'Tom Felton', 'Alan Rickman', 'Robbie Coltrane', 'Maggie Smith', 'Richard Griffiths', 'Ian Hart', 'Fiona Shaw', 'John Hurt', 'David Bradley', 'Matthew Lewis', 'Sean Biggerstaff', 'Warwick Davis', 'Harry Melling', 'James Phelps', 'Oliver Phelps', 'John Cleese', 'Chris Rankin', 'Alfred Enoch', 'Devon Murray', 'Jamie Waylett', 'Josh Herdman', 'Zoë Wanamaker', 'Julie Walters', 'Bonnie Wright', 'Luke Youngblood', 'Verne Troyer', 'Adrian Rawlins', 'Geraldine Somerville', 'Elizabeth Spriggs', 'Richard Bremmer', 'Nina Young', 'Terence Bayler', 'Harry Taylor', 'Leslie Phillips', 'Simon Fisher-Becker', 'Derek Deadman', 'Ray Fearon', 'Eleanor Columbus', 'Ben Borowiecki', 'Danielle Tabor', 'Leilah Sutherland', 'Emily Dale', 'Will Theakston', 'Saunders Triplets', 'David Holmes', 'Jean Southern', 'Kieri Kennedy', 'Leila Hoffman', 'Julianne Hough', 'Zoe Sugg', 'Jimmy Vee', 'Derek Hough', 'Dani Harmer', 'Mark Ballas', 'Paul Marc Davis', 'Violet Columbus', 'Paul Grant', 'Scot Fearn', 'Jamie Yeates']",3.76,nan,"['Adventure', 'Fantasy']",152,"['UK', 'USA']",English,['English'],"['Warner Bros. Pictures', 'Heyday Films', '1492 Pictures']",2564765,199680,663365,6800,3155,8644,5427,39532,44166,240413,220685,377033,85273,275811,1300139,https://letterboxd.com/film/harry-potter-and-the-philosophers-stone/
Spirited Away,2001,Hayao Miyazaki,"['Rumi Hiiragi', 'Miyu Irino', 'Mari Natsuki', 'Takashi Naito', 'Yasuko Sawaguchi', 'Tsunehiko Kamijô', 'Takehiko Ono', 'Bunta Sugawara', 'Akio Nakamura', 'Yumi Tamai', 'Ryunosuke Kamiki', 'Tatsuya Gashûin', 'Yo Oizumi', 'Ken Yasuda', 'Koba Hayashi', 'Shigeru Wakita', 'Shirou Saitou', 'Michiko Yamamoto', 'Keiko Tsukamoto', 'Shinji Tokumaru', 'Kaori Yamagata', 'Yayoi Kazuki', 'Masahiro Asano', 'Kazutaka Hayashida', 'Ikuko Yamamoto', 'Mina Meguro', 'Tetsurô Ishibashi', 'Katsutomo Shîbara', 'Shinobu Katabuchi', 'Noriko Kitou', 'Naoto Kaji', 'Yoshitaka Sukegawa', 'Aki Tachikawa', 'Noriko Yamaya', 'Katsuhisa Matsuo', 'Masayuki Kizu', 'Yôko Ôno', 'Sachie Azuma', 'Shigeyuki Totsugi', 'Mayumi Saco', 'Sonoko Soeda', 'Akiko Tomihira', 'Minako Masuda', 'Orika Ono', 'Rina Yamada', 'Miwa Takachi', 'Hiromi Takeuchi', 'Makiko Oku']",4.45,5.0,"['Family', 'Fantasy', 'Animation']",125,['Japan'],Japanese,['Japanese'],['Studio Ghibli'],2701990,371595,1271053,75000,1676,4053,1869,12121,11503,81185,95701,405294,266543,902391,1782336,https://letterboxd.com/film/spirited-away/
Amélie,2001,Jean-Pierre Jeunet,"['Audrey Tautou', 'Mathieu Kassovitz', 'Rufus', 'Lorella Cravotta', 'Serge Merlin', 'Jamel Debbouze', 'Clotilde Mollet', 'Claire Maurier', 'Isabelle Nanty', 'Dominique Pinon', 'Artus de Penguern', 'Yolande Moreau', 'Urbain Cancelier', 'Maurice Bénichou', 'Michel Robin', 'Andrée Damant', 'Claude Perron', 'Armelle', 'Ticky Holgado', 'André Dussollier', 'Eugène Berthier', 'Charles-Roger Bour', 'Kevin Dias', 'Flora Guiet', 'Amaury Babault', 'Marion Pressburger', 'Luc Palun', 'Fabienne Chaudat', 'Dominique Bettenfeld', 'Jacques Viala', 'Fabien Béhar', 'Jonathan Joss', 'Jean-Pierre Becker', 'Jean Darie', 'Thierry Gibault', 'François Bercovici', 'Franck Monier', 'Guillaume Viry', 'Valérie Zarrouk', 'Marie-Laure Descoureaux', 'Sophie Tellier', 'Gérald Weingand', 'François Viaur', 'Paule Daré', 'Marc Amyot', 'Myriam Labbé', 'Jean Rupert', 'Frankie Pain', 'Julianna Kovacs', 'Philippe Paimblanc', 'Mady Malroux', 'Monette Malroux', 'Robert Gendreu', 'Valériane de Villeneuve', 'Isis Peyrade', 'Raymonde Heudeline', 'Christiane Bopp', 'Thierry Arfeuillères', 'Jerry Lucas', 'Patrick Paroux', 'François Aubineau', 'Philippe Beautier', 'Karine Asure', 'Régis Iacono', 'Franck-Olivier Bonnet', 'Alain Floret', 'Jean-Pol Brissart', 'Frédéric Mitterrand', 'Laurent Delpit', 'Manoush', 'Jacques Thébault', 'Dean Baykan', 'Clément Chebli', 'Eloïse Labro']",4.16,5.0,"['Romance', 'Comedy']",122,"['France', 'Germany']",French,"['French', 'Russian']","['Victoires Productions', 'Tapioca Films', 'France 3 Cinéma', 'MMC Independent', 'GmbH', 'UGC']",1157886,187550,417090,43000,2276,5126,2784,14355,13283,62775,71280,194128,93860,222104,681971,https://letterboxd.com/film/amelie/
Fight Club,1999,David Fincher,"['Edward Norton', 'Brad Pitt', 'Helena Bonham Carter', 'Meat Loaf', 'Jared Leto', 'Zach Grenier', 'Holt McCallany', 'Eion Bailey', 'Richmond Arquette', 'David Andrews', 'George Maguire', 'Eugenie Bondurant', 'Christina Cabot', ""Sydney 'Big Dawg' Colston"", 'Rachel Singer', 'Christie Cronenweth', 'Tim DeZarn', 'Ezra Buzzington', 'Dierdre Downing-Jackson', 'Bob Stephenson', 'Charlie Dell', 'Rob Lanza', 'David Lee Smith', 'Joel Bissonnette', 'Evan Mirand', 'Robby Robinson', 'Lou Beatty Jr.', 'Thom Gossom Jr.', 'Valerie Bickford', 'Peter Iacangelo', 'Carl Ciarfalio', 'Stuart Blumberg', 'Todd Peirce', 'Mark Fite', 'Matt Winston', 'Joon Kim', 'Bennie Moore', 'Lauren Sánchez', 'Pat McNamara', 'Tyrone R. Livingston', 'Owen Masterson', 'David Jean Thomas', 'Paul Carafotes', 'Christopher John Fields', 'Anderson Bourell', 'Scotch Ellis Loring', 'Michael Shamus Wiles', 'Andi Carnick', 'Ed Kowalczyk', 'Leonard Termo', 'Van Quattro', 'Markus Redmond', 'Michael Girardin', 'Michael Arturo', 'Greg Bronson', 'Matt Cinquanta', 'Paul Dillon', 'Eddie Hargitay', 'Phil Hawn', 'Bruce Holman', 'Jawara', 'Baron Jay', 'Jim Jenkins', 'Kevin Scott Mack', 'Trey Ore', 'Louis Ortiz', 'Hugh Peddy', 'J.T. Pontino', 'Chad Randau', 'Marcio Rosario', 'Gregory Silva', 'Brian Tochi', 'Michael Zagst', 'Marc Cinquanta', 'Summer Moore']",4.27,5.0,['Drama'],139,"['Germany', 'USA']",English,['English'],"['Fox 2000 Pictures', 'Regency Enterprises', 'The Linson Company', '20th Century Fox', 'Taurus Film']",3678375,411491,1695013,113000,3480,9321,4504,30996,25581,171282,183275,705559,410178,989100,2533276,https://letterboxd.com/film/fight-club/
American Beauty,1999,Sam Mendes,"['Kevin Spacey', 'Annette Bening', 'Thora Birch', 'Wes Bentley', 'Mena Suvari', 'Peter Gallagher', 'Allison Janney', 'Chris Cooper', 'Scott Bakula', 'Sam Robards', 'Barry Del Sherman', 'Ara Celi', 'John Cho', 'Fort Atkinson', 'Sue Casey', 'Kent Faulcon', 'Brenda Wehle', 'Lisa Cloud', 'Alison Faulk', 'Krista Goodsitt', 'Lily Houtkin', 'Carolina Lancaster', 'Mona Leah', 'Chekesha Van Putten', 'Emily Zachary', 'Nancy Anderson', 'Reshma Gajjar', 'Stephanie Rizzo', 'Heather Joy Sher', 'Chelsea Hertford', 'Amber Smith', 'Joel McCrary', 'Marissa Jaret Winokur', 'Dennis Anderson', 'Matthew Kimbrough', 'Erin Cathryn Strubbe', 'Thomas J. Armstrong', 'Bruce Cohen', 'Elaine Corral Kendall', 'David C. Fisher', 'James Hunter', 'Spencer Kayden', 'Tom Miller', 'Ronald Reagan']",3.96,4.0,['Drama'],122,['USA'],English,['English'],"['DreamWorks Pictures', 'Jinks/Cohen Company']",1218848,157223,333469,12000,3616,7577,4550,22000,19783,87978,92306,231520,103931,143921,717182,https://letterboxd.com/film/american-beauty/
The Truman Show,1998,Peter Weir,"['Jim Carrey', 'Laura Linney', 'Noah Emmerich', 'Natascha McElhone', 'Holland Taylor', 'Ed Harris', 'Paul Giamatti', 'Brian Delate', 'Peter Krause', 'Blair Slater', 'Heidi Schanz', 'Una Damon', 'Krista Lynn Landolfi', 'O-Lan Jones', 'Ron Taylor', 'Don Taylor', 'Ted Raymond', 'Harry Shearer', 'Jeanette Miller', 'Philip Glass', 'Joe Minjares', 'Philip Baker Hall', 'John Pleshette', 'Terry Camilleri', 'Joel McKinnon Miller', 'Judy Clayton', 'Fritz Dominique', 'Angel Schmiedt', 'Nastassja Schmiedt', 'Muriel Moore', 'Mal Jones', 'Judson Vaughn', 'Earl Hilliard Jr.', 'David Andrew Nash', 'Jim Towers', 'Savannah Swafford', 'Antoni Corone', 'Mario Ernesto Sánchez', 'John Roselius', 'Kade Coates', 'Marcia DeBonis', 'Sam Kitchin', 'Sebastian Youngblood', 'Dave Corey', 'Mark Alan Gillott', 'Jay Saiter', 'Tony Todd', 'Marco Rubeo', 'Daryl Davis', 'Robert Davis', 'R.J. Murdock', 'Matthew McDonough', 'Larry McDowell', 'Joseph Lucus', 'Logan Kirksey', 'Adam Tomei', 'John Pramik', 'Al Foster', 'Zoaunne LeRoy', 'Millie Slavin', 'Dona Hardy', 'Tom Simmons', 'Susan Angelo', 'Carly Smiga', 'Yuji Okumoto', 'Kiyoko Yamaguchi', 'Saemi Nakamura', 'Sergio Kato', 'Jake Eberle', 'Marc Macaulay', 'Melissa Fitzgerald', 'Erik Rodenhiser']",4.21,nan,"['Comedy', 'Drama']",103,['USA'],English,['English'],"['Paramount', 'Scott Rudin Productions']",3120885,263835,1261110,48000,1172,4173,2168,19349,18371,161363,190898,663678,321415,620868,2003455,https://letterboxd.com/film/the-truman-show/
Back to the Future Part III,1990,Robert Zemeckis,"['Michael J. Fox', 'Christopher Lloyd', 'Mary Steenburgen', 'Thomas F. Wilson', 'Lea Thompson', 'Elisabeth Shue', 'Matt Clark', 'Richard Dysart', 'Pat Buttram', 'Harry Carey, Jr.', 'Dub Taylor', 'James Tolkan', 'Marc McClure', 'Wendie Jo Sperber', 'Jeffrey Weissman', 'Christopher Wynne', 'Sean Sullivan', 'Mike Watson', 'Hugh Gillin', 'Burton Gilliam', 'Bill McKinney', 'Donovan Scott', 'Flea', 'J.J. Cohen', 'Ricky Dean Logan', 'Marvin J. McIntyre', 'Kaleb Henley', 'Todd Cameron Brown', 'Dannel Evans', 'Leslie A. Prickett', 'Dean Cundey', 'Jo B. Cummings', 'Steve McArthur', 'John Ickes', 'James A. Rammel', 'Michael Klastorin', 'Michael Mills', 'Kenny Myers', 'Brad McPeters', 'Phinnaes D.', 'Rod Kuehne', 'Leno Fletcher', 'Joey Newington', 'Larry Ingold', 'Tim Konrad', 'Glenn Fox']",3.52,nan,"['Science Fiction', 'Comedy', 'Adventure']",119,['USA'],English,['English'],"['Universal Pictures', 'Amblin Entertainment']",844103,65837,171196,1100,1140,4285,3802,21536,26903,99061,94704,104391,27060,44149,427031,https://letterboxd.com/film/back-to-the-future-part-iii/
Back to the Future Part II,1989,Robert Zemeckis,"['Michael J. Fox', 'Christopher Lloyd', 'Lea Thompson', 'Thomas F. Wilson', 'Elisabeth Shue', 'James Tolkan', 'Jeffrey Weissman', 'Casey Siemaszko', 'Billy Zane', 'J.J. Cohen', 'Charles Fleischer', 'E. Casanova Evans', 'Jay Koch', 'Charles Gherardi', 'Ricky Dean Logan', 'Darlene Vogel', 'Jason Scott Lee', 'Elijah Wood', 'John Thornton', 'Theo Schwartz', 'Lindsey Whitney Barry', 'Judy Ovitz', 'Stephanie Williams', 'Marty Levy', 'Flea', 'Jim Ishida', 'Nikki Birdsong', 'Al White', 'Junior Fann', 'Shaun Hunter', 'George Buck Flower', 'Neil Ross', 'Tamara Carrera', 'Tracy Dali', 'Jennifer Brown', 'Irina Cashen', 'Angela Greenblatt', 'Cameron Moore', 'Justin Mosley Spink', 'Lisa Freeman', 'John Erwin', 'Harry Waters, Jr.', 'David Harold Brown', 'Tommy Thomas', 'Lloyd L. Tolbert', ""Granville 'Danny' Young"", 'Wesley Mann', 'Joe Flaherty', 'Marc McClure', 'Crispin Glover', 'Stephanie E. Williams', 'Mary Ellen Trainor']",3.87,nan,"['Comedy', 'Science Fiction', 'Adventure']",108,['USA'],English,['English'],"['Universal Pictures', 'Amblin Entertainment']",1132229,87808,273547,5400,726,2462,2149,14098,18062,87818,102368,185579,63203,97500,573965,https://letterboxd.com/film/back-to-the-future-part-ii/
Ferris Bueller's Day Off,1986,John Hughes,"['Matthew Broderick', 'Alan Ruck', 'Mia Sara', 'Jeffrey Jones', 'Jennifer Grey', 'Cindy Pickett', 'Lyman Ward', 'Edie McClurg', 'Charlie Sheen', 'Ben Stein', 'Del Close', 'Virginia Capers', 'Richard Edson', 'Larry Jenkins', 'Kristy Swanson', 'Lisa Bellard', 'Max Perlich', 'Scott Coffey', 'Eric Saiet', 'Jason Alderman', 'Joey Garfield', 'Kristin Graziano', 'Bridgett Baron', 'Annie Ryan', 'Eric Edidin', 'Brendan Baber', 'Tiffany Chance', 'Jonathan Schmock', 'Tom Spratley', 'Dave Silvestri', 'Debra Montague', 'Joey D. Vieira', 'Louie Anderson', 'Stephanie Blake', 'Robert McKibbon', 'Paul Manzanero', 'Miranda Whittle', 'Robert Kim', 'Dick Sollenberger', 'Bob Parkinson', 'Richard Rohrbough', 'Edward Le Beau', 'Polly Noonan', 'DeeDee Rescher', 'John Hughes', 'Lee Ann Marie']",3.93,5.0,['Comedy'],103,['USA'],English,['English'],['Paramount'],1435203,168092,458354,24000,1806,4573,3158,17763,19575,104014,120148,259876,93757,184469,809139,https://letterboxd.com/film/ferris-buellers-day-off/
Back to the Future,1985,Robert Zemeckis,"['Michael J. Fox', 'Christopher Lloyd', 'Crispin Glover', 'Lea Thompson', 'Claudia Wells', 'Thomas F. Wilson', 'Marc McClure', 'Wendie Jo Sperber', 'George DiCenzo', 'Frances Lee McCain', 'Billy Zane', 'J.J. Cohen', 'Casey Siemaszko', 'James Tolkan', 'Harry Waters, Jr.', 'Donald Fullilove', 'Lisa Freeman', 'Cristen Kauffman', 'Elsa Raven', 'Will Hare', 'Ivy Bethune', 'Jason Marin', 'Katherine Britton', 'Jason Hervey', 'Maia Brewton', 'Courtney Gains', 'Richard L. Duran', ""Jeff O'Haco"", 'Johnny Green', 'Jamie Abbott', 'Norman Alden', 'Read Morgan', 'Sachi Parker', 'Robert Krantz', 'Gary Riley', 'Karen Petrasek', 'George Buck Flower', 'Tommy Thomas', ""Granville 'Danny' Young"", 'David Harold Brown', 'Lloyd L. Tolbert', 'Paul Hanson', 'Lee Brownfield', 'Robert DeLapp', 'Tony Pope', 'Charles L. Campbell', 'Huey Lewis', 'Kiki Ebsen', 'Randy Feelgood', 'Hal Gausman', 'Deborah Harmon', 'Arthur Tovey', 'Ethel Sway', 'Janine King', 'Richard Patrick', 'Tom Tangen', 'Tom Willett']",4.2,5.0,"['Comedy', 'Science Fiction', 'Adventure']",116,['USA'],English,['English'],"['Universal Pictures', 'Amblin Entertainment']",2375285,238838,813231,52000,1036,3453,2051,17091,16454,128388,133952,404597,174668,437520,1319210,https://letterboxd.com/film/back-to-the-future/
E.T. the Extra-Terrestrial,1982,Steven Spielberg,"['Henry Thomas', 'Drew Barrymore', 'Robert MacNaughton', 'Peter Coyote', 'Dee Wallace', 'Erika Eleniak', 'K.C. Martel', 'C. Thomas Howell', 'Sean Frye', ""David M. O'Dell"", 'Richard Swingler', 'Frank Toth', 'Robert Barton', 'Michael Darrell', 'David Berkson', 'David Carlberg', 'Milt Kogan', 'Alexander Lampone', 'Rhoda Makoff', 'Robert Murphy', 'Richard Pesavento', 'Tom Sherry', 'Susan Cameron', 'Will Fowler Jr.', 'Barbara Hartnett', 'Diane Lampone', 'Mary Stein', 'Mitch Suskin', 'Ted Grossman', 'James Kahn', 'Anne Lockhart', 'Melissa Mathison', 'Debra Winger', 'Lori Randolph']",3.85,nan,"['Science Fiction', 'Fantasy', 'Adventure', 'Family']",115,['USA'],English,['English'],"['Universal Pictures', 'Amblin Entertainment']",1508959,161841,317156,5400,2467,5924,3770,22255,22382,115353,111866,217073,64053,128853,693996,https://letterboxd.com/film/et-the-extra-terrestrial/
2001: A Space Odyssey,1968,Stanley Kubrick,"['Keir Dullea', 'Gary Lockwood', 'William Sylvester', 'Douglas Rain', 'Daniel Richter', 'Leonard Rossiter', 'Margaret Tyzack', 'Robert Beatty', 'Sean Sullivan', 'Frank Miller', 'Ed Bishop', 'Edwina Carroll', 'Heather Downham', 'Penny Brahms', 'Maggie London', 'Chela Matthison', 'Judy Kiern', 'Alan Gifford', 'Ann Gillis', 'Vivian Kubrick', 'Kenneth Kendall', 'Kevin Scott', 'Martin Amor', 'Bill Weston', 'Glenn Beck', 'Mike Lovell', 'John Ashley', 'Jimmy Bell', 'David Charkham', 'Simon Davis', 'Jonathan Daw', 'Péter Delmár', 'Terry Duggan', 'David Fleetwood', 'Danny Grover', 'Brian Hawley', 'David Hines', 'Tony Jackson', 'John Jordan', 'Scott MacKee', 'Laurence Marchant', 'Darryl Paes', 'Joe Refalo', 'Andy Wallace', 'Bob Wilyman', 'Richard Woods', 'S. Newton Anderson', 'Sheraton Blount', 'Ann Bormann', 'Julie Croft', 'Penny Francis', 'Marcella Markham', 'Irena Marr', 'Krystyna Marr', 'Kim Neil', 'Jane Pearl', 'Penny Pearl', 'Burnell Tucker', 'John Swindells', 'John Clifford', 'Stanley Kubrick', 'Anthony Jackson', 'Frank W. Miller', 'Harry Fielder']",4.3,4.0,"['Adventure', 'Mystery', 'Science Fiction']",149,"['UK', 'USA']",English,"['English', 'Russian']","['Stanley Kubrick Productions', 'Metro-Goldwyn-Mayer']",1272446,301463,458358,43000,4561,9303,4558,20332,15644,61391,58954,177440,124413,352818,829414,https://letterboxd.com/film/2001-a-space-odyssey/
