Film_title,Release_year,Director,Cast,Average_rating,Owner_rating,Genres,Runtime,Countries,Original_language,Spoken_languages,Studios,Watches,List_appearances,Likes,Fans,½,★,★½,★★,★★½,★★★,★★★½,★★★★,★★★★½,★★★★★,Total_ratings,Film_URL
Sing Street,2016,John Carney,"['Ferdia Walsh-Peelo', 'Lucy Boynton', 'Jack Reynor', 'Ben Carolan', 'Mark McKenna', 'Kelly Thornton', 'Maria Doyle Kennedy', 'Aidan Gillen', 'Ian Kenny', 'Percy Chamburuka', 'Connor Hamilton', 'Karl Rice', 'Don Wycherley', 'Des Keogh', 'Kian Murphy', 'Dolores Mullally', 'Marcella Plunkett', 'Vera Nwabuwe', 'Tony Doyle', 'Keith McErlean', 'Art Campion', 'Lydia McGuinness', 'Kyle Bradley Donaldson', 'Paul Gibbons', 'Eva-Jane Gaffney', 'Paul Roe', 'Pádraig J. Dunne']",4.02,5.0,"['Romance', 'Drama', 'Music']",106,"['Denmark', 'Ireland', 'UK', 'USA']",English,['English'],"['Cosmo Film', 'Distressed Films', 'FilmNation Entertainment', 'Likely Story', 'PalmStar Media', 'FilmWave']",321404,75905,118579,7900,316,719,663,3300,4807,22713,36071,74720,34412,43496,221217,https://letterboxd.com/film/sing-street/
Frank,2014,Lenny Abrahamson,"['Domhnall Gleeson', 'Maggie Gyllenhaal', 'Scoot McNairy', 'Michael Fassbender', 'François Civil', 'Carla Azar', 'Tess Harper', 'Bruce McIntosh', 'Hayley Derryberry', 'Lauren Poole', 'Moira Brooker', 'Paul Butterworth', 'Phil Kingston', 'Billie Traynor', ""Shane O'Brien"", 'Chris McHallem', 'Michael James Ford', 'Mark Huberman', 'Rosalind Adler', 'Niall Glennon', 'Torsten Brescanu', 'Leroy Harris', 'Noah Hauser', 'Laura Love Tode', 'Jordyn Aurora Aquino', 'Katie Anne Mitchell', 'Paul Smith', 'Matthew Page', 'Alex Knight', 'Abe Bueno-Jallad', 'Morse Bicknell', 'Dean Satriano', 'Peter Trinh', 'Kevin Wiggins', 'Travis Hammer']",3.58,4.5,"['Comedy', 'Drama', 'Mystery']",95,"['Ireland', 'UK']",English,['English'],"['Runaway Fridge Productions', 'Element Pictures', 'Film4 Productions', 'Protagonist Pictures', 'BFI']",168578,25084,38969,881,376,1059,1077,4488,6515,21439,25881,28279,7209,7139,103462,https://letterboxd.com/film/frank-2014/
Juno,2007,Jason Reitman,"['Elliot Page', 'Michael Cera', 'Jennifer Garner', 'Jason Bateman', 'J.K. Simmons', 'Allison Janney', 'Olivia Thirlby', 'Eileen Pedde', 'Rainn Wilson', 'Daniel Clark', 'Darla Fay', 'Aman Johal', 'Valerie Tian', 'Emily Perkins', 'Kaaren de Zilva', 'Steven Christopher Parker', 'Candice King', 'Sierra Pitkin', 'Cut Chemist', 'Eve Harlow', 'Kirsten Alter', 'Emily Tennant', 'Ashley Whillans', 'Jeff Witzke', 'Colin McSween', 'Peggy Logan', 'Cameron Bright', 'Joy Galmut', 'Wendy Russell', 'Robyn Ross']",3.73,4.5,"['Romance', 'Comedy', 'Drama']",96,['USA'],English,['English'],"['Mandate Pictures', 'Mr. Mudd Production', 'Fox Searchlight Pictures']",1390770,148354,384684,19000,2546,6674,4572,26567,27659,134833,139563,238027,68534,125342,774317,https://letterboxd.com/film/juno/
