Film_title,Release_year,Director,Cast,Average_rating,Owner_rating,Genres,Runtime,Countries,Original_language,Spoken_languages,Studios,Watches,List_appearances,Likes,Fans,½,★,★½,★★,★★½,★★★,★★★½,★★★★,★★★★½,★★★★★,Total_ratings,Film_URL
The Willoughbys,2020,Kris Pearn,"['Will Forte', 'Maya Rudolph', 'Alessia Cara', 'Terry Crews', 'Martin Short', 'Jane Krakowski', 'Seán Cullen', 'Ricky Gervais', 'Fiona Toth', 'Islie Hirvonen', 'Colleen Wheeler', 'Bonnie Riley', 'Robyn Ross', 'Shannon Chan-Kent', 'Rebecca Husain', 'Cristina Rosato']",3.11,4.0,"['Comedy', 'Family', 'Animation']",92,"['Canada', 'USA']",English,['English'],"['Bron Animation', 'Creative Wealth Media Finance', 'Bron Studios']",60995,9328,9899,62,457,893,985,3253,4370,10933,8028,6561,1424,2550,39454,https://letterboxd.com/film/the-willoughbys/
Klaus,2019,Sergio Pablos,"['Jason Schwartzman', 'J.K. Simmons', 'Rashida Jones', 'Joan Cusack', 'Norm Macdonald', 'Will Sasso', 'Sergio Pablos', 'Mila Brener', 'Neda Margrethe Labba', 'Sydney Brower', 'Teddy Blum', 'Julian Zane Chowdhury', 'Emma Shannon', 'Kendall Joy Hall', 'Sky Alexis', 'Tucker Meek', 'Amanda Philipson', 'Finn Carr', 'Lucian Perez', 'Emma Yarovinsky', 'Jaeden Bettencourt', 'Hailey Hermida', 'Evan Agos', 'Leo Miller', 'Bailey Rae Fenderson', 'Ayden Soria', 'Reiulf Aleksandersen', 'Matthew McCann', 'Hudson West', 'Joaquin Obradors']",4.12,5.0,"['Comedy', 'Adventure', 'Animation', 'Fantasy', 'Family']",96,"['Spain', 'USA', 'UK']",English,"['English', 'Northern Sami']","['Atresmedia', 'The SPA Studios']",465845,78726,158297,1800,274,806,659,3829,5310,25965,43476,107037,54157,76334,317847,https://letterboxd.com/film/klaus/
Dumbo,2019,Tim Burton,"['Colin Farrell', 'Michael Keaton', 'Danny DeVito', 'Eva Green', 'Alan Arkin', 'Nico Parker', 'Finley Hobbins', 'Roshan Seth', 'Deobia Oparei', 'Joseph Gatt', 'Miguel Muñoz Segura', 'Sharon Rooney', 'Zenaida Alcalde', 'Michael Buffer', 'Phil Zimmerman', 'Ragevan Vasan', 'Frank Bourke', 'Zelda Rosset Colon', 'Benjamin French', 'Jana Posna', 'Jo Osmond', 'Jewels Good', 'Lars Eidinger', 'Tom Seekings', 'Douglas Reith', 'Sandy Martin', 'Heather Rome', 'Scott Haney', 'Erick Hayden', 'Greg Canestrari', 'Chris Rogers', 'Max Gill', 'Peter Brookes', 'Simon Connolly', 'Nick Bartlett', 'Harry Taylor', 'Vincent Andriano', 'Liam Bewley', 'Ben Crowe', 'Josef Davies', 'Clive Brunt', 'Richard Leeming', 'Angela Ashton', 'Alice Bonifacio', 'Philip Rosch', 'Joseph Macnab', 'Rob Heanley', 'Amerjit Deu', 'Lucy DeVito', 'Richard James-Clarke', 'Matthew Castle', 'Bret Jones', 'Zee Asha', 'Carol Been', 'Jessica Barker-Wren', 'Arabella Neale', 'Rosie Akerman', 'Tim Southgate', 'Anatoli Akerman', 'Kamil Lemieszewski', 'Zoë Scott', 'Suan-Li Ong', 'Paul Riddell', 'Will Rowlands']",2.56,4.0,"['Fantasy', 'Family', 'Adventure']",112,"['Australia', 'Canada', 'UK', 'USA']",English,['English'],"['Tim Burton Productions', 'Walt Disney Pictures', 'Infinite Detective', 'Secret Machine Entertainment', 'British Film Commission', 'South Australian Film Corporation']",179677,30342,16026,24,2901,6684,6905,19379,18048,27421,11556,8657,1417,3249,106217,https://letterboxd.com/film/dumbo-2019/
The Nutcracker and the Four Realms,2018,"Joe Johnston, Lasse Hallström","['Mackenzie Foy', 'Jayden Fowora-Knight', 'Tom Sweet', 'Keira Knightley', 'Helen Mirren', 'Morgan Freeman', 'Eugenio Derbez', 'Matthew Macfadyen', 'Richard E. Grant', 'Sergei Polunin', 'Misty Copeland', 'Anna Madeley', 'Ellie Bamber', 'Jack Whitehall', 'Omid Djalili', 'Γκουστάβο Ντουνταμέλ', 'Nick Mohammed', 'Charles Streeter', 'Craig Garner', 'Meera Syal', 'Max Westwell', 'Aaron Smyth', 'Sophie Apollonia', 'Zoe Arshamian', 'Diogo Barbosa', 'Harris Bell', 'Julia Conway', 'James Butcher', 'Jonathan Caguioa', 'Lil Buck', 'Ocean Navarro', 'Gemma Wilks', 'Trent Owers', 'Bethany Harrison']",2.4,4.0,"['Adventure', 'Fantasy', 'Family']",99,['USA'],English,['English'],"['Walt Disney Pictures', 'The Mark Gordon Company']",72834,12747,6241,40,1439,3418,3718,8885,7207,9334,3754,3366,563,1400,43084,https://letterboxd.com/film/the-nutcracker-and-the-four-realms/
My Dear Prime Minister,2018,Rakeysh Omprakash Mehra,"['Anjali Patil', 'Makrand Deshpande', 'Atul Kulkarni', 'Rasika Agashe', 'Sonia Albizuri', 'Syna Anand', 'Adarsh Bharti', 'Om Kanojiya', 'Varun Kulkarni', 'Prasad', 'Nachiket Purnapatre', 'Niteesh Wadhwa', 'Jigyasa Yaduwanshi']",3.39,4.5,['Drama'],104,['India'],Hindi,['Hindi'],"['Aham Brahmasmi Entertaiment', 'Rakeysh Omprakash Mehra Pictures', 'PVP Cinema']",315,78,59,1,1,3,3,11,19,51,47,40,10,16,201,https://letterboxd.com/film/my-dear-prime-minister/
Up Among the Stars,2018,Zoe Berriatúa,"['Luis Callejo', 'Jorge Andreu', 'Macarena Gómez', 'Ingrid García Jonsson', 'Kiti Mánver', 'María Morales', 'José Luis García Pérez', 'Pablo Turégano', 'Magüi Mira', 'Liz Lobato', 'Toni Rodriguez', 'Álvaro Roig']",3.29,4.5,['Drama'],86,['Spain'],Spanish,['Spanish'],"['la bestia produce', 'Nadie es Perfecto', 'Pokeepsie Films']",691,227,118,1,3,7,15,46,67,152,104,92,10,15,511,https://letterboxd.com/film/up-among-the-stars/
The Man Who Killed Don Quixote,2018,Terry Gilliam,"['Adam Driver', 'Jonathan Pryce', 'Stellan Skarsgård', 'Jordi Mollà', 'Joana Ribeiro', 'Óscar Jaenada', 'Olga Kurylenko', 'Will Keen', 'Rossy de Palma', 'Sergi López', 'Paloma Bloyd', 'Lídia Franco', 'Bruno Schiappa', 'Terry Gilliam', 'Jason Watkins', ""Maria d'Aires"", 'Jorge Calvo', 'Jimmy Castro', 'Viveka Rytzner', 'Alberto Jo Lee', 'José Luis Ferrer', 'Ismael Fritschi', 'Juan López-Tagle', 'Filipa Pinto', 'Diogo Andrade', 'Joe Manjón']",3.21,5.0,"['Adventure', 'Comedy']",133,"['Belgium', 'UK', 'France', 'Portugal', 'Spain']",English,"['English', 'Spanish']","['Tornasol Films', 'Entre Chien et Loup', 'Recorded Picture Company', 'Alacran Pictures', 'Eurimages', 'Movistar+', 'Proximus', 'Ukbar Filmes', 'Wallimage', 'TVE']",42218,10401,7852,78,202,672,798,2658,3774,7651,6471,5337,1467,1243,30273,https://letterboxd.com/film/the-man-who-killed-don-quixote/
Beauty and the Beast,2017,Bill Condon,"['Emma Watson', 'Dan Stevens', 'Luke Evans', 'Josh Gad', 'Kevin Kline', 'Hattie Morahan', 'Haydn Gwynne', 'Gerard Horan', 'Ray Fearon', 'Ewan McGregor', 'Ian McKellen', 'Emma Thompson', 'Nathan Mack', 'Audra McDonald', 'Stanley Tucci', 'Gugu Mbatha-Raw', 'Clive Rowe', 'Thomas Padden', 'Rita Davies', 'D.J. Bailey', 'Adrian Schiller', 'Harriet Jones', 'Adam Mitchell', 'Tom Turner', 'Michael Jibson', 'Zoe Rainey', 'Daisy Duczmal', 'Jolyon Coy', 'Jimmy Johnston', 'Dean Street', 'Alexis Loizon', 'Sophie Reid', 'Rafaëlle Cohen', 'Carla Nella', 'Obioma Ugoala', 'Lynne Wilmot', 'Jane Fowler', 'Alison Harding', 'Chris Andrew Mellon', 'Jemma Alexander', 'Sandy Strallen', 'Dale Branston', 'Daniel Ioannou', 'Peter Challis', 'Wendy Baldock', 'Norma Atallah', 'Leo Andrew', 'Steven Butler', 'Sharon Gomez', 'Jacqui Jameson', 'Vivien Parry', 'Simone Sault', 'Beth Willetts', 'Mandy Montanez', 'Tom Oakley', 'William Bozier', 'Jak Allen-Anderson', 'Phil Grannel', 'Freddie August', 'Nicola Keen', 'Ebony Molina', 'Alison Jenkins', ""Ellen O'Grady"", 'Dawn Buckland', 'Rebecca Mckinnis', 'Jody Hall', 'Ben Fox', 'Nathan Vaughan Harris', 'Tim Stanley', 'Ben Clare', 'Marina Abdeen', 'Danielle Acors', 'Hayley Ainsley', 'Rhianne Alleyn', 'Gabby Antrobus', 'Sophie Atkins', 'Koko Basigara', 'Holly Bluett', 'Daisy Boyles', 'Ava Brennan', 'Sophia Brown', 'Sophie Carmen-Jones', 'Cassie Clare', 'Tanya Cumberland', 'Natalie Davis', 'Paige Drury-Lawrence', 'Stephanie Elstob', 'Cordelia Farnworth', 'Cj Field', 'Lily Frazer', 'Lucy Alexa Gilbert', 'Helen Gulstan', 'Selina Hamilton', 'Leah Hill', 'Abigayle Honeywill', 'Chelsea Inez', 'Blythe Jandoo', 'Shireen Jathoonia', 'Billie Kay-Piper', 'Hannah Kenna-Thomas', 'Ella Kora', 'Jennifer Leung', 'Emily Loumba', 'Cassie Macmillian', 'Fiona McDonald', 'Samira Mighty', 'Sonoya Mizuno', 'Anna Momcilovic', 'Nicola Mooi', ""Nicole O'Neill"", 'Abiona Omonua', 'Jazz Peters', 'Courtney Pruce', 'Kayla Radam', 'Katie Singh', 'Lucy St Louis', 'Ruth Steele', 'Jasmine Takacs', 'Naomi Weijand', 'Leah West', 'Skye Lucia Degruttola', 'Timia Julien-Box', 'Adelaide Morgan', 'Gemma Fray', 'Lara Decaro', 'Max Brophy', 'Samuel Brown', 'Daniel Daszek-Green', 'Freddie Hunter', 'Joey Brown', 'Tom Burgering', 'Nate Leung', 'Kai Gordon', 'Oscar Francisco', 'Harry Marcus', 'Johanna Smitz']",3.07,4.0,"['Romance', 'Fantasy', 'Family']",129,['USA'],English,"['English', 'French']","['Walt Disney Pictures', 'Mandeville Films']",900870,61999,126109,1500,5708,14801,14210,47701,46286,113049,65478,74824,15604,40374,438035,https://letterboxd.com/film/beauty-and-the-beast-2017/
Jack and the Cuckoo-Clock Heart,2013,"Mathias Malzieu, Stéphane Berla","['Mathias Malzieu', 'Olivia Ruiz', 'Grand Corps Malade', 'Jean Rochefort', 'Emily Loizeau', 'Rossy de Palma', 'Babet', 'Marie Vincent', 'Dani', 'Arthur H', 'Alain Bashung', 'Cali', 'Chloé Renaud', 'Moon Dailly']",3.57,4.5,"['Animation', 'Adventure', 'Romance', 'Fantasy', 'Drama']",94,"['Belgium', 'France']",French,"['French', 'English']","['EuropaCorp', 'Duran', 'France 3 Cinéma', 'Canal+', 'Ciné+', 'Fonds Film in Vlaanderen', 'France Télévisions', 'La Région Île-de-France', 'Screen Flanders', 'uFilm', 'uFund', 'uMedia Family', 'Vlaams Agentschap Ondernemen', 'Vlaanderen in Actie', 'Walking The Dog']",22783,4299,7080,888,164,223,202,639,784,2269,2151,2999,1149,3518,14098,https://letterboxd.com/film/jack-and-the-cuckoo-clock-heart/
Nervo Craniano Zero,2012,Paulo Biscaia Filho,"['Guenia Lemos', 'Uyara Torrente', 'Leandro Daniel Colombo', 'Michelle Rodrigues', 'Luiz Bertazzo']",nan,4.0,"['Comedy', 'Science Fiction', 'Horror']",88,['Brazil'],Portuguese,['Portuguese'],['Vigor Mortis'],193,231,36,0,5,6,1,8,16,27,28,15,2,13,121,https://letterboxd.com/film/nervo-craniano-zero/
Frances Ha,2012,Noah Baumbach,"['Greta Gerwig', 'Mickey Sumner', 'Michael Zegen', 'Adam Driver', ""Charlotte d'Amboise"", 'Patrick Heusinger', 'Michael Esper', 'Grace Gummer', 'Josh Hamilton', 'Maya Kazan', 'Justine Lupe', 'Britta Phillips', 'Juliet Rylance', 'Dean Wareham', 'Hannah Dunne', 'Daiva Deupree', 'Isabelle McNally', 'Vanessa Ray', 'Lindsay Burdge', 'Marina Squerciati', 'Christine Gerwig', 'Gordon Gerwig', 'David Salem', 'Isaac Salem', 'Anna Salem', 'Laurie Aloisio-Salem', 'Daniel Roose', 'Courtney Coffin-Jensen', 'Kristine Jensen', 'Doug Craft', 'Timothy Mickiewicz', 'Tre Borden', 'Connor Mickiewicz', 'Laura Parker', 'Serena Longley', 'Barbara Ross English', 'Peter Scanavino', 'Ryann Shane', 'Danish Hyder', 'Teddy Cañez', 'Gibson Frazier', 'Cindy Katz', 'Cohlie Brocato', 'Finnerty Steeves', 'Michelle Hurst', 'Molly Lieber', 'Eleanor Smith', 'Alex Moore']",4.03,4.0,"['Drama', 'Comedy']",86,"['Brazil', 'USA']",English,['English'],"['Scott Rudin Productions', 'RT Features', 'Pine District Pictures']",566654,142538,219904,20000,1093,2275,1826,7852,9524,39053,59238,134170,66190,86930,408151,https://letterboxd.com/film/frances-ha/
Happily N'Ever After 2,2009,"Steven E. Gordon, Boyd Kirkland","['G.K. Bowes', 'Kelly Brewster', 'Doug Erholtz', 'Jennie Fahn', 'Helen Niedwick', 'David Lodge', 'Cindy Robinson', 'Kate Higgins', 'Lex Lang', 'Doug Stone', 'Kirk Thornton', 'Christine Lakin']",2.19,3.0,"['Comedy', 'Animation', 'Adventure']",75,"['Germany', 'USA']",English,['English'],"['Kickstart Entertainment', 'BAF Berlin Animation Film']",7561,1320,647,4,700,586,255,456,237,396,136,198,40,293,3297,https://letterboxd.com/film/happily-never-after-2/
Unstable Fables: Goldilocks and the Three Bears,2008,"Howard E. Baker, Arish Fyzee","['Tom Arnold', 'Brooke Shields', 'Jamie Lynn Spears', 'Colton Parsons', 'Kevin Michael Richardson', 'Ronn Ozuk', 'Audrey Wasilewski', 'Steve Wilcox', 'Jenni Pulos', 'Brian Michael Jones', 'Jessica DiCicco', 'Ben Baker', 'Chris Elwood', 'Armando Valdes-Kennedy', 'James Arnold Taylor', 'Nolan North', 'Adam Friedman']",2.8,3.0,"['Family', 'Animation', 'Comedy']",78,['USA'],English,['English'],['The Jim Henson Company'],776,216,89,1,74,64,20,58,33,52,10,17,6,39,373,https://letterboxd.com/film/unstable-fables-goldilocks-and-the-three-bears/
The Ant Bully,2006,John A. Davis,"['Julia Roberts', 'Meryl Streep', 'Nicolas Cage', 'Paul Giamatti', 'Bruce Campbell', 'Regina King', 'Lily Tomlin', 'Larry Miller', 'Cheri Oteri', 'Zach Tyler', 'Ricardo Montalban', 'Myles Jeffrey', 'Creagen Dow', 'Frank Welker', 'Mark DeCarlo', 'Jake T. Austin', 'Allison Mack', 'S. Scott Bullock', 'Paul Greenberg', 'Rob Paulsen', 'Nicole Sullivan', 'Don Frye', 'Larry Cedar', 'David Kaye', 'Alfred Jackson', 'Ken Mitchroney', 'Denzel Whitaker', 'Casey Masamitsu', 'Bryan Fabian', 'Jake Goldberg', 'Keith Alcorn', 'John A. Davis', 'Tom Kenny', 'Sarah Mensinga', 'Nika Futterman', 'Scott Holst', 'Susan Silo', 'Paul Rugg', 'Candi Milo', 'Nissa Alcorn', 'Pat Fraley', 'Tyler James Williams', 'Jared Goldsmith', 'Austin Majors', 'Jaishon Fisher', 'Aaron Michael Drozin', 'Max Burkholder', 'Sam Green', 'Colin Ford', 'Kendall Ryan Sanders', 'Shane Baumel', 'Neil Ross', 'Bob Joles', 'Wally Wingert', 'Leon Morenzie', 'Jonathan David Cook', 'Sean Donnellan', 'Tress MacNeille', 'Richard Green', 'Clive Robertson', 'Vernee Watson-Johnson']",2.32,4.0,"['Fantasy', 'Adventure', 'Comedy', 'Family', 'Animation']",88,['USA'],English,['English'],"['DNA Productions', 'Playtone', 'Legendary Pictures', 'Warner Bros. Pictures']",103328,7784,5581,25,1793,4958,4586,9956,6510,7653,2494,2012,275,1139,41376,https://letterboxd.com/film/the-ant-bully/
Hoodwinked!,2005,"Cory Edwards, Todd Edwards","['Anne Hathaway', 'Glenn Close', 'Jim Belushi', 'Patrick Warburton', 'Anthony Anderson', 'David Ogden Stiers', 'Xzibit', 'Chazz Palminteri', 'Andy Dick', 'Cory Edwards', 'Benjy Gaither', 'Ken Marino', 'Tom Kenny', 'Preston Stutzman', 'Tony Leech', 'Joshua J. Greene', 'Mark Primiano', 'Kevin Michael Richardson', 'Tara Strong', 'Tye Edwards', 'Todd Edwards', 'Kathryn J. Lovegren', 'Charles Coplin', 'Troy Norton', 'Kelly Stables', 'Eli Montgomery', 'Vicki Edwards']",3.23,5.0,"['Family', 'Animation', 'Crime', 'Comedy']",82,['USA'],English,['English'],"['Kanbar Entertainment', 'The Weinstein Company']",242560,21075,39978,1100,1783,3939,3599,10341,10764,25614,17983,17767,4186,16065,112041,https://letterboxd.com/film/hoodwinked/
Pooh's Heffalump Movie,2005,Frank Nissen,"['Jim Cummings', 'John Fiedler', 'Kath Soucie', 'Nikita Hopkins', 'Ken Sansom', 'Peter Cullen', 'Kyle Stanger', 'Brenda Blethyn']",3.41,5.0,"['Comedy', 'Fantasy', 'Family', 'Animation']",68,['USA'],English,['English'],"['DisneyToon Studios', 'Walt Disney Pictures']",55319,7008,7157,95,66,297,271,1415,1769,5670,3034,3443,652,2990,19607,https://letterboxd.com/film/poohs-heffalump-movie/
Chicago,2002,Rob Marshall,"['Renée Zellweger', 'Catherine Zeta-Jones', 'Richard Gere', 'Ekaterina Chtchelkanova', 'Queen Latifah', 'John C. Reilly', 'Lucy Liu', 'Taye Diggs', 'Colm Feore', 'Christine Baranski', 'Dominic West', 'Mya', 'Deidre Goodwin', 'Denise Faye', 'Susan Misner', 'Cliff Saunders', 'Jayne Eastwood', 'Bruce Beaton', 'Roman Podhora', 'Rob Smith', 'Sean Wayne Doyle', 'Steve Behal', 'Robbie Rox', 'Chita Rivera', 'Joey Pizzi', 'Scott Wise', 'Ken Ard', 'Marc Calamia', 'Niki Wray', 'Gregory Mitchell', 'Sebastian La Cause', 'Brendan Wall', 'Cleve Asbury', 'Rick Negron', 'Shaun Amyot', 'Eve Crawford', 'Bill Corsair', 'Bill Britt', 'Gerry Fiorini', 'Elizabeth Law', 'Joseph Scoren', 'Monique Ganderton', 'April Morgan', 'Marty Moreau', 'Conrad Dunn', 'Jonathan Whittaker', 'Rod Campbell', 'Brett Caruso', 'Sean McCann', 'Jeff Clarke', 'Patrick Salvagna', 'Kathryn Zenna', 'Jeff Pustil', 'Roxane Barlow', 'Jocelyn Dowling', 'Melanie A. Gage', 'Michelle Johnston', 'Charley King', 'Mary Ann Lamb', 'Vicky Lambert', 'Tara Nicole Hughes', 'Cynthia Onrubia', 'Karine Plantadit', 'Jennifer Savelli', 'Natalie Willes', 'Karen Andrew', 'Kelsey Chace', 'Catherine Chiarelli', 'Theresa Coombe', 'Lisa Ferguson', 'Melissa Flerangile', 'Michelle Galati', 'Sheri Godfrey', 'Brittany Gray', 'Karen Holness', 'Amber-Kelly Mackereth', 'Jodi McFadden', 'Faye Rauw', 'Rhonda Roberts', 'Leigh Torlage', 'Robyn Wong', 'Ted Banfalvi', 'Harrison Beal', 'Paul Becker', 'Jean-Luc Côté', 'Scott Fowler', 'Edgar Godineaux', 'Bill Hartung', 'Darren Lee', 'Troy P. Liddell', 'Blake McGrath', 'Robert Montano', 'Sean Palmer', 'Desmond Richardson', 'Martin Samuel', 'Jason Sermonia', 'Jeff Siebert', 'Sergio Trujillo', 'Stacy Clark Baisley', 'Megan Fehlberg', 'Rachel Jacobs', 'Rebecca Leonard', 'Erin Michie', 'Danielle Rueda-Watts', 'Dana Calitri', 'Kate Coffman-Lloyd', 'Curtis King Jr.', 'Laura Dean', 'Margaret Dorn', 'Capathia Jenkins', 'Audrey Martells', 'Sara Ramirez', 'Nicki Richards', 'Dennis Collins', 'Darius De Haas', 'Willie Falk', 'Timothy Shew', 'Alfonzo Thornton', 'Eric Troyer']",3.88,4.0,"['Comedy', 'Crime', 'Drama']",113,"['Germany', 'Canada', 'USA']",English,"['English', 'Hungarian']","['Miramax', 'Kalis Productions GmbH & Co. Zweite KG', 'The Producer Circle Co.', 'Zadan / Meron Productions']",399909,81712,107144,4700,595,1793,1455,7214,7938,30598,35063,65736,26095,45509,221996,https://letterboxd.com/film/chicago/
Moulin Rouge!,2001,Baz Luhrmann,"['Nicole Kidman', 'Ewan McGregor', 'John Leguizamo', 'Jim Broadbent', 'Richard Roxburgh', 'Garry McDonald', 'Jacek Koman', 'Matthew Whittet', 'Kerry Walker', ""Caroline O'Connor"", 'Christine Anu', 'Natalie Mendoza', 'Lara Mulcahy', 'David Wenham', 'Kylie Minogue', 'Ozzy Osbourne', 'Deobia Oparei', 'Linal Haft', 'Keith Robinson', 'Peter Whitford', 'Norman Kaye', 'Arthur Dignam', 'Carole Skinner', 'Jonathan Hardy', 'Plácido Domingo', 'Kiruna Stamell', 'Anthony Young', 'Johnny Lockwood', 'Dee Donavan', 'Don Reid', 'Tara Morice', 'Daniel Scott', 'Veronica Beattie', 'Lisa Callingham', 'Rosetta Cook', 'Fleur Denny', 'Kelly Grauer', 'Jaclyn Hanson', 'Michelle Hopper', 'Fallon King', 'Wendy McMahon', 'Tracie Morley', 'Sue-Ellen Shook', 'Jenny Wilson', 'Luke Alleva', 'Andrew Aroustian', 'Stephen Colyer', 'Steve Grace', 'Mark Hodge', 'Cameron Mitchell', 'Deon Nuku', 'Shaun Parker', 'Troy Phillips', 'Rodney Syaranamual', 'Ashley Wallen', 'Nathan Wright', 'Susan Black', 'Nicole Brooks', 'Danielle Brown', 'Anastacia Flewin', 'Fiona Gage', 'Alex Harrington', 'Camilla Jakimowicz', 'Rochelle Jones', 'Caroline Kaspar', 'Mandy Liddell', 'Melanie Mackay', 'Elise Mann', 'Charmaine Martin', 'Michelle Wriggles', 'Michael Boyd', ""Lorry D'Ercole"", 'Michael Edge', 'Glyn Gray', 'Craig Haines', 'Stephen Holford', 'Jamie Jewell', 'Jason King', 'Ryan Males', 'Harlin Martin', 'Andrew Micallef', 'Jonathan Schmölzer', 'Bradley Spargo', ""Joseph 'Pepe' Ashton"", 'Jordan Ashton', 'Marcos Falagan', 'Mitchel Falagan', 'Chris Mayhew', 'Hamish McCann', 'Adrien Janssen', 'Shaun Holloway', 'Darren Dowlut', 'Dennis Dowlut', 'Pina Conti', 'Nandy McClean', 'Maya McClean', 'Patrick Harding-Irmer', 'Albin Pahernik', 'Aurel Verne', 'Kip Gamblin', 'Wilson Alcorn', 'Kerry Casey', 'Peter Collingwood', 'Cass Cumerford', 'Matthew Dale', 'Brenda De Lacy', 'Eliana Dona', 'Nash Edgerton', 'Coralie Eichholtz', 'Tim Elliott', 'Pat Evans', 'Nicole Fantl', 'Sandi Finlay', 'Waldo Garrido', 'Scotty Gregory', 'Kahlia Greksa', 'Karinna Greksa', 'Trent Harlow', 'Troy Harrison', 'Geoffrey Kiem', 'Harold Kissin', 'Ian Lind', 'Tony Lynch', 'Angus Martin', 'Liliya May', 'Paul Maybury', 'Scott Peters', 'Chris Pickard', 'Greg Poppleton', 'Brett Praed', 'Thern Reynolds', 'Greg Robinson', 'David Scotchford', 'Neeraj Singh', 'Sotiri Sotiropoulos', 'David Whitford', 'Matt Wilson']",3.75,5.0,"['Romance', 'Music', 'Drama']",128,"['Australia', 'USA', 'UK']",English,"['English', 'French', 'Spanish']","['20th Century Fox', 'Bazmark']",521208,101465,143480,15000,2271,5011,3863,13756,13558,42237,43038,73553,28267,62041,287595,https://letterboxd.com/film/moulin-rouge-2001/
Help! I'm a Fish,2000,"Michael Hegner, Greg Manwaring","['Sebastian Jessen', 'Pil Neja', 'Morten Kerrn Nielsen', 'Søren Sætter-Lassen', 'Nis Bank-Mikkelsen', 'Dick Kaysø', 'Louise Fribo', 'Ulf Pilgaard', 'Peter Gantzler', 'Paprika Steen', 'Ghita Nørby', 'Zlatko Burić', 'Martin Brygmann']",3.35,4.5,"['Animation', 'Adventure', 'Comedy', 'Family']",80,"['Denmark', 'France', 'Germany', 'Ireland', 'UK']",Danish,"['Danish', 'French', 'Latin', 'Spanish']","['TV 2', 'A. Film Production', 'Egmont Imagination', 'Irish Film Industry', 'Eurimages', 'HanWay Films']",23713,3394,4020,116,92,207,272,856,1143,2891,1832,1760,388,1370,10811,https://letterboxd.com/film/help-im-a-fish/
Water Drops on Burning Rocks,2000,François Ozon,"['Bernard Giraudeau', 'Malik Zidi', 'Ludivine Sagnier', 'Anna Thomson']",3.47,4.0,"['Romance', 'Drama', 'Comedy']",90,['France'],French,"['French', 'German']","['Studio Images 6', 'Fidélité Productions', 'Les Films Alain Sarde', 'Eurospace']",5016,1833,838,15,15,46,52,171,261,812,813,702,155,168,3195,https://letterboxd.com/film/water-drops-on-burning-rocks/
Porco Rosso,1992,Hayao Miyazaki,"['Shūichirō Moriyama', 'Tokiko Kato', 'Bunshi Katsura Vi', 'Tsunehiko Kamijô', 'Akemi Okamura', 'Akio Otsuka', 'Hiroko Seki', 'Reizō Nomoto', 'Osamu Saka', 'Yu Shimaka', 'Mahito Tsujimura', 'Minoru Yada', 'Yoko Soumi']",3.98,5.0,"['Family', 'Adventure', 'Comedy', 'Animation']",93,['Japan'],Japanese,['Japanese'],"['Studio Ghibli', 'Nibariki', 'Mitsubishi', 'Nippon Television Network Corporation', 'Tokuma Shoten']",388971,86228,123118,4900,286,778,709,3864,5901,29210,45784,87371,37269,43008,254180,https://letterboxd.com/film/porco-rosso/
My Neighbor Totoro,1988,Hayao Miyazaki,"['Noriko Hidaka', 'Chika Sakamoto', 'Hitoshi Takagi', 'Shigesato Itoi', 'Sumi Shimamoto', 'Tanie Kitabayashi', 'Toshiyuki Amagasa', 'Yuko Maruyama', 'Masashi Hirose', 'Reiko Suzuki', 'Machiko Washio', 'Naoki Tatsuta', 'Tomohiro Nishimura', 'Chie Koujiro', 'Yuko Mizutani', 'Shigeru Chiba', 'TARAKO', 'Mitsuko Ishida', 'Daiki Nakamura', 'Akiko Hiramatsu', 'Ikue Otani']",4.19,5.0,"['Fantasy', 'Animation', 'Family']",86,['Japan'],Japanese,['Japanese'],"['Studio Ghibli', 'Nibariki', 'Tokuma Shoten']",1564501,226374,596863,16000,736,2101,1678,10413,13491,81166,107495,296792,135041,319680,968593,https://letterboxd.com/film/my-neighbor-totoro/
Cabaret,1972,Bob Fosse,"['Liza Minnelli', 'Michael York', 'Helmut Griem', 'Joel Grey', 'Fritz Wepper', 'Marisa Berenson', 'Elisabeth Neumann-Viertel', 'Helen Vita', 'Sigrid von Richthofen', 'Gerd Vespermann', 'Ralf Wolter', 'Georg Hartmann', 'Ricky Renée', 'Estrongo Nachama', 'Kathryn Doby', 'Inge Jaeger', 'Angelika Koch', 'Helen Velkovorska', 'Gitta Schmidt', 'Louise Quick', 'Pierre Franckh', 'Ellen Umlauf', 'Oliver Collignon', 'Mark Lambert']",4.09,5.0,"['Romance', 'Drama', 'Music']",124,['USA'],English,"['English', 'French', 'German', 'Hebrew (modern)']","['Allied Artists Pictures', 'ABC Pictures']",123531,56645,38684,2400,101,282,281,1386,1788,7290,10815,24202,12938,17342,76425,https://letterboxd.com/film/cabaret/
Daisies,1966,Věra Chytilová,"['Jitka Cerhová', 'Ivana Karbanová', 'Helena Anýžová', 'Julius Albert', 'Jan Klusák', 'Jiřina Myšková', 'Oldřich Hora', 'Marcela Březinová', 'Václav Chochola', 'Jaromír Vomáčka', 'Josef Koníček', 'František Uldrich', 'Oldřich Bašus', 'A. Drábek', 'J. Hrubý', 'J. Pech', 'Robert Kühnel', 'J. Laufer', 'L. Nedvěd', 'J. Tesárek', 'J. Bartoš', 'Miloslava Babůrková', 'V. Zikmund', 'Jiří Menzel']",4.0,nan,"['Drama', 'Comedy']",76,['Czechoslovakia'],Czech,['Czech'],['Filmové studio Barrandov'],131579,71313,52937,5000,386,714,668,2140,2799,9302,13144,27069,13747,21116,91085,https://letterboxd.com/film/daisies/
Bonjour Tristesse,1958,Otto Preminger,"['Deborah Kerr', 'David Niven', 'Jean Seberg', 'Mylène Demongeot', 'Geoffrey Horne', 'Juliette Gréco', 'Walter Chiari', 'Martita Hunt', 'Roland Culver', 'Jean Kent', 'David Oxley', 'Elga Andersen', 'Jeremy Burnham', 'Eveline Eyfel', 'Tutte Lemkow', 'Maryse Martin']",3.63,4.5,"['Drama', 'Romance']",94,"['UK', 'USA']",English,['English'],"['Wheel Productions', 'Columbia Pictures']",12683,5901,3079,50,8,48,68,259,515,1700,1983,2209,765,609,8164,https://letterboxd.com/film/bonjour-tristesse/
The Blood of a Poet,1932,Jean Cocteau,"['Enrique Rivero', 'Elizabeth Lee Miller', 'Pauline Carton', 'Odette Talazac', 'Jean Desbordes', 'Fernand Dichamps', 'Lucien Jager', 'Féral Benga', 'Barbette', 'Jean Cocteau']",3.82,3.5,['Fantasy'],55,['France'],French,['French'],['Vicomte de Noailles'],24718,14158,7156,116,29,66,113,353,625,2298,3091,4666,1669,1819,14729,https://letterboxd.com/film/the-blood-of-a-poet/
