Film_title,Release_year,Director,Cast,Average_rating,Owner_rating,Genres,Runtime,Countries,Original_language,Spoken_languages,Studios,Watches,List_appearances,Likes,Fans,½,★,★½,★★,★★½,★★★,★★★½,★★★★,★★★★½,★★★★★,Total_ratings,Film_URL
Civil War,2024,Alex Garland,"['Kirsten Dunst', 'Wagner Moura', 'Cailee Spaeny', 'Stephen McKinley Henderson', 'Nelson Lee', 'Nick Offerman', 'Jefferson White', 'Evan Lai', 'Vince Pisani', 'Justin James Boykin', 'Jess Matney', 'Greg Hill', 'Edmund Donovan', 'Sonoya Mizuno', 'Tim James', 'Simeon Freeman', 'James Yaegashi', 'Dean Grimes', 'Alexa Mansour', 'Martha B. Knighton', 'Melissa Saint-Amand', 'Karl Glusman', 'Jin Ha', 'Jojo T. Gibbs', 'Jared Shaw', 'Justin Garza', 'Brian Philpot', 'Tywaun Tornes', 'Juani Feliz', 'Jesse Plemons', 'John Newberg', 'Kevin Howell', ""Ernest 'Scooby' Rogers"", 'Robert Perry Bierman', 'Joe Manuel Gallegos Jr.', 'Christopher Cocke', 'Ryan Austin Bryant', 'Jeff Bosley', 'Brent Moorer Gaskins', 'Evan Holtzman', 'Lauren Marie Gordon', 'Kevin Kedgley', 'Timothy LaForce', 'Cora Maple Lindell', 'Cody Marshall', 'Randy S. Love', 'Petey Nguyễn', 'LePrix Robinson', 'Kim Rosen', 'Daniel Patrick Shook', 'Robert Tinsley', 'Jaclyn White', 'Temper Lavigne']",3.7,3.5,"['Drama', 'War', 'Action']",109,"['Finland', 'UK']",English,['English'],"['DNA Films', 'IPR.VC']",412247,90974,130495,1500,1383,3150,3456,12281,18173,48517,72923,123645,49878,33814,367220,https://letterboxd.com/film/civil-war-2024/
Saltburn,2023,Emerald Fennell,"['Barry Keoghan', 'Jacob Elordi', 'Rosamund Pike', 'Richard E. Grant', 'Alison Oliver', 'Archie Madekwe', 'Carey Mulligan', 'Paul Rhys', 'Ewan Mitchell', 'Sadie Soverall', 'Richard Cotterell', 'Millie Kent', 'Will Gibson', 'Tasha Lim', 'Aleah Aberdeen', 'Matthew Carver', 'Reece Shearsmith', 'Gabriel Bisset-Smith', 'Saga Spjuth-Säll', 'Glyn Grimstead', 'Joshua Samuels', 'Julian Lloyd Patten', 'Olivia Hanrahan-Barnes', 'Lolly Adefope', 'Joshua McGuire', 'Dorothy Atkinson', 'Shaun Dooley', 'Tomás Barry', 'Andy Brady']",3.43,1.0,"['Comedy', 'Drama', 'Thriller']",131,"['UK', 'USA']",English,['English'],"['LuckyChap Entertainment', 'MRC', 'Lie Still']",2021142,214900,589979,12000,13048,29354,25304,99453,112334,319515,311117,459798,146830,206338,1723091,https://letterboxd.com/film/saltburn/
Enola Holmes 2,2022,Harry Bradbeer,"['Millie Bobby Brown', 'Henry Cavill', 'David Thewlis', 'Louis Partridge', 'Susan Wokoma', 'Adeel Akhtar', 'Sharon Duncan-Brewster', 'Helena Bonham Carter', 'Sofia Stavrinou', 'John Parshall', 'Himesh Patel', 'Hannah Dodd', 'Abbie Hern', 'Róisín Monaghan', 'Gabriel Tierney', 'Catriona Chandler', 'David Westhead', 'Tim McMullan', 'Lee Boardman', 'Serrana Su-Ling Bliss', 'Tony Lucken', 'Alessandra Perotto', 'Alan Mitchell', 'Chris Dunckley', 'Lenny Rush', 'Alison Knox', 'Christopher Saul', 'Brahmdeo Shannon Ramana', 'Karishma Navekar', 'Clive Ward', 'Elizabeth Hill', 'Nick Raggett', 'Sue Graham', 'Mark Fleischmann', 'Stefan Petermann', 'Archie Caswell-Chappell', 'Matthew Brazier', 'Jules Wallace', 'Donovan Louie', 'Nia Gandhi', 'Alannah Winn-Taylor', 'Peter Groom', 'Charlie Nicholson', 'Eleanor Dang', 'Charlotte Robinson', 'Katelyn Gray', 'Preeti Sian', 'Sophia Turner', 'Annie Bloomfield', 'Hannah Bodenham', 'Tabitha Bond', 'Callum Bowman', 'Miekaile Browne', 'Alastair Crosswell', 'Rory Cubbin', 'Ramzan Miah', 'James Berkery', 'Andres Quero Marin', 'Tyler Rainbow', 'Yasmin Riley', 'Vanessa Vince-Pang', 'Madeleine Waters', 'Charlotte Woof', 'Cecily Beer', 'Sally Alexandra', 'Taylor Maclennan', 'Cormac Browne', 'Mircea Belei', 'Boyan Ivanov', 'Daniel Pemberton']",3.26,5.0,"['Adventure', 'Mystery', 'Crime']",129,"['USA', 'UK']",English,['English'],"['Legendary Pictures', 'PCMA Productions']",315721,29026,64898,510,1226,2826,3024,12601,17942,55340,47038,49548,11036,21997,222578,https://letterboxd.com/film/enola-holmes-2/
Enola Holmes,2020,Harry Bradbeer,"['Millie Bobby Brown', 'Henry Cavill', 'Sam Claflin', 'Helena Bonham Carter', 'Louis Partridge', 'Adeel Akhtar', 'Fiona Shaw', 'Frances de la Tour', 'Burn Gorman', 'Susan Wokoma', 'Claire Rushbrook', 'David Bamber', 'Hattie Morahan', 'Gaby French', 'Paul Copley', 'Ellie Haddington', 'Alex Kelly', 'James Duke', 'Connor Catchpole', 'Sarah Flind', 'Dempsey Bovell', 'Neil Bell', 'Sofia Stavrinou', 'Sophie Dixon', 'David Kirkbride', 'Delroy Atkinson', 'Mary Roscoe', 'Anthony Aje', 'Anthony Rickman', 'Philip Scott-Wallace', 'Tuyen Do', 'Esther Coles', 'Owen Atlas', 'Paul Parker', 'Heather Pearse', 'Jay Simpson']",3.06,5.0,"['Mystery', 'Crime', 'Adventure']",123,['USA'],English,['English'],"['PCMA Productions', 'Legendary Pictures']",742892,46464,121623,1000,4760,11490,11010,42475,49998,129749,79963,79178,14673,32506,455802,https://letterboxd.com/film/enola-holmes/
My Mom Is a Character 3,2019,Susana Garcia,"['Paulo Gustavo', 'Mariana Xavier', 'Rodrigo Pandolfo', 'Herson Capri', 'Samantha Schmütz', 'Alexandra Richter', 'Patrícya Travassos', 'Malu Valle', 'Stella Maria Rodrigues', 'Cadu Fávero', 'Lucas Cordeiro', 'Bruno Bebianno', 'Davi Goulart', 'Edmilson Barros', 'Giovanna de Toni', 'Ana Carbatti', 'Tracy Legal', 'Eduardo Reyes', 'Dani Ornellas', 'Maíra Charken', 'Flávio Pardal', 'Fernanda Caetano', 'Rodrigo dos Santos', 'Viviana Rocha', 'Kadu Garcia', 'Camila Mayrink', 'Clara Serejo', 'Jaffar Bambirra', 'Fábio Guará', 'Neyde Braga', 'Ramón Gonçalves', 'Bernardo Felinto', 'João Júnior', 'Amaury de Lima', 'Régis de Sóris', 'Ari Guimas', 'Cláudio Garcia', 'Camila Lorenzo', 'Julio Lopes', 'Arthur Garbe', 'Jessica Ward', 'Jesse Grant', 'Sallieu Sesay', 'Honey Lauren', 'Theo Almeida', 'Alice Oliveira']",3.67,5.0,['Comedy'],111,['Brazil'],Portuguese,['Portuguese'],"['Migdal Filmes', 'Globo Filmes', 'Universal Pictures International', 'Paramount Pictures Brasil', 'Downtown Filmes', 'Paris Filmes', 'Telecine']",35335,4024,8406,169,79,171,224,797,923,3653,3376,6203,1635,8072,25133,https://letterboxd.com/film/my-mom-is-a-character-3/
Little Women,2019,Greta Gerwig,"['Saoirse Ronan', 'Florence Pugh', 'Emma Watson', 'Eliza Scanlen', 'Laura Dern', 'Timothée Chalamet', 'Meryl Streep', 'Tracy Letts', 'Bob Odenkirk', 'James Norton', 'Louis Garrel', 'Jayne Houdyshell', 'Chris Cooper', 'Rafael Silva', 'Mason Alban', 'Emily Edström', 'Maryann Plunkett', 'Hadley Robinson', 'Lonnie Farmer', 'Charlotte Kinder', 'Ana Cruz Kayne', 'Edgar Damatian', 'Erin Rose', 'Lizzie Short', 'Dash Barber', 'Edward Fletcher', 'Sasha Frolova', 'David J. Curtis', 'Abby Quinn', 'Harper Pilat', 'Eowyn Young', 'Lucy Austin', 'Bill Mootos', 'Lewis D. Wheeler', 'Jen Nikolaisen', 'Jonathon Acorn', 'Lilly Englert', 'J.M. Davis', 'Tom Kemp', 'Anthony Estrella', 'Adrianne Krstansky', 'Sophia Gialloreto', 'Lily Gavin', 'Finola Weller Baldet', 'Flannery Gregg', 'Tony Tucker', 'Joanne Caidor', 'Rosario Guillen', 'Lily Peterson', 'Jared Reinfeldt', 'Amber Rothberg']",4.14,5.0,"['Romance', 'Drama']",135,['USA'],English,"['English', 'French']","['Columbia Pictures', 'Regency Enterprises', 'Pascal Pictures']",2017802,350386,909865,97000,1903,5676,3548,23213,21871,128750,133775,396866,197351,519687,1432640,https://letterboxd.com/film/little-women-2019/
"I, Tonya",2017,Craig Gillespie,"['Margot Robbie', 'Sebastian Stan', 'Allison Janney', 'Julianne Nicholson', 'Paul Walter Hauser', 'Bobby Cannavale', 'Bojana Novaković', 'Mckenna Grace', 'Caitlin Carver', 'Maizie Smith', 'Suehyla El-Attar', 'Jason Davis', 'Mea Allen', 'Cory Chapman', 'Amy Fox', 'Cara Mantella', 'Joshua Mikel', 'Lynne Ashe', 'Steve Wedan', ""Brandon O'Dell"", 'Davin Allen Grindstaff', 'Daniel Thomas May', 'Anthony Reynolds', 'Ricky Russert', 'Al Bianchi', 'Miles Mussenden', 'Annie Livingston', 'Jan Harrelson', 'Luray Cooper', 'Dan Triandiflou', ""Kelly O'Neal"", 'Lisa Kaye Kinsler', 'Cecil Love', 'Alphie Hyorth', 'Sean Goulding', 'Bobby Browning', 'Little Man', 'Heather Jocelyn Blair', 'Raven Wynn', 'Evan George Vourazeris', 'Joe Heath']",3.85,5.0,"['Drama', 'Comedy']",120,['USA'],English,['English'],"['LuckyChap Entertainment', 'Clubhouse Pictures']",1120128,123824,341264,5900,585,2237,1998,12773,17622,100431,137076,268806,80884,113343,735755,https://letterboxd.com/film/i-tonya/
My Mom Is a Character 2,2016,César Rodrigues,"['Paulo Gustavo', 'Rodrigo Pandolfo', 'Mariana Xavier', 'Patrícya Travassos', 'Alexandra Richter', 'Herson Capri', 'Samantha Schmütz', 'Suely Franco', 'Bruno Bebianno', 'Davi Goulart', 'Malu Valle', 'Ilva Niño', 'Cláudio Mendes', 'Sérgio Stern', 'Bia Guedes', 'Alessandro Anes', 'Marcos França', 'Nara Del Rey', 'Andy Gerker', 'Marco Miranda', 'Jorge Lucas', 'Felipe Haiut', 'Diogo Camargos', 'Jana Figarella', 'Cleber Salgado', 'Luciana Vidal', 'Jonas de Sá', 'Gustavo Merighi', 'Gustavo Novaes', 'Mariana Consoli', 'Leticia Cannavale', 'Felipe Hintze', 'Carla Andréa Gonçalves', 'Carla Prata', 'Nikolas Antunes', 'Rhaisa Batista', 'Eduardo Semerjian', 'Marcelo Szpektor', 'Cássio Pandolph', 'Hugo Possolo', 'David Herman', 'André Mendes', 'Marcelo Ferrari', 'Saulo Segreto', 'Tainá Medeiros', 'Tainã Santos', 'Gabriel Querino', 'Vander Rabelo', 'Elvis Fidelle', 'João Telles', 'Emanoel Tompson', 'Thiago', 'Dudu Pacheco', 'Fátima Bernardes', 'Jú Amaral', 'Déa Lúcia']",3.48,5.0,['Comedy'],96,['Brazil'],Portuguese,['Portuguese'],"['Migdal Filmes', 'Globo Filmes', 'Paris Filmes', 'Downtown Filmes', 'Universal Pictures International', 'Paramount Pictures Brasil', 'DiamondBack']",35934,2876,6263,42,76,199,247,941,1337,4642,3311,5442,1255,5600,23050,https://letterboxd.com/film/my-mom-is-a-character-2/
Her,2013,Spike Jonze,"['Joaquin Phoenix', 'Scarlett Johansson', 'Amy Adams', 'Rooney Mara', 'Chris Pratt', 'Olivia Wilde', 'Matt Letscher', 'Portia Doubleday', 'Spike Jonze', 'Bill Hader', 'Kristen Wiig', 'Artt Butler', 'SoKo', 'Brian Cox', 'Luka Jones', 'Sam Jaeger', 'Pramod Kumar', 'Evelyn Edwards', 'Lil Buck', 'Lynn Adrianna', 'Lisa Renee Pitts', 'Gabe Gomez', 'May Lindstrom', 'David Azar', 'Guy Lewis', 'Melanie Seacat', 'Steve Zissis', 'Dane White', 'Nicole Grother', 'James Ozasky', 'Samantha Sarakanti', 'Gracie Prewitt', 'Claudia Choi', 'Laura Kai Chen', 'Wendy Leon', 'Alia Janine', 'Brian D. Johnson', 'Robert Benard', 'Lisa Cohen', 'Grant Samson']",4.02,5.0,"['Science Fiction', 'Drama', 'Romance']",126,['USA'],English,['English'],['Annapurna Pictures'],1985205,257914,734856,33000,4183,11600,5978,36893,29586,154362,157056,424370,190640,317210,1331878,https://letterboxd.com/film/her/
My Mom Is a Character,2013,André Pellenz,"['Paulo Gustavo', 'Mariana Xavier', 'Rodrigo Pandolfo', 'Herson Capri', 'Alexandra Richter', 'Suely Franco', 'Ingrid Guimarães', 'Samantha Schmütz', 'Mônica Martelli', 'Malu Valle', 'Jefferson Schroeder', 'Bruno Bebianno', 'Renata Ricci', 'Gabriel Galvão', 'Ana Karolina Lannes', 'Marcus Majella', 'Augusto César Jr.', 'Luan Assimos', 'Ronaldo Tortelli', 'Antônio Arraes', 'Lucas Cordeiro', 'Guida Vianna', 'Edmilson Barros', 'Raul Labancca', 'Marina Palha', 'Maria Lídia Fonseca da Costa', 'Vânia de Brito', 'Cristiana Pompeo', 'Michelly Campos', 'Elisa Pinheiro', 'Dany Espinelli', 'Ronaldo Reis', 'Caio Vydal', 'Pollyanna Rocha', 'Pablo Sanábio', 'Robert Guimarães', 'Saulo Rodrigues', 'Vitor Hugo', 'Felippe de Santis', 'Cauê Campos', 'Sofia Viamonte', 'Georgiana Góes', 'Adriana Quadros', 'Marcella Muniz', 'João Florenço', 'Beto Naci', 'Renner Avillis', 'Bruno Bennec', 'Edi Raffa', 'Bernardo Mendes', 'Ana Lu Rehder', 'Flávia Rinaldi', 'Gisela Saldanha', 'Juliana Nunes', 'Sheila Matos', 'Letícia Pedro', 'Patrícia Niedermeier', 'Camila Samara']",3.67,5.0,['Comedy'],85,['Brazil'],Portuguese,['Portuguese'],"['Cenoura Filmes', 'Globo Filmes', 'Migdal Filmes', 'Paris Filmes', 'RioFilme', 'Downtown Filmes', 'Telecine']",52127,4914,11626,267,133,341,269,978,1139,4673,4378,8658,2252,10988,33809,https://letterboxd.com/film/my-mom-is-a-character/
The Perks of Being a Wallflower,2012,Stephen Chbosky,"['Logan Lerman', 'Emma Watson', 'Ezra Miller', 'Mae Whitman', 'Kate Walsh', 'Dylan McDermott', 'Melanie Lynskey', 'Nina Dobrev', 'Johnny Simmons', 'Joan Cusack', 'Paul Rudd', 'Nicholas Braun', 'Reece Thompson', 'Patrick de Ledebur', 'Brian Balzerini', 'Tom Kruszewski', 'Julia Garner', 'Tom Savini', 'Emily Marie Callaway', 'Chelsea Zhang', 'Jesse Scheirer', 'Justine Nicole Schaefer', 'Julie Marie Schaefer', 'Leo Miles Farmerie', 'Isabel Muschweck', 'Adam Hagenbuch', 'Erin Wilhelmi', 'Jordan Paley', 'Zane Holtz', 'Timothy Breslin', 'Mark McClain Wilson', 'Atticus Cain', 'Stacy Chbosky', 'Dihlon McManne', 'Laurie Klatscher', 'Landon Pigg', 'Jennifer Enskat', 'William L. Thomas', 'Morgan Wolk', 'Joe Fishel']",3.92,5.0,['Drama'],103,['USA'],English,['English'],['Mr. Mudd Production'],2113284,234492,803147,73000,3640,9620,6616,36434,35623,169955,163961,362575,140168,388306,1316898,https://letterboxd.com/film/the-perks-of-being-a-wallflower/
Shrek Forever After,2010,Mike Mitchell,"['Mike Myers', 'Eddie Murphy', 'Cameron Diaz', 'Antonio Banderas', 'Walt Dohrn', 'Julie Andrews', 'John Cleese', 'Jon Hamm', 'Jane Lynch', 'Craig Robinson', 'Lake Bell', 'Kathy Griffin', 'Mary Kay Place', 'Kristen Schaal', 'Meredith Vieira', 'Ryan Seacrest', 'Cody Cameron', 'Larry King', 'Regis Philbin', 'Christopher Knights', 'Conrad Vernon', 'Aron Warner', 'Jasper Johannes Andrews', 'Ollie Mitchell', 'Miles Bakshi', 'Nina Zoe Bakshi', 'Billie Hayes', 'Jeremy Hollingworth', 'Brian Hopkins', 'Chris Miller', 'Mike Mitchell', 'James Ryan', 'Ashley Boettcher', 'Danielle Soibelman', 'Frank Welker']",2.84,5.0,"['Adventure', 'Family', 'Animation', 'Fantasy', 'Comedy']",93,['USA'],English,['English'],['DreamWorks Animation'],724659,46096,74215,1000,5966,15806,13786,47805,44308,84106,40678,39443,7781,24447,324126,https://letterboxd.com/film/shrek-forever-after/
Shrek the Third,2007,Chris Miller,"['Mike Myers', 'Eddie Murphy', 'Cameron Diaz', 'Antonio Banderas', 'Julie Andrews', 'John Cleese', 'Rupert Everett', 'Eric Idle', 'Justin Timberlake', 'Susanne Blakeslee', 'Cody Cameron', 'Larry King', 'Christopher Knights', 'John Krasinski', 'Ian McShane', 'Cheri Oteri', 'Regis Philbin', 'Amy Poehler', 'Seth Rogen', 'Maya Rudolph', 'Amy Sedaris', 'Conrad Vernon', 'Aron Warner', 'Jasper Johannes Andrews', 'Guillaume Aretos', 'Kelly Asbury', 'Zachary James Bernard', 'Andrew Birch', 'Sean Bishop', 'Kelly Cooney Cilella', 'Walt Dohrn', 'Dante James Hauser', 'Jordan Alexander Hauser', 'Tom Kane', 'Tom McGrath', 'Chris Miller', 'Latifa Ouaou', 'Alina Phelan', 'David P. Smith', 'Mark Valley', 'Kari Wahlgren']",2.8,4.0,"['Adventure', 'Comedy', 'Fantasy', 'Family', 'Animation']",93,['USA'],English,['English'],"['DreamWorks Animation', 'Pacific Data Images']",1011245,54921,100253,1400,8380,21501,21329,69092,63001,118582,45532,46898,7903,32620,434838,https://letterboxd.com/film/shrek-the-third/
Bridge to Terabithia,2007,Gábor Csupó,"['Josh Hutcherson', 'AnnaSophia Robb', 'Zooey Deschanel', 'Robert Patrick', 'Bailee Madison', 'Kate Butler', 'Devon Wood', 'Emma Fenton', 'Grace Brannigan', 'Latham Gaines', 'Judy McIntosh', 'Patricia Aldersley', 'Lauren Clinton', 'Isabelle Rose Kircher', 'Cameron Wakefield', 'Elliot Lawless', 'Carly Owen', 'Jen Wolfe', 'James Gaylyn', 'Ian Harcourt', 'Brandon Cook', 'Tyler Atfield', 'Maisy McLeod-Riera', 'Hudson Mills', 'Matt Gibbons', 'Phil Grieve', 'Zoe Cramond']",3.58,4.0,"['Family', 'Adventure', 'Drama']",96,['USA'],English,['English'],"['Lauren Levine Productions Inc.', 'Walden Media', 'Hal Lieberman Company', 'Walt Disney Pictures']",552295,50192,111530,3100,1127,2850,2767,11717,14555,50940,51715,70761,17542,43867,267841,https://letterboxd.com/film/bridge-to-terabithia/
Shrek 2,2004,"Andrew Adamson, Kelly Asbury","['Mike Myers', 'Eddie Murphy', 'Cameron Diaz', 'Julie Andrews', 'Antonio Banderas', 'John Cleese', 'Rupert Everett', 'Jennifer Saunders', 'Aron Warner', 'Kelly Asbury', 'Cody Cameron', 'Conrad Vernon', 'Christopher Knights', 'David P. Smith', 'Mark Moseley', 'Kelly Cooney Cilella', 'Wendy Bilanski', 'Larry King', 'Guillaume Aretos', 'Chris Miller', 'Latifa Ouaou', 'Alina Phelan', 'Erika Thomas', 'Joan Rivers', 'Andrew Adamson']",4.04,5.0,"['Family', 'Adventure', 'Comedy', 'Animation', 'Fantasy']",93,['USA'],English,['English'],"['DreamWorks Animation', 'Pacific Data Images']",1928222,138810,473262,20000,1954,5956,4284,26519,25360,122195,106180,235057,95622,318051,941178,https://letterboxd.com/film/shrek-2/
Peter Pan,2003,P.J. Hogan,"['Jason Isaacs', 'Jeremy Sumpter', 'Rachel Hurd-Wood', 'Lynn Redgrave', 'Richard Briers', 'Olivia Williams', 'Geoffrey Palmer', 'Harry Newell', 'Freddie Popplewell', 'Ludivine Sagnier', 'Mathew Waters', 'George MacKay', 'Harry Eden', 'Patrick Hurd-Wood', 'Bill Kerr', 'Saffron Burrows', 'Alan Cinis', 'Frank Whitten', 'Bruce Spence', 'Dan Wyllie', 'Brian Carbee', 'Don Battee', 'Frank Gallacher', 'Septimus Caton', 'Jacob Tomuri', 'Venant Wong', 'Phil Meacham', 'Darren Mitchell', 'Mick Roughan', 'Janet Strauss', 'Rupert Simonian', 'Carsen Gray', 'Patrick Gooch', 'Theodore Chester', 'Maya Barnaby', 'Tory Mussett', 'Ursula Mills', 'Nadia Pirini', 'Vij Kaewsanan']",3.42,3.0,"['Fantasy', 'Family', 'Adventure']",113,"['UK', 'USA']",English,"['English', 'French', 'Moldavian', 'Greek (modern)', 'Portuguese']","['Universal Pictures', 'Columbia Pictures', 'Revolution Studios', 'Red Wagon Entertainment', 'Allied Stars']",220222,24870,37165,2100,455,1467,1631,6600,7795,22952,15208,18661,4268,16478,95515,https://letterboxd.com/film/peter-pan-2003/
Shrek,2001,"Andrew Adamson, Vicky Jenson","['Mike Myers', 'Eddie Murphy', 'Cameron Diaz', 'John Lithgow', 'Vincent Cassel', 'Peter Dennis', 'Clive Pearse', 'Jim Cummings', 'Bobby Block', 'Chris Miller', 'Cody Cameron', 'Kathleen Freeman', 'Michael Galasso', 'Christopher Knights', 'Simon J. Smith', 'Conrad Vernon', 'Jacquie Barnbrook', 'Guillaume Aretos', 'John Bisom', 'Matthew Gonder', 'Calvin Remsberg', 'Jean-Paul Vignon', 'Val Bettin', 'Andrew Adamson', 'Gary A. Hecker']",4.07,5.0,"['Adventure', 'Fantasy', 'Family', 'Animation', 'Comedy']",90,['USA'],English,['English'],"['DreamWorks Pictures', 'Pacific Data Images', 'DreamWorks Animation']",2468265,157179,656481,10000,2176,5892,3328,22422,22429,139751,147480,382243,125770,393559,1245050,https://letterboxd.com/film/shrek/
Matilda,1996,Danny DeVito,"['Mara Wilson', 'Danny DeVito', 'Rhea Perlman', 'Embeth Davidtz', 'Pam Ferris', 'Paul Reubens', 'Tracey Walter', 'Jean Speegle Howard', 'Brian Levinson', 'Sara Magdalin', 'R.D. Robb', 'Gregory R. Goliath', 'Fred Parnes', 'Kiami Davael', 'Leor Livneh Hackel', 'Jacqueline Steiger', 'Jimmy Karz', 'Michael Valentine', 'Liam Kearns', 'Mark Watson', 'Kira Spencer Hesser', 'J.C. Alexander', 'Malone Brinton', 'Marion Dugan', 'Joshua Alvarez', 'Max E. Blum', 'Erin M. Gray', 'Misty L. Oppenheim', 'Christopher Shepard Hughes', 'Rachel Snow', 'Craig Lamar Traylor', 'Jennifer Key', 'Marty Bautista', 'Anthony Hernandez', 'Raina Cease', 'Jonathan Osser', 'Vinnie Buffolino', 'Marcella Sassano', 'Johnny Thomas III', 'Shannon Hughes', 'Christel Khalil', 'Cassie Colaw', 'Austin Stout', 'Cindy Tran', 'Jonathan Feyer', 'Alissa Graham', 'Amanda Graham', 'Trevor Gallagher', 'James Gallagher', 'Kayla Fredericks', 'Kelsey Fredericks', 'Amanda Fein', 'Caitlin Fein', 'Nicholas Cox', 'Amanda Summers', 'Kristin Summers', 'Phoebe Garcia-Pearl', 'Kathy Barbour', 'Donna Spangler', 'Marianne Curan', 'Penny Holland', 'Richard E. Coe', 'Sabrina Bryan', 'Trevor Coppola', 'Simon Jones', 'Jon Lovitz']",3.7,5.0,"['Comedy', 'Fantasy', 'Family']",98,['USA'],English,['English'],"['Jersey Films', 'TriStar Pictures']",1018648,76976,218167,6400,1554,3959,3196,16837,20122,86743,81897,128911,31313,94226,468758,https://letterboxd.com/film/matilda/
