Film_title,Release_year,Director,Cast,Average_rating,Owner_rating,Genres,Runtime,Countries,Original_language,Spoken_languages,Studios,Watches,List_appearances,Likes,Fans,½,★,★½,★★,★★½,★★★,★★★½,★★★★,★★★★½,★★★★★,Total_ratings,Film_URL
Poor Things,2023,Yorgos Lanthimos,"['Emma Stone', 'Mark Ruffalo', 'Willem Dafoe', 'Ramy Youssef', 'Christopher Abbott', 'Suzy Bemba', 'Jerrod Carmichael', 'Kathryn Hunter', 'Vicki Pepperdine', 'Hanna Schygulla', 'Margaret Qualley', 'Jack Barton', 'Charlie Hiscock', 'Attila Dobai', 'Emma Hindle', 'Anders Grundberg', 'Attila Kecskeméthy', 'Jucimar Barbosa', 'Carminho', 'Angela Paula Stander', 'Gustavo Gomes', 'Kate Handford', 'Owen Good', 'Zen Joshua Poisson', 'Vivienne Soan', 'Jerskin Fendrix', 'István Göz', 'Bruna Asdorian', 'Tamás Szabó Sipos', 'Tom Stourton', 'Mascuud Dahir', 'Miles Jovian', 'Jeremy Wheeler', 'János Geréb', 'Patrick de Valette', 'Raphaël Thiéry', 'Boris Gillot', 'Dorina Kovács', 'Yorgos Stefanakos', 'Hubert Benhamdine', 'Laurent Borel', 'Gábor Patay', 'Laurent Winkler', 'Andrew Hefler', 'Damien Bonnard', 'Noah Breton', 'Donovan Fouassier', 'Wayne Brett', 'John Locke', 'Keeley Forsyth', 'David Bromley', 'Celina Schleicher', 'Roderick Hill']",4.06,4.0,"['Romance', 'Science Fiction', 'Comedy']",142,"['Ireland', 'UK', 'USA']",English,"['English', 'French', 'Portuguese']","['Searchlight Pictures', 'Film4 Productions', 'TSG Entertainment', 'Element Pictures', 'Limp', 'Fruit Tree']",1647988,320696,653450,23000,10003,14246,9430,32806,34001,103960,145107,394068,302745,383649,1430015,https://letterboxd.com/film/poor-things-2023/
Anatomy of a Fall,2023,Justine Triet,"['Sandra Hüller', 'Swann Arlaud', 'Milo Machado-Graner', 'Antoine Reinartz', 'Samuel Theis', 'Jehnny Beth', 'Saadia Bentaïeb', 'Camille Rutherford', 'Anne Rotger', 'Sophie Fillières', 'Julien Comte', 'Pierre-François Garel', 'Savannah Rol', 'Iliès Kadri', 'Vincent Courcelle-Labrousse', 'Cécile Brunet-Ludet', 'Nesrine Slaoui', 'Antoine Bueno', 'Anne-Lise Heimburger', 'Wajdi Mouawad', 'Sacha Wolff', 'Kareen Guiock', 'Arthur Harari', 'Marie Brette', 'Christophe Devaux', 'Jefferson Desport', 'Nola Jolly', 'Emmanuelle Jourdan', 'Isaac Abballah', 'Judicaël Ajorque', 'Nicholas Angelo', 'Marie-Laure Aumis', 'Laura Balasuriya', 'Alexandre Bertrand', 'Jean-Pierre Bertrand', 'Cécilia Bongiovanni-Lefebvre', 'Jean-Claude Calbet', 'Florent Chasseloup', 'Sandrine Chastagnol', 'Betty Desmier', 'Justine Dulary', 'Philippe Jubien', 'Cyril Karenine', 'Maud Martin', 'Romaric Maucoeur', 'Fabien Perrot', 'Christophe Léon Schelstraete', 'Rose Thibault']",4.15,3.0,"['Mystery', 'Crime', 'Thriller']",152,['France'],French,"['French', 'English', 'German']","['Les Films de Pierre', 'Les Films Pelléas', 'France 2 Cinéma', 'Auvergne-Rhône-Alpes Cinéma']",964832,224036,357681,7600,796,1948,1393,7995,10394,51769,95539,301529,197697,166041,835101,https://letterboxd.com/film/anatomy-of-a-fall/
The Batman,2022,Matt Reeves,"['Robert Pattinson', 'Zoë Kravitz', 'Paul Dano', 'Jeffrey Wright', 'John Turturro', 'Peter Sarsgaard', 'Andy Serkis', 'Colin Farrell', 'Jayme Lawson', 'Gil Perez-Abraham', 'Peter McDonald', ""Con O'Neill"", 'Alex Ferns', 'Rupert Penry-Jones', 'Charlie Carver', 'Max Carver', 'Barry Keoghan', 'Kosha Engler', 'Archie Barnes', 'Janine Harouni', 'Hana Hrzic', 'Joseph Walker', 'Luke Roberts', 'Oscar Novak', 'Stella Stocker', 'Sandra Dickinson', 'Jack Bennett', 'Andre Nightingale', 'Richard James-Neale', 'Lorraine Tai', 'Joseph Balderrama', 'James Eeles', 'Dave Simon', 'Angela Yeoh', 'Leemore Marrett Jr.', 'Ezra Elliott', 'Itoya Osagiede', 'Stewart Alexander', 'Adam Rojko Vega', 'Heider Ali', 'Marcus Onilude', 'Elena Saurel', 'Ed Kear', 'Sid Sagar', 'Amanda Blake', 'Todd Boyce', 'Brandon Bassir', 'Will Austin', 'Chabris Napier-Lawrence', 'Douglas Russell', 'Phil Aizlewood', 'Mark Killeen', 'Philip Shaun McGuinness', 'Lorna Brown', 'Elliot Warren', 'Jay Lycurgo', 'Stefan Race', 'Elijah Baker', 'Craige Middleburg', 'Akie Kotabe', 'Spike Fearn', 'Urielle Klein-Mekongo', 'Bronson Webb', 'Madeleine Gray', 'Ste Johnston', 'Arthur Lee', 'Parry Glasspool', 'Jordan Coulson', 'Hadas Gold', 'Pat Battle', 'Bobby Cuza', 'Dean Meminger', 'Roma Torre', 'Mike Capozzola', 'Amanda Hurwitz', 'Joshua Eldridge-Smith', 'Daniel Rainford', 'Nathalie Armin', 'Jose Palma', 'Kazeem Tosin Amore', 'Rodrig Andrisan', 'Craig Douglas']",3.98,3.0,"['Crime', 'Mystery', 'Thriller']",177,['USA'],English,['English'],"['6th & Idaho', 'Dylan Clark Productions', 'DC Films', 'Warner Bros. Pictures']",2837223,383654,1215314,43000,4592,15242,8209,56526,48275,243564,258012,691628,362260,487030,2175338,https://letterboxd.com/film/the-batman/
The Girl Who Killed Her Parents,2021,Maurício Eça,"['Carla Diaz', 'Leonardo Bittencourt', 'Allan Souza Lima', 'Leonardo Medeiros', 'Vera Zimmermann', 'Augusto Madeira', 'Debora Duboc', 'Kauan Ceglio', 'Marcelo Várzea', 'Fernanda Viacava', 'Gabi Lopes', 'Taiguara Nazareth', 'Bruna Carvalho']",2.7,3.5,"['Drama', 'Thriller', 'Crime']",85,['Brazil'],Portuguese,['Portuguese'],"['Santa Rita Filmes', 'Galeria Distribuidora', 'Grupo Telefilms']",40971,3324,3884,14,711,1360,1230,4070,4299,9372,4366,4207,633,2155,32403,https://letterboxd.com/film/the-girl-who-killed-her-parents/
Dune,2021,Denis Villeneuve,"['Timothée Chalamet', 'Rebecca Ferguson', 'Oscar Isaac', 'Jason Momoa', 'Josh Brolin', 'Stellan Skarsgård', 'Stephen McKinley Henderson', 'Javier Bardem', 'Sharon Duncan-Brewster', 'Chang Chen', 'Dave Bautista', 'David Dastmalchian', 'Zendaya', 'Charlotte Rampling', 'Babs Olusanmokun', 'Benjamin Clémentine', 'Souad Faress', 'Golda Rosheuvel', 'Roger Yuan', 'Seun Shote', 'Neil Bell', 'Oliver Ryan', 'Stephen Collins', 'Charlie Rawes', 'Richard Carter', 'Benjamin Dilloway', 'Elmi Rashid Elmi', 'Tachia Newall', 'Gloria Obianyo', 'Fehinti Balogun', 'Dora Kápolnai-Schvab', 'Joelle', 'Jimmy Walker', 'Paul Bullion', 'Milena Sidorova', 'János Timkó', 'Jean Gilpin', 'Marianne Faithfull', 'Ellen Dubin']",3.9,4.0,"['Science Fiction', 'Adventure']",155,['USA'],English,"['English', 'Chinese']",['Legendary Pictures'],2769437,329797,1030173,21000,7661,22074,10956,66933,58149,256960,285671,706329,336507,388669,2139909,https://letterboxd.com/film/dune-2021/
Drive My Car,2021,Ryusuke Hamaguchi,"['Hidetoshi Nishijima', 'Toko Miura', 'Masaki Okada', 'Reika Kirishima', 'Park Yu-rim', 'Jin Dae-yeon', 'Sonia Yuan', 'Ahn Hwi-tae', 'Perry Dizon', 'Satoko Abe', 'Hiroko Matsuda', 'Toshiaki Inomata', 'Takako Yamamura', 'Ryo Iwase', 'Faisal Anwar', 'Kamal Zharif', 'Massimo Biondi', 'Shoichiro Tanigawa', 'Yoshinori Miyata']",4.2,4.0,['Drama'],179,['Japan'],Japanese,"['Japanese', 'Chinese', 'English', 'German', 'Indonesian', 'Korean', 'Malay', 'Tagalog']","['Bitters End', 'C&I entertainment', 'Culture Entertainment', 'Agency for Cultural Affairs', 'J-LOD', 'nekojarashi', 'Quaras', 'Bungeishunju', ""L'espace Vision"", 'Nippan Group Holdings', 'The Asahi Shimbun']",340499,114831,128120,7200,536,1232,1028,4409,5450,19516,30221,79927,62035,62341,266695,https://letterboxd.com/film/drive-my-car/
Parasite,2019,Bong Joon-ho,"['Song Kang-ho', 'Lee Sun-kyun', 'Cho Yeo-jeong', 'Choi Woo-shik', 'Park So-dam', 'Lee Jung-eun', 'Jang Hye-jin', 'Park Myung-hoon', 'Jung Ji-so', 'Jung Hyeon-jun', 'Park Keun-rok', 'Jung Yi-seo', 'Cho Jae-myung', 'Jeong Ik-han', 'Kim Kyu-baek', 'Ahn Seong-bong', 'Yoon Young-woo', 'Park Jae-wook', 'Lee Dong-yong', 'Jeon Eun-mi', 'Kim Geon', 'Lee Joo-hyung', 'Lee Ji-hye', 'Kim Bo-ryeong', 'Park Hye-sook', 'Baek Seung-hwan', 'Riccardo Ferraresso', 'Ko Kwan-jae', 'Lee Si-hoon', 'Seo Bok-hyeon', 'Shim Soo-mi', 'Yoon Hye-ree', 'Andreas Fronk', 'Anna Elisabeth Rihlmann', 'Rosie Peralta', 'Shin Seung-min', 'Park Seo-jun', 'Kwak Sin-ae', 'Choi Jeong-hyun', 'Kim Ha-eon', 'Lee Eun-hee', 'Choi Ji-won', 'Park Jae-wan', 'Hwang In-gyeong', 'Kim Yeong-jo', 'Kim Jung-woo', 'Lee Sang-kyung', 'Lee Si-hoo', 'Ahn Jin-sang', 'Joost Klein']",4.56,5.0,"['Comedy', 'Thriller', 'Drama']",133,['South Korea'],Korean,"['Korean', 'English', 'German']",['Barunson E&A'],3731552,513509,2140585,88000,2461,5420,2257,15061,12600,90742,105601,565806,469792,1521393,2791133,https://letterboxd.com/film/parasite-2019/
Captain Fantastic,2016,Matt Ross,"['Viggo Mortensen', 'George MacKay', 'Samantha Isler', 'Annalise Basso', 'Nicholas Hamilton', 'Shree Crooks', 'Charlie Shotwell', 'Trin Miller', 'Frank Langella', 'Ann Dowd', 'Steve Zahn', 'Kathryn Hahn', 'Elijah Stevenson', 'Teddy Van Ee', 'Erin Moriarty', 'Missi Pyle', 'Galen Osier', 'Hannah Horton', 'Rex Young', 'Thomas Brophy', 'Mike Miller', 'Greg Crooks', 'Louis Hobson', 'Elena Stecca', 'Paul Alan Amend', 'Hafid Abdelmoula', 'Richard Beal', 'Alan Humphrey']",3.92,4.0,"['Drama', 'Adventure']",118,['USA'],English,"['English', 'Esperanto']","['Electric City Entertainment', 'ShivHans Pictures']",434622,60498,136481,6600,795,1681,1476,5785,8475,32605,52285,99336,38259,50840,291537,https://letterboxd.com/film/captain-fantastic/
John Wick,2014,Chad Stahelski,"['Keanu Reeves', 'Michael Nyqvist', 'Ian McShane', 'John Leguizamo', 'Willem Dafoe', 'Alfie Allen', 'Dean Winters', 'Adrianne Palicki', 'Lance Reddick', 'Bridget Moynahan', 'David Patrick Kelly', 'Randall Duk Kim', 'Munro M. Bonnell', 'Omer Barnea', 'Toby Leonard Moore', 'Daniel Bernhardt', 'Bridget Regan', 'Keith Jardine', 'Tait Fletcher', 'Thomas Sadoski', 'Clarke Peters', 'Kevin Nash', 'Gameela Wright', 'Vladislav Koulikov', 'Patricia Squire', 'Kazy Tauginas', 'Vladimir Troitsky', 'Matt McColm', 'Scott Tixier', 'Alexander Frekey', 'Carolyn Blair', 'Samantha Crawford', 'Nadia Kay', 'Natalia Kiriya', 'Tommy Bayiokos', 'J.J. Perry', 'Dennis Keiffer', 'Alex Ziwak', 'Erik Martin', 'Elizabeth Saint', 'Marija Skangale', 'Karen Nazarov', 'Paugh Shadow']",3.81,3.5,"['Action', 'Thriller']",101,['USA'],English,"['English', 'Hungarian', 'Russian']","['87Eleven', 'DefyNite Films', 'MJW Films', 'Thunder Road']",1600409,136800,484170,7200,2148,6440,4550,23770,30031,145879,194237,367472,104559,153274,1032360,https://letterboxd.com/film/john-wick/
Black Swan,2010,Darren Aronofsky,"['Natalie Portman', 'Mila Kunis', 'Vincent Cassel', 'Barbara Hershey', 'Winona Ryder', 'Benjamin Millepied', 'Ksenia Solo', 'Kristina Anapau', 'Janet Montgomery', 'Sebastian Stan', 'Toby Hemingway', 'Sergio Torrado', 'Mark Margolis', 'Tina Sloan', 'Abraham Aronofsky', 'Charlotte Aronofsky', 'Marcia Jean Kurtz', ""Shaun O'Hagan"", 'Chris Gartin', 'Deborah Offner', 'Stanley B. Herman', 'Michelle Rodriguez Nouel', 'Kurt Froman', 'Marty Krzywonos', 'Leslie Lyles', 'John Epperson', 'Arkadiy Figlin', 'Tim Fain', 'Sarah Lane', 'Liam Flaherty', 'Patrick Heusinger', 'Marina Stavitskaya', 'Olga Kostritzky', 'Christine Redpath', 'Alexandra Damiani', 'Rebecca Azenberg', 'Laura Bowman', 'Holly L. Fusco', 'Abigail Mentzer', 'Barette Vance', 'Lillian di Piazza', 'Megan Dickinson', 'Jessy Hendrickson', 'Geneviève Lebean', 'Rachel Jambois', 'Ryoko Sadoshima', 'Kaia A. Tack', 'Lauren Fadeley', 'Sarah Hay', 'Adrianna de Svastich', 'Jamie Wolf', 'Carrie Lee Riggins', 'Gina Artese', 'Daralina Komar', 'Tim Lacatena', 'Alyson Cambridge', 'Anne Bergstedt Jordanova']",4.14,4.0,"['Drama', 'Thriller', 'Horror']",108,['USA'],English,"['English', 'French', 'Italian']","['Fox Searchlight Pictures', 'Cross Creek Pictures', 'Protozoa Pictures', 'Phoenix Pictures', 'Dune Entertainment']",2230029,307159,848321,58000,1971,5824,3331,24558,20415,134872,138061,439577,214032,466867,1449508,https://letterboxd.com/film/black-swan/
Inglourious Basterds,2009,Quentin Tarantino,"['Brad Pitt', 'Mélanie Laurent', 'Christoph Waltz', 'Eli Roth', 'Michael Fassbender', 'Diane Kruger', 'Daniel Brühl', 'Til Schweiger', 'Gedeon Burkhard', 'Jacky Ido', 'B.J. Novak', 'Omar Doom', 'August Diehl', 'Denis Ménochet', 'Sylvester Groth', 'Martin Wuttke', 'Mike Myers', 'Julie Dreyfus', 'Léa Seydoux', 'Richard Sammel', 'Alexander Fehling', 'Rod Taylor', 'Samm Levine', 'Paul Rust', 'Michael Bacall', 'Arndt Schwering-Sohnrey', 'Petra Hartung', 'Volker Michalowski', 'Ken Duken', 'Christian Berkel', 'Anne-Sophie Franck', 'Tina Rodriguez', 'Lena Friedrich', 'Ludger Pistor', 'Jana Pallaske', 'Wolfgang Lindner', 'Michael Kranz', 'Rainer Bock', 'André Penvern', 'Sebastian Hülk', 'Buddy Joe Hooker', 'Sönke Möhring', 'Carlos Fidel', 'Hilmar Eichhorn', 'Patrick Elias', 'Eva Löbau', 'Salvadore Brandt', 'Jasper Linnewedel', 'Wilfried Hochholdinger', 'Olivier Girard', 'Michael Scheel', 'Leo Plank', 'Andreas Tietz', 'Bo Svenson', 'Enzo G. Castellari', 'Christian Brückner', 'Samuel L. Jackson', 'Bela B.', 'Noemi Besedes', 'Hélène Cardona', 'Jake Garber', 'Sabrina Rattey', 'Alex Boden', 'Guido Föhrweißer', 'Harvey Keitel', 'Andrew Napier', 'Greg Nicotero', 'Quentin Tarantino', 'Vitus Wieser', 'Bea-Marie Rück', 'Daniela Schwerdt']",4.34,5.0,"['Drama', 'Thriller', 'War']",153,"['France', 'Germany', 'USA']",English,"['English', 'German', 'French', 'Italian']","['The Weinstein Company', 'Universal Pictures', 'A Band Apart', 'Zehnte Babelsberg Film', 'Visiona Romantica', 'Peninsula Films']",2596832,338828,1083363,50000,1684,4383,2562,16279,15164,106968,131903,505414,332309,626713,1743379,https://letterboxd.com/film/inglourious-basterds/
Dogtooth,2009,Yorgos Lanthimos,"['Christos Stergioglou', 'Michele Valley', 'Hristos Passalis', 'Angeliki Papoulia', 'Mary Tsoni', 'Anna Kalaitzidou', 'Steve Krikris', 'Sissi Petropoulou', 'Alexander Voulgaris']",3.76,3.5,['Drama'],98,['Greece'],Greek (modern),['Greek (modern)'],"['Greek Film Centre', 'Boo Productions', 'Horsefly Productions']",313683,73542,81092,3400,1873,2984,2429,7961,9950,31099,43505,70928,26297,23727,220753,https://letterboxd.com/film/dogtooth/
The Dark Knight,2008,Christopher Nolan,"['Christian Bale', 'Heath Ledger', 'Michael Caine', 'Gary Oldman', 'Aaron Eckhart', 'Maggie Gyllenhaal', 'Morgan Freeman', 'Nestor Carbonell', 'Monique Gabriela Curnen', 'Ron Dean', 'Chin Han', 'Eric Roberts', 'Ritchie Coster', 'Anthony Michael Hall', 'Keith Szarabajka', 'Joshua Harto', 'Melinda McGraw', 'Nathan Gamble', 'Michael Jai White', 'Colin McFarlane', 'Nydia Rodriguez Terracina', 'Tommy Lister Jr.', 'William Fichtner', 'Cillian Murphy', 'Patrick Leahy', 'Matt Skiba', 'David Dastmalchian', 'Michael Vieau', 'Michael Stoyanov', 'William Smillie', 'Danny Goldring', ""Matthew O'Neill"", 'Olumiji Olawumi', 'Greg Beam', 'Erik Hellman', 'Beatrice Rosen', 'Vincenzo Nicoli', 'Edison Chen', 'Andy Luther', 'James Farruggio', 'Tom McElroy', 'Will Zahrn', 'James Fierro', 'Sam Derence', 'Jennifer Knox', 'Patrick Clear', 'Sarah Jayne Dunn', 'Charles Venn', 'Winston Ellis', 'Sophia Hinshelwood', 'Keith Kupferer', 'Joseph Luis Caballero', 'Richard Dillane', 'Daryl Satcher', 'Chris Petschler', 'Aidan Feore', 'Philip Bulcock', 'Paul Birchard', 'Walter Lewis', 'Vincent Riotta', 'Nancy Crane', 'K. Todd Freeman', 'Matt Shallenberger', 'Michael Andrew Gorman', 'Lanny Lutz', 'Peter DeFaria', 'Matt Rippy', 'Andrew Bicknell', 'Ariyon Bakare', 'Doug Ballard', 'Helene Maksoud', 'Tommy Campbell', 'Craig Heaney', 'Lorna Gayle', 'Lisa McAllister', 'Peter Brooke', 'Joshua Rollins', 'Dale Rivera', 'Matthew Leitch', 'Thomas Gaitsch', 'William Armstrong', 'Adam Kalesperis', 'Tristan Tait', 'Bronson Webb', 'David Ajala', 'Gertrude Kyles', 'Jonathan Ryland', 'James Scales', 'Nigel Carrington', 'Ian Pirie', 'Lateef Lovejoy', 'Grahame Edwards', 'Roger Monk', 'Ronan Summers', 'Wai Wong', 'Michael Corey Foster', 'Hannah Gunn', 'Jon Lee Brody', 'Debbi Burns', 'Maritza Cabrera', 'Shirin Caiola', 'Laura Chernicky', 'Henry Milton Chu', 'Kelli Clevenger', 'Richard Divizio', 'Tony Domino', 'David Fultz', 'Natalie Hallam', 'Jordon Hodges', 'Erron Jay', 'Nicky Katt', 'Thomas Kosik', 'Don Kress', 'Tim Krueger', 'Dan Latham', 'Tom McComas', 'James Mellor', 'Joseph Oliveira', 'Buster Reeves', 'Peter Rnic', 'Amit Shah', 'Michelle Shields', 'Sofiya Smirnova', 'Bruce Spielbauer', 'Robert Patrick Stern', 'Robert Stone', 'Richard Strobel', 'Tom Townsend', 'John Turk', 'John Warman', 'Chris Wilson', 'Kevin Zaideman', 'Rob Clark', 'Brandon Lambdin', 'Craig Braginsky', 'Mike Whyte', 'Tina Simmons', 'Rick Avery']",4.47,5.0,"['Action', 'Drama', 'Thriller', 'Crime']",152,"['UK', 'USA']",English,"['English', 'Chinese']","['DC Comics', 'Legendary Pictures', 'Syncopy', 'Isobel Griffiths', 'Warner Bros. Pictures']",3403885,454561,1528639,81000,1610,4147,2156,14863,13578,102050,111798,511795,378010,1079459,2219466,https://letterboxd.com/film/the-dark-knight/
The Wave,2008,Dennis Gansel,"['Jürgen Vogel', 'Frederick Lau', 'Max Riemelt', 'Jennifer Ulrich', 'Christiane Paul', ""Elyas M'Barek"", 'Cristina do Rego', 'Jacob Matschenz', 'Maximilian Vollmar', 'Tim Oliver Schultz', 'Amelie Kiefer', 'Max Mauff', 'Fabian Preger', 'Ferdinand Schmidt-Modrow', 'Odine Johne', 'Tino Mewes', 'Karoline Teska', 'Marco Bretscher-Coschignano', 'Lennard Bertzbach', 'Tommy Schwimmer', ""Joseph M'Barek"", 'Jaime Krsto Ferkic', 'Lucas Hardt', 'Maren Kroymann', 'Teresa Harder', 'Thomas Sarbacher', 'Alexander Held', 'Johanna Gastdorf', 'Friederike Wagner', 'Hubert Mulzer', 'Dennis Gansel', 'Natascha Paulick']",3.63,4.0,"['Thriller', 'Drama']",107,['Germany'],German,['German'],"['Rat Pack Filmproduktion', 'Medienfonds GFP', 'B.A. Produktion', 'Constantin Film']",129451,11643,19559,201,249,574,665,2505,4258,15239,20767,22846,4942,4889,76934,https://letterboxd.com/film/the-wave-2008/
Elite Squad,2007,José Padilha,"['Wagner Moura', 'Caio Junqueira', 'André Ramiro', 'Milhem Cortaz', 'Fernanda Machado', 'Maria Ribeiro', 'Fábio Lago', 'Erick Oliveira', 'Marcello Escorel', 'Roberta Santiago', 'Fernanda de Freitas', 'Paulo Vilela', 'Juliano Cazarré', 'Guilherme Guaral', 'André Di Mauro', 'Thelmo Fernandes', 'Paulo Hamilton', 'Sandro Rocha', 'Thiago Mendonça', 'Nathalia Dill', 'Álamo Facó', 'Otto Jr.']",3.92,5.0,"['Drama', 'Crime', 'Action']",115,['Brazil'],Portuguese,['Portuguese'],"['Universal Pictures do Brasil', 'The Weinstein Company', 'Zazen Produções', 'Estúdios Mega', 'Quanta Centro de Produções Cinematográficas', 'Costa Films', 'Posto 9', 'Feijão Filmes']",112533,16512,31047,1400,218,341,305,1237,1593,6637,10544,26473,12726,21133,81207,https://letterboxd.com/film/elite-squad/
Superbad,2007,Greg Mottola,"['Jonah Hill', 'Michael Cera', 'Christopher Mintz-Plasse', 'Seth Rogen', 'Bill Hader', 'Martha MacIsaac', 'Emma Stone', 'Aviva Baumann', 'Joe Lo Truglio', 'Kevin Corrigan', 'Clement Blake', 'Erica Vittina Phillips', 'Joe Nuñez', 'Dave Franco', 'Marcella Lentz-Pope', 'Scott Gerbacia', 'Laura Seay', 'Roger Iwami', 'Clint Mabry', 'Stacy Edwards', 'Mark Rogen', 'Charlie Hartsock', 'Dona Hardy', 'Charley Rossman', 'Carla Gallo', 'Ben Best', 'Jody Hill', 'Kevin Breznahan', 'David Krumholtz', 'Mousa Kraish', 'Nicholas Jasenovec', 'Martin Starr', 'Keith Loneker', 'Matthew McKane', 'Lauren Miller', 'Peter Salett', 'Rakefet Abergel', 'Brooke Dillman', 'Michael Naughton', 'Steve Bannos', 'Casey Margolis', 'Laura Marano', 'Matthew Bass', 'Aurora Snow', 'Jenna Haze', 'Ted Haigh', 'Michael Fennessey', 'Brian Huskey', 'Clark Duke', 'Stephen Borrello IV', 'Naathan Phan', ""Pamella D'Pella"", 'Danny McBride', 'Cortney Palm']",3.88,4.0,['Comedy'],113,['USA'],English,['English'],"['Columbia Pictures', 'Apatow Productions']",1689800,157109,537815,20000,3009,7271,5396,25636,29660,137103,165252,335698,124100,219124,1052249,https://letterboxd.com/film/superbad/
V for Vendetta,2005,James McTeigue,"['Natalie Portman', 'Hugo Weaving', 'Stephen Rea', 'Stephen Fry', 'John Hurt', 'Tim Pigott-Smith', 'Natasha Wightman', 'Rupert Graves', 'Roger Allam', 'Ben Miles', 'Sinéad Cusack', 'Eddie Marsan', 'John Standing', 'Imogen Poots', 'Clive Ashborn', 'Emma Field-Rayner', 'Ian Burfield', 'Mark Phoenix', 'Alister Mazzotti', 'Billie Cook', 'Guy Henry', 'Cosima Shaw', 'Megan Gay', 'Roderic Culver', 'Andy Rashleigh', 'Chad Stahelski', 'Antje Rau', 'Amelda Brown', 'Richard Campbell', 'Mark Longhurst', 'Charles Cork', 'John Ringham', 'Oliver Bradshaw', 'Juliet Howland', 'Joseph Rye', 'Malcolm Sinclair', 'Madeleine Rakic-Platt', 'Selina Giles', 'Carsten Hayes', 'Derek Hutchinson', 'Martin Savage', 'Grant Burgin', 'Greg Donaldson', 'Jason Griffiths', 'Laura Greenwood', 'Paul Antony-Barber', 'Anna Farnworth', 'Mary Stockley', 'Simon Newby', 'David Merheb', 'Dulcie Smart', 'Ben Posener', 'Ian T. Dickinson', 'Julie Brown', 'Eamon Geoghegan', 'Matthew Bates', 'David Leitch', 'Matt Wilkinson', 'Martin McGlade', 'Richard Laing', 'Michael Simkins', 'William Tapley', 'Tony Cook', 'Christopher Fosh', 'Keith How', 'Norman Campbell Rees', 'Andy Callaghan', 'Forbes KB', 'João Costa Menezes', 'Chris Wilson', 'Nicolas de Pruyssenaere', 'David Decio', 'Rami Hilmi', 'Mathis Landwehr', 'Jason Oettle', 'Wolfgang Stegemann', 'Simon Holmes']",3.84,4.0,"['Thriller', 'Science Fiction', 'Action']",132,"['Germany', 'UK', 'USA']",English,['English'],"['Virtual Studios', 'Anarchos Productions', 'Silver Pictures', 'Fünfte Babelsberg Film', 'Warner Bros. Productions', 'DC Vertigo']",1017858,90899,259583,8900,1510,3888,3460,16693,20312,82653,100505,176704,64968,90708,561401,https://letterboxd.com/film/v-for-vendetta/
Hostel,2005,Eli Roth,"['Jay Hernandez', 'Derek Richardson', 'Eythor Gudjonsson', 'Barbara Nedeljakova', 'Jana Kaderabkova', 'Jennifer Lim', 'Jan Vlasák', 'Jana Havlickova', 'Keiko Seiko', 'Paula Wild', 'Rick Hoffman', 'Ľubomír Bukový', 'Miroslav Táborský', 'Petr Janis', 'Takashi Miike', 'Patrik Zigo', 'Milda Jedi Havlas', 'Martin Kubačák', 'Vladimír Silhavecký', 'Barbora Obozněnková', 'Daniel Frisch', 'Radomil Uhlíř', 'Jan Španbauer', 'Mirek Navratil', 'Vanessa Jungova', 'Katerina Vomelova', 'Lubos Vinicky', 'Petr Sedláček', 'Drahoslav Herzan', 'Daniela Bakerová', 'Martina Kralickova', 'Ota Filip', 'Jakub Habarta', 'Philip Waley', 'Mark Taylor', 'Nick Roe', 'Roman Janečka', 'Natali Tothova', 'Sandy Style', 'David Baxa', 'Gabriel Roth', 'Miroslav Hanuš', 'Christopher Allen Nelson', 'Josef Bradna', 'Zina Blahusova', 'Katerina Cervenkova', 'Veronika Petrová', 'Kristina Kosunova', 'Karel Hrosek', 'Mugi Lhagvadorj', 'Ashley Robbins', 'Hana Dibelkova', 'Anita Queen', 'Klara Smetanova', 'Petra Slavíková', 'Katrina Henesova', 'Hana Vitvarová', 'Mark Bakunas', 'Anne Bergstedt Jordanova', 'Stephanie Bauman', 'Michaela Kaplanova', 'Martin Faltýn', 'Eli Roth']",2.72,4.5,['Horror'],94,"['USA', 'Czechia']",English,"['English', 'Czech', 'Dutch', 'German', 'Icelandic', 'Japanese', 'Russian', 'Slovak', 'Spanish']","['International Production Company', 'Raw Nerve', 'Next Entertainment', 'Hostel LLC']",230921,34941,27808,311,3959,8163,7619,20911,20163,36781,18304,15058,2346,4668,137972,https://letterboxd.com/film/hostel/
Oldboy,2003,Park Chan-wook,"['Choi Min-sik', 'Yoo Ji-tae', 'Kang Hye-jung', 'Kim Byeong-ok', 'Ji Dae-han', 'Oh Dal-su', 'Seung-shin Lee', 'Yoon Jin-seo', 'Oh Tae-kyung', 'Yoo Yeon-seok', 'You Il-han', 'Lee Young-hee', 'Kim Yeong-ae', 'Lee Mi-Mi', 'Han Jae-duk', 'Kwak Jung-ae', 'Kim San', 'Chae-soo Jang', 'Seol-a Im', 'Syd Lim', 'Chang-hak Choi', 'Bi-Joon Shin', 'Seok-jae Seong', 'Choi Jae-sup', 'Yoon Jin-yul', 'Mun Seong-bok', 'Park Jae-Woong', 'Oh Soon-tae', 'Lee Hong-pyo', 'Geun-Seok Park', 'Heo Myeong-haeng', 'Kim Won-jung', 'Sung-Gyu Park', 'Jung-pil Lee', 'Seon-Rang Han', 'Beom-sik Sin', 'Jung-ok Han', 'Baek Dong-hyun', 'Ju Myeong-cheol', 'Park Ji-hun', 'Choon-Beom Choi', 'Seo Myeong-Seok', 'Jeon Woo-jae', 'Cho Sang-kyung', 'Oh Young-joo', 'Lee Ji-hye', 'Joong-hyun Ji', 'Sang-moo Moon', 'Oh Kwang-rok', 'Lee Dae-yeon', 'Park Myung-shin', 'Kim Su-hyun', 'Yong-ih']",4.39,3.5,"['Thriller', 'Mystery', 'Drama', 'Action']",120,['South Korea'],Korean,['Korean'],"['Show East', 'CJ Entertainment', 'Egg Film', 'Cineclick Asia']",1005858,214171,376225,31000,1833,2679,1915,7397,8237,34402,54712,186361,163405,259360,720301,https://letterboxd.com/film/oldboy/
The Lord of the Rings: The Two Towers,2002,Peter Jackson,"['Elijah Wood', 'Sean Astin', 'Andy Serkis', 'Viggo Mortensen', 'Ian McKellen', 'Bernard Hill', 'Dominic Monaghan', 'Billy Boyd', 'John Rhys-Davies', 'Orlando Bloom', 'Christopher Lee', 'Miranda Otto', 'David Wenham', 'Brad Dourif', 'Karl Urban', 'Liv Tyler', 'Cate Blanchett', 'Hugo Weaving', 'Craig Parker', 'Bruce Allpress', 'John Bach', 'Sala Baker', 'Jed Brophy', 'Sam Comery', 'Calum Gittins', 'Phil Grieve', 'Bruce Hopkins', 'Paris Howe Strewe', 'Nathaniel Lees', 'John Leigh', 'Robbie Magasiva', 'Robyn Malcolm', 'Bruce Phillips', 'Robert Pollock', 'Olivia Tennet', 'Raymond Trickitt', 'Stephen Ure', 'Billy Jackson', 'Katie Jackson', 'Sean Bean', 'John Noble', 'Victoria Beynon-Cole', 'Lee Hartley', 'Frazer Anderson', 'Ben Barrington', 'Jarl Benzon', 'Jørn Benzon', 'Owen Black', 'Dorothy Anne Bonner', 'Ben Britton', 'Riley Brophy', 'Alistair Browning', 'Alix Bushnell', 'Sean Button', 'Ryan Carey', 'Rodney Cook', 'Augie Davis', 'Mana Hira Davis', 'Shane Dawson', 'Karlos Drinkwater', 'Aron Eastwood', 'Frank Edwards', 'Clint Elvy', 'Alexia Fairbrother', 'Daniel Falconer', 'Siaosi Fonua', 'Kester Fordham', 'Michael Fowler', 'Ben Fransham', 'Frank Goldingham', 'Winham Hammond', 'Jonathan Harding', 'Lucas Hayward', 'Dan Hennah', 'Jason Hood', 'Lani Jackson', 'Peter Jackson', 'Gareth Jensen', 'Sam Kelly', 'Richard Knowles', 'Sandro Kopp', 'Sam La Hood', 'Don Langridge', 'Michael Lawrence', 'Alan Lee', 'Jono Manks', 'Brent McIntyre', 'Dra McKay', 'Joseph Mika-Hunt', 'Dean Morganty', 'Henry Mortensen', 'Francis Mountjoy', 'Paul Norell', 'Barrie M. Osborne', 'Allan Poppleton', 'Gareth Reeves', 'Miranda Rivers', 'Campbell Rousselle', 'Matthew J. Saville', 'Samuel E. Shore', 'Allan Smith', 'Greg Tozer', 'Piripi Waretini', 'Tim Wong', 'John Wraight', 'Kelley Kerr Young', 'Robert Young']",4.39,5.0,"['Fantasy', 'Adventure', 'Action']",179,"['New Zealand', 'USA']",English,['English'],"['New Line Cinema', 'WingNut Films', 'The Saul Zaentz Company']",1840664,193370,598635,19000,1531,4210,1732,12252,10469,66462,71229,256152,181679,448181,1053897,https://letterboxd.com/film/the-lord-of-the-rings-the-two-towers/
City of God,2002,Fernando Meirelles,"['Alexandre Rodrigues', 'Leandro Firmino', 'Phellipe Haagensen', 'Seu Jorge', 'Jonathan Haagensen', 'Matheus Nachtergaele', 'Luis Otávio', 'Douglas Silva', 'Michel Gomes', 'Jefechander Suplino', 'Alice Braga', 'Roberta Rodrigues', 'Darlan Cunha', 'Thiago Martins', 'Gero Camilo', 'Daniel Zettel', 'Charles Paraventi', 'Dani Ornellas', 'Micael Borges', 'Lúcio Andrey', 'Marcelo Mello Jr.', 'Babu Santana', 'Mary Sheila', 'Paulo Lins', 'Olivia Araújo', 'Graziella Moretto', 'Tulé Peak', 'Kikito Junqueira', 'Renato de Souza', 'Edson Oliveira', 'Kiko Marques', 'Emerson Gomes', 'Ana Felipe']",4.52,5.0,"['Drama', 'Crime']",130,"['Brazil', 'France', 'Germany']",Portuguese,['Portuguese'],"['O2 Filmes', 'VideoFilmes', 'Wild Bunch', 'Hank Levine Film', 'Globo Filmes', 'Lumière', 'Lei do Audiovisual Ministério da Cultura Audiovisual']",733735,149723,287863,30000,387,731,554,2725,2980,16672,27008,110535,103074,247090,511756,https://letterboxd.com/film/city-of-god/
The Count of Monte Cristo,2002,Kevin Reynolds,"['Jim Caviezel', 'Guy Pearce', 'Richard Harris', 'James Frain', 'Dagmara Dominczyk', 'Michael Wincott', 'Luis Guzmán', 'Christopher Adamson', 'JB Blanc', 'Henry Cavill', 'Zahara Moufid', 'Katherine Holme', 'Helen McCrory', 'Albie Woodington', 'Alex Norton', 'Patrick Godfrey', 'Freddie Jones']",3.71,3.5,"['Adventure', 'Drama', 'History']",131,['USA'],English,"['English', 'Italian', 'Spanish']","['Touchstone Pictures', 'Spyglass Entertainment', 'World 2000 Entertainment', 'Count of Monte Cristo Ltd.']",77676,12477,18228,1600,120,309,312,1503,2205,7859,9820,12771,4304,6570,45773,https://letterboxd.com/film/the-count-of-monte-cristo-2002/
The Lord of the Rings: The Fellowship of the Ring,2001,Peter Jackson,"['Elijah Wood', 'Ian McKellen', 'Viggo Mortensen', 'Sean Astin', 'Sean Bean', 'Billy Boyd', 'Dominic Monaghan', 'Ian Holm', 'Christopher Lee', 'Liv Tyler', 'John Rhys-Davies', 'Orlando Bloom', 'Hugo Weaving', 'Cate Blanchett', 'Brent McIntyre', 'Sala Baker', 'Andy Serkis', 'Lawrence Makoare', 'Craig Parker', 'Marton Csokas', 'Peter McKenzie', 'Mark Ferguson', 'Harry Sinclair', 'Noel Appleby', 'Megan Edwards', 'Sarah McLeod', 'David Weatherley', 'Ian Mune', 'Michael Elsworth', 'Cameron Rhodes', 'Martyn Sanderson', 'Billy Jackson', 'Katie Jackson', 'Alan Howard', 'Victoria Beynon-Cole', 'Paul Bryson', 'Lance Fabian Kemp', 'Phil Grieve', 'Lee Hartley', 'Jonathan Jordan', 'Semi Kuresa', 'Sam La Hood', 'Jono Manks', 'Ben Price', 'Chris Streeter', 'Clinton Ulyatt', 'Peter Jackson', 'Chris Ryan', 'Bret McKenzie', 'Betty Adams', 'Timothy Bartlett', 'Bob Blackwell', 'David Houma', 'Jo Surgison', 'Liz Merton', 'Zo Hartley', 'Norman Cates', 'Jeff Kingsford-Brown', 'Marta Martí', 'Riley Brophy', 'Phoebe Gittins', 'Taea Hartwell', 'Shane Rangi', 'Jed Brophy', 'Paul Shapcott', 'Alan Lee', 'Larry Rew', 'Gino Acevedo', 'Xander Forterie', 'Richard Maybery', 'Sabine Crossen', 'Gareth Jensen', 'Ben Britton', 'Kester Fordham', 'Jarl Benzon', 'Sam Kelly', 'Matt Appleton', 'Blair Morton', 'Ray Henwood', 'Ralph Johnson', 'Jonathan Harding', 'Jørn Benzon', 'Ben Fransham', 'Tim Kano', 'Sacha Lee', 'Thomas Robins', 'Randall William Cook', 'Rachel Clentworth', 'Lani Jackson', 'Sharon Maxwell', 'David J. Muzzerall', 'Winham Hammond', 'Mana Hira Davis', 'Warren Green', 'Stu Johnson', 'Peter Lyon', 'Peter Daube', 'Samuel E. Shore', 'Rodney Bane', 'Daniel Andrews', 'Siaosi Fonua', 'Ken Stratton', 'Lynden Berrymen', 'Ryan Carey', 'Tack Daniel', 'Shane Dawson', 'Branko Dordevich', 'Greg Lane', 'Tim McLachlan', 'Dean Morganty', 'Greg Morrison', 'Andrew Munro', 'Grant Roa', 'Vincent Roxburgh', 'Mike Stearne', 'Andrew Stehlin', 'Tim Wong']",4.36,4.5,"['Fantasy', 'Adventure', 'Action']",179,"['New Zealand', 'USA']",English,['English'],"['New Line Cinema', 'WingNut Films', 'The Saul Zaentz Company']",2355034,258031,836621,42000,2719,7635,2630,18937,13707,91436,90306,339103,215176,604217,1385866,https://letterboxd.com/film/the-lord-of-the-rings-the-fellowship-of-the-ring/
Donnie Darko,2001,Richard Kelly,"['Jake Gyllenhaal', 'Jena Malone', 'James Duval', 'Drew Barrymore', 'Beth Grant', 'Maggie Gyllenhaal', 'Mary McDonnell', 'Holmes Osborne', 'Noah Wyle', 'Katharine Ross', 'Patrick Swayze', 'Daveigh Chase', 'Arthur Taxier', 'David St. James', 'Patience Cleveland', 'Jazzie Mahannah', 'Jolene Purdy', 'David Moreland', 'Kristina Malota', 'Marina Malota', 'Scotty Leavenworth', 'Phyllis Lyons', 'Gary Lundy', 'Alex Greenwald', 'Stuart Stone', 'Joan Blair', 'Seth Rogen', 'Mark Hoffman', 'Jerry Trainor', 'Tom Tangen', 'Carly Naples', 'Lisa K. Wyatt', 'Rachel Winfree', 'Ashley Tisdale', 'Tiler Peck', 'Fran Kranz', 'Sarah Hudson', 'Alison Jones', 'Lee Weaver', 'Jack Salvatore, Jr.']",3.97,3.5,"['Fantasy', 'Mystery', 'Drama']",114,['USA'],English,['English'],"['Flower Films', 'Gaylord Films', 'Adam Fields Productions', 'Pandora Cinema']",1658308,235608,600973,49000,3153,8194,5055,27508,26815,127055,145276,341276,142728,253480,1080540,https://letterboxd.com/film/donnie-darko/
American Psycho,2000,Mary Harron,"['Christian Bale', 'Willem Dafoe', 'Jared Leto', 'Josh Lucas', 'Samantha Mathis', 'Matt Ross', 'Bill Sage', 'Chloë Sevigny', 'Cara Seymour', 'Justin Theroux', 'Guinevere Turner', 'Reese Witherspoon', 'Krista Sutton', 'Reg E. Cathey', 'Anthony Lemke', 'Stephen Bogaert', 'Monika Meier', 'Blair Williams', 'Marie Dame', 'Kelley Harron', 'Patricia Gage', 'Landy Cannon', 'Park Bench', 'Catherine Black', 'Margaret Ma', 'Peter Tufford Kennedy', 'Mark Pawson', 'Jessica Lau', 'Lilette Wiens', 'Glen Marc Silot', 'Charlotte Hunter', 'Kiki Buttignol', 'Joyce R. Korbin', 'Reuben Thompson', 'Bryan Renfro', 'Ross Gibby', 'Christina McKay', 'Alan McCullough', 'Connie Chen', 'Brett Alexander Davidson', 'Peter Loung', 'Joseph Oliveira', 'Leanne Poirier Greenfield', 'Somaya Reece', 'Kate Steen', 'Dan Rush', 'Chris Stone']",3.86,nan,"['Crime', 'Thriller', 'Horror', 'Drama']",102,"['Canada', 'USA']",English,"['English', 'Spanish', 'Cantonese']","['Lionsgate', 'Pressman Film', 'Muse Productions', 'Am Psycho Productions']",2631728,270870,951596,32000,4481,10918,7387,44110,47027,247898,276470,618336,205236,323326,1785189,https://letterboxd.com/film/american-psycho/
Fight Club,1999,David Fincher,"['Edward Norton', 'Brad Pitt', 'Helena Bonham Carter', 'Meat Loaf', 'Jared Leto', 'Zach Grenier', 'Holt McCallany', 'Eion Bailey', 'Richmond Arquette', 'David Andrews', 'George Maguire', 'Eugenie Bondurant', 'Christina Cabot', ""Sydney 'Big Dawg' Colston"", 'Rachel Singer', 'Christie Cronenweth', 'Tim DeZarn', 'Ezra Buzzington', 'Dierdre Downing-Jackson', 'Bob Stephenson', 'Charlie Dell', 'Rob Lanza', 'David Lee Smith', 'Joel Bissonnette', 'Evan Mirand', 'Robby Robinson', 'Lou Beatty Jr.', 'Thom Gossom Jr.', 'Valerie Bickford', 'Peter Iacangelo', 'Carl Ciarfalio', 'Stuart Blumberg', 'Todd Peirce', 'Mark Fite', 'Matt Winston', 'Joon Kim', 'Bennie Moore', 'Lauren Sánchez', 'Pat McNamara', 'Tyrone R. Livingston', 'Owen Masterson', 'David Jean Thomas', 'Paul Carafotes', 'Christopher John Fields', 'Anderson Bourell', 'Scotch Ellis Loring', 'Michael Shamus Wiles', 'Andi Carnick', 'Ed Kowalczyk', 'Leonard Termo', 'Van Quattro', 'Markus Redmond', 'Michael Girardin', 'Michael Arturo', 'Greg Bronson', 'Matt Cinquanta', 'Paul Dillon', 'Eddie Hargitay', 'Phil Hawn', 'Bruce Holman', 'Jawara', 'Baron Jay', 'Jim Jenkins', 'Kevin Scott Mack', 'Trey Ore', 'Louis Ortiz', 'Hugh Peddy', 'J.T. Pontino', 'Chad Randau', 'Marcio Rosario', 'Gregory Silva', 'Brian Tochi', 'Michael Zagst', 'Marc Cinquanta', 'Summer Moore']",4.27,4.5,['Drama'],139,"['Germany', 'USA']",English,['English'],"['Fox 2000 Pictures', 'Regency Enterprises', 'The Linson Company', '20th Century Fox', 'Taurus Film']",3644781,408050,1677758,111000,3453,9234,4471,30698,25333,169670,181633,698782,406521,978577,2508372,https://letterboxd.com/film/fight-club/
American Beauty,1999,Sam Mendes,"['Kevin Spacey', 'Annette Bening', 'Thora Birch', 'Wes Bentley', 'Mena Suvari', 'Peter Gallagher', 'Allison Janney', 'Chris Cooper', 'Scott Bakula', 'Sam Robards', 'Barry Del Sherman', 'Ara Celi', 'John Cho', 'Fort Atkinson', 'Sue Casey', 'Kent Faulcon', 'Brenda Wehle', 'Lisa Cloud', 'Alison Faulk', 'Krista Goodsitt', 'Lily Houtkin', 'Carolina Lancaster', 'Mona Leah', 'Chekesha Van Putten', 'Emily Zachary', 'Nancy Anderson', 'Reshma Gajjar', 'Stephanie Rizzo', 'Heather Joy Sher', 'Chelsea Hertford', 'Amber Smith', 'Joel McCrary', 'Marissa Jaret Winokur', 'Dennis Anderson', 'Matthew Kimbrough', 'Erin Cathryn Strubbe', 'Thomas J. Armstrong', 'Bruce Cohen', 'Elaine Corral Kendall', 'David C. Fisher', 'James Hunter', 'Spencer Kayden', 'Tom Miller', 'Ronald Reagan']",3.96,5.0,['Drama'],122,['USA'],English,['English'],"['DreamWorks Pictures', 'Jinks/Cohen Company']",1212578,156197,331679,12000,3591,7526,4516,21857,19655,87433,91734,230209,103363,143199,713083,https://letterboxd.com/film/american-beauty/
American History X,1998,Tony Kaye,"['Edward Norton', 'Edward Furlong', ""Beverly D'Angelo"", 'Jennifer Lien', 'Ethan Suplee', 'Fairuza Balk', 'Avery Brooks', 'Elliott Gould', 'Stacy Keach', 'William Russ', 'Guy Torry', 'Joe Cortese', 'Jason Bose Smith', 'Antonio David Lyons', 'Alex Sol', 'Keram Malicki-Sánchez', 'Giuseppe Andrews', 'Michelle Christine White', 'Jonathan Fowler Jr.', 'Christopher Masterson', 'Nicholas R. Oleson', 'Jordan Marder', 'Paul Le Mat', 'Thomas L. Bellissimo', 'Cherish Lee', 'Sam Vlahos', 'Tara Blanchard', 'Anne Lambton', 'Steve Wolford', 'Richard Noyce', 'Danso Gordon', 'Jim Norton', 'David Basulto', 'Alexis Rose Coen', 'Kiante Elam', 'Paul Hopkins', 'Keith Odett', 'Paul E. Short', 'Nigel Miguel', 'Darrell Britt', ""Robert 'Duckie' Carpenter"", ""Sydney 'Big Dawg' Colston"", 'John Embry', 'Maximillian Kesmodel', 'Allie Moss', 'Barbie Marie', 'Selwyn Ward', 'Sam Sarpong', 'Denney Pierce', 'Glendon Rich']",4.12,4.0,['Drama'],119,['USA'],English,['English'],"['New Line Cinema', 'Savoy Pictures', 'The Turman-Morrissey Company']",710094,80308,193493,5400,1002,1796,1345,5784,7673,35805,57685,157406,83339,84446,436281,https://letterboxd.com/film/american-history-x/
La Haine,1995,Mathieu Kassovitz,"['Vincent Cassel', 'Hubert Koundé', 'Saïd Taghmaoui', 'Abdel Ahmed Ghili', 'Solo', 'Joseph Momo', 'Héloïse Rauth', 'Rywka Wajsbrot', 'Olga Abrego', 'Laurent Labasse', 'Choukri Gabteni', 'Nabil Ben Mhamed', 'Benoît Magimel', 'Médard Niang', 'Arash Mansour', 'Abdel-Moulah Boujdouni', 'Mathilde Vitry', 'Christian Moro', 'Édouard Montoute', 'JiBi', 'Félicité Wouassi', 'Fatou Thioune', 'Thang-Long', 'Cut Killer', 'Sabrina Houicha', 'Sandor Weltmann', 'François Levantal', 'Julie Mauduech', 'Karin Viard', 'Peter Kassovitz', 'Christophe Rossignon', 'Vincent Lindon', 'Mathieu Kassovitz', 'Anthony Souter', 'Florent Lavandeira', 'Teddy Marques', 'Samir Khelif', 'Tadek Lokcinski', 'Virginie Montel', 'Andrée Damant', 'Marcel Marondo', 'Karim Belkhadra', 'Marc Duret', 'Eric Pujol', 'Philippe Nahon', 'Sébastien Tavel', 'François Toumarkine', 'José Dalmat', 'Zinedine Soualem', 'Bernie Bonvoisin', 'Cyril Ancelin', 'Patrick Médioni']",4.51,3.5,['Drama'],98,['France'],French,['French'],"['Kasso Productions', 'La Sept Cinéma', 'Les Productions Lazennec', 'Canal+', 'StudioCanal']",575038,142270,249243,39000,407,751,630,2712,3574,16481,29728,103296,93184,178294,429057,https://letterboxd.com/film/la-haine/
Schindler's List,1993,Steven Spielberg,"['Liam Neeson', 'Ben Kingsley', 'Ralph Fiennes', 'Caroline Goodall', 'Jonathan Sagall', 'Embeth Davidtz', 'Malgorzata Gebel', 'Shmuel Levy', 'Mark Ivanir', 'Béatrice Macola', 'Andrzej Seweryn', 'Friedrich von Thun', 'Krzysztof Luft', 'Harry Nehring', 'Norbert Weisser', 'Adi Nitzan', 'Michael Schneider', 'Miri Fabian', 'Anna Mucha', 'Albert Misak', 'Michael Gordon', 'Aldona Grochal', 'Jacek Wójcicki', 'Beata Paluch', 'Piotr Polk', 'Ezra Dagan', 'Beata Deskur', 'Rami Heuberger', 'Leopold Kozłowski', 'Jerzy Nowak', 'Uri Avrahami', 'Adam Siemion', 'Magdalena Dandourian', 'Paweł Deląg', 'Shabtai Konorti', 'Oliwia Dabrowska', 'Henryk Bista', 'Tadeusz Bradecki', 'Wojciech Klata', 'Elina Löwensohn', 'Ewa Kolasińska-Szramel', 'Bettina Kupfer', 'Grzegorz Kwas', 'Vili Matula', 'Stanislaw Koczanowicz', 'Hans-Jörg Assmann', 'Geno Lechner', 'August Schmölzer', 'Ludger Pistor', 'Beata Rybotycka', 'Branko Lustig', 'Artus-Maria Matthiessen', 'Hans-Michael Rehberg', 'Eugeniusz Priwieziencew', 'Michael Z. Hoffmann', 'Erwin Leder', 'Jochen Nickel', 'Andrzej Welminski', 'Daniel Del-Ponte', 'Marian Glinka', 'Grzegorz Damięcki', 'Stanisław Brejdygant', 'Olaf Lubaszenko', 'Haymon Maria Buttinger', 'Peter Appiano', 'Jacek Pulanecki', 'Tomasz Dedek', 'Sławomir Holland', 'Martin Semmelrogge', 'Tadeusz Huk', 'Alexander Held', 'Piotr Cyrwus', 'Joachim Paul Assböck', 'Osman Ragheb', 'Maciej Orłoś', 'Marek Wrona', 'Zbigniew Kozłowski', 'Marcin Grzymowicz', 'Dieter Witting', 'Magdalena Komornicka', 'Agnieszka Krukówna', 'Anemona Knut', 'Jeremy Flynn', 'Agnieszka Wagner', 'Jan Jurewicz', 'Wiesław Komasa', 'Maciej Kozłowski', 'Martin Bergmann', 'Wilhelm Manske', 'Peter Flechtner', 'Sigurd Bemme', 'Etl Szyc', 'Lucyna Zabawa', 'Ruth Farhi', 'Jerzy Sagan', 'Dariusz Szymaniak', 'Dirk Bender', 'Maciej Winkler', 'Radosław Krzyżowski', 'Jacek Link-Lenczowski', 'Hanna Kossowska', 'Maja Ostaszewska', 'Sebastian Skalski', 'Ryszard Radwański', 'Piotr Kadlcik', 'Lech Niebielski', 'Thomas Morris', 'Sebastian Konrad', 'Lidia Wyrobiec-Bank', 'Ravit Ferera', 'Agnieszka Korzeniowska', 'Dominika Bednarczyk', 'Alicja Kubaszewska', 'Danny Marcu', 'Hans Rosner', 'Edward Linde-Lubaszenko', 'Alexander Strobele', 'Georges Kern', 'Alexander Buczolich', 'Michael Schiller', 'Götz Otto', 'Wolfgang Seidenberg', 'Hubert Kramar', 'Razia Israeli', 'Dorit Seadia', 'Esti Yerushalmi', 'Marta Bizoń', 'Maciej Kowalewski', 'Zuzanna Lipiec', 'Maria Peszek', 'Leopold Pfefferberg', 'Leopold Rosner', 'Emilie Schindler', 'Katarzyna Śmiechowicz']",4.52,4.0,"['History', 'Drama', 'War']",195,['USA'],English,"['English', 'German', 'Polish', 'Hebrew (modern)']",['Amblin Entertainment'],1201115,207543,370356,14000,964,1577,953,4948,4809,30241,38120,165545,133593,327335,708085,https://letterboxd.com/film/schindlers-list/
The Breakfast Club,1985,John Hughes,"['Emilio Estevez', 'Judd Nelson', 'Molly Ringwald', 'Anthony Michael Hall', 'Ally Sheedy', 'Paul Gleason', 'John Kapelos', 'Perry Crawford', 'Mary Christian', 'Ron Dean', 'Tim Gamble', 'Fran Gargano', 'Mercedes Hall', 'John Hughes']",3.76,4.0,"['Drama', 'Comedy']",98,['USA'],English,['English'],"['Universal Pictures', 'A&M Films', 'Channel Productions']",1921459,179572,605947,19000,4082,10799,7089,38667,37843,175938,170263,339052,99344,206065,1089142,https://letterboxd.com/film/the-breakfast-club/
The Enigma of Kaspar Hauser,1974,Werner Herzog,"['Bruno S.', 'Walter Ladengast', 'Brigitte Mira', 'Willy Semmelrogge', 'Kidlat Tahimik', 'Hans Musäus', 'Michael Kroecher', 'Henry van Lyck', 'Enno Patalas', 'Volker Elis Pilgrim', 'Volker Prechtel', 'Gloria Doer', 'Helmut Döring', 'Andi Gottwald', 'Herbert Achternbusch', 'Wolfgang Bauer', 'Walter Steiner', 'Clemens Scheitz', 'Johannes Buzalski', 'Willy Meyer-Fürst', 'Florian Fricke', 'Alfred Edel', 'Franz Brumbach', 'Herbert Fritsch', 'Wilhelm Bayer', 'Peter Gebhart', 'Otto Heinzle', 'Dorothea Kraft', 'Dr. Walter Pflaum', 'Dr. Heinz Niemöller', 'Peter-Udo Schönborn', 'Markus Weller', 'Reinhard Hauff', 'Philippe Mareuil']",3.92,3.5,"['History', 'Drama']",109,['Germany'],German,['German'],"['ZDF', 'Werner Herzog Filmproduktion']",28589,14451,6728,134,37,79,82,381,603,2248,3498,6009,2493,2407,17837,https://letterboxd.com/film/the-enigma-of-kaspar-hauser/
A Clockwork Orange,1971,Stanley Kubrick,"['Malcolm McDowell', 'Patrick Magee', 'Michael Bates', 'Carl Duering', 'Warren Clarke', 'James Marcus', 'Michael Tarn', 'Miriam Karlin', 'Adrienne Corri', 'Sheila Raynor', 'Philip Stone', 'Aubrey Morris', 'Clive Francis', 'John Clive', 'Paul Farrell', 'Michael Gover', 'Godfrey Quigley', 'Madge Ryan', 'Anthony Sharp', 'Pauline Taylor', 'Margaret Tyzack', 'Steven Berkoff', 'Lindsay Campbell', 'David Prowse', 'Barrie Cookson', 'Jan Adair', 'Gaye Brown', 'Peter Burton', 'John J. Carney', 'Alec Wallis', 'John Savident', 'Vivienne Chandler', 'Richard Connaught', 'Prudence Drage', 'Carol Drinkwater', 'Lee Fox', 'Cheryl Grunwald', 'Gillian Hills', 'Craig Hunter', 'Shirley Jaffe', 'Virginia Wetherell', 'Neil Wilson', 'Katya Wyeth', 'Jack Arrow', 'Shane Shelton']",4.13,4.0,"['Science Fiction', 'Crime']",137,"['UK', 'USA']",English,['English'],"['Warner Bros. Pictures', 'Hawk Films']",1325581,235521,435576,29000,5054,9028,4103,19496,16139,73469,82771,236172,138211,245974,830417,https://letterboxd.com/film/a-clockwork-orange/
Seven Samurai,1954,Akira Kurosawa,"['Toshirō Mifune', 'Takashi Shimura', 'Yoshio Inaba', 'Seiji Miyaguchi', 'Minoru Chiaki', 'Daisuke Katō', 'Isao Kimura', 'Keiko Tsushima', 'Yukiko Shimazaki', 'Kamatari Fujiwara', 'Yoshio Kosugi', 'Bokuzen Hidari', 'Yoshio Tsuchiya', 'Kokuten Kōdō', 'Eijirō Tōno', 'Jun Tatara', 'Atsushi Watanabe', 'Toranosuke Ogawa', 'Isao Yamagata', 'Kichijirō Ueda', 'Sôjin Kamiyama', 'Gen Shimizu', 'Keiji Sakakida', 'Shinpei Takagi', 'Shin Ōtomo', 'Toshio Takahara', 'Hiroshi Sugi', 'Hiroshi Hayashi', 'Sachio Sakai', 'Sôkichi Maki', 'Ichirō Chiba', 'Noriko Sengoku', 'Noriko Honma', 'Masanobu Ôkubo', 'Etsuo Saijo', 'Minoru Itō', 'Haruya Sakamoto', 'Gorô Sakurai', 'Hideo Shibuya', 'Kiyoshi Kamoda', 'Senkichi Ōmura', 'Takashi Narita', 'Shōichi Hirose', 'Kôji Uno', 'Masaaki Tachibana', 'Kamayuki Tsubono', 'Taiji Naka', 'Chindanji Miyagawa', 'Shigemi Sunagawa', 'Akira Tani', 'Akio Kusama', 'Ryûtarô Amami', 'Jun Mikami', 'Haruo Nakajima', 'Sanpei Mine', 'Masahide Matsushita', 'Kaneo Ikeda', 'Takuzô Kumagaya', 'Ippei Kawagoe', 'Jirô Suzukawa', 'Junpei Natsuki', 'Kyôichi Kamiyama', 'Haruo Suzuki', 'Gorô Amano', 'Akira Kitchôji', 'Kōji Iwamoto', 'Hiroshi Akitsu', 'Akira Yamada', 'Kazuo Imai', 'Eisuke Nakanishi', 'Toku Ihara', 'Hideo Ôtsuka', 'Shû Ôe', 'Yasuhisa Tsutsumi', 'Yasumasa Ônishi', 'Tsuneo Katagiri', 'Megeru Shimoda', 'Masayoshi Kawabe', 'Shigeo Katô', 'Yoshikazu Kawamata', 'Takeshi Seki', 'Haruko Toyama', 'Tsuruko Mano', 'Matsue Ono', 'Tsurue Ichimanji', 'Masako Ôshiro', 'Kyōko Ozawa', 'Michiko Kadono', 'Toshiko Nakano', 'Shizuko Azuma', 'Michiko Kawabe', 'Yûko Togawa', 'Yayoko Kitano', 'Kyoko Mori', 'Misao Suyama', 'Toriko Takahara', 'Takeshi Katō', 'Tatsuya Nakadai', 'Ken Utsui', 'Ren Yamamoto']",4.6,4.5,"['Drama', 'Action']",207,['Japan'],Japanese,['Japanese'],['TOHO'],356532,148930,138059,9400,224,361,250,1286,1499,8109,12242,47436,46880,118096,236383,https://letterboxd.com/film/seven-samurai/
Modern Times,1936,Charlie Chaplin,"['Charlie Chaplin', 'Paulette Goddard', 'Henry Bergman', 'Tiny Sandford', 'Chester Conklin', 'Hank Mann', 'Stanley Blystone', 'Al Ernest Garcia', 'Richard Alexander', 'Cecil Reynolds', 'Mira McKinney', 'Murdock MacQuarrie', 'Wilfred Lucas', 'Edward LeSaint', 'Fred Malatesta', 'Sammy Stein', 'Juana Sutton', 'Ted Oliver', 'Norman Ainsley', 'Bobby Barber', 'Heinie Conklin', 'Gloria DeHaven', 'Pat Flaherty', 'Chuck Hamilton', 'Pat Harmon', 'Lloyd Ingraham', 'Walter James', 'Jack Low', 'Buddy Messinger', 'Bruce Mitchell', 'Frank Moran', 'James C. Morton', 'Louis Natheaux', 'J. C. Nugent', 'Russ Powell', 'John Rand', 'Harry Wilson']",4.27,4.0,"['Comedy', 'Drama']",87,['USA'],English,['English'],"['Charles Chaplin Productions', 'United Artists']",306660,78323,76349,1200,256,482,354,1814,2285,12595,17879,53927,29604,47289,166485,https://letterboxd.com/film/modern-times/
