Film_title,Release_year,Director,Cast,Average_rating,Owner_rating,Genres,Runtime,Countries,Original_language,Spoken_languages,Studios,Watches,List_appearances,Likes,Fans,½,★,★½,★★,★★½,★★★,★★★½,★★★★,★★★★½,★★★★★,Total_ratings,Film_URL
All of Us Strangers,2023,Andrew Haigh,"['Andrew Scott', 'Paul Mescal', 'Jamie Bell', 'Claire Foy', 'Carter John Grout', 'Ami Tredrea']",3.95,nan,"['Romance', 'Drama', 'Fantasy']",106,"['UK', 'USA']",English,['English'],"['Film4 Productions', 'Blueprint Pictures', 'Searchlight Pictures', 'TSG Entertainment']",438153,101246,156870,6400,631,1617,1679,7960,11029,38185,57773,122319,65891,72343,379427,https://letterboxd.com/film/all-of-us-strangers/
Poor Things,2023,Yorgos Lanthimos,"['Emma Stone', 'Mark Ruffalo', 'Willem Dafoe', 'Ramy Youssef', 'Christopher Abbott', 'Suzy Bemba', 'Jerrod Carmichael', 'Kathryn Hunter', 'Vicki Pepperdine', 'Hanna Schygulla', 'Margaret Qualley', 'Jack Barton', 'Charlie Hiscock', 'Attila Dobai', 'Emma Hindle', 'Anders Grundberg', 'Attila Kecskeméthy', 'Jucimar Barbosa', 'Carminho', 'Angela Paula Stander', 'Gustavo Gomes', 'Kate Handford', 'Owen Good', 'Zen Joshua Poisson', 'Vivienne Soan', 'Jerskin Fendrix', 'István Göz', 'Bruna Asdorian', 'Tamás Szabó Sipos', 'Tom Stourton', 'Mascuud Dahir', 'Miles Jovian', 'Jeremy Wheeler', 'János Geréb', 'Patrick de Valette', 'Raphaël Thiéry', 'Boris Gillot', 'Dorina Kovács', 'Yorgos Stefanakos', 'Hubert Benhamdine', 'Laurent Borel', 'Gábor Patay', 'Laurent Winkler', 'Andrew Hefler', 'Damien Bonnard', 'Noah Breton', 'Donovan Fouassier', 'Wayne Brett', 'John Locke', 'Keeley Forsyth', 'David Bromley', 'Celina Schleicher', 'Roderick Hill']",4.06,5.0,"['Romance', 'Science Fiction', 'Comedy']",142,"['Ireland', 'UK', 'USA']",English,"['English', 'French', 'Portuguese']","['Searchlight Pictures', 'Film4 Productions', 'TSG Entertainment', 'Element Pictures', 'Limp', 'Fruit Tree']",1646346,320815,652841,23000,9985,14218,9418,32765,33964,103794,144957,393683,302585,383288,1428657,https://letterboxd.com/film/poor-things-2023/
The Wonderful Story of Henry Sugar,2023,Wes Anderson,"['Ralph Fiennes', 'Benedict Cumberbatch', 'Dev Patel', 'Ben Kingsley', 'Richard Ayoade', 'Jarvis Cocker', 'Rebecca Cornford', 'David Gant', 'Martin Foreman', 'Agatino Trimarchi', 'Christopher J. Long', 'Richard Sisson', 'Josephine Bygrave', 'Linda Catt', 'Robin Catt', 'Bob Elam', 'Robert Boyd-Howell', 'Linda Telfer', 'Aimee Gibson', 'Jean Everest', 'Clare Wignall', 'Cynthia Almrott', 'Bahzad Zad', 'Bipula Parker', 'Rupinder Kaur', 'Hunain Abbas', 'Fathimah Quraishe', 'Swastee Kejiou', 'Sirjit Singh Marway', 'Hardip Singh', 'Amma Paru Bhagwandeen', 'Sudha Sama', 'Ravinder Patwal', 'Dheleel George Managlan', 'Kiranjit Kaur', 'Jaspreet Rehal', 'Prabhnoor Kaur', 'Ayush Britto', 'Harjun Bassi', 'Harley Sisan', 'Uday Nind', 'Frances Harmon', 'Mita Chowdhury', 'Sambathkumar Anbalagan', 'Chandresh Gohil']",3.84,5.0,"['Fantasy', 'Comedy', 'Adventure']",39,['USA'],English,['English'],"['American Empirical Pictures', 'Indian Paintbrush']",428523,68168,131827,351,473,1393,1199,5664,8979,40296,69313,134019,41573,32801,335710,https://letterboxd.com/film/the-wonderful-story-of-henry-sugar/
Saltburn,2023,Emerald Fennell,"['Barry Keoghan', 'Jacob Elordi', 'Rosamund Pike', 'Richard E. Grant', 'Alison Oliver', 'Archie Madekwe', 'Carey Mulligan', 'Paul Rhys', 'Ewan Mitchell', 'Sadie Soverall', 'Richard Cotterell', 'Millie Kent', 'Will Gibson', 'Tasha Lim', 'Aleah Aberdeen', 'Matthew Carver', 'Reece Shearsmith', 'Gabriel Bisset-Smith', 'Saga Spjuth-Säll', 'Glyn Grimstead', 'Joshua Samuels', 'Julian Lloyd Patten', 'Olivia Hanrahan-Barnes', 'Lolly Adefope', 'Joshua McGuire', 'Dorothy Atkinson', 'Shaun Dooley', 'Tomás Barry', 'Andy Brady']",3.43,3.0,"['Comedy', 'Drama', 'Thriller']",131,"['UK', 'USA']",English,['English'],"['LuckyChap Entertainment', 'MRC', 'Lie Still']",1979548,212371,577607,12000,12659,28503,24718,96910,110186,312044,306335,452295,145436,202765,1691851,https://letterboxd.com/film/saltburn/
Choose Love,2023,Stuart McDonald,"['Laura Marano', 'Scott Michael Foster', 'Avan Jogia', 'Jordi Webber', 'Megan Smart', 'Benjamin Hoetjes', 'Nell Fisher', 'Blair Strang', 'Jacque Drew', 'Jack Bright', 'Lynette Forday', 'Jehangir Homavazir', 'Lily Riley', 'Lucy Wigmore', 'Georgia Hoskins-Smith', 'Jesse Griffin', 'Jzayla Hughey']",1.67,2.0,"['Comedy', 'Romance']",77,['USA'],English,['English'],"['Front Row Films', 'DAE Light Media']",49820,6283,3335,3,5943,8352,5345,8305,4298,4193,1119,1008,118,648,39329,https://letterboxd.com/film/choose-love-2023/
Barbie,2023,Greta Gerwig,"['Margot Robbie', 'Ryan Gosling', 'America Ferrera', 'Ariana Greenblatt', 'Issa Rae', 'Kate McKinnon', 'Alexandra Shipp', 'Emma Mackey', 'Hari Nef', 'Sharon Rooney', 'Ana Cruz Kayne', 'Ritu Arya', 'Dua Lipa', 'Nicola Coughlan', 'Emerald Fennell', 'Simu Liu', 'Kingsley Ben-Adir', 'Ncuti Gatwa', 'Scott Evans', 'John Cena', 'Michael Cera', 'Rhea Perlman', 'Helen Mirren', 'Will Ferrell', 'Connor Swindells', 'Jamie Demetriou', 'Andrew Leung', 'Will Merrick', 'Zheng Xi Yong', 'Asim Chaudhry', 'Ray Fearon', 'Erica Ford', 'Hannah Khalique-Brown', 'Mette', 'Marisa Abela', 'Lucy Boynton', 'Rob Brydon', 'Tom Stourton', 'Chris Taylor', 'David Mumeni', 'Olivia Brody', 'Isla Ashworth', 'Eire Farrell', 'Daisy Duczmal', 'Genvieve Toussaint', 'Isabella Nightingale-Mercado', 'Millie-Rose Crossley', 'Anvita Nehru', 'Kayla-Mai Alvares', 'Luke Mullen', 'Patrick Luwis', 'Mac Brandt', 'Paul Jurewicz', 'Oraldo Austin', 'Benjamin Arthur', 'Carlos Jacott', 'Adam Ray', 'George Basil', 'Ptolemy Slocum', 'Deb Hiett', 'James Leon', 'Oliver Vaquer', 'Tony Noto', 'Christopher T. Wood', 'Ann Roth', 'Annie Mumolo', 'Elise Gallup', 'McKenna Roberts', 'Brylee Hsu', 'Sasha Milstein', 'Lauren Holt', 'Sterling Jones', 'Ryan Piers Williams', 'Jamaal Lewis', 'Kathryn Akin', 'Grace Jabbari', 'Ira Mandela Siobhan', 'Lisa Spencer', 'Naomi Weijand', 'Tom Clark', 'Ireanne Abenoja', 'Davide Albonetti', 'Charlotte Anderson', 'Michael Anderson', 'Rico Bakker', 'James Bamford', 'William John Banks', 'Callum Bell', 'Adam Blaug', 'Mason Boyce', 'Taylor Bradshaw', 'Alex Brown', 'Miekaile Browne', 'Lewis Calcutt', 'Nikkita Chadha', 'Oliver Chapman', 'Megan Charles', 'Callum Clack', 'Danny Coburn', 'Kat Collings', 'Adam Crossley', 'Sia Dauda', 'Gustave Die', 'Grace Durkin', 'Joelle Dyson', 'Lewis Easter', 'Onyemachi Ejimofor', 'Cameron Everitt', 'Luke Field-Wright', 'Sasha Flesch', 'Adam Fogarty', 'Michael John French', 'Anna-Kay Gayle', 'Charlie Goddard', 'Marlie Goddard', 'Ellis Harman', 'Yasmin Harrison', 'Josh Hawkins', 'James Healy', 'Tim Hodges', 'Mira Jebari', 'Beccy Jones', 'Thomas Kalek', 'Lily Laight', 'Maiya Leeke', 'Cristian Liberti', 'Prodromos Marneros', 'Nahum McLean', 'Jordan Melchor', 'Ramzan Miah', 'Andy Monaghan', 'Florivaldo Mossi', 'Hannah Nazareth', 'Grant Neal', 'Freja Nicole', 'Shaun Niles', 'Ella Nonini', 'Jack William Parry', 'Josie Pocock', 'Barnaby Quarendon', 'Redmand Rance', 'Zara Richards', 'Liam Riddick', 'Alana Rixon', 'Adam Paul Robertson', 'Kingdom Sibanda', 'Sebastian Skov', 'Aaron J. Smith', 'Joshua Smith', 'Lucia-Rose Sokolowski', 'Janine Somcio', 'Alex Sturman', 'Callum Sterling', 'Todd Talbot', 'Charles Tatman', 'Grant Thresh', 'Connor Tidman', 'Wahchi Vong', 'Jerry Wan', 'Sasha Wareham', 'Stan West', 'Oliver Wheeler', 'Josh Wild', 'Joe Wolstenholme', 'Richard Womersley', 'Ashley Young']",3.87,4.0,"['Comedy', 'Adventure']",114,"['UK', 'USA']",English,['English'],"['LuckyChap Entertainment', 'Heyday Films', 'NB/GG Pictures', 'Mattel', 'Warner Bros. Pictures']",3547120,442194,1538089,26000,12110,25882,17370,85819,92183,370198,385364,805893,341510,764107,2900436,https://letterboxd.com/film/barbie/
No Hard Feelings,2023,Gene Stupnitsky,"['Jennifer Lawrence', 'Andrew Barth Feldman', 'Laura Benanti', 'Natalie Morales', 'Matthew Broderick', 'Scott MacArthur', 'Ebon Moss-Bachrach', 'Kyle Mooney', 'Hasan Minhaj', 'Jordan Mendoza', 'Amalia Yoo', 'Alysia Joy Powell', 'Quincy Dunn-Baker', 'Matthew Noszka', 'Zahn McClarnon', 'Madison Odenborg', 'Achi Miller', 'Christian Galvis', 'Matt Walton', 'Christina Catechis', 'Christopher Bailey', 'Eason Rytter', 'Abigail Hupp', 'Jacob Augustin', 'Brendan Kispert', 'Ethan Metz', 'Alaina Surgener', 'Sejal Joshi', 'Victor Verhaeghe', ""Kelley Rae O'Donnell"", 'Katie Johantgen', 'Ari Frenkel', 'Luca Padovan', 'John DeMari', 'Grant Harrison Mateo', 'Madison McBride', 'Ben Heineman', 'Julia DeMoura Braine', 'Sophie Tananbaum', 'Melissa Lehman', 'Isabelle Fisher', 'Roman Caposino', 'Brian Calì', 'Leo Easton Kelly', 'Darren Valinotti', 'Alex Tomais', 'Earl Rose']",3.06,4.0,"['Comedy', 'Romance']",104,['USA'],English,"['English', 'Portuguese', 'Spanish']","['Excellent Cadaver', 'Odenkirk Provissiero Entertainment', 'Columbia Pictures', 'Saks Picture Company']",916036,113518,203066,610,5527,13679,13925,55523,78519,222289,167659,130878,21881,36347,746227,https://letterboxd.com/film/no-hard-feelings-2023/
Anatomy of a Fall,2023,Justine Triet,"['Sandra Hüller', 'Swann Arlaud', 'Milo Machado-Graner', 'Antoine Reinartz', 'Samuel Theis', 'Jehnny Beth', 'Saadia Bentaïeb', 'Camille Rutherford', 'Anne Rotger', 'Sophie Fillières', 'Julien Comte', 'Pierre-François Garel', 'Savannah Rol', 'Iliès Kadri', 'Vincent Courcelle-Labrousse', 'Cécile Brunet-Ludet', 'Nesrine Slaoui', 'Antoine Bueno', 'Anne-Lise Heimburger', 'Wajdi Mouawad', 'Sacha Wolff', 'Kareen Guiock', 'Arthur Harari', 'Marie Brette', 'Christophe Devaux', 'Jefferson Desport', 'Nola Jolly', 'Emmanuelle Jourdan', 'Isaac Abballah', 'Judicaël Ajorque', 'Nicholas Angelo', 'Marie-Laure Aumis', 'Laura Balasuriya', 'Alexandre Bertrand', 'Jean-Pierre Bertrand', 'Cécilia Bongiovanni-Lefebvre', 'Jean-Claude Calbet', 'Florent Chasseloup', 'Sandrine Chastagnol', 'Betty Desmier', 'Justine Dulary', 'Philippe Jubien', 'Cyril Karenine', 'Maud Martin', 'Romaric Maucoeur', 'Fabien Perrot', 'Christophe Léon Schelstraete', 'Rose Thibault']",4.15,5.0,"['Mystery', 'Crime', 'Thriller']",152,['France'],French,"['French', 'English', 'German']","['Les Films de Pierre', 'Les Films Pelléas', 'France 2 Cinéma', 'Auvergne-Rhône-Alpes Cinéma']",963571,224106,357208,7600,793,1946,1391,7968,10378,51675,95398,301179,197509,165793,834030,https://letterboxd.com/film/anatomy-of-a-fall/
The Little Mermaid,2023,Rob Marshall,"['Halle Bailey', 'Jonah Hauer-King', 'Daveed Diggs', 'Awkwafina', 'Jacob Tremblay', 'Noma Dumezweni', 'Javier Bardem', 'Melissa McCarthy', 'Art Malik', 'Jessica Alexander', 'Emily Coates', 'Jude Akuwudike', 'Russell Balogh', 'Adrian Christopher', 'Simone Ashley', 'Martina Laird', 'John Dagleish', 'Sienna King', 'Karolina Conchet', 'Lorena Andrea', 'Kajsa Mohammar', 'Nathalie Sorrell', 'Jodi Benson', 'Christopher Fairbank', 'Matthew Carver', 'Julz West', 'Shay Barclay', 'Arina Li', 'Leon Cooke', 'Tarik Frimpong', 'Chris George', 'Yasmin Harrison', 'Erica Stubbs', 'Kate Thompson', 'Jonathan Bishop', 'Aaron Bryan', 'Sophie Carmen-Jones', 'Jon-Scott Clark', 'Cameron Valentina', 'Austyn Farrell', 'Cecil Jee', 'Ben Hukin', 'Andrew Lyle-Pinnock', 'Chanel Mian', 'Ebony Molina', 'Ian Oswald', 'Oliver Ravelin', 'Charles Ruhrmund', 'Nicole Valverde', 'Craig Stein', 'Sasha Watson Lobo', 'Johnny White', 'Charlotte Wilmott', 'Bobby Windebank', 'Marcus Hodson', 'Gary the Labradoodle', 'Taitum Pitfield']",3.17,3.5,"['Family', 'Fantasy', 'Romance', 'Adventure']",135,['USA'],English,['English'],"['Walt Disney Pictures', 'Lucamar Productions', 'Marc Platt Productions']",519232,79949,123372,1200,5346,10205,9264,31628,37343,91449,72126,82692,23986,47716,411755,https://letterboxd.com/film/the-little-mermaid-2023/
Beau Is Afraid,2023,Ari Aster,"['Joaquin Phoenix', 'Patti LuPone', 'Amy Ryan', 'Nathan Lane', 'Kylie Rogers', 'Denis Ménochet', 'Parker Posey', 'Zoe Lister-Jones', 'Armen Nahapetian', 'Julia Antonelli', 'Stephen McKinley Henderson', 'Richard Kind', 'Hayley Squires', 'Julian Richings', 'Bill Hader', 'Alicia Rosario', 'James Cvetkovski', 'Catherine Bérubé', 'Stephanie Herrera', 'Bradley Fisher', 'Peter Seaborne', 'Michael Esper', 'Manuel Tadros', 'Karl Roy', 'Marc-André Brisebois', 'Tyrone Benskin', 'Ernest-James Chuipka', 'Archie Madekwe', 'Greg Halpin', 'Luis Oliva', 'Charles Hardy', 'Marie-Michelle Garon', 'Maev Beaty', 'Patrick Kwok-Choon', 'Michael Gandolfini', 'Théodore Pellerin', 'Mike Taylor', 'Luke Alexander James McPhail', 'Ryan S. Hill', 'Bentley Hughes', 'Kwasi Songui', 'Sylvain Landry', 'Tristan D. Lalla', 'Emmanuel Schwartz', 'Cat Lemieux', 'Lily Bird', 'Arthur Holden', 'François Paquette', 'Alex Bisping', 'Lucas Gosselin', 'Joe Cobden', 'Harry Strandjofski', 'Anana Rydvald', 'Isabelle Brabant', 'Tarah Schwartz', 'Barry Morgan', 'David Mamet', 'John Walsh', 'Karim Babin', 'Lee Villeneuve', 'Steve Newburn', 'Kayla Dobilas', 'Gord Robertson', 'Pamela Iveta', 'Jason Detheridge', 'Luz Tercero', 'Geneviève Marin', 'Julien Fortin', 'Marc-André Casavant']",3.44,4.5,"['Fantasy', 'Comedy', 'Adventure']",179,"['Finland', 'USA']",English,['English'],"['A24', 'Square Peg', 'IPR.VC', 'Access Entertainment']",429972,131261,117831,2500,4710,8614,7417,24227,27492,59692,65377,88871,36162,31966,354528,https://letterboxd.com/film/beau-is-afraid/
Past Lives,2023,Celine Song,"['Greta Lee', 'Teo Yoo', 'John Magaro', 'Moon Seung-ah', 'Yim Seung-min', 'Yoon Ji-hye', 'Choi Won-young', 'An Min-young', 'Seo Yeon-woo', 'Chang Ki-ha', 'Shin Hee-cheol', 'Park Jun-hyuk', 'Jack Alberts', 'Jane Yubin Kim', 'Song Noo-ri', 'Jin Si-ah', 'Choi Yoon-seo', 'Hwang Seung-eon', 'Jojo T. Gibbs', 'Emily Cass McDonnell', 'Federico Rodriguez', 'Conrad Schott', 'Kristen Sieh', 'Oge Agulué', 'Chase Sui Wonders', 'Isaac Powell', 'Jay Karales']",4.18,4.0,"['Drama', 'Romance']",106,"['South Korea', 'USA']",English,"['English', 'Korean']","['A24', 'Killer Films', '2AM', 'CJ ENM']",1024443,282162,436161,23000,1251,2610,2161,11097,15224,60934,95237,263117,182705,251883,886219,https://letterboxd.com/film/past-lives/
Pearl,2022,Ti West,"['Mia Goth', 'David Corenswet', 'Tandi Wright', 'Matthew Sunderland', 'Emma Jenkins-Purro', 'Alistair Sewell', 'Amelia Reid', 'Gabe McDonnell', 'Lauren Stewart', 'Todd Rippon', 'Grace Acheson']",3.75,5.0,"['Horror', 'Drama']",102,['USA'],English,"['English', 'German']","['A24', 'Little Lamb Productions']",986322,217346,374474,18000,1955,4809,4292,19648,27179,107857,142107,263551,89237,154962,815597,https://letterboxd.com/film/pearl-2022/
The Five Devils,2022,Léa Mysius,"['Adèle Exarchopoulos', 'Sally Dramé', 'Swala Emati', 'Moustapha Mbengue', 'Daphné Patakia', 'Patrick Bouchitey', 'Hugo Dillon', 'Antonia Buresi', 'Noée Abita', 'Charlotte Bon Bornier', 'Alain Guillot', 'Stéphanie Lhorset', 'Inès Helouin', 'Merwan Rim', 'Habib Rharbaoui', 'Jade Kleine', 'Julien Reneaut', 'Clara Borne', 'Johara Telli', 'Anaïs Estival', 'Alexandra Fernandes', 'Leïa Giraud', 'Eva Queiros', 'Margot Raynaud', 'Eloah Louisjuste']",3.61,4.0,"['Romance', 'Fantasy', 'Drama']",96,['France'],French,"['French', 'English', 'Spanish']","['F Comme Film', 'Le Pacte', 'Wild Bunch', 'Auvergne-Rhône-Alpes Cinéma', 'Trois Brigands Productions']",41128,11961,11676,167,55,151,242,1059,1931,6192,8627,9999,2628,2345,33229,https://letterboxd.com/film/the-five-devils/
Triangle of Sadness,2022,Ruben Östlund,"['Harris Dickinson', 'Charlbi Dean', 'Woody Harrelson', 'Zlatko Burić', 'Vicki Berlin', 'Dolly de Leon', 'Henrik Dorsin', 'Iris Berben', 'Jean-Christophe Folly', 'Amanda Walker', 'Oliver Ford Davies', 'Sunnyi Melles', 'Thobias Thorwid', 'Jiannis Moustos', 'Timoleon Gketsos', 'Alicia Eriksson', 'Carolina Gynning', 'Ralph Schicha', 'Arvin Kananian', 'Mia Benson', 'Stefan Gödicke', 'Nana Manu', 'Alexander Virenhem', 'Malte Gårdinger', 'William-Patrik Molvén', 'Fredrik Quinones', 'Filip Roséen', 'Chidiegwu Chidi', 'Charlie Westerberg', 'Erik Andersson', 'Hamlet Talje Willoughby', 'Victor Köhler', 'Daniel Estehghari', 'Alfons Miari', 'Isak Barrow', 'Alfred Lindström', 'Augustine Kajue', 'Florand Kaufeldt', 'Theodor Öhrn', 'Jin Zou', 'David Alexanderson', 'Olof Källström', 'Julian Redaelli', 'Egil Ahlenius', 'Carl Jood', 'Chand Smith', 'Malick Afocozi', 'Ludvig Fast', 'Victor Norlander', 'Anton Isaksson', 'Brian Kamara', 'Eric Svirins', 'Hugo Palm', 'Simon Bredenberg', 'Noa Del Castillo Hallberg', 'Ann-Sofi Back', 'Robert Rydberg', 'Robert Nordberg', 'Charlotte Brattin', 'Mira Uszkureit', 'Alex Schulman', 'Amanda Schulman', 'Emma Warg', 'Camilla Läckberg', 'Christina Saliba', 'Karin Myrenberg', 'Linnea Olsson', 'Asta Stensson', 'Elsa Sjökvist', 'Johanna Ovelius', 'Shaniaz Hama Ali', 'Catrin Nilsson', 'Jacob Papinniemi', 'Mimmi Brundin', 'Melodie Von Sass', 'Ellen Dixdotter', 'Sofia Lücke', 'Ronja Kruus', 'Chris Westerstrom', 'Hedda Rehnberg', 'Robert Martufi', 'Hanna Oldenburg', 'Arnella Zetterström', 'Sepideh Mazloom', 'Eric Dernsjö', 'Nikolas Drosopoulos', 'Chrysanthi Theodosi', 'Maria Alexiou', 'Marilena Lampropoulou', 'Christos Ntoulas', 'Nikolas Chalkiadakis', 'Grace Milaszewski', 'Melina Marksaitis', 'Theresa Johannesson', 'Leocilyn Capanas', 'Nanette Lipponen', 'Maria Danica Herrera', 'Maria Grace Concepcion', 'Kristin Delfinado', 'Shanilou Del Mundo', 'John Michael Yadao', 'Freedom Ziad Ahmed', 'Robert Jomar', 'Garry Villador Deveratturda', 'Christopher Janiola', 'Mario Rowen Bugtai', 'Mohamed Lachras', 'Taye Nathanail', 'Athanasios Papaioannou', 'Alexandros Sargologos', 'Allen Bandiola', 'Nicolas Refin', 'Lontoc Rolyn', 'John Paul Paugio', 'John Paulo', 'Anne Brocklin Bergman', 'Johnny Bergman', 'Fredrik Wikingsson', 'Henrik Thott', 'Thomas Peteus', 'Magnus Jeansson', 'Stefan Martikainen', 'Britt-Marie Svensson', 'Arash Raoufi', 'Nafiseh Hadizadeh', 'Inga Hahn', 'Lennart Hahn', 'Linda Anborg', 'Karina Baldock Wiking', 'Olof Myhrman', 'Rebecca Fager', 'Hilde Fager', 'Emmylou Saguindel-Holmé', 'Ann-Marie Eriksson', 'Pål Svensson', 'Giorgos Kyriakopoulos', 'Pavlos Laoutaris', 'Eva Koroli', 'Alexia Mpogdanou', 'Giannis Papathymios', 'Achilles Vatrikas', 'Gianna Andritsaki', 'Dauda Coneth', 'Beh Solo Kone', 'Yussif Zakaria', 'Papa Cheik Jade']",3.69,2.0,"['Drama', 'Comedy']",147,"['Denmark', 'France', 'Germany', 'Greece', 'Mexico', 'Sweden', 'Switzerland', 'Turkey', 'UK', 'USA']",English,"['English', 'Akan', 'German', 'French', 'Swedish', 'Tagalog', 'Greek (modern)']","['30WEST', 'BBC Film', 'Bord Cadre Films', 'Coproduction Office', 'Film i Väst', 'Heretic', 'Imperative Entertainment', 'Sovereign Films', 'Plattform Produktion', 'SVT', 'BFI', 'Piano', 'ARTE France Cinéma', 'ZDF/Arte', 'Essential Filmproduktion', 'TRT Sinema']",718852,137937,196225,2800,2959,6516,5930,22249,28594,84385,119276,185480,71888,55090,582367,https://letterboxd.com/film/triangle-of-sadness/
Aftersun,2022,Charlotte Wells,"['Paul Mescal', 'Frankie Corio', 'Brooklyn Toulson', 'Celia Rowlson-Hall', 'Sally Messham', 'Ayşe Parlak', 'Sophia Lamanova', 'Spike Fearn', 'Harry Perdios', 'Frank Corio', 'Ruby Thompson', 'Ethan James Smith', 'Onur Ekşioğlu', 'Cafer Karahan', 'Kayleigh Coleman', 'John Stuifzand', 'Tyler Mutlu', 'Kieran Burton', 'Nijat Gachayev', 'Sarah Makharine', 'Erol Cengizalp', 'Djamel Turner']",4.24,5.0,['Drama'],102,"['UK', 'USA']",English,"['English', 'Spanish', 'Turkish']","['PASTEL', 'BBC Film', 'Tango Entertainment', 'Unified Theory', 'Screen Scotland', 'BFI']",916114,244540,405984,53000,1303,3048,2090,10689,12829,51500,72828,202758,146227,261719,764991,https://letterboxd.com/film/aftersun/
Mars One,2022,Gabriel Martins,"['Rejane Faria', 'Carlos Francisco', 'Camilla Damião', 'Ana Hilário', 'Cícero Lucas', 'Dircinha Macêdo', 'Russo Apr', 'Juan Pablo Sorín', 'Tokinho', 'Robson Vieira', 'Tatiana Carvalho Costa', 'Renato Novaes', 'Thiago Cesário', 'Felipe Santos', 'Josi Lopes', 'Katia Aracelle Leonídio', 'Heliel Matos', 'Raíssa Oliveira', 'Pablo Giorgio', 'Luna Gomides', 'Ralph Antunes', 'Luciano Negro Drama', 'Bernardo Filaretti', 'Judith Souza dos Anjos', 'Geraldo Martins', 'Marcelino', 'Kelly Crifer', 'Sebastião Cezário da Silva', 'Aruana Zamby', 'Adilson Marcelino', 'Lúcia Maria Alves', 'Hélio Ricardo', 'Matheus Dias Will', 'Simara Telles', 'Dona Eliza', 'Patrícia de Assis']",3.85,5.0,['Drama'],115,['Brazil'],Portuguese,['Portuguese'],"['Filmes de Plástico', 'Canal Brasil']",25858,9860,11027,491,41,59,57,247,427,1651,2918,6283,3528,6566,21777,https://letterboxd.com/film/mars-one/
The Worst Person in the World,2021,Joachim Trier,"['Renate Reinsve', 'Anders Danielsen Lie', 'Herbert Nordrum', 'Hans Olav Brenner', 'Helene Bjørnebye', 'Vidar Sandem', 'Maria Grazia Di Meo', 'Lasse Gretland', 'Karen Røise Kielland', 'Marianne Krogh', 'Thea Stabell', 'Deniz Kaya', 'Eia Skjønsberg', 'Ruby Dagnall', 'Torgny Amdam', 'Rebekka Jynge', 'Sigrid Sollund', 'Are Skeie Hermansen', 'Siri Forberg', 'Sofia Schandy Bloch', 'Anna Dworak', 'Savannah Marie Schei', 'August Wilhelm Méd Brenner', 'Karla Nitteberg Aspelin', 'Tumi Løvik Jakobson', 'Jonathan Nielssen', 'Maren Emilie Haagenrud Buskoven', 'Olav Stubberud', 'Martin Gran', 'Geir Ørnholt', 'Tobias Klemeyer Smith', 'Nataniel Nordnes', 'Trygve Indrelid', 'Trude Schjelderup Iversen', 'Zoe Maland Rogers', 'Jonas Lund', 'Hildur Kristinsdottir', 'Johanna Brym Ryg', 'Thomas Teige', 'Margrethe Glambek', 'Ine Jansen', 'Gisle Tveito']",4.13,5.0,"['Drama', 'Romance', 'Comedy']",128,"['Denmark', 'France', 'Norway', 'Sweden']",Norwegian,['Norwegian'],"['Oslo Pictures', 'MK2 Films', 'Film i Väst', 'Snowglobe', 'B-Reel Films', 'ARTE France Cinéma']",623021,156881,237494,20000,1225,2613,1975,8651,10965,40250,62187,153791,100143,113296,495096,https://letterboxd.com/film/the-worst-person-in-the-world/
Palmer,2021,Fisher Stevens,"['Justin Timberlake', 'Ryder Allen', 'Juno Temple', 'Alisha Wainwright', 'June Squibb', 'Dean Winters', 'Wynn Everett', 'Jesse C. Boyd', 'Charmin Lee', 'Jake Brennan', 'J.D. Evermore', 'Stephen Louis Grush', 'Lance E. Nichols', 'Stacie Davis', 'Carson Minniear', 'Theodus Crane', 'Hero Hunter', 'Nicholas X. Parsons', 'Ray Gaspard', 'Zonia Pelensky', 'Molly Sue Harrison', 'Dane Rhodes', 'Craig Sheffer', 'Fisher Stevens']",3.51,5.0,['Drama'],110,['USA'],English,['English'],"['SK Global Entertainment', 'Sidney Kimmel Entertainment']",33328,6416,8714,73,58,111,170,791,1536,5851,7235,6972,1523,2750,26997,https://letterboxd.com/film/palmer/
Executive Order,2020,Lázaro Ramos,"['Alfred Enoch', 'Taís Araújo', 'Seu Jorge', 'Adriana Esteves', 'Renata Sorrah', 'Diva Guimarães', 'Hilton Cobra', 'Emicida', 'Aldri Anunciação', 'Flávio Bauraqui', 'Dani Ornellas', 'Mariana Xavier', 'Pablo Sanábio', 'Cláudio Gabriel', 'Augusto Pompeo', 'Ana Paula Bouzas', 'Rejane Maya', 'Jéssica Ellen', 'Dan Ferreira', 'Gustavo Falcão', 'Edmilson Barros', 'Paulo Chun', 'Indira Nascimento', 'Maíra Azevedo', 'Sophia Camilo', 'Ona Silva', 'Licínio Januário', 'Pedro Nercessian', 'Raphael Logam', 'Allan Pelegrino', 'William Russell', 'Sorys Gabriela']",3.22,5.0,"['Drama', 'Science Fiction']",102,['Brazil'],Portuguese,['Portuguese'],"['Lata Filmes', 'Globo Filmes', 'Melanina Acentuada', 'Lereby Produções']",19733,3255,4338,63,173,423,445,1367,1615,3340,2699,2939,897,2456,16354,https://letterboxd.com/film/executive-order/
Midsommar,2019,Ari Aster,"['Florence Pugh', 'Jack Reynor', 'William Jackson Harper', 'Will Poulter', 'Vilhelm Blomgren', 'Isabelle Grill', 'Gunnel Fred', 'Ellora Torchia', 'Archie Madekwe', 'Henrik Norlén', 'Agnes Westerlund Rase', 'Julia Ragnarsson', 'Mats Blomgren', 'Lars Väringer', 'Anna Åström', 'Hampus Hallberg', 'Liv Mjönes', 'Louise Peterhoff', 'Katarina Weidhagen', 'Björn Andrésen', 'Tomas Engström', 'Dag Andersson', 'Lennart R. Svensson', 'Anders Beckman', 'Rebecka Johnston', 'Tove Skeidsvoll', 'Anders Back', 'Anki Larsson', 'Levente Puczkó-Smith', 'Frans Cavallin Rosengarten', 'Vilmos Kolba', 'Mihály Kaszás', 'Gabi Fón', 'Zsolt Bojári', 'Klaudia Csányi', 'Anna Berentzen', 'Austin R. Grant']",3.78,5.0,"['Mystery', 'Drama', 'Horror']",147,"['Sweden', 'USA']",English,"['English', 'Swedish']","['B-Reel Films', 'Square Peg']",2785804,372150,1096296,38000,13341,30283,15198,78876,63769,283796,270470,644694,219059,420393,2039879,https://letterboxd.com/film/midsommar/
Portrait of a Lady on Fire,2019,Céline Sciamma,"['Noémie Merlant', 'Adèle Haenel', 'Luàna Bajrami', 'Valeria Golino', 'Christel Baras', 'Armande Boulanger', 'Guy Delamarche', 'Clément Bouyssou', 'Michèle Clément', 'Cécile Morel']",4.43,5.0,"['Drama', 'Romance']",120,['France'],French,"['French', 'Italian']","['Lilies Films', 'ARTE France Cinéma', 'Hold Up Films']",815120,266594,386135,48000,1063,2045,1518,6662,6942,30411,40758,134211,115215,282773,621598,https://letterboxd.com/film/portrait-of-a-lady-on-fire/
Elena,2012,Petra Costa,"['Li An', 'Elena Andrade', 'Petra Costa']",3.92,5.0,"['Drama', 'Documentary']",82,"['USA', 'Brazil']",Portuguese,"['Portuguese', 'English']","['JustFilms / Ford Foundation', 'Tribeca Film Institute', 'Wide House']",33278,9594,15175,1700,75,149,107,433,521,1865,2271,5945,2876,12258,26500,https://letterboxd.com/film/elena-2013/
Frances Ha,2012,Noah Baumbach,"['Greta Gerwig', 'Mickey Sumner', 'Michael Zegen', 'Adam Driver', ""Charlotte d'Amboise"", 'Patrick Heusinger', 'Michael Esper', 'Grace Gummer', 'Josh Hamilton', 'Maya Kazan', 'Justine Lupe', 'Britta Phillips', 'Juliet Rylance', 'Dean Wareham', 'Hannah Dunne', 'Daiva Deupree', 'Isabelle McNally', 'Vanessa Ray', 'Lindsay Burdge', 'Marina Squerciati', 'Christine Gerwig', 'Gordon Gerwig', 'David Salem', 'Isaac Salem', 'Anna Salem', 'Laurie Aloisio-Salem', 'Daniel Roose', 'Courtney Coffin-Jensen', 'Kristine Jensen', 'Doug Craft', 'Timothy Mickiewicz', 'Tre Borden', 'Connor Mickiewicz', 'Laura Parker', 'Serena Longley', 'Barbara Ross English', 'Peter Scanavino', 'Ryann Shane', 'Danish Hyder', 'Teddy Cañez', 'Gibson Frazier', 'Cindy Katz', 'Cohlie Brocato', 'Finnerty Steeves', 'Michelle Hurst', 'Molly Lieber', 'Eleanor Smith', 'Alex Moore']",4.03,4.0,"['Drama', 'Comedy']",86,"['Brazil', 'USA']",English,['English'],"['Scott Rudin Productions', 'RT Features', 'Pine District Pictures']",557404,140411,216159,20000,1078,2231,1775,7738,9342,38324,58219,131677,65075,85439,400898,https://letterboxd.com/film/frances-ha/
Sidewalls,2011,Gustavo Taretto,"['Javier Drolas', 'Pilar López de Ayala', 'Inés Efrón', 'Rafael Ferro', 'Carla Peterson', 'Adrián Navarro', 'Jorge Ernesto Lanata', 'Alan Pauls', 'Romina Paula', 'Miguel Dedovich', 'Miguel Ángel Álvarez']",3.99,4.5,"['Romance', 'Drama']",95,"['Argentina', 'Germany', 'Spain']",Spanish,['Spanish'],"['Eddie Saeta', 'TV3', 'INCAA', 'Rizoma Films', 'Zarlek Producciones', 'Pandora Film']",45703,12404,19008,2400,60,112,169,507,694,2829,4546,9977,4639,8792,32325,https://letterboxd.com/film/sidewalls/
Barbie: Fairytopia,2005,Walter P. Martishius,"['Kelly Sheridan', 'Lee Tockar', 'Tabitha St. Germain', 'Kathleen Barr', 'Venus Terzo', 'Britt McKillip', 'Nancy Sorel', 'Chiara Zanni', 'Mark Oliver', 'Alessandro Juliani', 'Michael Dobson', 'Scott McNeil', 'Brian Drummond']",3.37,5.0,"['Animation', 'Family']",70,['USA'],English,['English'],['Mainframe Entertainment'],111011,13798,14352,174,386,830,782,2988,3053,10142,5539,8012,1587,8475,41794,https://letterboxd.com/film/barbie-fairytopia/
City of God,2002,Fernando Meirelles,"['Alexandre Rodrigues', 'Leandro Firmino', 'Phellipe Haagensen', 'Seu Jorge', 'Jonathan Haagensen', 'Matheus Nachtergaele', 'Luis Otávio', 'Douglas Silva', 'Michel Gomes', 'Jefechander Suplino', 'Alice Braga', 'Roberta Rodrigues', 'Darlan Cunha', 'Thiago Martins', 'Gero Camilo', 'Daniel Zettel', 'Charles Paraventi', 'Dani Ornellas', 'Micael Borges', 'Lúcio Andrey', 'Marcelo Mello Jr.', 'Babu Santana', 'Mary Sheila', 'Paulo Lins', 'Olivia Araújo', 'Graziella Moretto', 'Tulé Peak', 'Kikito Junqueira', 'Renato de Souza', 'Edson Oliveira', 'Kiko Marques', 'Emerson Gomes', 'Ana Felipe']",4.52,5.0,"['Drama', 'Crime']",130,"['Brazil', 'France', 'Germany']",Portuguese,['Portuguese'],"['O2 Filmes', 'VideoFilmes', 'Wild Bunch', 'Hank Levine Film', 'Globo Filmes', 'Lumière', 'Lei do Audiovisual Ministério da Cultura Audiovisual']",733402,149760,287723,30000,387,732,554,2723,2980,16665,27005,110482,103038,246921,511487,https://letterboxd.com/film/city-of-god/
American Beauty,1999,Sam Mendes,"['Kevin Spacey', 'Annette Bening', 'Thora Birch', 'Wes Bentley', 'Mena Suvari', 'Peter Gallagher', 'Allison Janney', 'Chris Cooper', 'Scott Bakula', 'Sam Robards', 'Barry Del Sherman', 'Ara Celi', 'John Cho', 'Fort Atkinson', 'Sue Casey', 'Kent Faulcon', 'Brenda Wehle', 'Lisa Cloud', 'Alison Faulk', 'Krista Goodsitt', 'Lily Houtkin', 'Carolina Lancaster', 'Mona Leah', 'Chekesha Van Putten', 'Emily Zachary', 'Nancy Anderson', 'Reshma Gajjar', 'Stephanie Rizzo', 'Heather Joy Sher', 'Chelsea Hertford', 'Amber Smith', 'Joel McCrary', 'Marissa Jaret Winokur', 'Dennis Anderson', 'Matthew Kimbrough', 'Erin Cathryn Strubbe', 'Thomas J. Armstrong', 'Bruce Cohen', 'Elaine Corral Kendall', 'David C. Fisher', 'James Hunter', 'Spencer Kayden', 'Tom Miller', 'Ronald Reagan']",3.96,5.0,['Drama'],122,['USA'],English,['English'],"['DreamWorks Pictures', 'Jinks/Cohen Company']",1212255,156241,331592,12000,3589,7525,4516,21850,19650,87394,91716,230148,103335,143162,712885,https://letterboxd.com/film/american-beauty/
