Film_title,Release_year,Director,Cast,Average_rating,Owner_rating,Genres,Runtime,Countries,Original_language,Spoken_languages,Studios,Watches,List_appearances,Likes,Fans,½,★,★½,★★,★★½,★★★,★★★½,★★★★,★★★★½,★★★★★,Total_ratings,Film_URL
Challengers,2024,Luca Guadagnino,"['Zendaya', ""Josh O'Connor"", 'Mike Faist', 'Darnell Appling', 'Bryan Doo', 'Shane T Harris', 'Nada Despotovich', 'Joan Mcshane', 'Chris Fowler', 'Mary Joe Fernández', 'A.J. Lister', 'Connor Aulson', 'Doria Bramante', 'Christine Dye', 'James Sylva', 'Kenneth A. Osherow', 'Kevin Collins', 'Burgess Byrd', 'Jason Tong', 'Hudson Rivera', 'Noah Eisenberg', 'Emma Davis', 'Naheem Garcia', 'Alex Bancila', 'Jake Jensen', 'Konrad Ryba', 'Hailey Gates', 'Andrew Rogers', 'Beverly Kristenson Helton', 'Brad Gilbert', 'Sam Xu', 'Caleb Schneider']",4.18,5.0,"['Drama', 'Romance']",132,"['Italy', 'USA']",English,['English'],"['Pascal Pictures', 'Why Are You Acting? Productions', 'Frenesy Film', 'Metro-Goldwyn-Mayer']",393295,83707,177176,7000,784,1358,1206,4740,6534,20371,35599,97314,85531,101636,355073,https://letterboxd.com/film/challengers/
Dune: Part Two,2024,Denis Villeneuve,"['Timothée Chalamet', 'Zendaya', 'Rebecca Ferguson', 'Javier Bardem', 'Josh Brolin', 'Austin Butler', 'Florence Pugh', 'Dave Bautista', 'Christopher Walken', 'Léa Seydoux', 'Stellan Skarsgård', 'Charlotte Rampling', 'Souheila Yacoub', 'Roger Yuan', 'Babs Olusanmokun', 'Alison Halstead', 'Giusi Merli', 'Kait Tenison', 'Tara Breathnach', 'Akiko Hitomi', 'Imola Gáspár', 'Alison Adnet', 'Hamza Baissa', 'Hassan Najib', 'Jasper Ryan-Carter', 'Elbooz Omar Ahmed Fathie', 'Abdelkarim Hussein Seli Mohamed Hassanin', 'Joseph Beddelem', 'Xavier Alba Royo', 'Rachid Abbad', 'Affif Ben Badra', 'Botond Bóta', 'Abdelaziz Boumane', 'Abdellah Echahbi', 'Zouhair Elakkari', 'Noureddine Hajoujou', 'Mohamed Mouraoui', 'Adil Achraf Sayd', 'Hamza Sayd', 'Hopi Grace', 'Havin Fathi', 'Kincsö Pethö', 'Cat Simmons', 'Burt Caesar', 'Remi Fadare', 'Amer El-Erwadi', 'Tedroy Newell', 'Oxa Hazel', 'Hajiyeva Pakiza', 'Leon Herbert', 'Sima Rostami', 'Yvonne Campbell', 'Joseph Charles', 'Vic Zander', 'Dylan Baldwin', 'Marcia Tucker', 'Nicola Brome', 'Kathy Owen', 'Huw Novelli', 'Moe Bar-El', 'Serhat Metin', 'Amra Mallassi', 'Adam Bloom', 'Luis Alkmim', 'Jordan Long', 'Omar A.K.', 'Zdeněk Dvořáček', 'Billy Clements', 'Anton Saunders', 'Lex Daniel', 'Dominic McHale', 'Paul Boyle', 'Niall White', 'Tony Cook', 'Gábor Szemán', 'Jonathan Gunning', 'Will Irvine', 'Alan Mehdizadeh', 'Rex Adams', 'Molly Mcowan', 'Ana Cilas', 'Kajsa Mohammar', 'Sára Bácsfalvi', 'Kocsis Zsofia', 'Matthew Sim', 'Steve Wall', 'Italo Amerighi', 'Tim Hilborne', 'Cecile Sinclair', 'Tracy Coogan', 'Zoe Kata Kaska', 'Jimmy Walker', 'Rand Faris', 'Fouad Humaidan', 'Manaf Irani', 'Dora Kápolnai-Schvab', 'Joelle', 'Anya Taylor-Joy', 'Peter Sztojanov Jr.', 'Alexandra Tóth']",4.48,5.0,"['Adventure', 'Science Fiction']",167,['USA'],English,['English'],['Legendary Pictures'],1580270,254313,746134,47000,1502,2475,1701,8210,11649,47212,79913,276344,331024,633994,1394024,https://letterboxd.com/film/dune-part-two/
Oppenheimer,2023,Christopher Nolan,"['Cillian Murphy', 'Emily Blunt', 'Matt Damon', 'Robert Downey Jr.', 'Florence Pugh', 'Josh Hartnett', 'Casey Affleck', 'Rami Malek', 'Kenneth Branagh', 'Benny Safdie', 'Jason Clarke', 'Dylan Arnold', 'Tom Conti', ""James D'Arcy"", 'David Dastmalchian', 'Dane DeHaan', 'Alden Ehrenreich', 'Tony Goldwyn', 'Jefferson Hall', 'David Krumholtz', 'Matthew Modine', 'Scott Grimes', 'Kurt Koehler', 'John Gowans', 'Macon Blair', 'Harry Groener', 'Gregory Jbara', 'Ted King', 'Tim DeKay', 'Steven Houska', 'Petrie Willink', 'Matthias Schweighöfer', 'Alex Wolff', 'Josh Zuckerman', 'Rory Keane', 'Michael Angarano', 'Emma Dumont', 'Sadie Stratton', 'Britt Kyle', 'Guy Burnet', 'Tom Jenkins', 'Louise Lombard', 'Michael Andrew Baker', 'Jeff Hephner', 'Olli Haaskivi', 'David Rysdahl', 'Josh Peck', 'Jack Quaid', 'Brett DelBuono', 'Gustaf Skarsgård', 'James Urbaniak', 'Trond Fausa Aurvåg', 'Devon Bostick', 'Danny Deferrari', 'Christopher Denham', 'Jessica Erin Martin', 'Ronald Auguste', 'Máté Haumann', 'Olivia Thirlby', 'Jack Cutmore-Scott', 'Harrison Gilbertson', 'James Remar', 'Will Roberts', 'Pat Skipper', 'Steve Coulter', 'Jeremy John Wells', 'Sean Avery', 'Adam Kroeger', 'Drew Kenney', 'Bryce Johnson', 'Flora Nolan', 'Kerry Westcott', 'Christina Hogue', 'Clay Bunker', 'Tyler Beardsley', 'Maria Teresa Zuppetta', 'Kate French', 'Gary Oldman', 'Hap Lawrence', 'Meg Schimelpfenig']",4.23,4.5,"['Drama', 'History']",181,"['UK', 'USA']",English,"['English', 'Dutch']","['Syncopy', 'Universal Pictures', 'Atlas Entertainment']",2543110,466858,1020210,31000,4410,9396,5587,32421,33315,150243,184711,552004,451395,689296,2112778,https://letterboxd.com/film/oppenheimer-2023/
Barbie,2023,Greta Gerwig,"['Margot Robbie', 'Ryan Gosling', 'America Ferrera', 'Ariana Greenblatt', 'Issa Rae', 'Kate McKinnon', 'Alexandra Shipp', 'Emma Mackey', 'Hari Nef', 'Sharon Rooney', 'Ana Cruz Kayne', 'Ritu Arya', 'Dua Lipa', 'Nicola Coughlan', 'Emerald Fennell', 'Simu Liu', 'Kingsley Ben-Adir', 'Ncuti Gatwa', 'Scott Evans', 'John Cena', 'Michael Cera', 'Rhea Perlman', 'Helen Mirren', 'Will Ferrell', 'Connor Swindells', 'Jamie Demetriou', 'Andrew Leung', 'Will Merrick', 'Zheng Xi Yong', 'Asim Chaudhry', 'Ray Fearon', 'Erica Ford', 'Hannah Khalique-Brown', 'Mette', 'Marisa Abela', 'Lucy Boynton', 'Rob Brydon', 'Tom Stourton', 'Chris Taylor', 'David Mumeni', 'Olivia Brody', 'Isla Ashworth', 'Eire Farrell', 'Daisy Duczmal', 'Genvieve Toussaint', 'Isabella Nightingale-Mercado', 'Millie-Rose Crossley', 'Anvita Nehru', 'Kayla-Mai Alvares', 'Luke Mullen', 'Patrick Luwis', 'Mac Brandt', 'Paul Jurewicz', 'Oraldo Austin', 'Benjamin Arthur', 'Carlos Jacott', 'Adam Ray', 'George Basil', 'Ptolemy Slocum', 'Deb Hiett', 'James Leon', 'Oliver Vaquer', 'Tony Noto', 'Christopher T. Wood', 'Ann Roth', 'Annie Mumolo', 'Elise Gallup', 'McKenna Roberts', 'Brylee Hsu', 'Sasha Milstein', 'Lauren Holt', 'Sterling Jones', 'Ryan Piers Williams', 'Jamaal Lewis', 'Kathryn Akin', 'Grace Jabbari', 'Ira Mandela Siobhan', 'Lisa Spencer', 'Naomi Weijand', 'Tom Clark', 'Ireanne Abenoja', 'Davide Albonetti', 'Charlotte Anderson', 'Michael Anderson', 'Rico Bakker', 'James Bamford', 'William John Banks', 'Callum Bell', 'Adam Blaug', 'Mason Boyce', 'Taylor Bradshaw', 'Alex Brown', 'Miekaile Browne', 'Lewis Calcutt', 'Nikkita Chadha', 'Oliver Chapman', 'Megan Charles', 'Callum Clack', 'Danny Coburn', 'Kat Collings', 'Adam Crossley', 'Sia Dauda', 'Gustave Die', 'Grace Durkin', 'Joelle Dyson', 'Lewis Easter', 'Onyemachi Ejimofor', 'Cameron Everitt', 'Luke Field-Wright', 'Sasha Flesch', 'Adam Fogarty', 'Michael John French', 'Anna-Kay Gayle', 'Charlie Goddard', 'Marlie Goddard', 'Ellis Harman', 'Yasmin Harrison', 'Josh Hawkins', 'James Healy', 'Tim Hodges', 'Mira Jebari', 'Beccy Jones', 'Thomas Kalek', 'Lily Laight', 'Maiya Leeke', 'Cristian Liberti', 'Prodromos Marneros', 'Nahum McLean', 'Jordan Melchor', 'Ramzan Miah', 'Andy Monaghan', 'Florivaldo Mossi', 'Hannah Nazareth', 'Grant Neal', 'Freja Nicole', 'Shaun Niles', 'Ella Nonini', 'Jack William Parry', 'Josie Pocock', 'Barnaby Quarendon', 'Redmand Rance', 'Zara Richards', 'Liam Riddick', 'Alana Rixon', 'Adam Paul Robertson', 'Kingdom Sibanda', 'Sebastian Skov', 'Aaron J. Smith', 'Joshua Smith', 'Lucia-Rose Sokolowski', 'Janine Somcio', 'Alex Sturman', 'Callum Sterling', 'Todd Talbot', 'Charles Tatman', 'Grant Thresh', 'Connor Tidman', 'Wahchi Vong', 'Jerry Wan', 'Sasha Wareham', 'Stan West', 'Oliver Wheeler', 'Josh Wild', 'Joe Wolstenholme', 'Richard Womersley', 'Ashley Young']",3.87,4.0,"['Comedy', 'Adventure']",114,"['UK', 'USA']",English,['English'],"['LuckyChap Entertainment', 'Heyday Films', 'NB/GG Pictures', 'Mattel', 'Warner Bros. Pictures']",3560337,442618,1544283,26000,12176,26020,17459,86339,92574,372199,386648,808715,342058,765943,2910131,https://letterboxd.com/film/barbie/
Anatomy of a Fall,2023,Justine Triet,"['Sandra Hüller', 'Swann Arlaud', 'Milo Machado-Graner', 'Antoine Reinartz', 'Samuel Theis', 'Jehnny Beth', 'Saadia Bentaïeb', 'Camille Rutherford', 'Anne Rotger', 'Sophie Fillières', 'Julien Comte', 'Pierre-François Garel', 'Savannah Rol', 'Iliès Kadri', 'Vincent Courcelle-Labrousse', 'Cécile Brunet-Ludet', 'Nesrine Slaoui', 'Antoine Bueno', 'Anne-Lise Heimburger', 'Wajdi Mouawad', 'Sacha Wolff', 'Kareen Guiock', 'Arthur Harari', 'Marie Brette', 'Christophe Devaux', 'Jefferson Desport', 'Nola Jolly', 'Emmanuelle Jourdan', 'Isaac Abballah', 'Judicaël Ajorque', 'Nicholas Angelo', 'Marie-Laure Aumis', 'Laura Balasuriya', 'Alexandre Bertrand', 'Jean-Pierre Bertrand', 'Cécilia Bongiovanni-Lefebvre', 'Jean-Claude Calbet', 'Florent Chasseloup', 'Sandrine Chastagnol', 'Betty Desmier', 'Justine Dulary', 'Philippe Jubien', 'Cyril Karenine', 'Maud Martin', 'Romaric Maucoeur', 'Fabien Perrot', 'Christophe Léon Schelstraete', 'Rose Thibault']",4.15,4.0,"['Mystery', 'Crime', 'Thriller']",152,['France'],French,"['French', 'English', 'German']","['Les Films de Pierre', 'Les Films Pelléas', 'France 2 Cinéma', 'Auvergne-Rhône-Alpes Cinéma']",970594,224560,359741,7600,802,1975,1400,8087,10474,52239,96164,303207,198609,167080,840037,https://letterboxd.com/film/anatomy-of-a-fall/
Killers of the Flower Moon,2023,Martin Scorsese,"['Leonardo DiCaprio', 'Lily Gladstone', 'Robert De Niro', 'Jesse Plemons', 'Scott Shepherd', 'Cara Jade Myers', 'JaNae Collins', 'William Belleau', 'Jason Isbell', 'Louis Cancelmi', 'John Lithgow', 'Tantoo Cardinal', 'Jillian Dion', 'Brendan Fraser', 'Everett Waller', 'Tahlee Redcorn', 'Yancey Red Corn', 'Tatanka Means', 'Tommy Schultz', 'Sturgill Simpson', 'Ty Mitchell', 'Gary Basaraba', 'Charlie Musselwhite', 'Pat Healy', 'Steve Witting', 'Steve Routman', 'Gene Jones', 'Michael Abbott Jr.', 'J.C. MacKenzie', 'Jack White', 'Larry Sellers', 'Barry Corbin', 'Gabriel Casdorph', 'Samuel French', 'Wally Welch', 'James Roman Dailey Jr.', 'Christopher Cote', 'Randy Houser', 'Moe Headrick', 'Pete Yorn', 'Margaret Shannon-Sisk', 'Moira Redcorn', 'Eric Parkinson', 'Chase Parker', 'Jarad Looper', 'John Gibbs', 'Jerry Logsdon', 'Jacob Lux', 'Xavier Toehay', 'Mike Cook', 'Katherine Willis', 'Delani Chambers', 'Zachary Hokeah', 'Talon Satepauhoodle', 'Jennifer Rader', 'Chance Rush', 'Dana Daylight', 'Mahada Sanders', 'Ben Hall', 'John Q. Wilson', 'Beau Smith', 'Victor McCay', 'Nathalie Standingcloud', 'Jay Paulson', 'Marvin E. Stepson Jr.', 'Tracey Ann Moore', 'Easton Wade Yellowfish', 'Reignen Yellowfish', 'Candice Costello', 'Father Chris Daigle', 'Justin France', 'Jerry Wolf', 'Addie Roanhorse', 'Erica Pretty Eagle Moore', 'Mason Cunningham', 'Norma Jean', 'Elisha Pratt', 'Desireee Storm Brave', 'Margaret Gray', 'Christopher Hill', 'Dolan Wilson', 'Jackie Wyatt', 'Rayna Gellert', 'Nokosee Fields', 'Kieran Kane', 'Lucas Ross', 'Elijah Cemp Ragsdale', 'Vanessa Rose Pham', 'Terry Allen', 'Jo Harvey Allen', 'Sarah Spurger', 'Joshua Close', 'Elden Henson', 'Kinsleigh McNac', 'Roanin Davis', 'David Fields', 'Anthony J. Harvey', 'Stephen Berkman', 'William Alyn Hill', 'Joseph Spinelli', 'Blaine Hall', 'Brent Langdon', 'Leland Prater', 'DJ Whited', 'Elizabeth Waller', 'Jessica Harjo', 'Joey Oglesby', 'Alexis Ann', 'Lee Eddy', 'Gary S. Pratt', 'Nathaniel Arcand', 'Kristin Keith', 'Bravery Nowlin', 'Edward Gray Sr.', 'Angela Pratt', 'Henry Amos Gray', 'Samuel Gray', 'Edward Gray Jr.', 'Mamie Cozad', 'Shonagh Smith', 'Joel Tallchief Lemon', 'Richard Lookout RulingHisSun', 'Brett Bower', 'Garrison Panzer', 'River Rhoades', 'Zack T. Morris', 'Harrison Shackelford', 'Alexis Waller', 'Mark Landon Smith', 'Tom Ashmore', 'Myron F. Red Eagle', 'Dolores Marie Goodeagle', 'Matt Tolentino', 'Johnny Baier', 'Gregory Fallis', 'Patrick Bubert', 'TJ Muller', 'Will Reardon-Anderson', 'Peter Reardon-Anderson', 'Kyle Dillingham', 'Jacob Johnson', 'Jeffrey Stevenson', 'Clint Rohr', 'D. Reride Smith', 'James Healy Jr.', 'Jeremy Goodvoice', 'Ron McMahan', 'Seth Buckminster', 'Penny Potts', 'Melissa Tiger', 'Karen Garlitz', 'Bronson Redeagle', 'Jenny Paige Lynn', 'David Born', 'Mary Buss', 'Ted Welch', 'Carl Palmer', 'Tanner Brantley', 'Jezy Gray', 'Steve Eastin', 'Joe Chrest', 'Brian Shoop', 'James Carroll', 'Lux Britni Malaske', 'Adam Washington', 'Larry Jack Dotson', 'Larry Fessenden', 'Welker White', 'Martin Scorsese', 'Marko Costanzo', 'Nicholas White', 'Rob Fisher', 'Vince Giordano', 'Paul Woodiel', 'Andy Stein', 'Sam Bardfeld', 'Joe Boga', 'Jon-Erik Kellso', 'Jim Fryer', 'Marc Phaneuf', 'Mark Lopeman', 'Chris Byars', 'Vinny Raniolo', 'Paul Wells', 'Peter Yarin', 'Scott George', 'Kenneth Bighorse Jr.', 'Vann Bighorse', 'Anna L. Bighorse', 'Mason Bighorse', 'Norris Bighorse', 'Scott Bighorse', 'Paul Bighorse', 'Taveah Ann George', 'Wahwastoas J. Jones', 'Dobbin Monoessy Knifechief', 'Julia Lookout', 'Jennifer Moses', 'Francis Pipestem Jr.', 'Michael Paul Pahsetopah', 'Silas Satepauhoodle', 'Cherylyn Oberly Satepauhoodle', 'Charisse Satepauhoodle', 'Lynette Satepauhoodle', 'John Shaw', 'Angela Toineeta Satepauhoodle', 'Alexandria Toineeta', 'Ed Yellowfish', 'Danny Frost']",4.1,4.0,"['History', 'Crime', 'Drama']",206,['USA'],English,"['English', 'Latin', 'French']","['Apple Studios', 'Imperative Entertainment', 'Sikelia Productions', 'Appian Way']",951813,272264,320937,2300,1304,3177,2512,12940,16260,65355,103662,262763,185976,151337,805286,https://letterboxd.com/film/killers-of-the-flower-moon/
Monster,2023,Hirokazu Kore-eda,"['Sakura Ando', 'Eita Nagayama', 'Soya Kurokawa', 'Hinata Hiiragi', 'Yûko Tanaka', 'Mitsuki Takahata', 'Akihiro Kakuta', 'Shido Nakamura', 'Ryu Morioka', 'Daisuke Kuroda', 'Ayu Kitaura', 'Haruto Kobayashi', 'Kouga Yagishita', 'Taichi Kanemitsu', 'Harune Iida', 'Shiyun Nakamura', 'Pee', 'Kayo Noro']",4.3,5.0,"['Thriller', 'Mystery', 'Drama']",125,['Japan'],Japanese,['Japanese'],"['TOHO', 'Fuji Television Network', 'AOI Pro.', 'BUN-BUKU', 'GAGA Corporation']",183611,55205,88420,8500,135,291,255,1087,1789,7017,14249,42875,34491,56437,158626,https://letterboxd.com/film/monster-2023/
Bottoms,2023,Emma Seligman,"['Rachel Sennott', 'Ayo Edebiri', 'Ruby Cruz', 'Havana Rose Liu', 'Kaia Gerber', 'Nicholas Galitzine', 'Miles Fowler', 'Marshawn Lynch', 'Dagmara Dominczyk', 'Punkie Johnson', 'Zamani Wilder', 'Summer Joy Campbell', 'Virginia Tucker', 'Wayne Pére', 'Toby Nichols', 'Cameron Stout', 'Ted Ferguson', 'Bruno Rose', 'Zach Primo', 'Liz Elkins Newcomer', 'Krystal Alayne Chambers', 'Alyssa Matthews', 'Lacey Dover']",3.82,4.5,['Comedy'],91,['USA'],English,['English'],"['Brownstone Productions', 'Orion Pictures']",980001,188634,405187,21000,3508,7325,6241,24005,30029,99820,128747,233322,98549,210396,841942,https://letterboxd.com/film/bottoms/
Talk to Me,2022,"Michael Philippou, Danny Philippou","['Sophie Wilde', 'Alexandra Jensen', 'Joe Bird', 'Otis Dhanji', 'Miranda Otto', 'Zoe Terakes', 'Chris Alosio', 'Marcus Johnson', 'Alexandria Steffensen', 'Ari McCarthy', 'Sunny Johnson', 'James Oliver', 'Cass Cumerford', 'Jett Gazley', 'Kitt Erhart-Bruce', 'Hamish Phillips', 'Kidaan Zelleke', 'Sarah Brokensha', 'Jayden Davison', 'Jodie Dry', 'Frances Cassar', 'Kelly Butler', 'Ava Stenta', 'Harli Ames', 'Leeanna Walsman', 'Kerry Reid', 'Robin Northover', 'Jacek Koman', 'Helene Philippou', 'Jude Turner', 'Zac Scott', 'Jess Kuss', 'David Roberts', 'Demi Van Kasteren', 'Pia Gillings', 'Oscar Wangel', 'Courtlan Gordan', 'Louisa Giameos', ""Jem O'Callaghan"", 'Joe Romeo', 'Alex Noel McCarthy', 'Charlie Morkunas', 'Patricia Haycock', 'Murray Haycock', 'Catherine Purling', 'Nicola Thiele', 'David Simmons', 'Joseph House Baker', 'Alice Scheid', 'Anita Kimber', 'Ben Bullock', 'Brian Godfrey', 'Cooper Duncan', 'Daniel Pitt', 'Danielle Ruggiero-Prior', 'Dylan Warren', 'Emily Fogg', 'Emily Gun', 'Jason Moore', 'Jessica Homewood', 'Kate Portus', 'Lelum Rathnayake', 'Matt Goldwyn', 'Michael Gilmore', 'Philip Maynard', 'Sarah Baber', 'Saravjit Singh', 'Shadrack Kamau', 'Thomas Gardner', 'Mark Duncan', 'Ella Fenwick', 'Michael Harpas', 'Nikolas Gelios', 'Alex Philippou', 'Con Lipapis', 'Con Patelias', 'Louis Vavaroutsos', 'Uncle Mars', 'Nick Lipapis', 'KSI', 'Simon Minter', 'Harry Lewis', 'Josh Bradley', 'Ethan Payne', 'Vikram Barn', 'Tobi Brown']",3.56,3.5,"['Horror', 'Thriller']",95,"['Australia', 'UK']",English,"['English', 'Greek (modern)']","['Causeway Films', 'Metrol Technology', 'Screen Australia', 'South Australian Film Corporation', 'Bankside Films', 'Head Gear Films', 'Adelaide Film Festival Investment Fund']",851949,162957,256071,2200,3168,6690,6524,26259,36340,120528,164436,235711,68133,63568,731357,https://letterboxd.com/film/talk-to-me-2022/
American Murderer,2022,Matthew Gentile,"['Tom Pelphrey', 'Ryan Phillippe', 'Idina Menzel', 'Shantel VanSanten', 'Jacki Weaver', 'Laura Dennis', 'Paul Schneider', 'Moisés Arias', 'Kevin Corrigan', 'Kylie Rohead', 'Emilyne Guglietti']",2.97,2.0,"['Drama', 'Crime']",101,['USA'],English,"['English', 'Portuguese']","['Traveling Picture Show Company', 'Gigi Films']",858,198,111,1,14,39,38,105,107,189,84,50,6,19,651,https://letterboxd.com/film/american-murderer/
Guillermo del Toro's Pinocchio,2022,"Guillermo del Toro, Mark Gustafson","['Gregory Mann', 'Ewan McGregor', 'David Bradley', 'Christoph Waltz', 'Tilda Swinton', 'Cate Blanchett', 'Ron Perlman', 'Finn Wolfhard', 'Tim Blake Nelson', 'John Turturro', 'Burn Gorman', 'Alfie Tempest', 'Tom Kenny', 'Anthea Greco', 'Francesca Fanti', 'Sandro Carotti', 'Rio Mangini', 'Benjamin Valic', 'Sky Alexis', 'Ariana Molkara', 'Roy Halo', 'Luciano Palmeri', 'Peter Arpesella']",3.98,5.0,"['Family', 'Animation', 'Drama', 'Fantasy']",117,['USA'],English,['English'],"['The Jim Henson Company', 'ShadowMachine', 'Double Dare You Productions']",605842,126710,219196,2000,906,2341,1695,8334,10486,43050,71554,164003,81551,99837,483757,https://letterboxd.com/film/guillermo-del-toros-pinocchio/
Glass Onion,2022,Rian Johnson,"['Daniel Craig', 'Edward Norton', 'Janelle Monáe', 'Kathryn Hahn', 'Leslie Odom Jr.', 'Kate Hudson', 'Dave Bautista', 'Jessica Henwick', 'Madelyn Cline', 'Noah Segan', 'Jackie Hoffman', 'Dallas Roberts', 'Stephen Sondheim', 'Angela Lansbury', 'Natasha Lyonne', 'Kareem Abdul-Jabbar', 'Serena Williams', 'Yo-Yo Ma', 'Jacek Czajka', 'Dan Chariton', 'Eddie Gorodetsky', 'Coco Shinomiya', 'Dilcia Barrera', 'Mark Newman', 'Adam Davenport', 'Lauren Ivy', ""Momčilo 'Momo' Pićurić"", 'N.J. Gentry', 'Ali Goksoy', 'James Payton', 'T. Florian Karnowski', 'Jake Tapper', 'Panagiotis Margetis', 'Adele Franck', 'Ethan Hawke', 'Hugh Grant', 'Joseph Gordon-Levitt']",3.45,4.0,"['Comedy', 'Crime', 'Mystery']",140,['USA'],English,['English'],['T-Street'],2120706,186702,608570,1500,6545,22354,16820,93429,97899,347516,323554,451548,123007,121741,1604413,https://letterboxd.com/film/glass-onion/
The Menu,2022,Mark Mylod,"['Anya Taylor-Joy', 'Ralph Fiennes', 'Nicholas Hoult', 'Janet McTeer', 'Paul Adelstein', 'Rob Yang', 'Aimee Carrero', 'John Leguizamo', 'Arturo Castro', 'Reed Birney', 'Hong Chau', 'Judith Light', 'Mark St. Cyr', 'Rebecca Koon', 'Peter Grosz', 'Christina Brucato', 'Adam Aalderks', 'Jon Paul Allyn', 'Mel Fair', 'Cristian Gonzalez', 'Matthew Cornwell', 'John Wilkins III', 'John Cola', 'Michael A. Dean', 'Marcus Aveons Duncan', 'Alexander Goldstein', 'Grant Henley', 'A. Jae Michele', 'Rachel Trautmann', 'Victor Zheng', 'Michael Neal', 'Brandon Herron', 'Jay Shadix', 'Melisa Lopez', 'Elbert Kim']",3.54,4.0,"['Comedy', 'Thriller', 'Horror']",107,['USA'],English,"['English', 'Spanish']","['Hyperobject Industries', 'Searchlight Pictures', 'Gary Sanchez Productions', 'TSG Entertainment']",2121512,214228,658427,4800,5017,16355,13460,75024,85607,327842,348048,521260,135243,157710,1685566,https://letterboxd.com/film/the-menu-2022/
Pearl,2022,Ti West,"['Mia Goth', 'David Corenswet', 'Tandi Wright', 'Matthew Sunderland', 'Emma Jenkins-Purro', 'Alistair Sewell', 'Amelia Reid', 'Gabe McDonnell', 'Lauren Stewart', 'Todd Rippon', 'Grace Acheson']",3.75,4.0,"['Horror', 'Drama']",102,['USA'],English,"['English', 'German']","['A24', 'Little Lamb Productions']",989825,217765,375780,18000,1960,4831,4313,19726,27299,108285,142542,264398,89479,155562,818395,https://letterboxd.com/film/pearl-2022/
Bones and All,2022,Luca Guadagnino,"['Taylor Russell', 'Timothée Chalamet', 'Mark Rylance', 'Anna Cobb', 'André Holland', 'David Gordon Green', 'Michael Stuhlbarg', 'Jessica Harper', 'Chloë Sevigny', 'Kendle Coffey', 'Ellie Parker', 'Madeleine Hall', 'Christine Dye', 'Sean Bridgers', 'Jake Horowitz', 'Marshall Jackson', 'Marcia Dangerfield', 'Burgess Byrd', 'Max Soliz', 'Johanna McGinley', 'Hannah Barlow', 'Claudio Encarnacion Montero', 'Sue Hopkins', 'Aaron J. Gould', 'Brady Gentry', 'Dori Lucas', ""Tom O'Brien"", 'Jenny McManus', 'John E. Brownlee']",3.65,3.5,"['Horror', 'Drama', 'Romance']",131,"['Italy', 'USA']",English,['English'],"['Frenesy Film', 'Per Capita Productions', 'MeMo Films', 'The Apartment Pictures', '3 Marys Entertainment', 'Tenderstories', 'Elafilm']",624888,146259,205492,14000,3254,6648,5459,21426,25894,77164,95207,149699,62065,69534,516350,https://letterboxd.com/film/bones-and-all/
Barbarian,2022,Zach Cregger,"['Georgina Campbell', 'Bill Skarsgård', 'Justin Long', 'Matthew Patrick Davis', 'Richard Brake', 'Kurt Braunohler', 'Jaymes Butler', 'Sophie Sörensen', 'Rachel Fowler', 'J.R. Esposito', 'Kate Nichols', 'Kate Bosworth', 'Brooke Dillman', 'Sara Paxton', 'Will Greenberg', 'Derek Morse', 'Trevor Van Uden', 'Zach Cregger', 'Devina Vassileva', 'Kalina Stancheva', 'Julian Stanishkov']",3.51,3.5,"['Mystery', 'Thriller', 'Horror']",103,['USA'],English,"['English', 'Spanish']","['BoulderLight Pictures', 'Vertigo Entertainment', 'Regency Enterprises', 'Hammerstone Studios', 'Almost Never Films', '20th Century Studios']",937845,170661,277762,2200,4554,10253,8608,33949,40650,130735,163502,243806,67274,62156,765487,https://letterboxd.com/film/barbarian-2022/
Portrait of God,2022,Dylan Clark,"['Sydney Brumfield', 'Dylan Clark', 'Ali Dusinberre', 'Anthony Misiano', 'Carina Gouws', 'John Martin', 'Kristina Molina', 'Meaghan Sabino', 'Thomas Racine', 'William J. Clark']",3.77,3.0,['Horror'],7,['USA'],English,['English'],nan,18704,2760,6229,18,25,72,66,262,410,1787,2976,5033,1528,1707,13866,https://letterboxd.com/film/portrait-of-god-2022/
Close,2022,Lukas Dhont,"['Eden Dambrine', 'Gustav De Waele', 'Émilie Dequenne', 'Léa Drucker', 'Igor van Dessel', 'Kevin Janssens', 'Marc Weiss', 'Léon Bataille', 'Serine Ayari', 'Robin Keyaert', 'Herman van Slambrouck', 'Iven Deduytschaver', 'Jeffrey Vanhaeren', 'Hélène Theunissen', 'Baptiste Bataille', 'Pieter Piron', 'Freya De Corte', 'Cachou Kirsch', 'Ahlaam Teghadouini', 'Hervé Guerrisi']",4.1,4.0,['Drama'],104,"['Belgium', 'France', 'Netherlands']",French,"['French', 'Dutch']","['Menuet', 'Diaphana Films', 'Topkapi Films', 'Versus Production', 'VTM', 'RTBF']",237512,66235,95267,5900,239,561,560,2701,4346,15697,25937,61306,36060,52529,199936,https://letterboxd.com/film/close-2022/
Crimes of the Future,2022,David Cronenberg,"['Viggo Mortensen', 'Léa Seydoux', 'Scott Speedman', 'Kristen Stewart', 'Welket Bungué', 'Don McKellar', 'Tanaya Beatty', 'Nadia Litz', 'Lihi Kornowski', 'Denise Capezza', 'Efi Kantza', 'Jason Bitter', 'Tassos Karahalios', 'Sozos Sotiris', 'Penelope Tsilika', 'Mihalis Valasoglou', 'Yorgos Pirpassopoulos', 'Sotiris Siozos']",3.29,3.5,"['Horror', 'Drama', 'Science Fiction']",107,"['Canada', 'UK']",English,"['English', 'Spanish']","['Serendipity Point Films', 'Téléfilm Canada', 'Ingenious Media']",217592,70479,52673,426,1981,4137,4006,13274,16662,36540,35816,38983,11509,8710,171618,https://letterboxd.com/film/crimes-of-the-future-2022/
Hideous,2022,Yann Gonzalez,"['Oliver Sim', 'Fehinti Balogun', 'Kate Moran', 'César Vicente', 'Bimini', 'Jamie XX', 'Jimmy Somerville', 'Cameron Bell', 'Yasmina Dexter', 'Niamh Bennett', 'Sohail Al-Mahri', 'James Craven']",3.64,4.0,"['Music', 'Horror', 'Drama']",22,"['France', 'UK']",English,"['English', 'Spanish']",['Friend'],11340,2589,3466,14,36,89,89,308,378,1323,1447,2202,607,1000,7479,https://letterboxd.com/film/hideous-2022/
Aftersun,2022,Charlotte Wells,"['Paul Mescal', 'Frankie Corio', 'Brooklyn Toulson', 'Celia Rowlson-Hall', 'Sally Messham', 'Ayşe Parlak', 'Sophia Lamanova', 'Spike Fearn', 'Harry Perdios', 'Frank Corio', 'Ruby Thompson', 'Ethan James Smith', 'Onur Ekşioğlu', 'Cafer Karahan', 'Kayleigh Coleman', 'John Stuifzand', 'Tyler Mutlu', 'Kieran Burton', 'Nijat Gachayev', 'Sarah Makharine', 'Erol Cengizalp', 'Djamel Turner']",4.24,4.0,['Drama'],102,"['UK', 'USA']",English,"['English', 'Spanish', 'Turkish']","['PASTEL', 'BBC Film', 'Tango Entertainment', 'Unified Theory', 'Screen Scotland', 'BFI']",918768,244933,407202,53000,1302,3066,2094,10735,12858,51700,73035,203344,146566,262502,767202,https://letterboxd.com/film/aftersun/
Men,2022,Alex Garland,"['Jessie Buckley', 'Rory Kinnear', 'Paapa Essiedu', 'Gayle Rankin', 'Sarah Twomey', 'Zak Rothera-Oxley', 'Sonoya Mizuno']",2.82,2.5,"['Fantasy', 'Horror', 'Thriller']",100,['UK'],English,['English'],['DNA Films'],288425,80953,47181,306,7605,13594,12705,32894,33000,52003,37280,32415,6863,7168,235527,https://letterboxd.com/film/men-2022/
The Northman,2022,Robert Eggers,"['Alexander Skarsgård', 'Nicole Kidman', 'Claes Bang', 'Anya Taylor-Joy', 'Ethan Hawke', 'Gustav Lindh', 'Elliott Rose', 'Willem Dafoe', 'Phill Martin', 'Eldar Skar', 'Olwen Fouéré', 'Edgar Abram', 'Jack Gassmann', 'Ingvar E. Sigurðsson', 'Oscar Novak', 'Jack Walsh', 'Björk', 'Ian Whyte', 'Katie Pattinson', 'Andrea O’Neill', 'Rebecca Ineson', 'Kate Dickie', 'Ísadóra Bjarkardóttir Barney', 'Kevin Horsham', ""Seamus O'Hara"", 'Scott Sinclair', 'Tadhg Murphy', 'James Yates', 'Hafþór Júlíus Björnsson', 'Ian Gerard Whyte', 'Ralph Ineson', 'Murray McArthur', 'Nille Glæsel', 'Jonas Lorentzen', 'Magne Osnes', 'Ineta Sliuzaite', 'Finn Lafferty', 'Jon Campling', 'Helen Roche', 'Faoileann Cunningham', 'Gareth Parker', 'Mark Fitzgerald', 'Gavin Peden', 'Joel Hicks', 'Chris Finlayson', 'Eric Higgins', 'Matt Symonds', 'Luca Evans', 'James Harper-Jones', 'Thomas Harper-Jones', 'Lily Bird', 'Sunil Beniwal', 'Michael McGeown', 'Peter Vamos', 'Sheila Flitton']",3.79,4.0,"['Fantasy', 'Adventure', 'Action']",137,['USA'],English,"['English', 'Icelandic']","['New Regency Pictures', 'Square Peg', 'Regency Enterprises']",731141,155100,228966,2600,2327,5782,4554,19546,23653,76535,108531,198488,89063,62449,590928,https://letterboxd.com/film/the-northman/
Bodies Bodies Bodies,2022,Halina Reijn,"['Amandla Stenberg', 'Maria Bakalova', 'Myha’la', 'Rachel Sennott', 'Chase Sui Wonders', 'Pete Davidson', 'Lee Pace', ""Conner O'Malley""]",3.33,3.0,"['Mystery', 'Horror', 'Comedy']",94,['USA'],English,['English'],"['A24', '2AM']",783984,160998,224069,2800,4969,10442,9648,35992,47283,141485,153023,168001,37571,44580,652994,https://letterboxd.com/film/bodies-bodies-bodies/
X,2022,Ti West,"['Mia Goth', 'Jenna Ortega', 'Brittany Snow', 'Kid Cudi', 'Martin Henderson', 'Owen Campbell', 'Stephen Ure', 'James Gaylyn', 'Simon Prast', 'Geoff Dolan', 'Matthew J. Saville', 'Bryony Skillington', 'Karen Gillan']",3.42,3.5,"['Mystery', 'Thriller', 'Horror']",106,['USA'],English,['English'],"['A24', 'Little Lamb Productions']",1164422,220987,350949,5300,5172,11784,10861,44773,58739,194412,209179,256589,62160,88350,942019,https://letterboxd.com/film/x-2022/
Turning Red,2022,Domee Shi,"['Rosalie Chiang', 'Sandra Oh', 'Ava Morse', 'Hyein Park', 'Maitreyi Ramakrishnan', 'Orion Lee', 'Wai Ching Ho', 'Tristan Allerick Chen', 'James Hong', 'Lori Tan Chinn', 'Mia Tagano', 'Sherry Cola', 'Lillian Lim', 'Jordan Fisher', ""Finneas O'Connell"", 'Topher Ngo', 'Grayson Villanueva', 'Josh Levi', 'Sasha Roiz', 'Addie Chandler', 'Lily Sanfelippo', 'Anne-Marie', 'Evan Agos', 'Trinity Bliss', 'Devin Bright', 'Kimberly Brooks', 'Ian James Corlett', 'Juliet Donenfeld', 'Terri Douglas', 'Ellen Dubin', 'Alison Fernandez', 'Jack Fisher', 'Erin Fitzgerald', 'Poon Fong-Fong', 'Hadley Gannaway', 'David Hayter', 'Karen Huie', 'Sean T. Krishnan', 'Arif S. Kinchen', 'Paul Kwo', 'James Taku Leung', 'Lydia Look', 'David Chen', 'Kim Mai Guest', 'Caleb Jeon', 'Ethan Loh', 'Noel Mason', 'Jason Maybaum', 'Jaiden McLeod', 'Ulka Simone Mohanty', 'Iara Nemirovsky', 'Capri Oliver', 'Benjamin Plessala', 'Tsang Pui-Yee', 'Maddix Robinson', 'Zeno Robinson', 'Vivienne Rutherford', 'Violet Grace Schaffer', 'Mariel Sheets', 'Christian J. Simon', 'Artemis Snow', 'Sydney Thomas', 'Timothy Cheng Chi-Sing', 'Benjamin Valic', 'Shondalia White', 'Cedric L. Williams']",3.53,2.0,"['Family', 'Comedy', 'Fantasy', 'Animation']",100,['USA'],English,"['English', 'Cantonese', 'Chinese', 'Korean', 'French']","['Walt Disney Pictures', 'Pixar']",1057750,155454,286207,1800,7344,12018,8773,33666,39269,133753,138414,210121,58655,97974,739987,https://letterboxd.com/film/turning-red/
The Batman,2022,Matt Reeves,"['Robert Pattinson', 'Zoë Kravitz', 'Paul Dano', 'Jeffrey Wright', 'John Turturro', 'Peter Sarsgaard', 'Andy Serkis', 'Colin Farrell', 'Jayme Lawson', 'Gil Perez-Abraham', 'Peter McDonald', ""Con O'Neill"", 'Alex Ferns', 'Rupert Penry-Jones', 'Charlie Carver', 'Max Carver', 'Barry Keoghan', 'Kosha Engler', 'Archie Barnes', 'Janine Harouni', 'Hana Hrzic', 'Joseph Walker', 'Luke Roberts', 'Oscar Novak', 'Stella Stocker', 'Sandra Dickinson', 'Jack Bennett', 'Andre Nightingale', 'Richard James-Neale', 'Lorraine Tai', 'Joseph Balderrama', 'James Eeles', 'Dave Simon', 'Angela Yeoh', 'Leemore Marrett Jr.', 'Ezra Elliott', 'Itoya Osagiede', 'Stewart Alexander', 'Adam Rojko Vega', 'Heider Ali', 'Marcus Onilude', 'Elena Saurel', 'Ed Kear', 'Sid Sagar', 'Amanda Blake', 'Todd Boyce', 'Brandon Bassir', 'Will Austin', 'Chabris Napier-Lawrence', 'Douglas Russell', 'Phil Aizlewood', 'Mark Killeen', 'Philip Shaun McGuinness', 'Lorna Brown', 'Elliot Warren', 'Jay Lycurgo', 'Stefan Race', 'Elijah Baker', 'Craige Middleburg', 'Akie Kotabe', 'Spike Fearn', 'Urielle Klein-Mekongo', 'Bronson Webb', 'Madeleine Gray', 'Ste Johnston', 'Arthur Lee', 'Parry Glasspool', 'Jordan Coulson', 'Hadas Gold', 'Pat Battle', 'Bobby Cuza', 'Dean Meminger', 'Roma Torre', 'Mike Capozzola', 'Amanda Hurwitz', 'Joshua Eldridge-Smith', 'Daniel Rainford', 'Nathalie Armin', 'Jose Palma', 'Kazeem Tosin Amore', 'Rodrig Andrisan', 'Craig Douglas']",3.98,4.0,"['Crime', 'Mystery', 'Thriller']",177,['USA'],English,['English'],"['6th & Idaho', 'Dylan Clark Productions', 'DC Films', 'Warner Bros. Pictures']",2842778,383930,1217634,43000,4599,15258,8222,56656,48369,244156,258483,692938,362762,487875,2179318,https://letterboxd.com/film/the-batman/
The House,2022,"Paloma Baeza, Niki Lindroth von Bahr","['Mia Goth', 'Matthew Goode', 'Claudie Blakley', 'Eleanor De Swaef-Roels', 'Mark Heap', 'Stephanie Cole', 'Miranda Richardson', 'David Peacock', 'Barnaby Pilling', 'Jarvis Cocker', 'Sven Wollter', 'Yvonne Lombard', 'Bimini', 'Ayesha Antoine', 'Jason Barnett', 'Wayne Forester', 'Poppy Gathard', 'David Holt', 'Melanie Hudson', 'Emma Tate', 'Susan Wokoma', 'Helena Bonham Carter', 'Paul Kaye', 'Will Sharpe']",3.53,4.5,"['Comedy', 'Animation', 'Horror', 'Drama', 'Fantasy']",97,"['UK', 'USA']",English,['English'],['Nexus Studios'],202095,38060,56249,636,431,1145,1208,5379,8713,32842,40161,43802,10200,13235,157116,https://letterboxd.com/film/the-house-2022-1/
Don't Look Up,2021,Adam McKay,"['Jennifer Lawrence', 'Leonardo DiCaprio', 'Meryl Streep', 'Rob Morgan', 'Jonah Hill', 'Cate Blanchett', 'Mark Rylance', 'Tyler Perry', 'Timothée Chalamet', 'Ron Perlman', 'Ariana Grande', 'Kid Cudi', 'Himesh Patel', 'Melanie Lynskey', 'Michael Chiklis', 'Tomer Sisley', 'Paul Guilfoyle', 'Robert Joy', 'Jack Alberts', 'Ting Lik', 'Lance A. Williams', 'Shimali de Silva', 'Hettienne Park', 'Rafael Silva', 'Lonnie Farmer', 'Homa Sarabi Daunis', 'Barbara Douglass', 'Rena Maliszewski', 'Erik Parillo', 'Robert Hurst Radochia', 'Conor Sweeney', 'Ross Partridge', 'Richard Donelly', 'Liev Schreiber', 'Samsara Yett', 'Meara Mahoney Gross', 'Jaden Onwuakor', 'Staci Roberts', 'Wendy Bellevue', 'Mishka Yarovoy', 'Chris Everett', 'Annette Miller', 'Stephen Thorne', 'Aimee Doherty', 'Natalie Rebenkoff', 'Gary Tanguay', 'Georgia Lyman', 'Patricia DeHaney', 'Ben Sidell', 'Therese Plaehn', 'Omar Ghonim', ""Jody O'Neil"", 'Meghan Leathers', 'Ashleigh Banfield', 'Sarah Silverman', 'Richard Snee', 'Darryl Wooten', 'Danielle Waxman', 'Jeffrey Smith', 'Jon Glaser', 'Dorothy Dwyer', 'Odis Spencer', 'André Silva', 'Zach Holmes', 'Sarah Nolen', 'Alvin Keith', 'Alaina Pinto', 'Lizzie Short', 'Juri Love', 'Sujoy De', 'Brahms Guignard', 'Sergei Bushmanov', 'Lewis D. Wheeler', 'Steve Gagliastro', 'David J. Curtis', 'Kevin Craig West', 'Alison Weller', 'Rob Lévesque', 'Sam Zephir', 'Dee Nelson', 'Beau Allen', 'Rebecca Gibel', 'Brian Faherty', 'Celeste Oliva', 'Amanda Cass', 'Roman Mitichyan', 'Paul Marini', 'Alex Huynh', 'Michael Jibrin', 'Bill Mootos', 'Patti Tippo', 'Allyn Burrows', 'Tori Davis Lawlor', 'Joy Lang', 'June Holmes', 'Graham Holmes', 'Jacob Sanditen', 'Anthony Marrese', 'Chris Evans', 'Caroline Bergwall', 'Anania Williams', 'Nate Richman', 'Wes Johnson', 'John Bucy', 'Patrick Gover', 'Conrad Perry', 'Matt Rouillard', 'Christopher Deschenes', 'J.P. Aaron', 'Daniela August', 'Nicholai Senat', 'Alexandra Zilch', 'Jonathan Kobs', 'Bianca de la Garza', 'Caitlin Ishibashi', 'Claire Davis', 'Elder Isaiah Perez', 'Coran Spardakis Henley', 'Lance Norris', 'Ralph M. Studley', 'Frank Ridley', 'Andrew Haserlat', 'Jayne McLendon', 'Ishaan Khattar', 'Khaldoun Rajeh', 'Sheren Rajeh', 'Khaled Rajeh', 'Kareem Rajeh', 'Ahmad Rajeh', 'Adila Rajeh', 'J.T. Turner', 'Ed Peed', 'Clara Kovacic']",3.01,2.5,"['Science Fiction', 'Comedy', 'Drama']",138,['USA'],English,['English'],['Hyperobject Industries'],2079416,133870,424245,1200,20951,55897,42643,167228,150044,386320,243368,267754,49052,78241,1461498,https://letterboxd.com/film/dont-look-up-2021/
House of Gucci,2021,Ridley Scott,"['Lady Gaga', 'Adam Driver', 'Al Pacino', 'Jeremy Irons', 'Jared Leto', 'Jack Huston', 'Salma Hayek Pinault', 'Alexia Murray', 'Vincent Riotta', 'Gaetano Bruno', 'Camille Cottin', 'Youssef Kerkour', 'Reeve Carney', 'Florence Andrews', 'Mehdi Nebbou', 'Miloud Mourad Benamara', 'Andrea Piedimonte Bodini', 'Vincenzo Tanassi', 'Mauro Lamantia', 'Nicole Bani Sarkute', 'Mia McGovern Zaini', 'Clelia Rossi Marcelli', 'Pietro Ragusa', 'Alessandro Pess', 'Al Mariotti', 'Monica Nappo', 'Alessandro Piavani', 'Marina Occhionero', 'Pierpaolo Palladino', 'Jun Ichikawa', 'Daphne Morelli', 'Mãdãlina Ghenea', 'Gjergj Lala', 'Alessandra Borgia', 'Havana Alfarano', 'Philippe Boa', 'Ira Fronten', 'Marika De Chiara', 'Antonello Annunziata', 'Edouard Philipponnat', 'Nicola Garofalo', 'Daniele De Martino', 'Beatrice Pelliccia', 'Beppe Rosso', 'Jay Natelle', 'Johanna Santos', 'Larry Kapust', 'Livio Beshir', 'Pietro Pace', 'Bianca Nappi', 'Paolo De Giorgio', 'Mario Opinato', 'Gianpiero Pumo', 'Stefano Moretti', 'Catherine Walker', 'Martino Palmisano', 'Eva Moore', 'Filippo De Carli', 'Marco Sincini', 'Daniele Monterosi', 'Daniela Macaluso', 'Alfredo Pea', 'Dirk Plönissen', 'Mimmo Mancini', 'Eric Alexander', 'Beniamino Marcone', 'Simone Spinazzè', 'Fausto Caroli', 'Bruce McGuire', 'Loris Loddi', 'Luca Chikovani', 'Alessandro Egger', 'Roger Garth', 'Andrea Bruschi', 'Dante Alba']",2.92,3.0,"['Drama', 'Crime', 'History']",158,"['Canada', 'USA']",English,"['English', 'Arabic', 'French', 'Italian', 'Japanese']","['Metro-Goldwyn-Mayer', 'Bron Studios', 'Scott Free Productions']",494576,65018,71763,239,4192,11430,12425,45849,52144,104141,64942,46638,7722,11384,360867,https://letterboxd.com/film/house-of-gucci/
Encanto,2021,"Byron Howard, Jared Bush","['Stephanie Beatriz', 'María Cecilia Botero', 'John Leguizamo', 'Diane Guerrero', 'Jessica Darrow', 'Carolina Gaitán', 'Angie Cepeda', 'Ravi Cabot-Conyers', 'Mauro Castillo', 'Rhenzy Feliz', 'Wilmer Valderrama', 'Adassa', 'Maluma', 'Rose Portillo', 'Juan Castano', 'Sarah-Nicole Robles', 'Hector Elias', 'Alan Tudyk', 'Noemi Josefina Flores', 'Olga Merediz', 'Jorge E. Ruiz Cano', 'Alyssa Bella Candiani', 'Paisley Day Herrera', 'Brooklyn Skylar Rodriguez', 'Ezra Rudulph']",3.53,3.5,"['Animation', 'Comedy', 'Family', 'Fantasy']",102,['USA'],English,"['English', 'Spanish']","['Walt Disney Animation Studios', 'Walt Disney Pictures']",1347579,126483,341245,2500,4843,10555,8616,41377,49760,177809,166433,241875,65632,121408,888308,https://letterboxd.com/film/encanto/
The Black Phone,2021,Scott Derrickson,"['Mason Thames', 'Ethan Hawke', 'Madeleine McGraw', 'Jeremy Davies', 'E. Roger Mitchell', 'Troy Rudeseal', 'James Ransone', 'Miguel Mora', 'Rebecca Clarke', 'J. Gaven Wilde', 'Spencer Fitzgerald', 'Jordan Isaiah White', 'Brady Ryan', 'Tristan Pravong', 'Jacob Moran', 'Brady Hepner', 'Banks Repeta', 'Kristina Arjona', ""Sheila M. O'Rear"", 'Rocco Poveromo', 'Kellan Rhude', 'Gina Jun', 'Ryan Cronan', 'Braxton Alexander', 'Andrew Farmer', 'T. Maxwell Martin', 'Ron Blake', 'Robert Fortunato', 'Chris TC Edge', 'Mark Riccardi', 'Bay Allebach', 'Megan Petersen', 'Mike Bailey', 'Christine Connelly', 'Matthew Simmons', 'Parrish Stikeleather', 'Reagan Shumate']",3.25,3.0,"['Thriller', 'Horror']",103,['USA'],English,"['English', 'Portuguese', 'Spanish']","['Universal Pictures', 'Blumhouse Productions', 'Crooked Highway']",773674,111410,194973,1900,4162,10126,10416,39547,52052,141166,135571,141984,31938,46924,613886,https://letterboxd.com/film/the-black-phone/
The Bones,2021,"Cristóbal León, Joaquín Cociña",nan,3.7,5.0,"['Animation', 'Horror']",14,['Chile'],Spanish,"['Spanish', 'No spoken language']","['Diluvio', 'Pista B']",21225,4153,6403,22,22,77,75,312,484,2488,3074,4476,931,1524,13463,https://letterboxd.com/film/the-bones/
Dune,2021,Denis Villeneuve,"['Timothée Chalamet', 'Rebecca Ferguson', 'Oscar Isaac', 'Jason Momoa', 'Josh Brolin', 'Stellan Skarsgård', 'Stephen McKinley Henderson', 'Javier Bardem', 'Sharon Duncan-Brewster', 'Chang Chen', 'Dave Bautista', 'David Dastmalchian', 'Zendaya', 'Charlotte Rampling', 'Babs Olusanmokun', 'Benjamin Clémentine', 'Souad Faress', 'Golda Rosheuvel', 'Roger Yuan', 'Seun Shote', 'Neil Bell', 'Oliver Ryan', 'Stephen Collins', 'Charlie Rawes', 'Richard Carter', 'Benjamin Dilloway', 'Elmi Rashid Elmi', 'Tachia Newall', 'Gloria Obianyo', 'Fehinti Balogun', 'Dora Kápolnai-Schvab', 'Joelle', 'Jimmy Walker', 'Paul Bullion', 'Milena Sidorova', 'János Timkó', 'Jean Gilpin', 'Marianne Faithfull', 'Ellen Dubin']",3.9,5.0,"['Science Fiction', 'Adventure']",155,['USA'],English,"['English', 'Chinese']",['Legendary Pictures'],2777368,330624,1033226,21000,7671,22137,10980,67134,58285,257881,286445,708319,337099,389860,2145811,https://letterboxd.com/film/dune-2021/
Lamb,2021,Valdimar Jóhannsson,"['Noomi Rapace', 'Hilmir Snær Guðnason', 'Björn Hlynur Haraldsson', 'Ingvar E. Sigurðsson', 'Ester Bibi', 'Sigurður Elvar Viðarson', 'Theodór Ingi Ólafsson', 'Arnþruður Dögg Sigurðardóttir', 'Gunnar Þor Karlsson', 'Lára Björk Hall']",3.13,2.0,"['Drama', 'Fantasy', 'Horror']",106,"['Iceland', 'Poland', 'Sweden']",Icelandic,['Icelandic'],"['Black Spark Film & TV', 'Film i Väst', 'Go to Sheep', 'Madants', 'Rabbit Hole Productions', 'Chimney Poland', 'Chimney Sweden']",197898,51905,39288,306,1542,3722,4053,14390,18116,43766,33689,26429,4968,5292,155967,https://letterboxd.com/film/lamb-2021/
Titane,2021,Julia Ducournau,"['Agathe Rousselle', 'Vincent Lindon', 'Garance Marillier', 'Laïs Salameh', 'Mara Cissé', 'Marin Judas', 'Diong-Kéba Tacu', 'Myriem Akheddiou', 'Bertrand Bonello', 'Céline Carrère', 'Adèle Guigue', 'Thibault Cathalifaud', 'Dominique Frot', 'Lamine Cissokho', 'Florence Janas', 'Frédéric Jardin', 'Olivia Venner', 'Thibault Villette', 'Nathalie Boyer', 'Mehdi Rahim-Silvioli', 'Théo Hellermann', 'Anaïs Fabre']",3.63,3.5,"['Thriller', 'Horror', 'Drama']",108,"['Belgium', 'France']",French,['French'],"['Kazak Productions', 'ARTE France Cinéma', 'Frakas Productions', 'VOO', 'BeTV']",369400,122525,101317,3600,3953,6187,5030,15333,16890,42223,50241,79217,35128,31751,285953,https://letterboxd.com/film/titane/
The French Dispatch,2021,Wes Anderson,"['Benicio del Toro', 'Adrien Brody', 'Tilda Swinton', 'Léa Seydoux', 'Frances McDormand', 'Timothée Chalamet', 'Lyna Khoudri', 'Jeffrey Wright', 'Mathieu Amalric', 'Steve Park', 'Bill Murray', 'Owen Wilson', 'Bob Balaban', 'Henry Winkler', 'Lois Smith', 'Tony Revolori', 'Denis Ménochet', 'Larry Pine', 'Morgane Polanski', 'Félix Moati', 'Mohamed Belhadjine', 'Nicolas Avinée', 'Christoph Waltz', 'Cécile de France', 'Guillaume Gallienne', 'Rupert Friend', 'Alex Lawther', 'Tom Hudson', 'Lily Taïeb', 'Stéphane Bak', 'Hippolyte Girardot', 'Liev Schreiber', 'Willem Dafoe', 'Edward Norton', 'Saoirse Ronan', 'Winsen Ait Hellal', 'Mauricette Coudivat', 'Damien Bonnard', 'Rodolphe Pauly', 'Antonia Desplat', 'Elisabeth Moss', 'Jason Schwartzman', 'Fisher Stevens', 'Griffin Dunne', 'Pablo Pauly', 'Wallace Wolodarsky', 'Anjelica Bette Fellini', 'Anjelica Huston', 'Krishna Bagadiya', 'Julien Lecat', 'Gaelle Puimaly', 'Leo Jennings', 'Alexandre Steiger', 'Philippe Peyraud', 'Gérard Merle', 'Jean Pierre Grasset', 'Yannick Begoin', 'Yves Gaillard', 'Jerome Caminotti', 'Pierre-Yves Martron', 'Philippe Pelletier', 'Landry Marinette', 'Natal Koli', 'Côme Loury', 'Victor Piechaud', 'Charlie Rosser', 'Mathys Raynaud', 'Thomas Poirson', 'Gabriel Mesnard', 'Raphael Delage', 'Briac Aubin', 'Raphael Bancarel', 'Tiago Allaire', 'Martin Frappier', 'Raphael Dias', 'Victorien Belly', 'Samuel Amblard', 'Sam Poupart', 'Milo Bancarel', 'Charles Audry', 'Francois Boussiron', 'Jean-Pierre Coudert', 'Patrick Morcelli', 'Bernard Richefort', 'Djemal Saidoun', 'Vincent Griere', 'Arthur Guillebaud', 'Mehdy Hassani', 'Jérémy Martincourt', 'Nicolas Pasciani', 'Eutrope Roger', 'Marti Torrens', 'Pierre Cantaral', 'Louis Changeur', 'Denis Havard', 'Halbo Kool', 'Pascal Lefort', 'Jean-Benoit Pinot', 'Gregory Sacriste', 'Antonio Terroso', 'Marc Tournier', 'Jean Marie Camps', 'Dominique Donnary', 'Claude Gaume', 'Jacques Grattepanch', 'Damien Nadaud', 'Gilbert Papponnaud', 'Robert Rabouin', 'Willem Rompen', 'Jacky Souchet', 'Malik Tati', 'Jean-Claude Audouin', 'Alban Ploix', 'Laurent Bauer', 'Fanny Taccoen', 'Tahnee Peterson Stuart', 'Maud Brethenoux', 'Anna Budanova', 'Audrey Chemin', 'Guillaume Ferrant', 'Nisrine Mofaraj', 'Polina Glangetat', 'Fabien Marcadet', 'Luc Louis', 'Karim Youssouf', 'Rudy Chaperon', 'Quentin Fournier', 'Orguiene Corniere', 'Manon Talandier', 'Lucas Bascans', 'Alexis Vignaud', 'Paul Raymond', 'Gilles Gauthier', 'Nahel Bahnas', 'Akim Bahnas', 'Antoine Foo Cheung', 'Francois Foo Cheung', 'Samy Guerry Ghindri', 'Felicien Marais', 'Nathanael Marfin', 'Basile Vinueas', 'Evelyne Chapeau', 'Paula Kvasnikoff', 'Vallier Vaudin', 'André Coussy', 'Hassane Haimoud', 'Pauline Chadanson', 'Carlotta Costanzi', 'Mauricette Genon', 'Christelle Grelier', 'Rachel Merabet Hrdy', 'Sara Lacroix', 'Delphine Landrieau', 'Louise Laveuve', 'Kylian Freslon', 'Meermout Didier', 'Nicolas Saada', 'Yannik Mazzilli', 'Guillaume Mailland', 'Victor Nicolas', 'Jean Delabre', 'François-Pierre Fol', 'Bruno Torres', 'Jean-Louis Verdier', 'Grégory Trouvé', 'Loic Baxas', 'Eliel Ford', 'Mathéo Sallat Desvard', 'Dominique Barrier', 'Pascal Champareau', 'Sacha Seguin', 'Jacky Vallantin', 'Domingos Enrico', 'Abdel Nour Bouaza', 'Fanny Rebuffic', 'Juliette Raffray', 'Lou Lampros', 'Odile Fougère', 'Sandro Kopp', 'Pedro Firmino Cunha Da Souza', 'Pascal Battelier', 'Lionel Lassuderie', 'Duc Minh', 'Cyril Morandiere', 'Benoit Nacaud', 'Jean Jacques Peyraud', 'Lubna Playoust', 'Patricia Richefort', 'Owen Nsimba Soba', 'Adrien Yeung', 'Jean-Michel Audoual', 'Félix Bouin', 'Patrick Brousse', 'Raynald Caraguel', 'Lhoussine Chinkir', 'Xavier Dupin', 'Eric Garaud', 'Morgan Lorca', 'Laurent Pizzolato', 'Romuald Cormeunier', 'Didier Da Costa', 'Antonio Da Silva', 'Charlie Defraine', 'Erick Dues', 'Jacques Fauvel', 'Yoann Gaillard', 'Anthony Poupart', 'Thierry Gonzalez', 'Sébastien Guignard', 'Raphael Lagrue', 'Simon Malyon', 'David Robles', 'Sharif Andoura', 'Gilles Gaston-Dreyfus', 'Laureen Perrocheau', 'Mallaury Reby Perrocheau', 'Sophie Fougère', 'Genevieve Brillet', 'Grégoire Leprince-Ringuet', 'Jarvis Cocker', 'Bruno Delbonnel', 'Bérénice Bernard', 'Jean Bourdet', 'Antoine Bourgeais', 'Lou Salomé Brizard', 'Zoé Delisle', 'Julies Desrosiers', 'Simon Ecary', 'Ida Fermaud', 'Hugo Fontaine', 'Raphael Gallego', 'Tom Grandadam', 'Adrien Hans', 'Yann Hedan', 'Adèle Herisson', 'Antoine Jové', 'Pierre Lamoureux', 'Quentin Ledru', 'Salomé Lesaffre', 'Rémi Larcher', 'Hugo Leonard', 'Elliot Lienard', 'Sybil Marzin', 'Thy-Lane Monnet', 'Munik Neth', 'Florine Paulius', 'Emeline Penet', 'Coline Peron', 'Constantin Rytz', 'Bertille Rondard', 'Alice Sarrauste', 'Igor Secherre', 'Laura Studden', 'Emilien Wiss', 'Boris Zanni', 'Angus Henderson', 'Gaëtan Billères', 'Sally Bruice', 'George Smith Burgess', 'Marie Derambure', 'Alix Champy', 'Victor Chevalarias', 'Lise Cordellier', 'Arthur Dalle', 'Lola Degove', 'Sean Delaunay', 'Michael Didier', 'Juliane Fath', 'Julie Gervaos', 'Rachel Guerineau', 'Guillaume Laverdant', 'Théo Malet', 'Titouan Maret', 'Stephen Martin', 'Nathan Mazeau', 'Lucas Nativel', 'Théo Navas', 'Marie Lucie Parisot', 'Émile Pélissier', 'Constance Prost', 'Matéo Salanave', 'Théo Hollando Sigot', 'Manon Taccoli', 'Gauthier Rigaud Perut', 'Raphael Coutant', 'Émilie Tronche', 'Toheeb Jimoh', 'Nick Croucher', 'Sam Haygarth', 'Samuel Blenkin', 'Jake Gorridge', 'Calvin Williams', 'Pierre Aloui', 'Louis Blanchard', 'Hugo Bony', 'Adrien Brault', 'Alex Chadeffaud', 'Matisse Croizard-Niveau', 'Alfie Flight', 'Théo Fibaque', 'Mathieu Grattard', 'Paul Lafon', 'Elie Mazalrey', 'Samuel Montgomery', 'Florian Salasse', 'Quentin Veillon', 'Benjamin Lavernhe', 'Gabriel Ryan', 'Léo Gack', 'Cécilia Anseeuw', 'Gilberto Fallat Valle', 'Monique Lapeyre', ""Christian 'Kiki' Delpey"", 'Cyril Sierk', 'Jean-Claude Loulmet', 'Jean-Pierre Chabernaud', 'Olivier Lecossois', 'Philippe Szezepanski', 'Noël Wojcik', 'Gontran Bisserier', 'Christian Cordoba', 'Thibault Descamps', 'Jonathan Herbon', 'Marceau Jarrossay', 'Tiburce Oger', 'Noé Richefeux', 'Gilles Verdegay', 'Kublah Diezi', 'Stéphane Le Bras', 'Armand Pierdon', 'Gilles Frougier']",3.68,5.0,"['Drama', 'Comedy']",108,['USA'],English,"['English', 'French']","['Searchlight Pictures', 'Indian Paintbrush', 'American Empirical Pictures']",932699,175662,286552,4700,2008,6556,5269,28084,34234,120849,140572,208209,76043,72963,694787,https://letterboxd.com/film/the-french-dispatch/
Sideral,2021,Carlos Segundo,"['Priscilla Vilela', 'Enio Cavalcante', 'Fernanda Cunha', 'Matheus Brito', 'George Holanda', 'Mateus Cardoso', 'Robson Medeiros', 'Henrique Fontes', 'Ednaldo Martins']",3.59,3.5,"['Science Fiction', 'Drama']",15,"['Brazil', 'France']",Portuguese,['Portuguese'],"['Casa da Praia', 'O Sopro do Tempo', 'Les Valseurs']",3041,683,745,1,2,11,18,60,85,368,464,661,123,292,2084,https://letterboxd.com/film/sideral/
Luca,2021,Enrico Casarosa,"['Jacob Tremblay', 'Jack Dylan Grazer', 'Emma Berman', 'Saverio Raimondo', 'Maya Rudolph', 'Marco Barricelli', 'Jim Gaffigan', 'Peter Sohn', 'Lorenzo Crisci', 'Marina Massironi', 'Gino La Monica', 'Sandy Martin', 'Giacomo Gianniotti', 'Elisa Gabrielli', 'Mimi Maynard', 'Sacha Baron Cohen', 'Francesca Fanti', 'Jonathan Nichols', 'Enrico Casarosa', 'Jim Pirri', 'Arturo Sorino']",3.74,3.0,"['Adventure', 'Family', 'Fantasy', 'Comedy', 'Animation']",95,['USA'],English,"['English', 'Italian']","['Pixar', 'Walt Disney Pictures']",1171231,154831,346605,4300,1836,4593,4174,21783,28055,125748,144618,241071,69740,132229,773847,https://letterboxd.com/film/luca-2021/
Army of the Dead,2021,Zack Snyder,"['Dave Bautista', 'Ella Purnell', 'Omari Hardwick', 'Ana de la Reguera', 'Theo Rossi', 'Matthias Schweighöfer', 'Nora Arnezeder', 'Hiroyuki Sanada', 'Garret Dillahunt', 'Tig Notaro', 'Raúl Castillo', 'Huma Qureshi', 'Samantha Win', 'Richard Cetrone', 'Michael Cassidy', 'Steve Corona', 'Chelsea Edmundson', 'Zach Rose', 'Brian Avery', 'David K. Maiocco', 'Ryan Watson', 'Sabine Varnes', 'Monica Lopez Aleman', 'Kelly Phelan', 'Leon Budrow', 'Jim Halty', 'Maeve Garay', 'Danielle Burgio', 'Jessica Harbeck', 'Joshua Caleb Horton', 'Natalie Marie Jaramillo', 'Frank Andrade', 'Ava Wagenman', 'Wayne Dalglish', 'Casey Messer', 'Ken Thong', 'Donna Brazile', 'Sean Spicer', 'Sheila Awasthi', 'Sebastian Balchand', 'Colby Lemmo', 'Marisilda Garcia', 'Isachar Benitez', 'Carolyn Wickwire', 'Antonio Leyba', 'Colin Jones', 'Daisy Davis', 'Lora Martinez-Cunningham', 'Athena Perample', 'Albert Valladares', 'Alexander Ward', 'Steve Soliz', 'Jordyn Aurora Aquino', 'Sarah Minnich', 'Fred Tatasciore', 'Gordon Tarpley', 'Alexander Alayon Jr.']",2.5,2.0,"['Thriller', 'Science Fiction', 'Horror', 'Drama', 'Action', 'Crime']",148,['USA'],English,"['English', 'German', 'Spanish']",['The Stone Quarry'],296014,46185,38167,52,7456,15158,16146,39488,39374,56240,26876,16123,2535,3343,222739,https://letterboxd.com/film/army-of-the-dead-2021/
The Queen's Gambit,2020,Scott Frank,"['Anya Taylor-Joy', 'Chloe Pirrie']",4.23,5.0,['Drama'],393,['USA'],English,"['English', 'French', 'Russian', 'Spanish']","['Flitcraft', 'Wonderful Films']",998138,43669,340397,3000,579,1358,999,5850,7348,41466,62566,193442,106883,196915,617406,https://letterboxd.com/film/the-queens-gambit/
I Care a Lot,2020,J Blakeson,"['Rosamund Pike', 'Peter Dinklage', 'Eiza González', 'Dianne Wiest', 'Chris Messina', 'Isiah Whitlock Jr.', 'Macon Blair', 'Alicia Witt', 'Damian Young', 'Nicholas Logan', 'Liz Eng', 'Georgia Lyman', 'Moira Driscoll', 'Gary Tanguay', 'Lizzie Short', 'Kevin McCormick', 'Michael Malvesti', 'Ava Gaudet', 'Celeste Oliva', 'Chris Everett', 'Danny Schoch', 'Evelyn Howe', 'Kevin Fennessy', 'Ralph Ayala', 'Jose Guns Alves', 'Anthony Hoang', 'Roger Dillingham Jr.', 'Chad Knorr', 'Kiara Pichardo']",3.11,2.5,"['Drama', 'Crime', 'Comedy', 'Thriller']",119,"['UK', 'USA']",English,['English'],"['STXfilms', 'Black Bear Pictures', 'Crimple Beck']",420057,45452,72668,381,4443,8800,7907,27264,31716,78218,59942,55159,10709,15435,299593,https://letterboxd.com/film/i-care-a-lot/
Shiva Baby,2020,Emma Seligman,"['Rachel Sennott', 'Molly Gordon', 'Polly Draper', 'Danny Deferrari', 'Fred Melamed', 'Dianna Agron', 'Glynis Bell', 'Sondra James', 'Deborah Offner', 'Rita Gardner', 'Jackie Hoffman', 'Vivien Landau', 'Cilda Shaur', 'Richard Brundage', 'Noemie Zysermann', 'Ted Seligman', 'Edgar Harmanci', 'Robin Wesley-Peck', 'Ariel Eliaz']",3.86,3.5,"['Comedy', 'Drama']",78,['USA'],English,"['English', 'Hebrew (modern)']","['Neon Heart Productions', 'Dimbo Pictures', ""It Doesn't Suck Productions"", 'Bad Mensch Productions', 'Thick Media', 'Irving Harvey']",492659,108260,171293,5400,803,1814,1726,7363,10370,45913,76807,146692,55779,48918,396185,https://letterboxd.com/film/shiva-baby-2020/
Zola,2020,Janicza Bravo,"['Taylour Paige', 'Riley Keough', 'Colman Domingo', 'Nicholas Braun', ""Ari'el Stachel"", 'Nelcie Souffrant', 'Nasir Rahim', 'Jason Mitchell', 'Ts Madison', 'Latasha Glenn', 'Kalesha Johnson', 'Natalie Mimms', 'Shadae Mitchell', 'Oleika Redd', 'Tommy Foxhill', 'Ben Bladon', 'Tony DeMil', 'Ernest Emmanuel Peeples', 'Joseph Sanders', 'Brett Chesebro', 'Carl Collanus', 'Jay Dersahagian', 'Rusty Dumhoff', 'Mark Fiedler', 'Alex Flash', 'Matt Harding', 'Richard Lariviere', 'Bob Lawton', 'Ernest Lee Wilson, Jr.', 'Josh Locy', 'Pedro Armando Medina', 'Thomas Nash', 'Bill Pierce', 'Michael Worden', 'Kyle Williams', 'Andrew Romano', 'Sophie Hall', 'Angelo Diaz', 'Rico Paris', 'Michael Aceveda', 'Anibal Echevarria Bonet', 'Max Guevara', 'Harold Hernandez', 'David Rodriguez', 'Bernard Lyght', 'Michael Opal', 'Eric Salas', 'Doug Walker', 'Jarquale Stewart', 'Drew Rin Varick', 'Megan Hayes']",3.46,3.0,"['Comedy', 'Crime']",86,['USA'],English,"['English', 'Spanish']","['Killer Films', 'Ramona Films', 'Gigi Films']",153182,46114,41749,461,442,946,1045,4503,7275,24886,32374,32743,7457,6712,118383,https://letterboxd.com/film/zola/
Little Women,2019,Greta Gerwig,"['Saoirse Ronan', 'Florence Pugh', 'Emma Watson', 'Eliza Scanlen', 'Laura Dern', 'Timothée Chalamet', 'Meryl Streep', 'Tracy Letts', 'Bob Odenkirk', 'James Norton', 'Louis Garrel', 'Jayne Houdyshell', 'Chris Cooper', 'Rafael Silva', 'Mason Alban', 'Emily Edström', 'Maryann Plunkett', 'Hadley Robinson', 'Lonnie Farmer', 'Charlotte Kinder', 'Ana Cruz Kayne', 'Edgar Damatian', 'Erin Rose', 'Lizzie Short', 'Dash Barber', 'Edward Fletcher', 'Sasha Frolova', 'David J. Curtis', 'Abby Quinn', 'Harper Pilat', 'Eowyn Young', 'Lucy Austin', 'Bill Mootos', 'Lewis D. Wheeler', 'Jen Nikolaisen', 'Jonathon Acorn', 'Lilly Englert', 'J.M. Davis', 'Tom Kemp', 'Anthony Estrella', 'Adrianne Krstansky', 'Sophia Gialloreto', 'Lily Gavin', 'Finola Weller Baldet', 'Flannery Gregg', 'Tony Tucker', 'Joanne Caidor', 'Rosario Guillen', 'Lily Peterson', 'Jared Reinfeldt', 'Amber Rothberg']",4.14,4.0,"['Romance', 'Drama']",135,['USA'],English,"['English', 'French']","['Columbia Pictures', 'Regency Enterprises', 'Pascal Pictures']",1992519,347298,897724,96000,1886,5618,3514,22941,21638,127219,132236,391867,195120,511888,1413927,https://letterboxd.com/film/little-women-2019/
Finley,2019,J. Zachary Thurman,"['Alexa Leigh Fletcher', 'Brooke Wallace', 'Keith Dowsett', 'Chase Anderson', 'Mike Pearson']",3.49,3.5,['Horror'],25,['USA'],English,['English'],['Unplugged Films'],1945,354,589,1,6,13,22,64,72,304,358,444,85,155,1523,https://letterboxd.com/film/finley/
Knives Out,2019,Rian Johnson,"['Daniel Craig', 'Chris Evans', 'Ana de Armas', 'Jamie Lee Curtis', 'Michael Shannon', 'Don Johnson', 'Toni Collette', 'LaKeith Stanfield', 'Christopher Plummer', 'Katherine Langford', 'Jaeden Martell', 'Riki Lindhome', 'Edi Patterson', 'Frank Oz', 'K Callan', 'Noah Segan', 'M. Emmet Walsh', 'Marlene Forte', 'Raúl Castillo', 'Shyrley Rodriguez', 'Kerry Frances', 'Gary Tanguay', 'Octavia Chavez-Richmond', 'Joseph Gordon-Levitt', 'Paul Bellefeuille', 'Ben Bunnag', 'Michael Burnell', 'Frankie Francois', 'Marcela Jaramillo', 'Gabrielle Lorthe', 'Rob Lévesque', 'Paul Tawczynski']",3.99,2.0,"['Mystery', 'Comedy', 'Crime']",131,['USA'],English,"['English', 'Spanish']","['Lionsgate', 'MRC', 'T-Street']",3207000,288900,1408064,30000,2704,10307,5568,45410,41330,276990,282892,814666,316310,497024,2293201,https://letterboxd.com/film/knives-out-2019/
The Platform,2019,Galder Gaztelu-Urrutia,"['Ivan Massagué', 'Antonia San Juan', 'Zorion Eguileor', 'Emilio Buale', 'Alexandra Masangkay', 'Zihara Llana', 'Mario Pardo', 'Algis Arlauskas', 'Txubio Fernández de Jáuregui', 'Eric Goode', 'Óscar Oliver', 'Chema Trujillo', 'Miriam Martín', 'Gorka Zufiaurre', 'Miriam K. Martxante', 'Miren Gaztañaga', 'Braulio Cortés', 'Javier Mediavilla', 'Álvaro Orellana', 'Juan Dopico', 'Lian Xushao']",3.26,4.0,"['Drama', 'Science Fiction', 'Thriller']",95,['Spain'],Spanish,['Spanish'],"['Basque Films', 'Mr. Miyagi', 'EiTB', 'TVE']",677510,57966,122178,1300,4847,9871,9063,33707,41820,113796,101855,98249,22018,27200,462426,https://letterboxd.com/film/the-platform/
Midsommar,2019,Ari Aster,"['Florence Pugh', 'Jack Reynor', 'William Jackson Harper', 'Will Poulter', 'Vilhelm Blomgren', 'Isabelle Grill', 'Gunnel Fred', 'Ellora Torchia', 'Archie Madekwe', 'Henrik Norlén', 'Agnes Westerlund Rase', 'Julia Ragnarsson', 'Mats Blomgren', 'Lars Väringer', 'Anna Åström', 'Hampus Hallberg', 'Liv Mjönes', 'Louise Peterhoff', 'Katarina Weidhagen', 'Björn Andrésen', 'Tomas Engström', 'Dag Andersson', 'Lennart R. Svensson', 'Anders Beckman', 'Rebecka Johnston', 'Tove Skeidsvoll', 'Anders Back', 'Anki Larsson', 'Levente Puczkó-Smith', 'Frans Cavallin Rosengarten', 'Vilmos Kolba', 'Mihály Kaszás', 'Gabi Fón', 'Zsolt Bojári', 'Klaudia Csányi', 'Anna Berentzen', 'Austin R. Grant']",3.78,3.0,"['Mystery', 'Drama', 'Horror']",147,"['Sweden', 'USA']",English,"['English', 'Swedish']","['B-Reel Films', 'Square Peg']",2792639,372902,1098935,38000,13369,30399,15243,79110,63937,284571,271090,646233,219518,421448,2044918,https://letterboxd.com/film/midsommar/
The Lighthouse,2019,Robert Eggers,"['Robert Pattinson', 'Willem Dafoe', 'Valeriia Karaman', 'Logan Hawkes', 'Kyla Nicolle', 'Shaun Clarke', 'Pierre Richard', 'Preston Hudson', 'Jeff Cruts']",4.04,3.5,"['Horror', 'Drama', 'Thriller', 'Fantasy']",109,"['Brazil', 'UK', 'USA']",English,['English'],"['RT Features', 'New Regency Pictures', 'Parts & Labor', 'Maiden Voyage Pictures']",1251714,283046,472114,22000,3720,9441,5027,26172,23079,92957,110517,280579,157535,220171,929198,https://letterboxd.com/film/the-lighthouse-2019/
The Staggering Girl,2019,Luca Guadagnino,"['Julianne Moore', 'Marthe Keller', 'Kyle MacLachlan', 'KiKi Layne', 'Alba Rohrwacher', 'Edoardo Gabbriellini', 'Arianna Pesce', 'Mia Goth', 'Sergio Di Nitto', 'Camilla Martellino', 'Maria Carla Boscono', 'Dalma Callado', 'Simonetta Gianfelici', 'Fabrizia Sacchi', 'Aurora Tallarico']",2.72,2.5,['Drama'],37,"['Italy', 'USA']",English,"['English', 'German', 'Italian']","['Frenesy Film', 'Ibla Film', 'Valentino', 'RAI']",17182,2722,1862,7,144,588,786,2557,2163,2478,947,853,132,209,10857,https://letterboxd.com/film/the-staggering-girl/
Us,2019,Jordan Peele,"[""Lupita Nyong'o"", 'Winston Duke', 'Shahadi Wright Joseph', 'Evan Alex', 'Tim Heidecker', 'Elisabeth Moss', 'Cali Sheldon', 'Noelle Sheldon', 'Yahya Abdul-Mateen II', 'Anna Diop', 'Madison Curry', 'Duke Nicholson', 'Napiera Groves', 'Kara Hayward', 'Lon Gowan', 'Alan Frazier', 'Dustin Ybarra', 'Nathan Harrington', 'Darrel Cherney', 'James Cobb', 'Alessandro Garcia', 'David M Sandoval Jr.', 'Ashley McKoy', 'Jordan Peele']",3.65,3.5,"['Thriller', 'Horror']",116,['USA'],English,['English'],"['Monkeypaw Productions', 'Universal Pictures', 'Blumhouse Productions', 'QC Entertainment', 'Perfect World Pictures']",1860250,225766,598345,9300,4466,13180,9529,53233,55201,221235,216963,381799,118211,205767,1279584,https://letterboxd.com/film/us-2019/
Suspiria,2018,Luca Guadagnino,"['Dakota Johnson', 'Tilda Swinton', 'Mia Goth', 'Angela Winkler', 'Ingrid Caven', 'Chloë Grace Moretz', 'Elena Fokina', 'Sylvie Testud', 'Renée Soutendijk', 'Christine Leboutte', 'Małgorzata Bela', 'Fabrizia Sacchi', 'Jessica Harper', 'Jessica Batut', 'Alek Wek', 'Vincenza Modica', 'Vanda Capriolo', 'Brigitte Cuvelier', 'Gala Moody', 'Anne-Lise Brevers', 'Sara Sguotti', 'Halla Thordardottir', 'Olivia Ancona', 'Marjolaine Uscotti', 'Sharon Campbell', 'Elfriede Hock', 'Iaia Ferri', 'Clémentine Houdart', 'Charo Calvo', 'Stephanie McMann', 'Majon van der Schot', 'Maria Bregianni', 'Josepha Madoki', 'Navala Chaudhari', 'Karina El Amrani', 'Doris Hick', 'Mikael Olsson', 'Fred Kelemen', 'Greta Bohacek', 'Joel-Dennis Bienstock', 'Toby Ashraf']",3.74,4.5,"['Mystery', 'Drama', 'Horror']",152,"['Italy', 'USA']",English,"['English', 'French', 'German']","['Frenesy Film', 'Videa', 'Mythology Entertainment', 'First Sun', 'MeMo Films']",466119,132729,150831,9600,2087,4404,3911,13861,16032,47824,56692,99780,44037,55000,343628,https://letterboxd.com/film/suspiria-2018/
The House That Jack Built,2018,Lars von Trier,"['Matt Dillon', 'Bruno Ganz', 'Uma Thurman', 'Siobhan Fallon Hogan', 'Sofie Gråbøl', 'Riley Keough', 'Jeremy Davies', 'Jack McKenzie', 'Mathias Hjelm', 'Ed Speleers', 'Emil Tholstrup', 'Marijana Janković', 'Carina Skenhede', 'Rocco Day', 'Cohen Day', 'Robert Jezek', 'Osy Ikhile', 'Christian Arnold', 'Yoo Ji-tae', 'Johannes Bah Kuhnke', 'Jerker Fahlström', 'David Bailie', 'Robert G. Slade', 'Vasilije Mujka', 'Jesper Tønnes', 'Glenn Gould', 'Adolf Hitler', 'Idi Amin', 'Benito Mussolini']",3.61,2.0,"['Drama', 'Crime', 'Thriller', 'Horror']",151,"['Denmark', 'France', 'Germany', 'Sweden']",English,"['English', 'German', 'Italian']","['Zentropa Entertainments', 'Copenhagen Film Fund', 'Slot Machine', 'Film i Väst', 'Zentropa International Sweden', 'Zentropa International France', 'Zentropa International Köln']",308534,76522,85093,3400,2686,4820,3703,11202,12885,33889,40408,63602,26314,27179,226688,https://letterboxd.com/film/the-house-that-jack-built-2018/
Climax,2018,Gaspar Noé,"['Sofia Boutella', 'Romain Guillermic', 'Souheila Yacoub', 'Kiddy Smile', 'Claude-Emmanuelle Gajan-Maull', 'Giselle Palmer', 'Taylor Kastle', 'Thea Carla Schøtt', 'Sharleen Temple', 'Lea Vlamos', 'Alaïa Alsafir', 'Kendall Mugler', 'Lakdhar Dridi', 'Adrien Sissoko', 'Mamadou Bathily', 'Alou Sidibé', 'Ashley Biscette', 'Mounia Nassangar', 'Tiphanie Au', 'Sarah Belala', 'Alexandre Moreau', 'Naab', 'Strauss Serpent', 'Vince Galliot Cumant']",3.78,3.5,"['Horror', 'Drama']",97,"['Belgium', 'France']",French,"['French', 'English']","['Rectangle Productions', 'Wild Bunch', 'Les Cinémas de la Zone', 'Eskwad', 'KNM', 'ARTE France Cinéma', 'Artémis Productions', 'VOO', 'BeTV', 'Shelter Prod']",390573,115086,124800,8500,3282,5317,3972,12158,12677,36630,45387,82272,39182,48766,289643,https://letterboxd.com/film/climax-2018/
Hereditary,2018,Ari Aster,"['Toni Collette', 'Alex Wolff', 'Gabriel Byrne', 'Ann Dowd', 'Milly Shapiro', 'Mallory Bechtel', 'Brock McKinney', 'Jake Brown', 'Morgan Lund', 'Christy Summerhays', 'Bus Riley', 'Jarrod Phillips', 'Heidi Mendez', 'Zachary Arthur', 'David Stanley', 'Moises L. Tovar', 'Austin R. Grant', 'Gabriel Monroe Eckert', 'Harrison Nell', 'BriAnn Rachele', 'Kathleen Chalfant', 'Ari Aster', 'Marilyn Miller', 'Mark Blockovich', 'Rachelle Hardy', 'Jason Miyagi', 'Lorenzo Silva', 'Alexis Long']",3.97,3.5,"['Thriller', 'Horror', 'Mystery']",128,['USA'],English,['English'],['PalmStar Media'],2017502,328245,751633,31000,7306,17601,8923,45438,36309,153629,159286,430599,219727,378081,1456899,https://letterboxd.com/film/hereditary/
Blade Runner 2049,2017,Denis Villeneuve,"['Ryan Gosling', 'Harrison Ford', 'Sylvia Hoeks', 'Ana de Armas', 'Mackenzie Davis', 'Jared Leto', 'Robin Wright', 'Carla Juri', 'Dave Bautista', 'Hiam Abbass', 'Lennie James', 'David Dastmalchian', 'Sean Young', 'Edward James Olmos', 'Barkhad Abdi', 'Wood Harris', 'Tómas Lemarquis', 'Sallie Harmsen', 'Loren Peta', 'Mark Arnold', 'Krista Kosonen', 'Elarica Johnson', 'David Benson', 'Kingston Taylor', 'Ben Thompson', 'Ellie Wright', 'Suzie Kennedy', 'Stephen Triffitt', 'Vilma Szécsi', 'Kincsö Sánta', 'André Lukács Molnár', 'István Göz', 'Pál Nyári', 'Joshua Tersoo Allagh', 'Zoltán Béres', 'Konstantin Pál', 'Ferenc Györgyi', 'Samuel Brown', 'Mary Lukasiewicz', 'Deniz Altunay', 'Frank Sinatra']",4.12,5.0,"['Science Fiction', 'Drama']",164,"['Canada', 'UK', 'USA']",English,"['English', 'Finnish', 'Hungarian', 'Japanese', 'Russian', 'Somali', 'Spanish']","['Alcon Entertainment', 'Columbia Pictures', 'Scott Free Productions', 'Bud Yorkin Productions', 'Torridon Films', '16:14 Entertainment', 'Thunderbird Entertainment']",1739423,287377,662502,43000,2580,8288,4634,29354,25395,120267,132301,353282,222535,324926,1223562,https://letterboxd.com/film/blade-runner-2049/
Marrowbone,2017,Sergio G. Sánchez,"['George MacKay', 'Anya Taylor-Joy', 'Charlie Heaton', 'Mia Goth', 'Matthew Stagg', 'Nicola Harrison', 'Kyle Soller', 'Tom Fisher', 'Myra Kathryn Pearse', 'Paul Jesson', 'Robert Strange', 'Laura Brook', 'Adam Quintero']",3.47,3.0,"['Mystery', 'Thriller', 'Horror']",111,"['Spain', 'USA']",English,['English'],"['Telecinco Cinema', 'Movistar+', 'Marrowbone', 'Ruidos en el Ático', 'Lionsgate', 'Universal Pictures']",91982,18892,25566,837,191,584,772,3048,4636,13807,15755,19407,5664,9022,72886,https://letterboxd.com/film/marrowbone/
Despicable Me 3,2017,"Kyle Balda, Pierre Coffin","['Steve Carell', 'Kristen Wiig', 'Trey Parker', 'Miranda Cosgrove', 'Dana Gaier', 'Nev Scharrel', 'Steve Coogan', 'Julie Andrews', 'Jenny Slate', 'Pierre Coffin', 'Chris Renaud', 'Andy Nyman', 'Michael Beattie', 'Adrian Ciscato', 'Brian T. Delaney', 'Ken Daurio', 'Lori Alan', 'Carlos Alazraqui', 'Kyle Balda', 'Teresa Ganzel', 'Bob Bergen', 'Jess Harnell', 'Gregg Berger', 'John Kassir', 'Mona Marshall', 'John Cygan', 'Laraine Newman', 'Jan Rabson', 'Bill Farmer', 'Mindy Sterling', 'Danny Mann', 'Jim Ward', 'Matthew Wood', 'Katia Saponenko', 'Jude Alpers', 'Cory Walls', 'Sophie M. Siadatpour', 'Stephanie De Meautis', 'Bruno Dequier', 'Tara Strong']",2.52,2.0,"['Action', 'Animation', 'Family', 'Adventure', 'Comedy']",90,['USA'],English,['English'],"['Illumination', 'Universal Pictures']",429852,30935,34114,210,5018,13718,14387,41119,37006,53221,18912,16367,2320,8797,210865,https://letterboxd.com/film/despicable-me-3/
The Killing of a Sacred Deer,2017,Yorgos Lanthimos,"['Colin Farrell', 'Nicole Kidman', 'Barry Keoghan', 'Raffey Cassidy', 'Sunny Suljic', 'Bill Camp', 'Alicia Silverstone', 'Herb Caillouet', 'Barry G. Bernson', 'Denise Dal Vera', 'Drew Logan', 'Ming Wang', 'Michael Trester', 'Anita Farmer Bergman', 'Lea Hutton Beasmore', 'Dylan Keith Adams', 'Charles Poole', 'John W. Harden', 'Bryant Bentley', 'Aaron Pullins IV', 'Joanne Popolin', 'Carly Tamborski', 'David Pittinger', 'Michael Lee Bailey', 'John Newsom', 'Robert Gerding', 'William C. Ingram', 'Beverly Kristy', 'Derek Polen', 'John E. Brownlee']",3.74,3.5,"['Thriller', 'Mystery', 'Drama']",121,"['UK', 'USA', 'Ireland']",English,"['English', 'French']","['Element Pictures', 'TPC', 'Film4 Productions', 'New Sparta Films', 'Limp', 'HanWay Films', 'Fís Éireann/Screen Ireland']",696656,143306,192955,4000,2874,6079,4663,18416,21398,71683,99656,173316,66663,51478,516226,https://letterboxd.com/film/the-killing-of-a-sacred-deer/
The Florida Project,2017,Sean Baker,"['Brooklynn Prince', 'Bria Vinaite', 'Willem Dafoe', 'Christopher Rivera', 'Valeria Cotto', 'Mela Murder', 'Josie Olivo', 'Caleb Landry Jones', 'Aiden Malik', 'Edward Pagan', 'Jim R. Coleman', 'Patti Wiley', 'Jasineia Ramos', 'Rosa Medina Perez', 'Krystal Gordon', 'Bronwyn Valley', 'Kelly Fitzgerald', 'Sandy Kane', 'Andrew Romano', 'Carolina Grabova', 'Terry Allen Jones', 'Karren Karagulian', 'Sabina Friedman-Seitz', 'Troy Kohlmaier', 'Ginger Cook', 'Shih-Ching Tsou', 'Marisol Rivera', 'Carl Bradfield', 'Joop Katana', 'Giovanni Rodriguez', 'Angel Garcia', 'Latanya Ortiz', 'Sonya McCarter', 'John Sutton', 'Adina Sutton', 'Betty Jeune', 'Shail Kamini Ramcharan', 'Kit Sullivan', 'Macon Blair', 'Joanne Moreno', 'Jason Blackwater', ""Lauren O'Quinn"", 'Hannah Peterson', 'Cecilia Quinan', 'Gary B. Gross', 'Samantha Parisi']",4.1,3.0,['Drama'],112,['USA'],English,"['English', 'Portuguese', 'Spanish']","['Cre Film', 'Freestyle Picture Company', 'June Pictures']",760080,170979,297085,17000,985,2345,1708,8270,9462,42983,67265,178621,101495,135562,548696,https://letterboxd.com/film/the-florida-project/
Call Me by Your Name,2017,Luca Guadagnino,"['Armie Hammer', 'Timothée Chalamet', 'Michael Stuhlbarg', 'Amira Casar', 'Esther Garrel', 'Victoire du Bois', 'Vanda Capriolo', 'Antonio Rimoldi', 'Elena Bucci', 'Marco Sgrosso', 'André Aciman', 'Peter Spears']",3.86,3.5,"['Romance', 'Drama']",132,"['Brazil', 'France', 'Italy', 'USA']",English,"['English', 'French', 'Italian']","['La Cinéfacture', 'Frenesy Film', 'M.Y.R.A. Entertainment', 'RT Features', ""Water's End Productions""]",2089295,286336,781422,62000,13657,24406,12255,60679,46042,185531,153370,371300,157037,384806,1409083,https://letterboxd.com/film/call-me-by-your-name/
Arrival,2016,Denis Villeneuve,"['Amy Adams', 'Jeremy Renner', 'Forest Whitaker', 'Michael Stuhlbarg', 'Tzi Ma', ""Mark O'Brien"", 'Julia Scarlett Dan', 'Abigail Pniowsky', 'Jadyn Malone', 'Carmela Nozza Guizzo', 'Andrew Shaver', 'Shawn Campbell', 'Larry Day', 'Pat Kiely', 'Frank Schorpion', 'Lucas Chartier-Dessert', 'Lucy Van Oldenbarneveld', 'Sonia Vigneault', 'Mark Camacho', 'Sabrina Reeves', 'Russell Yuen', 'Julian Casey', 'Tony Robinow', 'Anana Rydvald', 'Ruth Chiang', 'Sergiy Marchenko', 'Brittany Teo', 'Christian Jadah', 'Joe Cobden', 'Lorne Brass', 'Genevieve Sirois', 'Abdul Ayoola', 'Bineyam Girma', 'Abdelghafour Elaaziz', 'Daniel Esteban', 'Hal Roberts', 'Matthew Willson', 'Victor Andres Trelles Turgeon', 'Michael Nangreaves', 'Robert D. Morais', 'Mustafa Haidari', 'Albert Kwan', 'Reda Guerinik', 'Adrien Benn', 'Sasha Samar', 'Kathleen Stavert', 'Kattia Thony', 'Leisa Reid', 'Brent Skagford', 'Gurdeep Ahluwalia', 'Brian Dunstan', 'Dan Duran', 'Lori Graham', 'Orla Johannes', 'Sangita Patel', 'Tammie Sutherland', 'Max Walker', 'John Sanford Moore', 'Camille Ross', 'Ola Sturik', 'Karen Belfo', 'Chloë Bellande', 'Philippe Hartmann', 'Laurean Adrian Parau', 'Nathaly Thibault', 'Leslie Baker', 'Alex M. Yeuh', 'Dave Campbell', 'Alexander Da Mota', 'Akul Dang', 'Frank Fiola']",4.12,4.0,"['Science Fiction', 'Mystery', 'Drama']",116,['USA'],English,"['English', 'Chinese', 'Russian']","['FilmNation Entertainment', 'Lava Bear', '21 Laps Entertainment']",2031452,269936,759656,40000,2238,7811,4244,31842,26243,144273,148778,423926,234725,360468,1384548,https://letterboxd.com/film/arrival-2016/
My Life as a Zucchini,2016,Claude Barras,"['Gaspard Schlatter', 'Sixtine Murat', 'Paulin Jaccoud', 'Michel Vuillermoz', 'Raul Ribera', 'Estelle Hennard', 'Elliot Sanchez', 'Lou Wick', 'Brigitte Rosset', 'Natacha Koutchoumov', 'Monica Budde', 'Adrien Barazzone', 'Véronique Montel', 'Romane Cretegny', 'Evelyne Bouvier', 'Léonard Geneux', 'Anne-Laure Brasey', 'Jean-Claude Issenmann', 'Iannis Jaccoud']",4.15,5.0,"['Drama', 'Comedy', 'Romance', 'Family', 'Animation']",66,"['France', 'Switzerland']",French,['French'],"['Gébéka Films', 'Rita Productions', 'Blue Spirit', 'KNM', 'RTS', 'SRG SSR', 'Auvergne-Rhône-Alpes Cinéma', 'France 3 Cinéma', 'Hélium Films']",171147,43197,65851,1800,153,321,258,1186,1620,8828,16526,41647,21763,29702,122004,https://letterboxd.com/film/my-life-as-a-zucchini/
The Lobster,2015,Yorgos Lanthimos,"['Colin Farrell', 'Rachel Weisz', 'Olivia Colman', 'Léa Seydoux', 'Michael Smiley', 'Ariane Labed', 'John C. Reilly', 'Ben Whishaw', 'Angeliki Papoulia', 'Jessica Barden', ""Emma O'Shea"", 'Ashley Jensen', 'Roger Ashton-Griffiths', 'Anthony Dougall', 'Anthony Moriarty', 'Sean Duggan', 'Imelda Nagle Ryan', 'Roland Ferrandi', 'James Finnegan', 'Rosanna Hoult', 'Kathy Kelly', 'Kevin McCormack', 'Jacqueline Abrahams', 'Garry Mountaine', 'Ewen MacIntosh', 'Patrick Malone', 'Sandra Hayden Mason', 'Judi King Murphy', 'Laoise Murphy', 'Nancy Onu', 'Chris Threader', 'Ishmael Moalosi', ""Matthew O'Brien"", 'Robert Heaney', 'Cian Boylan', 'Clive Dev', 'Degnan Geraghty', 'Heidi Ellen Love', 'Dolores Marren', 'Mark McCormack', 'Stephen Ryan']",3.79,3.0,"['Drama', 'Comedy', 'Romance']",119,"['France', 'Greece', 'Ireland', 'Netherlands', 'UK']",English,"['English', 'French', 'Greek (modern)']","['Scarlet Films', 'Haut et Court', 'Eurimages', 'Lemming Film', 'Element Pictures', 'Nederlands Fonds voor de Film', 'Greek Film Centre', 'Faliro House Productions', 'Limp', 'Film4 Productions', 'Protagonist Pictures']",1024985,165626,300656,9700,3834,9211,5800,25016,26559,97495,128042,237898,89879,84635,708369,https://letterboxd.com/film/the-lobster/
The Invitation,2015,Karyn Kusama,"['Logan Marshall-Green', 'Tammy Blanchard', 'Emayatzy Corinealdi', 'Michiel Huisman', 'John Carroll Lynch', 'Lindsay Burdge', 'Mike Doyle', 'Jay Larson', 'Michelle Krusiec', 'Karl Yune', 'Jordi Vilasuso', 'Marieh Delfino', 'Toby Huss', 'Aiden Lovekamp', 'Danielle Camastra', 'Trish Gates']",3.32,1.5,"['Thriller', 'Horror']",100,['USA'],English,['English'],"['XYZ Films', 'Gamechanger Films', 'Lege Artis', 'The Invitation', 'Drafthouse Films']",263171,48409,51485,279,1306,3320,3490,12077,15200,41113,42096,41017,8848,7554,176021,https://letterboxd.com/film/the-invitation-2015/
The Witch,2015,Robert Eggers,"['Anya Taylor-Joy', 'Ralph Ineson', 'Kate Dickie', 'Harvey Scrimshaw', 'Ellie Grainger', 'Lucas Dawson', 'Julian Richings', 'Bathsheba Garnett', 'Sarah Stephens', 'Daniel Malik', 'Axtun Henry Dube', 'Athan Conrad Dube', 'Vivien Moore', 'Karen Kaeja', 'Brandy Leary', 'R. Hope Terry', 'Carrie Eklund', 'Madlen Sopadzhiyan', 'Paul Kenworthy', 'Mark Millmna', 'Andy Volpe', 'Phillip Wynne', 'Annawon Weeden', ""Michael O'Hare"", 'Chris Messier', 'Ron Young', 'Nora Messier', 'Bill Rudder', 'Grace Duffy', 'Sophie Bermudez', 'Corrine Manning', 'Heather Huntington Stewart', 'Jeff Smith']",3.84,3.5,"['Drama', 'Mystery', 'Horror']",92,"['Canada', 'USA', 'UK']",English,['English'],"['Very Special Projects', 'Parts & Labor', 'RT Features', 'Rooks Nest Entertainment', 'Maiden Voyage Pictures', 'Pulse Films', 'Scythia Films', 'Code Red Productions', 'Mott Street Pictures']",1196632,244585,398708,13000,3720,9785,5831,28219,27201,106000,130958,273063,113658,150986,849421,https://letterboxd.com/film/the-witch-2015/
Ex Machina,2015,Alex Garland,"['Domhnall Gleeson', 'Alicia Vikander', 'Oscar Isaac', 'Sonoya Mizuno', 'Corey Johnson', 'Claire Selby', 'Symara A. Templeman', 'Gana Bayarsaikhan', 'Tiffany Pisani', 'Elina Alminas', 'Chelsea Li', 'Dan Pappaspanos']",3.99,4.0,"['Science Fiction', 'Drama']",108,"['UK', 'USA']",English,['English'],"['DNA Films', 'Film4 Productions', 'IAC Films', 'Scott Rudin Productions']",1309687,176160,416210,6900,1230,3847,2737,16923,17885,96856,128335,317729,136186,135109,856837,https://letterboxd.com/film/ex-machina-2015/
Gone Girl,2014,David Fincher,"['Ben Affleck', 'Rosamund Pike', 'Neil Patrick Harris', 'Tyler Perry', 'Carrie Coon', 'Kim Dickens', 'Patrick Fugit', 'David Clennon', 'Lisa Banes', 'Missi Pyle', 'Emily Ratajkowski', 'Casey Wilson', 'Lola Kirke', 'Boyd Holbrook', 'Sela Ward', 'Lee Norris', 'Jamie McShane', 'Leonard Kelly-Young', 'Kathleen Rose Perkins', 'Pete Housman', 'Lynn Adrianna', 'Mark Atteberry', 'Darin Cooper', 'Kate Campbell', 'Brett Leigh', 'Antonio St. James', 'Lauren Glazier', ""Julia Prud'homme"", 'Cooper Thornton', 'Casey Ruggieri', 'Cyd Strittmatter', 'Ashley Didion', 'Lexis Nutt', 'L.A. Williams', 'Blake Sheldon', 'Sean Guse', 'Ricky Wood', 'Fred Cross', 'Scott Takeda', 'Donna Rusch', 'Kathy Sweeney-Meadows', 'Mark T Anderson', 'Scoot McNairy', 'Christina Alex', 'Samuel Baca', 'Bill Blair', 'Thomas R. Baker', 'Gregoer Boru', 'Will C.', 'Caroline Clements', 'Nancy DeMars', 'Davina Joy', 'Michael James Kelly', 'Elester Latham', 'Aaron Massey', 'Orion McCabe', 'Roz McHenry', 'Bryan McKinley', 'Teebone Mitchell', 'Justin Nesbitt', 'Mark Parrish', 'Jaclyn Rose', 'Sahlima', 'Joel Shock', 'Robert Tarpinian', 'Tracy Weisert', 'Michelle Winters', 'Tracy Brotherton', 'Matilde Matteucci', 'Dale Shane', 'Joey Courteau', 'Kyle Hinton']",4.07,3.5,"['Drama', 'Thriller', 'Mystery']",149,['USA'],English,['English'],"['20th Century Fox', 'Regency Enterprises']",2564007,302666,963671,37000,2413,7278,4156,31607,27573,181797,190942,590382,266478,437387,1740013,https://letterboxd.com/film/gone-girl/
Maps to the Stars,2014,David Cronenberg,"['Julianne Moore', 'Mia Wasikowska', 'John Cusack', 'Evan Bird', 'Robert Pattinson', 'Olivia Williams', 'Sarah Gadon', 'Kiara Glasco', 'Dawn Greenhalgh', 'Jonathan Watton', 'Carrie Fisher', 'Jennifer Gibson', 'Gord Rand', 'Justin Kelly', 'Niamh Wilson', 'Clara Pasieka', 'Emilia McCarthy', 'Allegra Fulton', 'Domenic Ricci', 'Jayne Heitmeyer', 'Sean Robertson', 'Ari Cohen', 'Joe Pingue', 'Christian Lloyd', 'Donald Burda', 'Amanda Brugel', 'Alden Adair', 'David Amito', 'Dan Lett', 'Sandra Battaglini', 'Joanne Reece', 'Chris Anton', 'George Kolitsopoulos', 'Joseph Murray', 'Adrienne Wilson', 'Murray Furrow', 'Neil Girvan', 'Stephen Radley III']",3.27,2.5,['Drama'],112,"['Canada', 'USA', 'France', 'Germany']",English,['English'],"['Prospero Pictures', 'Sentient Entertainment', 'SBS Productions', 'Integral Film']",62230,17046,10194,99,400,856,934,3362,4591,10463,9445,8365,2038,1461,41915,https://letterboxd.com/film/maps-to-the-stars/
Force Majeure,2014,Ruben Östlund,"['Johannes Bah Kuhnke', 'Lisa Loven Kongsli', 'Clara Wettergren', 'Vincent Wettergren', 'Kristofer Hivju', 'Fanni Metelius', 'Karin Myrenberg', 'Brady Corbet', 'Johannes Moustos', 'Jorge Lattof', 'Adrian Heinisch', 'Michael Breitenberger', 'Karl Pinçon', 'Julie Roumegoux', 'Peter Gaunt', 'Vera Kolupaeva', 'Ekaterina Ilina', 'Martin Chertudi', 'Natacha Mutomb Dackén', 'Malin Dahl', 'Jakob Granqvist', 'Mattias Kindberg', 'Jasmine Landstrom', 'Franco Moscon']",3.87,3.5,['Drama'],120,"['Denmark', 'France', 'Norway', 'Sweden']",Swedish,"['Swedish', 'French', 'Norwegian', 'English']","['Motlys', 'Coproduction Office', 'Film i Väst', 'Plattform Produktion', 'Parisienne', 'Auvergne-Rhône-Alpes Cinéma']",129928,28406,32395,606,190,433,473,2143,3180,11728,20517,35495,11958,7080,93197,https://letterboxd.com/film/force-majeure-2014/
It Follows,2014,David Robert Mitchell,"['Maika Monroe', 'Keir Gilchrist', 'Daniel Zovatto', 'Jake Weary', 'Olivia Luccardi', 'Lili Sepe', 'Bailey Spry', 'Carollette Phillips', 'Loren Bass', 'Charles Gertner', 'Debbie Williams', 'Ruby Harris', 'Leisa Pulido', 'D.J. Oliver', 'Linda Boston', 'Ingrid Mortimer', 'Kourtney Bell', 'Alexyss Spradlin', 'Mike Lanier', 'Claire Sloma', 'Scott Norman', 'Erin Stone', 'Joanna Bronson', 'Don Hails', 'Ele Bardha', 'Caitlin Burt', 'Heather Fairbanks', 'Vincent Hogarth', 'Christopher Hohman', 'Rich Vreeland']",3.48,2.0,"['Horror', 'Mystery']",101,['USA'],English,['English'],"['Two Flints', 'Northern Lights Films', 'Animal Kingdom']",754860,133626,192068,2700,4959,10565,7883,29672,29828,91639,102479,143849,41846,42513,505233,https://letterboxd.com/film/it-follows/
The Way He Looks,2014,Daniel Ribeiro,"['Ghilherme Lobo', 'Fábio Audi', 'Tess Amorim', 'Lúcia Romano', 'Eucir de Souza', 'Selma Egrei', 'Isabela Guasco', 'Victor Filgueiras', 'Pedro Carvalho', 'Guga Auricchio', 'Bárbara Pereira', 'Matheus Abreu', 'Naruna Costa', 'Júlio Machado', 'Renata Novaes']",3.91,3.0,"['Romance', 'Drama']",96,['Brazil'],Portuguese,['Portuguese'],"['Lacuna Filmes', 'Paraná Filmes']",109861,24439,36577,1900,115,274,294,1373,1950,8004,11114,23430,8670,19273,74497,https://letterboxd.com/film/the-way-he-looks/
The Grand Budapest Hotel,2014,Wes Anderson,"['Ralph Fiennes', 'F. Murray Abraham', 'Tony Revolori', 'Mathieu Amalric', 'Adrien Brody', 'Willem Dafoe', 'Jeff Goldblum', 'Edward Norton', 'Harvey Keitel', 'Jude Law', 'Bill Murray', 'Saoirse Ronan', 'Jason Schwartzman', 'Léa Seydoux', 'Tilda Swinton', 'Tom Wilkinson', 'Owen Wilson', 'Florian Lukas', 'Bob Balaban', 'Fisher Stevens', 'Wallace Wolodarsky', 'Waris Ahluwalia', 'Uwe Holoubek', 'Larry Pine', 'Karl Markovics', 'Volker Michalowski', 'Daniel Steiner', 'Hendrik von Bültzingslöwen', 'Lisa Kreuzer', 'Rainer Reiners', 'Sabine Urig', 'Matthias Matschke', 'Philipp Sonntag', 'Hans Martin Stier', 'Giselda Volodi', 'Neal Huff', 'Steffen Scheumann', 'Milton Welsh', 'Piet Paes', 'Michaela Caspar', 'Heike Hanold-Lynch', 'Roy Macready', 'Carl Sprague', 'Golo Euler', 'Roman Berger', 'Michael Benthin', 'Lucas Hedges', 'Wolfgang Ceczor', 'Georg Tryphon', 'Gabriel Rush', 'Hannes Wegener', 'Gerald Sullivan', 'Ben Howard', 'Marko Dyrlich', 'Jella Niemann', 'Marcel Mazur', 'Robert Bienas', 'Oliver Claridge', 'Bernhard Kremser', 'Kunichi Nomura', 'Sister Anna Rademacher', 'Heinz-Werner Jeschkowski', 'Sabine Euler', 'Renate Klein', 'Paul Schlase', 'Darin Damjanow', 'Dar Ronge', 'Robin Hurlstone', 'Jutta Westphal', 'Gisela Bech', 'Birgit Müller', 'Ursula Kuhnt', 'Monika Krüger', 'Wolfram Nielacny', 'John Peet', 'Jürgen Schwämmle', 'Frank Jacob', 'Lennart Meyer', 'Alfred Hänel', 'Manpreet Gerlach', 'David Adamik', 'Moritz Hepper', 'David Cioffi', 'Oliver Hazell', 'Bohumil Váchal', 'Ed Munro', 'Francesco Zippel', 'Enrico Hoffmann', 'Marie Goyette', 'Jeno Orosz', 'Gyula Lukács', 'Georg Rittmannsperger', 'Dirk Bossmann', 'Arwin Lobedann', 'Matthias Holfert', 'Reinhold Hegelow', 'Steffen Nixdorf', 'Manfred Lindner']",4.24,3.5,"['Drama', 'Comedy']",100,"['Germany', 'USA']",English,"['English', 'French']","['Fox Searchlight Pictures', 'Scott Rudin Productions', 'Studio Babelsberg', 'Indian Paintbrush', 'TSG Entertainment', 'American Empirical Pictures']",2492486,357018,1089214,57000,1634,5904,2781,23023,18736,135702,146831,522595,293763,543475,1694444,https://letterboxd.com/film/the-grand-budapest-hotel/
Prisoners,2013,Denis Villeneuve,"['Hugh Jackman', 'Jake Gyllenhaal', 'Terrence Howard', 'Viola Davis', 'Maria Bello', 'Paul Dano', 'Melissa Leo', 'David Dastmalchian', 'Dylan Minnette', 'Kyla-Drew', 'Erin Gerasimovich', 'Zoë Soul', 'Wayne Duvall', 'Len Cariou', 'Anthony Reynolds', 'Brad James', 'Victoria Staley', 'Robert C. Treveiler', 'Sandra Ellis Lafferty', 'Todd Truley', 'Brian Daye', 'Alisa Harris', 'Robert Mello', 'Jeff Pope', 'Rodrick Goins', 'Mark Drum', 'Lana Yoo', 'Pam Smith', 'Gloria Webber', 'Michelle Keller', 'John Atwood', 'Stacy Melich', 'J. Omar Castro', 'Jane McNeill', 'Dennis Christopher', 'Takara Clark', 'Jason Davis', 'Katrina Despain', 'Brody Rose']",4.29,4.0,"['Thriller', 'Crime', 'Drama']",153,['USA'],English,['English'],"['Alcon Entertainment', '8:38 Productions', 'Madhouse Entertainment']",1431556,234033,533234,27000,703,1643,1414,7934,10119,57897,100823,332144,248597,300252,1061526,https://letterboxd.com/film/prisoners/
Despicable Me 2,2013,"Pierre Coffin, Chris Renaud","['Steve Carell', 'Kristen Wiig', 'Benjamin Bratt', 'Miranda Cosgrove', 'Russell Brand', 'Ken Jeong', 'Steve Coogan', 'Elsie Fisher', 'Dana Gaier', 'Moisés Arias', 'Nasim Pedrad', 'Kristen Schaal', 'Pierre Coffin', 'Chris Renaud', 'Nickolai Stoilov', 'Vanessa Bayer', 'Ava Acres', 'Lori Alan', 'Jack Angel', 'Eva Bella', 'Georgia Cook', 'John Cygan', 'Debi Derryberry', 'Jess Harnell', 'Danny Mann', 'Mona Marshall', 'Mickie McGowan', 'Mason McNulty', 'Alec Medlock', 'Laraine Newman', 'Jan Rabson', 'Andre Robinson', 'Katie Silverman', 'Casey Simpson', 'Claira Nicole Titman', 'Jim Ward', 'April Winchell', 'Joe Matthews']",3.1,3.5,"['Animation', 'Comedy', 'Family']",98,['USA'],English,"['English', 'Spanish']","['Illumination', 'Universal Pictures']",844216,44363,95119,595,2877,9463,10112,37696,42941,109667,59918,58399,10014,27002,368089,https://letterboxd.com/film/despicable-me-2/
We Need to Talk About Kevin,2011,Lynne Ramsay,"['Tilda Swinton', 'John C. Reilly', 'Ezra Miller', 'Jasper Newell', 'Rock Duer', 'Ashley Gerasimovich', 'Siobhan Fallon Hogan', 'Alex Manette', 'Kenneth Franklin', 'Leslie Lyles', 'Paul Diomede', 'Michael Campbell', 'J. Mallory McCree', 'Mark Elliot Wilson', 'James Chen', 'Lauren Fox', 'Blake DeLong', 'Andy Gershenzon', 'Kelly Wade', 'Ursula Parker', 'Jason Shelton', 'Simon MacLean', 'Erin Darke', ""Annie O'Sullivan"", 'Georgia X. Lifsher', 'Aaron Blakely', 'Polly Adams', 'Suzette Gunn', 'Joseph Melendez', 'Rebecca Dealy', 'Louie Rinaldi', 'Johnson Chong', 'Kimberley Drummond', 'Leland Alexander Wheeler', 'Daniel Farcher', 'Jennifer Kim', 'Caitlin Kinnunen', 'J.J. Kandel', 'Maryann Urbano', 'Jose Joaquin Perez', 'Tah von Allmen', 'Joseph Basile', 'Susan-Kate Heaney', 'Jeffrey Mowery', 'Paul Marra', 'Francesca Murdoch']",3.82,4.5,"['Drama', 'Thriller']",113,"['Spain', 'UK', 'USA']",English,['English'],"['BBC Film', 'Independent', 'UK Film Council', 'Footprint Investment Fund', 'Piccadilly Pictures', 'Lipsync Productions', 'Artina Films', 'Rockinghorse Films', 'Caemhan', 'Panaramic', 'Beryl Betty', 'Atlantic Swiss Productions', 'KanZaman Productions']",470257,74852,120451,2000,951,2060,1838,7668,10149,40201,57845,110096,36638,37174,304620,https://letterboxd.com/film/we-need-to-talk-about-kevin/
Despicable Me,2010,"Pierre Coffin, Chris Renaud","['Steve Carell', 'Miranda Cosgrove', 'Dana Gaier', 'Elsie Fisher', 'Jason Segel', 'Russell Brand', 'Julie Andrews', 'Will Arnett', 'Kristen Wiig', 'Pierre Coffin', 'Chris Renaud', 'Jemaine Clement', 'Jack McBrayer', 'Danny McBride', 'Mindy Kaling', 'Rob Huebel', 'Ken Daurio', 'Ken Jeong', 'Charles Bright', 'Katie Leigh', 'Ranjani Brow', 'Scott Menville', 'Holly Dorff', 'Edie Mirman', 'Jackie Gonneau', 'Al Rodrigo', 'Wendy Hoffmann', 'Jakob Roston', 'James Kyson', 'John Hans Tester', 'Tony Lee', 'Debi Mae West']",3.52,3.5,"['Comedy', 'Animation', 'Family']",95,['USA'],English,['English'],"['Illumination', 'Universal Pictures']",1310185,60464,201651,1100,1970,5633,5079,27039,33914,141069,123942,148879,27024,64285,578834,https://letterboxd.com/film/despicable-me/
Fantastic Mr. Fox,2009,Wes Anderson,"['George Clooney', 'Meryl Streep', 'Jason Schwartzman', 'Wallace Wolodarsky', 'Eric Chase Anderson', 'Willem Dafoe', 'Bill Murray', 'Robin Hurlstone', 'Hugo Guinness', 'Michael Gambon', 'Helen McCrory', 'Wes Anderson', 'Jarvis Cocker', 'Owen Wilson', 'Juman Malouf', 'Karen Duffy', 'Roman Coppola', 'Jeremy Dawson', 'Garth Jennings', 'Brian Cox', 'Tristan Oliver', 'James Hamilton', 'Steven M. Rales', 'Rob Hersov', 'Jennifer Furches', 'Mario Batali', 'Allison Abbate', 'Molly Cooper', 'Adrien Brody', 'Martin Ballard']",4.27,5.0,"['Family', 'Adventure', 'Comedy', 'Animation']",87,['USA'],English,"['English', 'French', 'Latin']","['Regency Enterprises', 'Indian Paintbrush', 'American Empirical Pictures']",1874315,324038,805241,70000,1578,4515,2233,13749,12994,82783,115251,370491,218021,451358,1272973,https://letterboxd.com/film/fantastic-mr-fox/
High-Rise,2009,Gabriel Mascaro,nan,3.64,5.0,['Documentary'],65,['Brazil'],Portuguese,['Portuguese'],nan,3288,650,667,3,5,8,9,50,77,328,448,794,170,292,2181,https://letterboxd.com/film/high-rise/
Enter the Void,2009,Gaspar Noé,"['Paz de la Huerta', 'Nathaniel Brown', 'Cyril Roy', 'Olly Alexander', 'Masato Tanno', 'Ed Spear', 'Emily Alyn Lind', 'Jesse Kuhn', 'Nobuko Imai', 'Sakiko Fukuhara', 'Janice Béliveau-Sicotte', 'Sara Stockbridge', 'Stuart Miller', 'Emiko Takeuchi', 'Rumiko Kimishima', 'Jessica De Marco']",3.76,3.5,"['Drama', 'Fantasy']",161,"['Canada', 'France', 'Germany', 'Italy']",English,"['English', 'Japanese']","['Fidélité Films', 'Wild Bunch', 'BUF', 'Les Cinémas de la Zone', 'Essential Filmproduktion', 'BIM Distribuzione', 'Filmarto']",238578,63367,71692,5000,1531,2523,2226,6795,7677,21654,25598,42694,19874,25737,156309,https://letterboxd.com/film/enter-the-void/
I Killed My Mother,2009,Xavier Dolan,"['Xavier Dolan', 'Anne Dorval', 'François Arnaud', 'Suzanne Clément', 'Patricia Tulasne', 'Niels Schneider', 'Monique Spaziani', 'Pierre Chagnon', 'Justin Caron', 'Benoît Gouin', 'Johanne-Marie Tremblay', 'Hugolin Chevrette', 'Francis Ducharme', 'Pascale Audrey', 'Émile Mailhiot', 'Laurent-Christophe De Ruelle', 'Manuel Tadros', 'Marianne Verville', 'Élise Bertrand']",3.83,3.0,['Drama'],96,['Canada'],French,['French'],['Mifilifilms'],91287,21804,25523,1100,202,421,316,1455,2158,8371,11752,19033,6469,7486,57663,https://letterboxd.com/film/i-killed-my-mother/
Ponyo,2008,Hayao Miyazaki,"['Yuria Kozuki', 'Hiroki Doi', 'George Tokoro', 'Tomoko Yamaguchi', 'Yuki Amami', 'Kazushige Nagashima', 'Akiko Yano', 'Shinichi Hatori', 'Tokie Hidari', 'Rumi Hiiragi', 'Tomoko Naraoka', 'Kazuko Yoshiyuki', 'Eimi Hiraoka', 'Nozomi Ōhashi', 'Akiko Takeguchi', 'Eiko Kanazawa', 'Akihiko Ishizumi', 'Tomie Kataoka', 'Shirou Saitou', 'Mutsumi Sasaki', 'Keiko Tsukamoto', 'Ikuko Yamamoto', 'Michiko Yamamoto', 'Yoshie Yamamoto', 'Yusuke Tezuka']",4.05,4.0,"['Family', 'Fantasy', 'Animation']",100,['Japan'],Japanese,['Japanese'],"['Studio Ghibli', 'TOHO', 'Nippon Television Network Corporation', 'dentsu', 'Hakuhodo DY Media Partners', 'The Walt Disney Company (Japan)', 'Mitsubishi']",921714,144463,322454,16000,655,1560,1210,7215,10277,56432,79971,180035,66975,162317,566647,https://letterboxd.com/film/ponyo/
Meet the Robinsons,2007,Stephen J. Anderson,"['Daniel Hansen', 'Jordan Fry', 'Wesley Singerman', 'Matthew Josten', 'Stephen J. Anderson', 'Tom Selleck', 'Tom Kenny', 'Laurie Metcalf', 'Angela Bassett', 'Nicole Sullivan', 'Harland Williams', 'John H. H. Ford', 'Don Hall', 'Paul Butcher', 'Tracey Miller-Zarneke', 'Michaela Jill Murphy', 'Ethan Sandler', 'Dara McGarry', 'Nathan Greno', 'Kelly Hoover', 'Adam West', 'Aurian Redson', 'Joseph Mateo', 'Joe Whyte', 'Cooper Cowgill', 'Cameron Covell', 'David Cowgill', 'Makenna Cowgill', 'Terri Douglas', 'Jackie Gonneau', 'Mick Hazen', ""Shannon O'Connor"", 'Jordan Orr', 'Lynwood Robinson', 'Grace Rolek', 'Greyson Spann', 'Krista Swan', 'Fred Tatasciore', 'Chuck Riley']",3.47,5.0,"['Animation', 'Family', 'Comedy']",95,['USA'],English,['English'],"['Walt Disney Pictures', 'Walt Disney Animation Studios']",485055,48817,86767,2200,1086,3265,3335,13332,16826,48112,43073,47545,12516,28872,217962,https://letterboxd.com/film/meet-the-robinsons/
The Incredibles,2004,Brad Bird,"['Craig T. Nelson', 'Holly Hunter', 'Sarah Vowell', 'Spencer Fox', 'Jason Lee', 'Samuel L. Jackson', 'Elizabeth Peña', 'Eli Fucile', 'Maeve Andrews', 'Brad Bird', 'Teddy Newton', 'Jean Sincere', 'Bud Luckey', 'Lou Romano', 'Dominique Louis', 'Wallace Shawn', 'Bret Parker', 'Michael Bird', 'Kimberly Adair Clark', 'John Ratzenberger', 'Wayne Canney', 'Mark Andrews', 'Nicholas Bird', 'Louis Martin Braga III', 'Mary Elizabeth Clark', 'Pete Docter', 'Louis Gonzales', 'Elizabeth Greenberg', 'Juliet Greenberg', 'Billy Guardino', ""Dennis 'D.J.' Jennings"", 'Ollie Johnston', 'Brad Lewis', 'Ted Mathot', 'Jazzie Mahannah', 'Randy Nelson', 'Bob Peterson', 'Jeff Pidgeon', 'Juliet Pokorny', 'Joe Ranft', 'Lori Richardson', 'A.J. Riebli III', 'Katherine Ringgold', 'Stephen Schaffer', 'Bob Scott', 'Peter Sohn', 'Andrew Stanton', 'Frank Thomas', 'Pamela Gaye Walker', 'Patrick Walker', 'Deirdre Warin']",4.07,5.0,"['Animation', 'Family', 'Adventure', 'Action']",115,['USA'],English,"['English', 'French']","['Walt Disney Pictures', 'Pixar']",2480903,197426,653645,7900,1149,4283,2807,22732,21999,151149,144618,399187,155003,314040,1216967,https://letterboxd.com/film/the-incredibles/
Kill Bill: Vol. 2,2004,Quentin Tarantino,"['Uma Thurman', 'David Carradine', 'Daryl Hannah', 'Michael Madsen', 'Gordon Liu Chia-hui', 'Michael Parks', 'Perla Haney-Jardine', 'Larry Bishop', 'Samuel L. Jackson', 'Lucy Liu', 'Vivica A. Fox', 'Julie Dreyfus', 'Christopher Allen Nelson', 'Helen Kim', 'Laura Cayouette', 'Jun Kunimura', 'Goro Daimon', 'Kazuki Kitamura', 'Akaji Maro', 'Shun Sugata', 'Sachiko Fujii', 'Sakichi Sato', 'Yoji Tanaka', 'Sō Yamanaka', 'Chiaki Kuriyama', 'Claire Smithies', 'Issey Takahashi', 'Sid Haig', 'Bo Svenson', 'Clark Middleton', 'Michael Bowen', 'Jeannie Epper', 'Ambrosia Kelley', 'Shana Stein', 'Caitlin Keats', 'Jonathan Loughran', 'James Parks', 'Kenji Ohba', 'Yoshiyuki Morishita', 'Yoshiko Yamaguchi', 'Ronnie Yoshiko Fujiyama', 'Tetsuro Shimaguchi', 'Juri Manase', 'Yuki Kazamatsuri', 'Sonny Chiba', 'Stephanie L. Moore', 'Reda Beebe', 'Victoria Lucai', 'Venessia Valentino', 'Thea Rose', 'William Paul Clark', 'Stevo Polyi', 'Al Manuel Douglas', 'Patricia Silva', 'Maria Del Rosario Gutierrez', 'Sonia Angelica Padilla Curiel', 'Veronica Janet Martinez', 'Lucia Cruz Marroquin', 'Citlati Guadalupe Bojorquez', 'Graciela Salazar Mendoza', 'Maria de Lourdes Lombera', 'Jorge Silva']",4.06,4.5,"['Thriller', 'Action', 'Crime']",136,['USA'],English,"['English', 'Chinese', 'Spanish', 'Cantonese']","['Super Cool ManChu', 'Miramax', 'A Band Apart']",1316037,166250,401975,5100,1047,3104,2288,13094,15183,80951,110251,276786,117514,174029,794247,https://letterboxd.com/film/kill-bill-vol-2/
Eternal Sunshine of the Spotless Mind,2004,Michel Gondry,"['Jim Carrey', 'Kate Winslet', 'Kirsten Dunst', 'Mark Ruffalo', 'Elijah Wood', 'Tom Wilkinson', 'Jane Adams', 'David Cross', ""Deirdre O'Connell"", 'Thomas Jay Ryan', 'Ryan Whitney', 'Lola Daehler', 'Debbon Ayer', 'Gerry Robert Byrne', 'Brian Price', 'Josh Flitter', 'Paulie Litt', 'Amir Ali Said', 'Lauren Adler']",4.25,3.5,"['Science Fiction', 'Romance', 'Drama']",108,['USA'],English,['English'],"['Focus Features', 'Anonymous Content', 'This Is That']",2300218,350206,992642,104000,2308,6874,3727,24165,20033,118223,131432,426232,246989,565402,1545385,https://letterboxd.com/film/eternal-sunshine-of-the-spotless-mind/
Kill Bill: Vol. 1,2003,Quentin Tarantino,"['Uma Thurman', 'Lucy Liu', 'Vivica A. Fox', 'Daryl Hannah', 'David Carradine', 'Michael Madsen', 'Julie Dreyfus', 'Chiaki Kuriyama', 'Sonny Chiba', 'Gordon Liu Chia-hui', 'Michael Parks', 'Michael Bowen', 'Jun Kunimura', 'Kenji Ohba', 'Yuki Kazamatsuri', 'James Parks', 'Sakichi Sato', 'Jonathan Loughran', 'Yoshiyuki Morishita', 'Tetsuro Shimaguchi', 'Kazuki Kitamura', 'Yoji Tanaka', 'Sō Yamanaka', 'Juri Manase', 'Akaji Maro', 'Goro Daimon', 'Shun Sugata', 'Zhang Jinzhan', 'Hu Xiaohui', 'Ambrosia Kelley', 'Sachiko Fujii', 'Shu Lan Tuan', 'Ai Maeda', 'Naomi Kusumi', 'Hikaru Midorikawa', 'Issey Takahashi', 'Yoshiko Yamaguchi', 'Ronnie Yoshiko Fujiyama']",4.19,4.5,"['Crime', 'Action']",111,['USA'],English,"['English', 'Japanese', 'French']","['Miramax', 'A Band Apart', 'Super Cool ManChu']",2271106,280122,864327,40000,2152,6561,3388,21867,18906,120632,136782,448298,220880,441470,1420936,https://letterboxd.com/film/kill-bill-vol-1/
All About My Mother,1999,Pedro Almodóvar,"['Cecilia Roth', 'Marisa Paredes', 'Candela Peña', 'Antonia San Juan', 'Penélope Cruz', 'Rosa María Sardà', 'Fernando Fernán Gómez', 'Fernando Guillén', 'Toni Cantó', 'Eloy Azorín', 'Carlos Lozano', 'Manuel Morón', 'José Luis Torrijo', 'Juan José Otegui', 'Carmen Balagué', 'Malena Gutiérrez', 'Yael Barnatán', 'Carme Fortuny', 'Patxi Freytez', 'Juan Marquez', 'Michel Ruben', 'Daniel Lanchas', 'Rosa Manaut', 'Carlos García Cambero', 'Agustín Almodóvar', 'Paz Sufrategui', 'Lola García', 'Esther García', 'Inma Subirà', 'Cayetana Guillén Cuervo', 'Alexia Pardo', 'Lluís Pasqual', 'Fito Páez']",4.14,4.5,"['Comedy', 'Drama']",101,"['Spain', 'France']",Spanish,"['Spanish', 'Catalan']","['Renn Productions', 'France 2 Cinéma', 'El Deseo']",213646,63012,73968,5300,159,383,387,1588,2382,10653,18142,48726,25947,35843,144210,https://letterboxd.com/film/all-about-my-mother/
The Truman Show,1998,Peter Weir,"['Jim Carrey', 'Laura Linney', 'Noah Emmerich', 'Natascha McElhone', 'Holland Taylor', 'Ed Harris', 'Paul Giamatti', 'Brian Delate', 'Peter Krause', 'Blair Slater', 'Heidi Schanz', 'Una Damon', 'Krista Lynn Landolfi', 'O-Lan Jones', 'Ron Taylor', 'Don Taylor', 'Ted Raymond', 'Harry Shearer', 'Jeanette Miller', 'Philip Glass', 'Joe Minjares', 'Philip Baker Hall', 'John Pleshette', 'Terry Camilleri', 'Joel McKinnon Miller', 'Judy Clayton', 'Fritz Dominique', 'Angel Schmiedt', 'Nastassja Schmiedt', 'Muriel Moore', 'Mal Jones', 'Judson Vaughn', 'Earl Hilliard Jr.', 'David Andrew Nash', 'Jim Towers', 'Savannah Swafford', 'Antoni Corone', 'Mario Ernesto Sánchez', 'John Roselius', 'Kade Coates', 'Marcia DeBonis', 'Sam Kitchin', 'Sebastian Youngblood', 'Dave Corey', 'Mark Alan Gillott', 'Jay Saiter', 'Tony Todd', 'Marco Rubeo', 'Daryl Davis', 'Robert Davis', 'R.J. Murdock', 'Matthew McDonough', 'Larry McDowell', 'Joseph Lucus', 'Logan Kirksey', 'Adam Tomei', 'John Pramik', 'Al Foster', 'Zoaunne LeRoy', 'Millie Slavin', 'Dona Hardy', 'Tom Simmons', 'Susan Angelo', 'Carly Smiga', 'Yuji Okumoto', 'Kiyoko Yamaguchi', 'Saemi Nakamura', 'Sergio Kato', 'Jake Eberle', 'Marc Macaulay', 'Melissa Fitzgerald', 'Erik Rodenhiser']",4.21,3.5,"['Comedy', 'Drama']",103,['USA'],English,['English'],"['Paramount', 'Scott Rudin Productions']",3099600,262347,1251687,48000,1163,4143,2159,19184,18254,160215,189623,659045,319223,615630,1988639,https://letterboxd.com/film/the-truman-show/
Suspiria,1977,Dario Argento,"['Jessica Harper', 'Stefania Casini', 'Flavio Bucci', 'Miguel Bosé', 'Barbara Magnolfi', 'Susanna Javicoli', 'Eva Axén', 'Rudolf Schündler', 'Udo Kier', 'Alida Valli', 'Joan Bennett', 'Margherita Horowitz', 'Jacopo Mariani', 'Fulvio Mingozzi', 'Franca Scagnetti', 'Renato Scarpa', 'Serafina Scorceletti', 'Giuseppe Transocchi', 'Renata Zamengo', 'Alessandra Capozzi', 'Salvatore Capozzi', 'Diana Ferrara', 'Cristina Latini', 'Alfredo Raino', 'Claudia Zaccari', 'Dario Argento', 'Giovanni di Bernardo', 'Daria Nicolodi', 'Marina Pierro', 'Lela Svasta']",3.95,4.5,['Horror'],99,['Italy'],English,"['English', 'French', 'Latin', 'German', 'Italian']",['Seda Spettacoli'],478602,169964,170135,10000,807,2081,2019,8141,10516,39411,52365,105996,47564,69506,338406,https://letterboxd.com/film/suspiria/
