Film_title,Release_year,Director,Cast,Average_rating,Owner_rating,Genres,Runtime,Countries,Original_language,Spoken_languages,Studios,Watches,List_appearances,Likes,Fans,½,★,★½,★★,★★½,★★★,★★★½,★★★★,★★★★½,★★★★★,Total_ratings,Film_URL
The Hunger Games: The Ballad of Songbirds & Snakes,2023,Francis Lawrence,"['Tom Blyth', 'Rachel Zegler', 'Peter Dinklage', 'Jason Schwartzman', 'Hunter Schafer', 'Josh Andrés Rivera', 'Viola Davis', 'Dexter Sol Ansell', 'Rosa Gotzler', 'Clemens Schick', 'Fionnula Flanagan', 'Ashley Liao', 'Athena Strates', 'Joshua Kantara', 'Amélie Hoeferle', 'Kaitlyn Akinpelumi', 'Florian Burgkart', 'Ayomide Adegun', 'Aaron Finn Schultz', 'Max Raphael', 'Mekyas Mulugeta', 'Emma Frieda Brüggler', 'Yalany Marschner', 'Serena Oexle', 'Anni Baumann', 'Flora Thiemann', 'Zoë Renee', 'Seyna Sylla', 'Lilly Cooper', 'Aamer Husain', 'Aminata Lucia Yade Toscano', 'Daniela Grubert', 'Michael Greco', 'Levi Strasser', 'Chieloka Jairus', 'Tim Torok', 'Varvara Kanellakopoulou', 'Jerome Lance', 'Mackenzie Lansing', 'Cooper Dillon', 'Hiroki Berrecloth', 'Irene Böhm', 'Knox Gibson', 'Sofia Sanchez', 'Luna Kuse', 'Kjell Brutscheidt', 'Dimitri Abold', 'Luna Steeples', 'Nick Benson', 'Marc Aden Gray', 'Isobel Jesper Jones', 'Dakota Shapiro', 'Vaughan Reilly', 'Honor Gillies', 'Eike Onyambu', 'Cameron MacConomy', 'Ghaith Saleh', 'Riley Chung', 'Denise Hansen', 'Scott Folan', 'Burn Gorman', 'Raphael Zari', 'Mona Vojacek Koper', 'Carl Spencer', 'Konstantin Taffet', 'George Somner', 'Steven McMichael', 'Donald Sutherland', 'Jonas Martens']",3.6,0.5,"['Science Fiction', 'Drama', 'Action']",157,['USA'],English,['English'],"['Lionsgate', 'Color Force', 'about:blank']",989058,124772,324365,4600,3199,7540,7466,30040,40895,126147,155409,240370,87422,136309,834797,https://letterboxd.com/film/the-hunger-games-the-ballad-of-songbirds-snakes/
All of Us Strangers,2023,Andrew Haigh,"['Andrew Scott', 'Paul Mescal', 'Jamie Bell', 'Claire Foy', 'Carter John Grout', 'Ami Tredrea']",3.95,3.0,"['Romance', 'Drama', 'Fantasy']",106,"['UK', 'USA']",English,['English'],"['Film4 Productions', 'Blueprint Pictures', 'Searchlight Pictures', 'TSG Entertainment']",454710,103612,162427,6600,658,1694,1745,8344,11537,39983,60200,126931,67782,74732,393606,https://letterboxd.com/film/all-of-us-strangers/
Saltburn,2023,Emerald Fennell,"['Barry Keoghan', 'Jacob Elordi', 'Rosamund Pike', 'Richard E. Grant', 'Alison Oliver', 'Archie Madekwe', 'Carey Mulligan', 'Paul Rhys', 'Ewan Mitchell', 'Sadie Soverall', 'Richard Cotterell', 'Millie Kent', 'Will Gibson', 'Tasha Lim', 'Aleah Aberdeen', 'Matthew Carver', 'Reece Shearsmith', 'Gabriel Bisset-Smith', 'Saga Spjuth-Säll', 'Glyn Grimstead', 'Joshua Samuels', 'Julian Lloyd Patten', 'Olivia Hanrahan-Barnes', 'Lolly Adefope', 'Joshua McGuire', 'Dorothy Atkinson', 'Shaun Dooley', 'Tomás Barry', 'Andy Brady']",3.43,2.0,"['Comedy', 'Drama', 'Thriller']",131,"['UK', 'USA']",English,['English'],"['LuckyChap Entertainment', 'MRC', 'Lie Still']",2009146,214113,586542,12000,12936,29096,25130,98750,111752,317309,309704,457752,146447,205318,1714194,https://letterboxd.com/film/saltburn/
"Red, White & Royal Blue",2023,Matthew López,"['Taylor Zakhar Perez', 'Nicholas Galitzine', 'Uma Thurman', 'Clifton Collins Jr.', 'Rachel Hilson', 'Sarah Shahi', 'Ellie Bamber', 'Thomas Flynn', 'Stephen Fry', 'Malcolm Atobrah', 'Akshay Khanna', 'Aneesh Sheth', 'Juan Castano', 'Donald Sage Mackay', 'Sharon D. Clarke', 'Rachel Maddow', 'Bridget Benstead', 'Helen Minassian', 'Isabelle Suwan', 'Ben-Hur Santos', 'Charles Nishikawa', 'Michael Ayala-Cole', 'Robert William Carlisle', 'Gabi Kerr', 'Gabriella Fanuele', 'Georgie Fellows', 'Martin Bishop', 'John King', 'Jonny Lee Kemp', 'Enver Mehmet', 'Monsurat Bello', 'Hughie Mann', 'Karina Núñez', 'Derek Siow', 'Valter Almeida', 'Gaia Mondadori', 'Reynold Koker', 'Roy Harrop', 'Joy Reid', 'Kathryn López', 'Frank Lopez', 'Lila Bata-Walsh', 'Khushboo Hirani', 'Nathan Musoki', 'Brian Naylor', 'Kaya Brown-Hallam', 'Rita Estevanovich', 'Miranda Heldt', 'Annabella King', 'Claire Ashton', 'Anastasia Zabarchuk', 'Miruna-Bianca Teodoru', 'Alice Raymond', 'Juan Sebastián Quintero', 'Sigmund Oakeshott', 'Casey McQuiston', 'Denisa Jahlová', 'Valerie Hazan', 'Stuart Cooke', 'Sean Coleman', 'Lindy Hennessy', 'Prince Marfo', 'Caroline Glass', 'Andro Cowperthwaite', 'Nathan Hall', 'Aleshia Williams', 'Josh Wild', 'Amira Walters-Byrne', 'Destiny Viva', 'Samara Tong', 'Amy Tomlinson', 'Mackenzie Stretch', 'Tyson Simon', 'Irene Salvi', 'Marcus St. Cyr', 'Julia Ruiz', 'Troy Rochester', 'Elise Pinel', 'Ronke Olagunju', 'Bettie Moon', 'Tom Mather', 'Mira Jebari', 'Emi Ichikawa', 'Robbie Ordona', 'Bethany Hunter', 'Nicole Hastings', 'Kamilla Halid', 'Jamie Graham', 'Marlie Goddard', 'Jakub Franasowicz', 'Kyle Flaherty', 'Emma Farnell-Watson', 'Davide Albonetti', 'Olive Andrews', 'Miekaile Browne', 'Harrison Claxton', 'Cam', 'Emma Falcon', 'Jemma Redgrave']",3.15,nan,"['Comedy', 'Romance']",121,['USA'],English,"['English', 'Spanish']","['Amazon Studios', 'Berlanti Productions']",416259,53640,122882,3500,3712,7523,7598,24529,29535,73371,57822,68278,18403,49398,340169,https://letterboxd.com/film/red-white-royal-blue/
Barbie,2023,Greta Gerwig,"['Margot Robbie', 'Ryan Gosling', 'America Ferrera', 'Ariana Greenblatt', 'Issa Rae', 'Kate McKinnon', 'Alexandra Shipp', 'Emma Mackey', 'Hari Nef', 'Sharon Rooney', 'Ana Cruz Kayne', 'Ritu Arya', 'Dua Lipa', 'Nicola Coughlan', 'Emerald Fennell', 'Simu Liu', 'Kingsley Ben-Adir', 'Ncuti Gatwa', 'Scott Evans', 'John Cena', 'Michael Cera', 'Rhea Perlman', 'Helen Mirren', 'Will Ferrell', 'Connor Swindells', 'Jamie Demetriou', 'Andrew Leung', 'Will Merrick', 'Zheng Xi Yong', 'Asim Chaudhry', 'Ray Fearon', 'Erica Ford', 'Hannah Khalique-Brown', 'Mette', 'Marisa Abela', 'Lucy Boynton', 'Rob Brydon', 'Tom Stourton', 'Chris Taylor', 'David Mumeni', 'Olivia Brody', 'Isla Ashworth', 'Eire Farrell', 'Daisy Duczmal', 'Genvieve Toussaint', 'Isabella Nightingale-Mercado', 'Millie-Rose Crossley', 'Anvita Nehru', 'Kayla-Mai Alvares', 'Luke Mullen', 'Patrick Luwis', 'Mac Brandt', 'Paul Jurewicz', 'Oraldo Austin', 'Benjamin Arthur', 'Carlos Jacott', 'Adam Ray', 'George Basil', 'Ptolemy Slocum', 'Deb Hiett', 'James Leon', 'Oliver Vaquer', 'Tony Noto', 'Christopher T. Wood', 'Ann Roth', 'Annie Mumolo', 'Elise Gallup', 'McKenna Roberts', 'Brylee Hsu', 'Sasha Milstein', 'Lauren Holt', 'Sterling Jones', 'Ryan Piers Williams', 'Jamaal Lewis', 'Kathryn Akin', 'Grace Jabbari', 'Ira Mandela Siobhan', 'Lisa Spencer', 'Naomi Weijand', 'Tom Clark', 'Ireanne Abenoja', 'Davide Albonetti', 'Charlotte Anderson', 'Michael Anderson', 'Rico Bakker', 'James Bamford', 'William John Banks', 'Callum Bell', 'Adam Blaug', 'Mason Boyce', 'Taylor Bradshaw', 'Alex Brown', 'Miekaile Browne', 'Lewis Calcutt', 'Nikkita Chadha', 'Oliver Chapman', 'Megan Charles', 'Callum Clack', 'Danny Coburn', 'Kat Collings', 'Adam Crossley', 'Sia Dauda', 'Gustave Die', 'Grace Durkin', 'Joelle Dyson', 'Lewis Easter', 'Onyemachi Ejimofor', 'Cameron Everitt', 'Luke Field-Wright', 'Sasha Flesch', 'Adam Fogarty', 'Michael John French', 'Anna-Kay Gayle', 'Charlie Goddard', 'Marlie Goddard', 'Ellis Harman', 'Yasmin Harrison', 'Josh Hawkins', 'James Healy', 'Tim Hodges', 'Mira Jebari', 'Beccy Jones', 'Thomas Kalek', 'Lily Laight', 'Maiya Leeke', 'Cristian Liberti', 'Prodromos Marneros', 'Nahum McLean', 'Jordan Melchor', 'Ramzan Miah', 'Andy Monaghan', 'Florivaldo Mossi', 'Hannah Nazareth', 'Grant Neal', 'Freja Nicole', 'Shaun Niles', 'Ella Nonini', 'Jack William Parry', 'Josie Pocock', 'Barnaby Quarendon', 'Redmand Rance', 'Zara Richards', 'Liam Riddick', 'Alana Rixon', 'Adam Paul Robertson', 'Kingdom Sibanda', 'Sebastian Skov', 'Aaron J. Smith', 'Joshua Smith', 'Lucia-Rose Sokolowski', 'Janine Somcio', 'Alex Sturman', 'Callum Sterling', 'Todd Talbot', 'Charles Tatman', 'Grant Thresh', 'Connor Tidman', 'Wahchi Vong', 'Jerry Wan', 'Sasha Wareham', 'Stan West', 'Oliver Wheeler', 'Josh Wild', 'Joe Wolstenholme', 'Richard Womersley', 'Ashley Young']",3.87,2.5,"['Comedy', 'Adventure']",114,"['UK', 'USA']",English,['English'],"['LuckyChap Entertainment', 'Heyday Films', 'NB/GG Pictures', 'Mattel', 'Warner Bros. Pictures']",3596478,444826,1560116,26000,12305,26416,17711,87764,93650,377458,390268,816420,343633,770652,2936277,https://letterboxd.com/film/barbie/
Anatomy of a Fall,2023,Justine Triet,"['Sandra Hüller', 'Swann Arlaud', 'Milo Machado-Graner', 'Antoine Reinartz', 'Samuel Theis', 'Jehnny Beth', 'Saadia Bentaïeb', 'Camille Rutherford', 'Anne Rotger', 'Sophie Fillières', 'Julien Comte', 'Pierre-François Garel', 'Savannah Rol', 'Iliès Kadri', 'Vincent Courcelle-Labrousse', 'Cécile Brunet-Ludet', 'Nesrine Slaoui', 'Antoine Bueno', 'Anne-Lise Heimburger', 'Wajdi Mouawad', 'Sacha Wolff', 'Kareen Guiock', 'Arthur Harari', 'Marie Brette', 'Christophe Devaux', 'Jefferson Desport', 'Nola Jolly', 'Emmanuelle Jourdan', 'Isaac Abballah', 'Judicaël Ajorque', 'Nicholas Angelo', 'Marie-Laure Aumis', 'Laura Balasuriya', 'Alexandre Bertrand', 'Jean-Pierre Bertrand', 'Cécilia Bongiovanni-Lefebvre', 'Jean-Claude Calbet', 'Florent Chasseloup', 'Sandrine Chastagnol', 'Betty Desmier', 'Justine Dulary', 'Philippe Jubien', 'Cyril Karenine', 'Maud Martin', 'Romaric Maucoeur', 'Fabien Perrot', 'Christophe Léon Schelstraete', 'Rose Thibault']",4.15,4.5,"['Mystery', 'Crime', 'Thriller']",152,['France'],French,"['French', 'English', 'German']","['Les Films de Pierre', 'Les Films Pelléas', 'France 2 Cinéma', 'Auvergne-Rhône-Alpes Cinéma']",986249,226600,364897,7700,815,2018,1454,8305,10725,53401,97897,307924,201059,169562,853160,https://letterboxd.com/film/anatomy-of-a-fall/
Strange Way of Life,2023,Pedro Almodóvar,"['Ethan Hawke', 'Pedro Pascal', 'Jason Fernández', 'José Condessa', 'Daniel Rived', 'Sara Sálamo', 'Manu Ríos', 'Pedro Casablanc', 'George Steane', 'Erenice Lohan', 'Oihana Cueto', 'Vasileios Papatheocharis']",3.08,1.5,"['Western', 'Romance', 'Drama']",31,"['Spain', 'France']",Spanish,"['Spanish', 'English']","['El Deseo', 'Saint Laurent']",122305,23891,26529,61,558,1684,1937,8537,12677,28993,19798,15692,2872,4874,97622,https://letterboxd.com/film/strange-way-of-life/
Bottoms,2023,Emma Seligman,"['Rachel Sennott', 'Ayo Edebiri', 'Ruby Cruz', 'Havana Rose Liu', 'Kaia Gerber', 'Nicholas Galitzine', 'Miles Fowler', 'Marshawn Lynch', 'Dagmara Dominczyk', 'Punkie Johnson', 'Zamani Wilder', 'Summer Joy Campbell', 'Virginia Tucker', 'Wayne Pére', 'Toby Nichols', 'Cameron Stout', 'Ted Ferguson', 'Bruno Rose', 'Zach Primo', 'Liz Elkins Newcomer', 'Krystal Alayne Chambers', 'Alyssa Matthews', 'Lacey Dover']",3.82,3.0,['Comedy'],91,['USA'],English,['English'],"['Brownstone Productions', 'Orion Pictures']",992356,190390,409879,21000,3562,7466,6365,24402,30455,101287,130345,236182,99465,212604,852133,https://letterboxd.com/film/bottoms/
Scream VI,2023,"Matt Bettinelli-Olpin, Tyler Gillett","['Melissa Barrera', 'Jenna Ortega', 'Jasmin Savoy Brown', 'Mason Gooding', 'Jack Champion', 'Roger L. Jackson', 'Liana Liberato', 'Dermot Mulroney', 'Devyn Nekoda', 'Josh Segarra', 'Hayden Panettiere', 'Henry Czerny', 'Tony Revolori', 'Skeet Ulrich', 'Samara Weaving', 'Courteney Cox', 'Matthew Giuffrida', 'Andre Anthony', 'Thomas Cadrot', 'Barry Morgan', 'Chanel Mings', 'Erika Prevost', 'Jesse Camacho', 'Jenna Wheeler-Hughes', 'Mizinga Mwinga', 'Céleste Dubé', 'André Bédard', 'Eric Davis', 'Lydia Zadel', 'Elizabeth Neale', 'Justin Johnson', 'Stephane Ishmael', 'Max Laferriere', 'Jack Quaid', 'Jason Cavalier', 'Thom Newell', 'Tim Robinson', 'Akiva Schaffer']",3.39,2.0,"['Crime', 'Horror', 'Thriller']",123,['USA'],English,['English'],"['Radio Silence', 'Project X Entertainment', 'Spyglass Media Group', 'Paramount']",621302,163835,189101,2500,3470,7662,7826,26076,33852,92359,100693,129799,42822,58443,503002,https://letterboxd.com/film/scream-vi/
"Love to Love You, Donna Summer",2023,"Brooklyn Sudano, Roger Ross Williams","['Donna Summer', 'Brooklyn Sudano', 'Amanda Sudano Ramirez', 'Mimi Sommer', 'Bruce Sudano']",3.24,2.5,"['Documentary', 'Music']",107,['USA'],English,['English'],"['HBO Documentary Films', 'Motto Pictures', 'Polygram Entertainment', 'One Story Up Productions', 'Federal Films']",3910,966,832,0,4,20,25,196,353,921,570,440,79,162,2770,https://letterboxd.com/film/love-to-love-you-donna-summer/
Past Lives,2023,Celine Song,"['Greta Lee', 'Teo Yoo', 'John Magaro', 'Moon Seung-ah', 'Yim Seung-min', 'Yoon Ji-hye', 'Choi Won-young', 'An Min-young', 'Seo Yeon-woo', 'Chang Ki-ha', 'Shin Hee-cheol', 'Park Jun-hyuk', 'Jack Alberts', 'Jane Yubin Kim', 'Song Noo-ri', 'Jin Si-ah', 'Choi Yoon-seo', 'Hwang Seung-eon', 'Jojo T. Gibbs', 'Emily Cass McDonnell', 'Federico Rodriguez', 'Conrad Schott', 'Kristen Sieh', 'Oge Agulué', 'Chase Sui Wonders', 'Isaac Powell', 'Jay Karales']",4.18,5.0,"['Drama', 'Romance']",106,"['South Korea', 'USA']",English,"['English', 'Korean']","['A24', 'Killer Films', '2AM', 'CJ ENM']",1041012,284803,442910,24000,1278,2667,2208,11392,15530,62160,96874,267123,184903,256013,900148,https://letterboxd.com/film/past-lives/
M3GAN,2022,Gerard Johnstone,"['Allison Williams', 'Violet McGraw', 'Ronny Chieng', 'Amie Donald', 'Jenna Davis', 'Brian Jordan Alvarez', 'Jen Van Epps', 'Stephane Garneau-Monten', 'Lori Dungey', 'Amy Usherwood', 'Jack Cassidy', 'Michael Saccente', 'Samson Chan-Boon', 'Kira Josephson', 'Renee Lyons', 'Millen Baird', 'Chelsie Preston Crayford', 'Arlo Green', 'Natasha Daniel', 'Jaya Beach-Robertson', 'Cameron Randell', 'Clinton Randell', 'Marley Sharpe', 'Coco Poole', 'Mila Leith', 'Ruby Qereqeretabua']",2.81,2.5,"['Horror', 'Science Fiction']",102,['USA'],English,['English'],"['Atomic Monster', 'Blumhouse Productions', 'Divide / Conquer']",630256,101876,123241,310,10503,21255,19191,59246,65661,141487,94017,67698,10715,19128,508901,https://letterboxd.com/film/m3gan/
Talk to Me,2022,"Michael Philippou, Danny Philippou","['Sophie Wilde', 'Alexandra Jensen', 'Joe Bird', 'Otis Dhanji', 'Miranda Otto', 'Zoe Terakes', 'Chris Alosio', 'Marcus Johnson', 'Alexandria Steffensen', 'Ari McCarthy', 'Sunny Johnson', 'James Oliver', 'Cass Cumerford', 'Jett Gazley', 'Kitt Erhart-Bruce', 'Hamish Phillips', 'Kidaan Zelleke', 'Sarah Brokensha', 'Jayden Davison', 'Jodie Dry', 'Frances Cassar', 'Kelly Butler', 'Ava Stenta', 'Harli Ames', 'Leeanna Walsman', 'Kerry Reid', 'Robin Northover', 'Jacek Koman', 'Helene Philippou', 'Jude Turner', 'Zac Scott', 'Jess Kuss', 'David Roberts', 'Demi Van Kasteren', 'Pia Gillings', 'Oscar Wangel', 'Courtlan Gordan', 'Louisa Giameos', ""Jem O'Callaghan"", 'Joe Romeo', 'Alex Noel McCarthy', 'Charlie Morkunas', 'Patricia Haycock', 'Murray Haycock', 'Catherine Purling', 'Nicola Thiele', 'David Simmons', 'Joseph House Baker', 'Alice Scheid', 'Anita Kimber', 'Ben Bullock', 'Brian Godfrey', 'Cooper Duncan', 'Daniel Pitt', 'Danielle Ruggiero-Prior', 'Dylan Warren', 'Emily Fogg', 'Emily Gun', 'Jason Moore', 'Jessica Homewood', 'Kate Portus', 'Lelum Rathnayake', 'Matt Goldwyn', 'Michael Gilmore', 'Philip Maynard', 'Sarah Baber', 'Saravjit Singh', 'Shadrack Kamau', 'Thomas Gardner', 'Mark Duncan', 'Ella Fenwick', 'Michael Harpas', 'Nikolas Gelios', 'Alex Philippou', 'Con Lipapis', 'Con Patelias', 'Louis Vavaroutsos', 'Uncle Mars', 'Nick Lipapis']",3.56,4.0,"['Horror', 'Thriller']",95,"['Australia', 'UK']",English,"['English', 'Greek (modern)']","['Causeway Films', 'Metrol Technology', 'Screen Australia', 'South Australian Film Corporation', 'Bankside Films', 'Head Gear Films', 'Adelaide Film Festival Investment Fund']",861602,163876,258491,2200,3217,6810,6645,26702,36868,122131,166113,237841,68630,64178,739135,https://letterboxd.com/film/talk-to-me-2022/
Goodnight Mommy,2022,Matt Sobel,"['Naomi Watts', 'Cameron Crovetti', 'Nicholas Crovetti', 'Peter Hermann', 'Jeremy Bobb', 'Crystal Lucas-Perry']",2.5,1.0,"['Mystery', 'Horror', 'Thriller']",91,"['France', 'USA']",English,['English'],"['Animal Kingdom', 'Playtime']",44149,7130,4676,24,762,2080,2535,7430,6425,8435,3694,2973,602,1129,36065,https://letterboxd.com/film/goodnight-mommy-2022/
The Menu,2022,Mark Mylod,"['Anya Taylor-Joy', 'Ralph Fiennes', 'Nicholas Hoult', 'Janet McTeer', 'Paul Adelstein', 'Rob Yang', 'Aimee Carrero', 'John Leguizamo', 'Arturo Castro', 'Reed Birney', 'Hong Chau', 'Judith Light', 'Mark St. Cyr', 'Rebecca Koon', 'Peter Grosz', 'Christina Brucato', 'Adam Aalderks', 'Jon Paul Allyn', 'Mel Fair', 'Cristian Gonzalez', 'Matthew Cornwell', 'John Wilkins III', 'John Cola', 'Michael A. Dean', 'Marcus Aveons Duncan', 'Alexander Goldstein', 'Grant Henley', 'A. Jae Michele', 'Rachel Trautmann', 'Victor Zheng', 'Michael Neal', 'Brandon Herron', 'Jay Shadix', 'Melisa Lopez', 'Elbert Kim']",3.54,4.0,"['Comedy', 'Thriller', 'Horror']",107,['USA'],English,"['English', 'Spanish']","['Hyperobject Industries', 'Searchlight Pictures', 'Gary Sanchez Productions', 'TSG Entertainment']",2136975,214894,663301,4800,5061,16525,13568,75729,86221,330466,350000,524407,135901,158944,1696822,https://letterboxd.com/film/the-menu-2022/
Bros,2022,Nicholas Stoller,"['Billy Eichner', 'Luke Macfarlane', 'Guy Branum', 'Miss Lawrence', 'Ts Madison', 'Dot-Marie Jones', 'Jim Rash', 'Eve Lindley', 'Monica Raymund', 'Guillermo Díaz', 'Jai Rodriguez', 'Amanda Bearse', 'Debra Messing', 'Peter Y. Kim', 'Justin Covington', 'Symone', 'Ryan Faucett', 'Becca Blackwell', ""D'Lo"", 'Bowen Yang', 'Harvey Fierstein', 'Brock Ciarlelli', 'Kristin Chenoweth', 'Matthew Wilkas', 'Dahlia Rodriguez', 'Derrick Delgado', 'George Dvorsky', 'Jamyl Dobson', 'Ben Stiller', 'Kenan Thompson', 'Amy Schumer', 'Seth Meyers', 'Jillian Gottlieb', 'Rick Crom', 'Everett Quinton', 'Anthony DeVito', 'Alex Ringler', 'Joanne Lamstein']",3.1,1.5,"['Comedy', 'Romance']",115,['USA'],English,['English'],"['Universal Pictures', 'Apatow Productions', 'Stoller Global Solutions']",123477,29096,25281,79,1688,2539,2661,8310,10672,25417,22049,18053,3624,3913,98926,https://letterboxd.com/film/bros/
The Whale,2022,Darren Aronofsky,"['Brendan Fraser', 'Sadie Sink', 'Ty Simpkins', 'Hong Chau', 'Samantha Morton', 'Sathya Sridharan', 'Jacey Sink', 'Allison Altman', 'Wilhelm Schalaudek', 'Lance Oppenheim']",3.65,4.0,['Drama'],117,['USA'],English,['English'],"['A24', 'Protozoa Pictures']",814623,142926,226124,2600,4975,10433,9245,29933,34556,94624,115785,190756,76947,97526,664780,https://letterboxd.com/film/the-whale-2022/
Pearl,2022,Ti West,"['Mia Goth', 'David Corenswet', 'Tandi Wright', 'Matthew Sunderland', 'Emma Jenkins-Purro', 'Alistair Sewell', 'Amelia Reid', 'Gabe McDonnell', 'Lauren Stewart', 'Todd Rippon', 'Grace Acheson']",3.75,4.5,"['Horror', 'Drama']",102,['USA'],English,"['English', 'German']","['A24', 'Little Lamb Productions']",999213,219397,379213,18000,1985,4879,4367,19950,27581,109449,143778,266625,90092,157087,825793,https://letterboxd.com/film/pearl-2022/
Barbarian,2022,Zach Cregger,"['Georgina Campbell', 'Bill Skarsgård', 'Justin Long', 'Matthew Patrick Davis', 'Richard Brake', 'Kurt Braunohler', 'Jaymes Butler', 'Sophie Sörensen', 'Rachel Fowler', 'J.R. Esposito', 'Kate Nichols', 'Kate Bosworth', 'Brooke Dillman', 'Sara Paxton', 'Will Greenberg', 'Derek Morse', 'Trevor Van Uden', 'Zach Cregger', 'Devina Vassileva', 'Kalina Stancheva', 'Julian Stanishkov']",3.51,3.0,"['Mystery', 'Thriller', 'Horror']",103,['USA'],English,"['English', 'Spanish']","['BoulderLight Pictures', 'Vertigo Entertainment', 'Regency Enterprises', 'Hammerstone Studios', 'Almost Never Films', '20th Century Studios']",954538,172042,281431,2200,4743,10632,8975,35066,42009,134127,166445,246918,67930,63047,779892,https://letterboxd.com/film/barbarian-2022/
Prey,2022,Dan Trachtenberg,"['Amber Midthunder', 'Dakota Beavers', 'Michelle Thrush', 'Stormee Kipp', 'Julian Black Antelope', 'Dane DiLiegro', 'Stefany Mathias', 'Bennett Taylor', 'Mike Paterson', 'Nelson Leis', 'Tymon Carter', 'Skye Pelletier', 'Harlan Blayne Kytwayhat', 'Corvin Mack', 'Samuel Marty', 'Ginger Cattleman', 'Seanna Eagletail', 'Samiyah Crowfoot', 'Cody Big Tobacco', 'Troy Mundle', 'Curtis Vinish', 'Stephane Legault', 'Stephan Schroeder', 'Eric Beaudoin', 'Kyle Strauts', 'Tom Woodruff Jr.', 'Alec Gillis', 'David Penikas', 'Jon K. Miller', 'Kirk Caouette', 'Kyle Legere']",3.56,3.5,"['Science Fiction', 'Action', 'Thriller']",100,['USA'],English,"['English', 'French']","['20th Century Studios', 'Davis Entertainment', 'Lawrence Gordon Productions']",449878,91794,138313,457,938,2285,2686,10947,17797,63941,96392,118329,27375,23406,364096,https://letterboxd.com/film/prey-2022/
Nope,2022,Jordan Peele,"['Daniel Kaluuya', 'Keke Palmer', 'Brandon Perea', 'Michael Wincott', 'Steven Yeun', 'Wrenn Schmidt', 'Keith David', 'Devon Graye', 'Terry Notary', 'Barbie Ferreira', 'Donna Mills', 'Osgood Perkins', 'Eddie Jemison', 'Jacob Kim', 'Sophia Coto', 'Jennifer Lafleur', 'Andrew Patrick Ralston', 'Lincoln Lambert', 'Pierce Kang', 'Roman Gross', 'Alex Hyde-White', 'Hetty Chang', 'Liza Treyger', 'Ryan W. Garcia', 'Courtney Stephens', 'Caden J. Lovgren', ""Malcolm Jae O'Shea"", 'Evan Shafran', 'Mark Casimir Dyniewicz Jr.']",3.72,5.0,"['Mystery', 'Science Fiction', 'Horror']",130,['USA'],English,"['English', 'Portuguese', 'Spanish']","['Monkeypaw Productions', 'Universal Pictures']",1664675,277144,589313,12000,5169,14481,9457,50829,51489,194321,221492,412488,166552,194027,1320305,https://letterboxd.com/film/nope/
Fire Island,2022,Andrew Ahn,"['Joel Kim Booster', 'Bowen Yang', 'Margaret Cho', 'Conrad Ricamora', 'James Scully', 'Matt Rogers', 'Tómas Matos', 'Torian Miller', 'Nick Adams', 'Zane Phillips', 'Michael Graceffa', 'Aidan Wharton', 'Peter Smith', 'Bradley Gibson', 'Peppermint', 'Jonathon Timpanelli', 'Eli Bridges', 'Marcia Belsky', 'John Roberts', 'Robin Byrd', 'Kenney M. Green', 'Eliseo Román', 'August Henderson', 'Nick Drake', 'Jason Garcia Ignacio', 'Michael Joseph DiBenedetto Jr.', 'Phil Korz', 'John-Deric Mitchell']",3.52,3.0,"['Comedy', 'Romance']",106,['USA'],English,['English'],"['Jax Media', 'Searchlight Pictures']",80981,22070,24534,194,295,537,559,2279,3393,11807,15376,18143,4484,5650,62523,https://letterboxd.com/film/fire-island-2022/
Close,2022,Lukas Dhont,"['Eden Dambrine', 'Gustav De Waele', 'Émilie Dequenne', 'Léa Drucker', 'Igor van Dessel', 'Kevin Janssens', 'Marc Weiss', 'Léon Bataille', 'Serine Ayari', 'Robin Keyaert', 'Herman van Slambrouck', 'Iven Deduytschaver', 'Jeffrey Vanhaeren', 'Hélène Theunissen', 'Baptiste Bataille', 'Pieter Piron', 'Freya De Corte', 'Cachou Kirsch', 'Ahlaam Teghadouini', 'Hervé Guerrisi']",4.1,5.0,['Drama'],104,"['Belgium', 'France', 'Netherlands']",French,"['French', 'Dutch']","['Menuet', 'Diaphana Films', 'Topkapi Films', 'Versus Production', 'VTM', 'RTBF']",239711,66752,96208,6000,240,562,567,2729,4365,15836,26145,61857,36325,53179,201805,https://letterboxd.com/film/close-2022/
Aftersun,2022,Charlotte Wells,"['Paul Mescal', 'Frankie Corio', 'Brooklyn Toulson', 'Celia Rowlson-Hall', 'Sally Messham', 'Ayşe Parlak', 'Sophia Lamanova', 'Spike Fearn', 'Harry Perdios', 'Frank Corio', 'Ruby Thompson', 'Ethan James Smith', 'Onur Ekşioğlu', 'Cafer Karahan', 'Kayleigh Coleman', 'John Stuifzand', 'Tyler Mutlu', 'Kieran Burton', 'Nijat Gachayev', 'Sarah Makharine', 'Erol Cengizalp', 'Djamel Turner']",4.24,5.0,['Drama'],102,"['UK', 'USA']",English,"['English', 'Spanish', 'Turkish']","['PASTEL', 'BBC Film', 'Tango Entertainment', 'Unified Theory', 'Screen Scotland', 'BFI']",925977,246620,410461,53000,1313,3095,2113,10843,12962,52202,73624,204930,147492,264546,773120,https://letterboxd.com/film/aftersun/
Bodies Bodies Bodies,2022,Halina Reijn,"['Amandla Stenberg', 'Maria Bakalova', 'Myha’la', 'Rachel Sennott', 'Chase Sui Wonders', 'Pete Davidson', 'Lee Pace', ""Conner O'Malley""]",3.33,2.0,"['Mystery', 'Horror', 'Comedy']",94,['USA'],English,['English'],"['A24', '2AM']",793386,162147,226614,2800,5036,10615,9791,36527,47924,143320,154648,169703,37970,45217,660751,https://letterboxd.com/film/bodies-bodies-bodies/
X,2022,Ti West,"['Mia Goth', 'Jenna Ortega', 'Brittany Snow', 'Kid Cudi', 'Martin Henderson', 'Owen Campbell', 'Stephen Ure', 'James Gaylyn', 'Simon Prast', 'Geoff Dolan', 'Matthew J. Saville', 'Bryony Skillington', 'Karen Gillan']",3.42,3.5,"['Mystery', 'Thriller', 'Horror']",106,['USA'],English,['English'],"['A24', 'Little Lamb Productions']",1173357,222016,353629,5400,5221,11888,10950,45137,59164,195919,210587,258311,62510,89167,948854,https://letterboxd.com/film/x-2022/
Everything Everywhere All at Once,2022,"Daniel Scheinert, Daniel Kwan","['Michelle Yeoh', 'Stephanie Hsu', 'Ke Huy Quan', 'James Hong', 'Jamie Lee Curtis', 'Tallie Medel', 'Jenny Slate', 'Harry Shum Jr.', 'Biff Wiff', 'Sunita Mani', 'Aaron Lazar', 'Brian Le', 'Andy Le', 'Neravana Cabral', 'Chelsey Goldsmith', 'Craig Henningsen', 'Anthony Molinari', 'Dan Brown', 'Anthony N.', 'Cara Marie Chooljian', 'Randall Archer', 'Efka Kvaraciejus', 'Peter Banifaz', 'Audrey Wasilewski', 'Li Jing', 'Dylan Henry Lau', 'Boon Pin Koh', 'Timothy Eulich', 'Daniel Scheinert', 'Michiko Nishiwaki', 'Jane Lui', 'Jason Hamer', 'Timothy Ralston', 'Hiroshi Yada', 'Randy Newman', 'Amanda MacLeod']",4.31,5.0,"['Science Fiction', 'Adventure', 'Comedy', 'Action']",140,['USA'],English,"['English', 'Cantonese', 'Chinese']","['A24', 'IAC Films', 'AGBO', 'Ley Line Entertainment', 'TPC', 'Year of the Rat']",2873720,491344,1456687,129000,9523,20090,10010,46597,36693,142392,146366,443639,352713,1112151,2320174,https://letterboxd.com/film/everything-everywhere-all-at-once/
Babysitter,2022,Monia Chokri,"['Patrick Hivon', 'Monia Chokri', 'Nadia Tereszkiewicz', 'Steve Laplante', 'Hubert Proulx', 'Stéphane Moukarzel', 'Nathalie Breuer', 'Patrice Dubois', 'Ève Duranceau', 'Geneviève Beaudet', 'Patricia Lanoie', 'Adina Darie', 'Valerie-Pascale Bourque', 'Amélie Grenier', 'Varda Étienne', 'Linda Brodeur', 'Alphé Gagné', 'Anne-Valérie Bouchard', 'Léa Simard', 'Jonathan David Bédard', 'Antoine Beaulieu', 'Mazen El-Masri', 'Sophie Doucet', 'Chanelle Moroni']",3.39,3.5,['Comedy'],88,"['Canada', 'France']",French,['French'],"['Amérique Film', 'Phase 4 Productions']",14987,4426,3771,67,68,202,229,706,1001,2415,2588,2506,769,718,11202,https://letterboxd.com/film/babysitter-2022/
"Good Luck to You, Leo Grande",2022,Sophie Hyde,"['Emma Thompson', 'Daryl McCormack', 'Isabella Laughland', 'Les Mabaleka', 'Lennie Beare', 'Carina Lopes', 'Charlotte Ware']",3.64,4.0,"['Drama', 'Romance']",97,['UK'],English,"['English', 'Portuguese']","['Cornerstone Films', 'Genesius Pictures', 'Align']",84828,21344,21926,102,248,462,465,1981,3042,11574,17344,22183,5586,4709,67594,https://letterboxd.com/film/good-luck-to-you-leo-grande/
Mars One,2022,Gabriel Martins,"['Rejane Faria', 'Carlos Francisco', 'Camilla Damião', 'Ana Hilário', 'Cícero Lucas', 'Dircinha Macêdo', 'Russo Apr', 'Juan Pablo Sorín', 'Tokinho', 'Robson Vieira', 'Tatiana Carvalho Costa', 'Renato Novaes', 'Thiago Cesário', 'Felipe Santos', 'Josi Lopes', 'Katia Aracelle Leonídio', 'Heliel Matos', 'Raíssa Oliveira', 'Pablo Giorgio', 'Luna Gomides', 'Ralph Antunes', 'Luciano Negro Drama', 'Bernardo Filaretti', 'Judith Souza dos Anjos', 'Geraldo Martins', 'Marcelino', 'Kelly Crifer', 'Sebastião Cezário da Silva', 'Aruana Zamby', 'Adilson Marcelino', 'Lúcia Maria Alves', 'Hélio Ricardo', 'Matheus Dias Will', 'Simara Telles', 'Dona Eliza', 'Patrícia de Assis']",3.85,4.0,['Drama'],115,['Brazil'],Portuguese,['Portuguese'],"['Filmes de Plástico', 'Canal Brasil']",26021,9909,11097,495,41,58,57,247,429,1667,2937,6327,3546,6607,21916,https://letterboxd.com/film/mars-one/
Scream,2022,"Matt Bettinelli-Olpin, Tyler Gillett","['Melissa Barrera', 'Jenna Ortega', 'Mason Gooding', 'Jasmin Savoy Brown', 'Jack Quaid', 'Mikey Madison', 'Courteney Cox', 'David Arquette', 'Neve Campbell', 'Dylan Minnette', 'Skeet Ulrich', 'Sonia Ammar', 'Roger L. Jackson', 'Kyle Gallner', 'Marley Shelton', 'Reggie Conquest', 'Heather Matarazzo', 'Chester Tam', 'Brooke Barnhill', 'Stephen West-Rogers', 'Milli M.', 'Christopher Speed', 'Chelsea Rebecca', 'James A. Janisse', 'Drew Barrymore', 'Adam Brody', 'Henry Winkler', 'Hayden Panettiere', 'Jamie Kennedy', 'Matthew Lillard', 'Matt Bettinelli-Olpin', 'Tyler Gillett', 'Iya Labunka', 'Kevin Williamson', 'Marco Beltrami', 'Patrick Lussier', 'Julie Plec', 'Rian Johnson']",3.21,3.5,"['Thriller', 'Mystery', 'Horror']",114,['USA'],English,['English'],"['Paramount', 'Project X Entertainment', 'Radio Silence', 'Spyglass Media Group']",725389,162699,182721,1700,5443,11702,11088,36627,43944,119229,108496,123575,28822,43868,532794,https://letterboxd.com/film/scream-2022/
The Humans,2021,Stephen Karam,"['Richard Jenkins', 'Jayne Houdyshell', 'Amy Schumer', 'Beanie Feldstein', 'Steven Yeun', 'June Squibb']",3.36,2.0,['Drama'],107,['USA'],English,['English'],"['A24', 'IAC Films']",54347,21162,11090,57,307,831,809,2908,4060,9910,10776,9799,2524,1543,43467,https://letterboxd.com/film/the-humans/
The Lost Daughter,2021,Maggie Gyllenhaal,"['Olivia Colman', 'Jessie Buckley', 'Dakota Johnson', 'Ed Harris', 'Paul Mescal', 'Peter Sarsgaard', 'Dagmara Dominczyk', 'Jack Farthing', 'Alba Rohrwacher', 'Oliver Jackson-Cohen', 'Panos Koronis', 'Robyn Elwell', 'Ellie Mae Blake', 'Alexandros Mylonas', 'Nikos Poursanidis', 'Athena Martin Anderson', 'Spyros Maragoudakis', 'Konstantinos Samaa', 'Emmanouela Zacharopoulou', 'Alma Stansil', 'Daniela Babek', 'Ellie James', 'Isabelle Della-Porta', 'Vassilis Koukalani']",3.52,3.5,['Drama'],122,"['Greece', 'UK', 'USA']",English,"['English', 'Greek (modern)', 'Italian']","['Pie Films', 'Endeavor Content', 'Samuel Marshall Productions', 'Media Finance Capital', 'Faliro House Productions']",277964,56447,58410,398,859,2252,1965,9661,13049,42448,52924,64612,14675,11027,213472,https://letterboxd.com/film/the-lost-daughter-2021/
Great Freedom,2021,Sebastian Meise,"['Franz Rogowski', 'Georg Friedrich', 'Anton von Lucke', 'Thomas Prenn', 'Thomas Stecher', 'Alfred Hartung', 'Thomas Wehling', 'Mex Schlüpfer', 'David Burnell IV', 'Fabian Stumm', 'Joachim Schönfeld', 'Klaus Huhle', 'Andreas Patton', 'Daniel Wagner', 'Ulrich Faßnacht', 'Johannes Cramer', 'Dan Lestrade', 'Ernst Sigot']",3.96,4.5,"['Drama', 'Crime', 'Romance']",116,"['Austria', 'Germany']",German,"['German', 'English', 'Spanish']","['FreibeuterFilm', 'Rohfilm']",31489,12080,10208,190,22,51,62,285,502,2592,4819,9986,3796,2868,24983,https://letterboxd.com/film/great-freedom/
Annette,2021,Leos Carax,"['Adam Driver', 'Marion Cotillard', 'Simon Helberg', 'Devyn McDowell', 'Angèle', 'Natalia Lafourcade', 'Sinay Bavurhe', 'Franziska Grohmann', 'Rachel Mulowayi', 'Christiane Tchouhan', 'Iman Europe', 'Lauren Evans', 'Cindy Almouzni', 'Danielle Withers', 'Julia Bullock', 'Claron McFadden', 'Natalie Mendoza', 'Kiko Mizuhara', 'Noémie Schellens', 'Kanji Furutachi', 'Rila Fukushima', 'Laura Jansen', 'Eva van der Gucht', 'Bettina Meske', 'David E. Moore', 'John Paval', 'Lemuel Pitts', 'Colin Lainchbury-Brown', 'Wim Opbrouck', 'Kait Tenison', 'Rebecca Sjowall', 'Geoffrey Carey', 'Alberto Chromatico', 'Okon Ubanga Jones', 'Gabriela Leguizamo', 'Kamary Phillips', 'Aydogan Abay', 'Arvid Assarsson', 'Jeffrey Dowd', 'Rebecca Dyson-Smith', 'Graciela Maria', 'Clément Ducol', 'Richard McCowen', 'Michael Moore', 'Beatrice Reece', 'Eugene Stovall', 'Sarah Tsehaye', 'Fiora Cutler', 'Ron Mael', 'Russell Mael', 'Marina Bohlen', 'Elke Shari Van Den Broeck', 'Arina Yalaletdinova', 'Ella Leyers', 'Philippe Beyls', 'Amos Kaden Chea', 'Apollo Colligan', 'Sonny Dunlap', 'Yossi Guetta', 'James Larson', 'Adrian Tupas', 'Nastya Golubeva Carax', 'Ai Nishina', 'Ayano', 'Alex Casnoff', 'Patrick Kelly', 'Stevie Nistor', 'Eli Pearl', 'Evan Weiss', 'Ryan Parrish', 'Joe Berry', 'Emmi Joutsi', 'Leos Carax', 'Tyler Matteo', 'Kevin van Doorslaer', 'Verona Verbakel', 'Dominique Dauwe']",3.38,2.0,"['Romance', 'Drama']",140,"['Belgium', 'France', 'Germany', 'Greece', 'Japan', 'Mexico', 'Switzerland']",English,"['English', 'French']","['Eurospace', 'Detailfilm', 'ARTE France Cinéma', 'CG Cinéma', 'Garidi Films', 'Théo Films', 'Tribus P Films', 'UGC', 'SCOPE Pictures', 'Wrong Men', 'Piano']",131374,43452,31857,688,1634,3264,2678,7802,8080,17043,18401,22919,9114,8053,98988,https://letterboxd.com/film/annette/
The Man with the Answers,2021,Stelios Kammitsis,"['Vasilis Magouliotis', 'Anton Weil', 'Stella Fyrogeni', 'Marc Pistono', 'Brando Rossi', 'Pierpaolo Vitale', 'Antonis Katsaris', 'Rinio Dragasaki', 'Thodoros Mihopoulos', 'Vassilis Dimitroulias', 'Roni Enwiya', 'Pier Andrea Bosna']",3.48,1.0,"['Drama', 'Romance']",80,"['Cyprus', 'Greece', 'Italy']",Greek (modern),"['Greek (modern)', 'English', 'German', 'Italian']","['9.99 Films', 'asterisk*', 'Blonde Audiovisual Productions', 'Felony Productions']",7107,2604,2266,126,14,51,54,230,368,1230,1325,1491,401,639,5803,https://letterboxd.com/film/the-man-with-the-answers/
CODA,2021,Siân Heder,"['Emilia Jones', 'Marlee Matlin', 'Troy Kotsur', 'Eugenio Derbez', 'Ferdia Walsh-Peelo', 'Daniel Durant', 'Amy Forsyth', 'Kevin Chapman', 'John Fiore', 'Lonnie Farmer', 'Courtland Jones', 'Molly Beth Thomas', 'Ayana Brown', 'Jason Pugatch', 'Kyana Fanene', 'Anilee List', 'Stone Martin', 'Maeve Chapman', 'Stephen Caliskan', 'Amanda Bradshaw', 'Bryan Sabbag', 'Kayla Caulfield', 'Samidio DePina', 'Dominic Andersen', 'Jose Guns Alves', 'Owen Burke', 'Lance Norris', 'Mark Pettograsso', 'Tony Viveiros', 'Armen Garo', 'Jared Voss', 'Emilia Faucher', 'Marilyn Busch', 'Melissa McMeekin', 'Erica McDermott', 'Garrett McKechnie', 'Rebecca Gibel', 'TJ Ciarametaro', 'Gary Galone', 'Nikki Kim', 'Mary Ann Schaub', 'Cassandra Berta', 'Sarah Clarke', 'Rena Maliszewski', 'David Newsom', 'Kiara Pichardo', 'Pamela Jayne Morgan', 'Elbert Kim', 'Dominic Cannarella-Andersen']",3.86,1.5,"['Music', 'Romance', 'Drama']",112,"['France', 'USA']",English,"['English', 'Spanish']","['Vendôme Pictures', 'Pathé', 'Picture Perfect Entertainment']",381229,94820,121378,1800,917,1922,1939,7943,11110,37851,54494,95361,41150,48363,301050,https://letterboxd.com/film/coda-2021/
Minari,2020,Lee Isaac Chung,"['Steven Yeun', 'Han Yeri', 'Youn Yuh-jung', 'Will Patton', 'Alan Kim', 'Noel Kate Cho', 'Scott Haze', 'Darryl Cox', 'Esther Moon', 'Ben Hall', 'Eric Starkey', 'Jacob Wade', 'James Carroll', 'Jenny Phagan', 'Tina Parker', 'Chloe Lee', 'Joel Telford', 'Kaye Brownlee-France', 'Skip Schwink', 'Tea Oh', 'Debbi Tucker', 'Ed Spinelli', 'Ernie Robinson', 'Danny Frost', 'Laurie Frost', 'Warren Lane', 'Jonnie Parnell', 'Amanda Pearce', 'April Warren']",4.09,3.0,['Drama'],115,['USA'],English,"['English', 'Korean']",['Plan B Entertainment'],490762,122250,168266,3300,263,777,698,4082,6336,31570,56034,135998,79603,64302,379663,https://letterboxd.com/film/minari/
Twilight's Kiss,2019,Ray Yeung,"['Tai Bo', 'Ben Yuen Foo-Wah', 'Patra Au Ga-Man', 'Lo Chun Yip', 'Lam Yiu-Sing', 'Clifford Tsang Man-Wai', 'Kong To', 'Wong Hiu Yee', 'Joe Hu', 'Ivy Lau Ting-Kwan', 'Shmily', 'Gordon Wong Kwok Fai', 'Chak Tse Kwan', 'Pun Chi Sin', 'Wong Ching Yu', 'Wong Ka Wing', 'Ding Mei Sum', 'Lau Chung Hin', 'Raymond Chan Chi Ho', 'Sammy Wong Hing Kwok', 'Cheung Chi Man', 'Lau Chi Chung', 'Patrick Lam Kwok Leung', 'Ho Hon Fai', 'Cheng Ngai-Bong', 'Suen Wai Fong', 'Yuk-Guen Tsang', 'Yuen Hon Cheung', 'Chiang Kon Ki', 'Alan Wong Ching Chun', 'Lau Yat-Tung', 'James Kok Pak Ning', 'Yau Hiu Kwan', 'Pang Chin Hang']",3.61,1.0,['Drama'],92,['Hong Kong'],Cantonese,['Cantonese'],['New Voice Film Productions Ltd.'],5561,2018,1294,12,6,14,16,94,180,915,1210,1288,295,247,4265,https://letterboxd.com/film/twilights-kiss/
A Couple,2019,William de Oliveira,"['Luiz Bertazzo', 'Vinícius Sant', 'Cinara Vitor', 'Patrícia Cipriano']",nan,4.0,['Drama'],20,['Brazil'],Portuguese,['Portuguese'],['Imagística Filmes'],102,23,12,0,1,0,0,2,4,11,16,14,2,5,55,https://letterboxd.com/film/a-couple-2019/
Matthias & Maxime,2019,Xavier Dolan,"[""Gabriel D'Almeida Freitas"", 'Xavier Dolan', 'Pier-Luc Funk', 'Samuel Gauthier', 'Antoine Pilon', 'Adib Alkhalidey', 'Micheline Bernard', 'Anne Dorval', 'Marilyn Castonguay', 'Catherine Brunet', 'Harris Dickinson', 'Camille Felton', 'Anne-Marie Cadieux', 'Monique Spaziani', 'Jacques Lavallée', 'Louis-Julien Durso', 'Johanne Garneau', 'Alexandre Bourgeois', 'Jean Harvey', 'Connor McMahon', 'Michael Kelly', 'Louise Bombardier', 'Claude Gasse', 'Agnès Bouchard', 'Guenièvre Sandré', 'Julie Beauchemin', 'William Pelletier', 'Audrey McDonald', 'Dakota Jamal Wellman', 'Beverly Lowe', 'Nathalie Doummar', 'Alice Pascual', 'Félix Paquette', 'Maude Demers-Rivard', 'Victor Billo']",3.65,2.0,"['Romance', 'Drama']",119,['Canada'],French,"['French', 'English']",['Sons of Manual'],57010,15751,16906,647,143,322,410,1748,2523,7693,9312,12056,3904,4263,42374,https://letterboxd.com/film/matthias-maxime/
Invisible Life,2019,Karim Aïnouz,"['Carol Duarte', 'Julia Stockler', 'Fernanda Montenegro', 'Gregório Duvivier', 'Bárbara Santos', 'Flávia Gusmão', 'António Fonseca', 'Maria Manoella', 'Cristina Pereira', 'Nikolas Antunes', 'Cláudio Gabriel', 'Flávio Bauraqui', 'Gillray Coutinho', 'Alexandre Paz', 'Andressa Cabral', 'Eduardo Tornaghi', 'Fernando Ceylão', 'Hugo Cruz', 'Lumi Kin', 'Luana Xavier', 'Marcello Melo', 'Maria Carolina Basílio', 'Márcio Vito', 'Natália Caruso', 'Pablo Pêgas', 'Rafael Raposo', 'Izak Dahora', 'Roberto Filho', 'Samuel Toledo', 'Shirley Cruz', 'Sônia Cardoso', 'Thales Miranda', 'Nelson Ferreira', 'Ismar Martins', 'Carrique', 'Lidiane Oliveira', 'Roberto Souza', 'Esther Elizabeth', 'Tamires Nascimento', 'Remo Trajano', 'Ana Isabel Cartaxo', 'Bettina Druck', 'Marina Manuela']",4.05,3.5,['Drama'],140,"['Brazil', 'Germany']",Portuguese,"['Portuguese', 'Greek (modern)']","['RT Features', 'Pola Pandora Filmproduktions', 'Canal Brasil', 'Sony Pictures Entertainment Brazil', 'Naymar']",32119,12527,11792,628,45,92,97,426,525,1702,3080,7633,4727,6312,24639,https://letterboxd.com/film/invisible-life/
Us,2019,Jordan Peele,"[""Lupita Nyong'o"", 'Winston Duke', 'Shahadi Wright Joseph', 'Evan Alex', 'Tim Heidecker', 'Elisabeth Moss', 'Cali Sheldon', 'Noelle Sheldon', 'Yahya Abdul-Mateen II', 'Anna Diop', 'Madison Curry', 'Duke Nicholson', 'Napiera Groves', 'Kara Hayward', 'Lon Gowan', 'Alan Frazier', 'Dustin Ybarra', 'Nathan Harrington', 'Darrel Cherney', 'James Cobb', 'Alessandro Garcia', 'David M Sandoval Jr.', 'Ashley McKoy', 'Jordan Peele']",3.65,4.0,"['Thriller', 'Horror']",116,['USA'],English,['English'],"['Monkeypaw Productions', 'Universal Pictures', 'Blumhouse Productions', 'QC Entertainment', 'Perfect World Pictures']",1869736,226608,601276,9400,4493,13260,9567,53542,55479,222392,217897,383643,118718,207006,1285997,https://letterboxd.com/film/us-2019/
Escape Room,2019,Adam Robitel,"['Taylor Russell', 'Logan Miller', 'Jay Ellis', 'Deborah Ann Woll', 'Nik Dodani', 'Tyler Labine', 'Yorick van Wageningen', 'Cornelius Geaney Jr.', 'Russell Crous', 'Bart Fouche', 'Jessica Sutton', 'Paul Hampshire', 'Vere Tindale', 'Kenneth Fok', 'Caely-Jo Levy', 'Jamie-Lee Money', 'Jeremy Jess Boado', 'Inge Beckmann', 'Carl Coetzee', 'Katheryn Griffiths', 'Gary Green', 'Raven Swart', 'Dan Gruenberg', 'Gino Lee', 'Álex Martínez', 'Rebecca Riedy', 'Adam Robitel', 'Pete Sepenuk', 'Romulus Stoicescu', 'Mario Tardón', 'Alfredo Tavares']",2.81,0.5,"['Mystery', 'Thriller', 'Horror']",100,['USA'],English,['English'],"['Columbia Pictures', 'Original Film']",280435,35026,38227,281,2142,6509,8100,24877,31224,56022,29232,22336,3884,7248,191574,https://letterboxd.com/film/escape-room-2019/
Hereditary,2018,Ari Aster,"['Toni Collette', 'Alex Wolff', 'Gabriel Byrne', 'Ann Dowd', 'Milly Shapiro', 'Mallory Bechtel', 'Brock McKinney', 'Jake Brown', 'Morgan Lund', 'Christy Summerhays', 'Bus Riley', 'Jarrod Phillips', 'Heidi Mendez', 'Zachary Arthur', 'David Stanley', 'Moises L. Tovar', 'Austin R. Grant', 'Gabriel Monroe Eckert', 'Harrison Nell', 'BriAnn Rachele', 'Kathleen Chalfant', 'Ari Aster', 'Marilyn Miller', 'Mark Blockovich', 'Rachelle Hardy', 'Jason Miyagi', 'Lorenzo Silva', 'Alexis Long']",3.97,2.0,"['Thriller', 'Horror', 'Mystery']",128,['USA'],English,['English'],['PalmStar Media'],2029793,329529,755918,31000,7370,17745,8991,45823,36580,154715,160327,433215,220830,380340,1465936,https://letterboxd.com/film/hereditary/
Call Me by Your Name,2017,Luca Guadagnino,"['Timothée Chalamet', 'Armie Hammer', 'Michael Stuhlbarg', 'Amira Casar', 'Esther Garrel', 'Victoire du Bois', 'Vanda Capriolo', 'Antonio Rimoldi', 'Elena Bucci', 'Marco Sgrosso', 'André Aciman', 'Peter Spears']",3.86,4.0,"['Romance', 'Drama']",132,"['Brazil', 'France', 'Italy', 'USA']",English,"['English', 'French', 'Italian']","['La Cinéfacture', 'Frenesy Film', 'M.Y.R.A. Entertainment', 'RT Features', ""Water's End Productions""]",2106972,288511,788602,63000,13738,24632,12367,61283,46541,187242,154753,374762,158330,388906,1422554,https://letterboxd.com/film/call-me-by-your-name/
Split,2016,M. Night Shyamalan,"['James McAvoy', 'Anya Taylor-Joy', 'Betty Buckley', 'Haley Lu Richardson', 'Jessica Sula', 'Izzie Coffey', 'Brad William Henke', 'Sebastian Arcelus', 'Neal Huff', 'Ukee Washington', 'Ann Wood', 'Robert Michael Kelly', 'M. Night Shyamalan', 'Rosemary Howard', 'Jerome Gallman', 'Lyne Renee', 'Kate Jacoby', 'Peter Patrikios', 'Kash Goins', 'Roy James Wilson', 'Christopher Lee Philips', 'Julie Potter', 'Ameerah Briggs', 'Nakia Dillard', 'Robin Rieger', 'Emlyn Elisabeth Morinelli', 'Dann Fink', 'Bruce Winant', 'Bruce Willis', 'Kelly Werkheiser', 'Kim Director', 'Robert Bizik', 'Junnie Lopez', 'Steven Dennis', 'Matthew Nadu', 'Barbara Edwards', 'James Robinson Jr.', 'Corinne Costa', 'John Mitchell', 'Andrea Havens', 'Shawn Gonzalez', 'Aleksandra Svetlichnaya', 'Jalina Mercado', 'Michael J. Kraycik', 'Michaela Bockarie', 'Colin Campbell', 'John Jillard Sr.', 'Vincent Riviezzo', 'Gary Ayash', 'Jeff Buckner']",3.46,3.5,"['Thriller', 'Horror']",117,['USA'],English,['English'],"['Universal Pictures', 'Blinding Edge Pictures', 'Blumhouse Productions']",1598014,115412,366472,2800,5579,13066,10027,49499,56554,210992,205175,267634,59527,101025,979078,https://letterboxd.com/film/split-2016/
The Hunger Games: Mockingjay – Part 2,2015,Francis Lawrence,"['Jennifer Lawrence', 'Josh Hutcherson', 'Liam Hemsworth', 'Woody Harrelson', 'Elizabeth Banks', 'Julianne Moore', 'Philip Seymour Hoffman', 'Jeffrey Wright', 'Stanley Tucci', 'Donald Sutherland', 'Willow Shields', 'Sam Claflin', 'Jena Malone', 'Mahershala Ali', 'Natalie Dormer', 'Wes Chatham', 'Michelle Forbes', 'Elden Henson', 'Patina Miller', 'Evan Ross', 'Paula Malcomson', 'Eugenie Bondurant', 'Sarita Choudhury', 'Stef Dawson', 'Meta Golding', 'Omid Abtahi', 'Joe Chrest', 'Misty Ormiston', 'Kim Ormiston', 'Gwendoline Christie', 'Robert Knepper', 'Mark Jeffrey Miller', 'April Grace', 'David Hallyday', 'Linds Edwards', 'Thomas Blake Jr.', 'Cameron MacConomy', 'Desmond Phillips', 'Elle Graham', 'Lacy Dmitriew', 'Kate Rachesky', 'Phillip Troy Linger', 'Bear Lawrence', 'Theodore Lawrence', 'Toby Jones', 'Gary Sievers', 'Emma Elle Roberts', 'Alexander Yassin', 'Jasmine Ahnie', 'Sue-Lynn Ansari', 'Scott Hunter', 'Sam Hargrave', 'R.A. Rondell', 'Jean Christophe Loustau']",3.29,2.0,"['Adventure', 'Action', 'Science Fiction']",137,"['Germany', 'USA']",English,['English'],"['Lionsgate', 'Color Force', 'Studio Babelsberg']",1341853,81272,236569,1200,4335,14130,13204,54635,61141,174870,118830,145906,35431,91023,713505,https://letterboxd.com/film/the-hunger-games-mockingjay-part-2/
The Hunger Games: Mockingjay – Part 1,2014,Francis Lawrence,"['Jennifer Lawrence', 'Josh Hutcherson', 'Liam Hemsworth', 'Woody Harrelson', 'Elizabeth Banks', 'Julianne Moore', 'Philip Seymour Hoffman', 'Jeffrey Wright', 'Stanley Tucci', 'Donald Sutherland', 'Willow Shields', 'Sam Claflin', 'Jena Malone', 'Mahershala Ali', 'Natalie Dormer', 'Wes Chatham', 'Elden Henson', 'Patina Miller', 'Evan Ross', 'Paula Malcomson', 'Sarita Choudhury', 'Stef Dawson', 'Robert Knepper', 'Caitlin Fowler', 'Jada Taylor', 'Nicholas Pryor', 'Donna Biscoe', 'Michael Garza', 'Erika Bierman', 'Jenique Bennett', 'Rus Blackwell', 'Stevie Ray Dallimore', 'Breann Couch', 'Jordan Woods-Robinson', 'Katie Sawhill', 'Jackson Mizell', 'Charles Kronmuller', 'Jennifer Cocker', 'Marshall Choka', 'Tyler Lee Allen', 'Jasmine Ahnie', 'Brayden Patterson', 'Emma Elle Roberts', 'Molly Evensen', 'William Frasca', 'Joe Crosson', 'Gregory Fears', 'Charles White Jr.', 'Angel Giuffria', 'Ryan DeLaney']",3.2,1.0,"['Thriller', 'Science Fiction', 'Adventure']",123,['USA'],English,['English'],"['Lionsgate', 'Color Force']",1484085,83177,252660,1000,4015,14505,13992,63040,75626,221417,131719,149437,27909,82568,784228,https://letterboxd.com/film/the-hunger-games-mockingjay-part-1/
Still Alice,2014,"Richard Glatzer, Wash Westmoreland","['Julianne Moore', 'Kate Bosworth', 'Shane McRae', 'Hunter Parrish', 'Alec Baldwin', 'Seth Gilliam', 'Kristen Stewart', 'Stephen Kunken', 'Erin Darke', 'Daniel Gerroll', 'Quincy Tyler Bernstine', 'Maxine Prescott', 'Orlagh Cassidy', 'Rosa Arredondo', 'Zillah Glory', 'Caridad Montanez', 'Caleb Freundlich', 'Charlotte Robson', 'Jean Burns', 'José Báez', 'Victoria Cartagena', 'Jeannette Gould', 'Takako Haywood', 'Samantha Kelly', 'Diane Kimbrell', 'Cat Lynch', 'Joanne Perica', 'Jamie Lee Petronis', 'Nancy Ellen Shore', 'Eha Urbsalu', 'Gail Yudain']",3.71,2.5,['Drama'],100,"['France', 'UK', 'USA']",English,['English'],"['Shriver Films', 'Killer Films', 'Big Indie Pictures', 'BSM Studio', 'Lutzus-Brown', 'Backup Media', 'Sony Pictures Classics']",177716,22388,31003,276,97,425,459,2587,4203,19293,24731,35065,7765,8945,103570,https://letterboxd.com/film/still-alice/
Goodnight Mommy,2014,"Severin Fiala, Veronika Franz","['Elias Schwarz', 'Lukas Schwarz', 'Susanne Wuest', 'Hans Escher', 'Elfriede Schatz', 'Karl Purker', 'Georg Deliovsky', 'Christian Steindl', 'Christian Schatz', 'Erwin Schmalzbauer', 'Michael Ande', 'Ruth Leuwerik']",3.37,4.5,"['Mystery', 'Thriller', 'Horror']",100,['Austria'],German,['German'],"['Koch Media', 'Ulrich Seidl Filmproduktion', 'Radius Productions', 'Filmfonds Wien', 'FISA', 'OFI', 'ORF']",160831,38560,30338,227,786,1748,1824,6803,8764,24951,26854,26702,5642,6023,110097,https://letterboxd.com/film/goodnight-mommy/
Pride,2014,Matthew Warchus,"['George MacKay', 'Ben Schnetzer', 'Freddie Fox', 'Bill Nighy', 'Imelda Staunton', 'Dominic West', 'Paddy Considine', 'Andrew Scott', 'Joseph Gilgun', 'Chris Overton', 'Faye Marsay', 'Jessica Gunning', 'Joshua Hill', 'Lisa Palfrey', 'Liz White', 'Monica Dolan', 'Rhodri Meilir', 'Menna Trussler', 'Karina Fernandez', 'Jessie Cave', 'Russell Tovey', 'Nia Gwynne', 'Jack Baggs', 'Dyfan Dwyfor', 'Johnny Gibbon', 'Kyle Rees', 'Bryan Parry', 'Lee Shepherd', 'Jordan Metcalfe', 'Matthew Flynn', 'Joseph Wilkins', 'Laura Matthews', 'Roger Morlidge', 'Matthew Tennyson', 'Mary-Anne Dymond', 'Sophie Evans', 'Lucy Timmons', 'Dean Ashton', 'Adam Ewan', 'Jim McManus', 'Shane Salter', 'Josh Rochford', 'Will Haddington', 'Dion Lloyd-Jones', 'Christian Patterson', 'Deddie Davies', 'Bronwen Lewis', 'Ross Waiton', 'Olwen Medi', 'Jâms Thomas', 'Julie Barclay', 'Jaimi Barbakoff', 'Ed Coleman', 'Tomos Eames', 'Matthew Seadon-Young', 'Alexander Perkins', 'Feargal Quinn', 'Lauren Johns', 'Sean Hart', 'Nick Blair', 'Bill Nash', 'Richard Shanks', 'Huw Euron', 'Derek Barr', 'Henry Garrett', 'David Lyndon', 'Neal Barry', 'James McGregor', 'Clare Lawrence-Moody', 'Giles Cooper']",4.11,4.0,"['Drama', 'Comedy']",120,"['France', 'UK']",English,['English'],"['Calamity Films', 'BBC Film', 'Proud Films', 'BFI', 'Pathé', 'Pathe']",134094,35458,48804,3600,148,209,224,1088,1607,7910,12725,28960,14362,24719,91952,https://letterboxd.com/film/pride-2014/
Mommy,2014,Xavier Dolan,"['Anne Dorval', 'Antoine Olivier Pilon', 'Suzanne Clément', 'Alexandre Goyette', 'Michèle Lituac', 'Viviane Pacal', 'Natalie Hamel-Roy', 'Isabelle Nélisse', 'Patrick Huard', 'Ted Pluviose', 'Pierre-Yves Cardinal', 'Reda Guerinik', 'Justin Laramée', 'Sabrina Bisson', 'Huguette Gervais', 'Vincent Fafard', 'Jean-Philippe Baril-Guérard', 'Dominic Desnoyers', 'Guenièvre Sandré', 'Isabeau Blanche', 'Catherine Brunet', 'Johanne Garneau', 'Michael Rudder', 'Robin-Joël Cool', 'Guillaume Laurin', 'Mathieu Dufresne', 'Stéphane Julien', 'Julie De Lafrenière', 'Sylvie Lemay', 'Danielle Lepine', 'Jeanne Roux-Coté', 'Rosalie Fortier', 'Steven Chevrin', 'Pierre-François Bouffard', 'Courtnee Rasmussen']",4.31,4.5,['Drama'],138,['Canada'],French,"['French', 'English']","['Metafilms', 'Sons of Manual']",244775,76939,99666,11000,469,813,705,2615,2893,10998,16179,46374,34999,58464,174509,https://letterboxd.com/film/mommy-2014/
The Hunger Games: Catching Fire,2013,Francis Lawrence,"['Jennifer Lawrence', 'Josh Hutcherson', 'Liam Hemsworth', 'Woody Harrelson', 'Elizabeth Banks', 'Donald Sutherland', 'Lenny Kravitz', 'Philip Seymour Hoffman', 'Jeffrey Wright', 'Stanley Tucci', 'Toby Jones', 'Willow Shields', 'Sam Claflin', 'Lynn Cohen', 'Jena Malone', 'Bobby Jordan', 'Amanda Plummer', 'Jack Quaid', 'Taylor St. Clair', 'Sandra Ellis Lafferty', 'Paula Malcomson', 'Brooke Bundy', 'Nelson Ascencio', 'Afemo Omilami', 'Kimberley Drummond', 'Deena Beasley', 'Leon Lamar', 'Mandy Neuhaus', 'Erika Bierman', 'Wilbur Fitzgerald', 'Patrick St. Esprit', 'Jill Jane Clements', 'James Sutton', 'Alan Ritchson', 'Stephanie Leigh Schlund', 'Meta Golding', 'Megan Hayes', 'Stef Dawson', 'James Logan', 'E. Roger Mitchell', 'Bruno Gunn', 'Maria Howell', 'Judd Lormand', 'Elena Sanchez', 'John Casino', 'Marian Green', 'Daniel Bernhardt', 'Ravi Naidu', 'Franco Castan', 'Jared Allman', 'Laura Avnaim', 'Noëlle Renée Bercy', 'Jackson Spidell', 'Nickolas Wolf', 'Moses J. Moseley', 'Justin Hix']",3.8,4.0,"['Science Fiction', 'Adventure', 'Action']",146,['USA'],English,['English'],"['Lionsgate', 'Color Force']",1897076,127791,469177,24000,2647,9256,7083,39484,40928,163794,150074,271540,97540,253350,1035696,https://letterboxd.com/film/the-hunger-games-catching-fire/
The Liberator,2013,Alberto Arvelo,"['Edgar Ramírez', 'María Valverde', 'Iwan Rheon', 'Danny Huston', 'Imanol Arias', 'Gary Lewis', 'Juana Acosta', 'Leandro Arvelo', 'Erich Wildpret', 'Dacio Caballero', 'Carlos Julio Molina', 'Elisa Sednaoui', 'Karina Velásquez', 'Steve Wilcox', 'Mercedes Arbizu', 'Jon Bermúdez', 'Ángel Caballero', 'Francisco Denis', 'Alejandro Furth', 'Jesus Guevara', 'Juvel Vielma', 'Orlando Valenzuela']",3.16,2.0,"['Drama', 'History']",119,"['Spain', 'Bolivarian Republic of Venezuela']",Spanish,"['Spanish', 'English', 'French']","['WMG Film', 'Producciones Insurgentes', 'San Mateo Films']",2320,867,321,3,11,23,47,161,206,459,298,220,50,51,1526,https://letterboxd.com/film/the-liberator-2013/
Laurence Anyways,2012,Xavier Dolan,"['Melvil Poupaud', 'Suzanne Clément', 'Nathalie Baye', 'Monia Chokri', 'Susan Almgren', 'Yves Jacques', 'Sophie Faucher', 'Magalie Lépine-Blondeau', 'Catherine Bégin', 'Emmanuel Schwartz', 'Jacques Lavallée', 'Perrette Souplex', 'Patricia Tulasne', 'David Savard', 'Monique Spaziani', 'Denise Filiatrault', 'Violette Chauveau', 'Mylène Jampanoï', 'Jacob Tierney', 'Gilles Renaud', 'Patrice Coquereau', 'Anne-Élisabeth Bossé', 'Anne Dorval', 'Pierre Chagnon', 'Éric Bruneau', 'Alexis Lefebvre', 'Denys Paris', 'Vincent Davy', 'Vincent Plouffe', 'Manuel Tadros', 'Alexandre Goyette', 'Antoine Olivier Pilon', 'Bronwen Mantel', 'Mario Geoffrey', 'Yvette Thuot', 'Jeanne Gionnet-Lavigne', 'Claude Gasse', 'Clément Deschênes', 'François Sasseville', 'Xavier Dolan', 'Emily Hampshire']",4.02,4.0,"['Romance', 'Drama']",168,"['Canada', 'France']",French,"['French', 'English']","['MK2 Films', 'Lyla Films']",75811,22950,25608,1700,193,289,272,960,1406,4962,7153,15979,8272,10872,50358,https://letterboxd.com/film/laurence-anyways/
The Hunger Games,2012,Gary Ross,"['Jennifer Lawrence', 'Josh Hutcherson', 'Liam Hemsworth', 'Woody Harrelson', 'Elizabeth Banks', 'Lenny Kravitz', 'Stanley Tucci', 'Donald Sutherland', 'Wes Bentley', 'Toby Jones', 'Alexander Ludwig', 'Isabelle Fuhrman', 'Amandla Stenberg', 'Willow Shields', 'Sandra Ellis Lafferty', 'Paula Malcomson', 'Rhoda Griffis', 'Sandino Moya-Smith', 'Raiko Bowman', 'Dwayne Boyd', 'Anthony Reynolds', 'Judd Lormand', 'Kimiko Gelman', 'Nelson Ascencio', 'Brooke Bundy', 'Dayo Okeniyi', 'Leven Rambin', 'Jack Quaid', 'Latarsha Rose', 'Ian Nelson', 'Kalia Prescott', 'Ethan Jamieson', 'Jacqueline Emerson', 'Mackenzie Lintz', 'Imanol Yepez-Frias', 'Annie Thurman', 'Dakota Hood', 'Amber Chaney', 'Karan Kendrick', 'Shane Bissell', 'Kate Kneeland', 'Steve Coulter', 'Sharon Conley', 'Tim Taylor', 'John Ross', 'Phillip Troy Linger', 'Julie Ivey', 'Mark Meekins', 'Jeremy Marinas', 'Bill Bennett']",3.65,3.0,"['Fantasy', 'Science Fiction', 'Adventure']",142,['USA'],English,['English'],"['Lionsgate', 'Color Force']",2438850,137248,603988,11000,3471,11761,9482,51936,59850,252206,238760,388656,95690,241405,1353217,https://letterboxd.com/film/the-hunger-games/
A Separation,2011,Asghar Farhadi,"['Payman Maadi', 'Sare Bayat', 'Leila Hatami', 'Sarina Farhadi', 'Shahab Hosseini', 'Kimia Hosseini', 'Ali-Asghar Shahbazi', 'Babak Karimi', 'Merila Zarei', 'Shirin Yazdanbakhsh', 'Mohammad Sajadian', 'Armine Zeytounchian', 'Bahareh Riahi']",4.36,5.0,['Drama'],123,['Iran'],Persian (Farsi),['Persian (Farsi)'],['Asghar Farhadi Productions'],170271,58124,54190,2100,191,300,240,1065,1212,6205,10742,34760,27245,31833,113793,https://letterboxd.com/film/a-separation/
Saw III,2006,Darren Lynn Bousman,"['Tobin Bell', 'Shawnee Smith', 'Angus Macfadyen', 'Bahar Soomekh', 'Donnie Wahlberg', 'Dina Meyer', 'Leigh Whannell', 'Mpho Koaho', 'Barry Flatman', 'Lyriq Bent', 'J. LaRose', 'Debra McCabe', 'Costas Mandylor', 'Betsy Russell', 'Jane Luk', 'Stefan Georgiou', 'Niamh Wilson', 'Alan van Sprang', 'Kim Roberts', 'Brian Paul', 'Zoe Heath', 'Billy Parrott', 'Dylan Trowbridge', 'Franky G', 'Kelly Jones', 'Vincent Rother', 'Nicholas Kaegi', 'Mark Poyser', 'Timothy Burd', 'Dan Sudek', 'Bill Vibert', 'Sandy Kellerman', 'Shauna Black', 'Sean Sullivan', 'Larry Yachimec', 'Darrell Dennis', 'Christopher Marren', 'Mike Butters', 'Paul Gutrecht']",2.9,3.5,"['Thriller', 'Horror', 'Crime']",108,['USA'],English,['English'],"['Twisted Pictures', 'Evolution Entertainment', 'Lionsgate']",370181,59979,55771,1200,2266,6566,8228,27731,32390,63047,30450,27317,6038,13099,217132,https://letterboxd.com/film/saw-iii/
Babel,2006,Alejandro González Iñárritu,"['Brad Pitt', 'Cate Blanchett', 'Gael García Bernal', 'Koji Yakusho', 'Adriana Barraza', 'Rinko Kikuchi', 'Said Tarchani', 'Boubker Ait El Caid', 'Elle Fanning', 'Nathan Gamble', 'Mohamed Akhzam', 'Peter Wight', 'Abdelkader Bara', 'Mustapha Rachidi', 'Driss Roukhe', 'Clifton Collins Jr.', 'Robert Esquivel', 'Michael Peña', 'Yuko Murata', 'Satoshi Nikaido', 'Harriet Walter', 'Michael Maloney', 'Dermot Crowley', 'Trevor Martin', 'Aaron D. Spears', 'Alex Jennings', 'Matyelok Gibbs', 'Claudine Acs', 'Jamie McBride', 'Mónica del Carmen', 'André Oumansky', 'Wendy Nottingham', 'Linda Broughton', 'Lynsey Beauchamp', 'Aline Mowat', 'Michel Dubois', 'Shirley Dixon', 'Robert Fyfe', 'Wahiba Sahmi', 'Fadmael Ouali', 'Abdelaziz Merzoug', 'El Hassan Ait Bablal', 'Sfia Ait Benboullah', 'Lhacen Znin', 'Emilio Echevarría', 'Ivor Shier', 'R. D. Call', 'Qyoko Kudo', 'Barbarella Pardo', 'Cynthia Montaño', 'Tose Fukuda', 'Shigemitsu Ogi', 'Jane Arapawe', 'Shinji Suzuki']",3.67,4.0,['Drama'],143,"['France', 'Mexico', 'USA']",English,"['English', 'Arabic', 'Spanish', 'French', 'Japanese', 'Russian']","['Anonymous Content', 'Central Films', 'Zeta Film']",235658,36415,43038,780,557,1450,1337,5798,7060,23938,29625,40615,11896,11288,133564,https://letterboxd.com/film/babel-2006/
Saw II,2005,Darren Lynn Bousman,"['Tobin Bell', 'Donnie Wahlberg', 'Shawnee Smith', 'Erik Knudsen', 'Franky G', 'Glenn Plummer', 'Emmanuelle Vaugier', 'Beverley Mitchell', 'Noam Jenkins', 'Timothy Burd', 'Dina Meyer', 'Lyriq Bent', 'Tony Nappo', 'Kelly Jones', 'Vincent Rother', 'Linette Doherty', 'Kofi Payton', 'Gretchen Helbig', 'Leigh Whannell', 'Cary Elwes', 'Ho Chow']",3.15,3.5,['Horror'],93,['USA'],English,['English'],"['Got Films', 'Twisted Pictures', 'Evolution Entertainment', 'Saw 2 Productions', 'Lionsgate']",481533,71374,83216,1600,1698,5282,6358,25567,31410,81888,52637,50211,11777,20406,287234,https://letterboxd.com/film/saw-ii/
Brokeback Mountain,2005,Ang Lee,"['Heath Ledger', 'Jake Gyllenhaal', 'Michelle Williams', 'Anne Hathaway', 'Randy Quaid', 'Linda Cardellini', 'Anna Faris', 'David Harbour', 'Roberta Maxwell', 'Kate Mara', 'Peter McRobbie', 'Graham Beckel', 'Mary Liboiron', 'Scott Michael Campbell', 'Marty Antonini', 'David Trimble', 'Larry Reese', 'Valerie Planche', 'Victor Reyes', 'Lachlan Mackintosh', 'Tom Carey', 'Don Bland', 'Steven Cree Molison', 'Duval Lang', 'Dan McDougall', 'Dean Barrett', 'Kade Phillips', 'Steffen Cole Moser', 'Cheyenne Hill', 'Cayla Wolever', 'Sarah Hyslop', 'Jacey Kenny', 'Keanna Dubé', 'Brooklynn Proulx', 'Hannah Stewart', 'Jake Church', 'James Baker', 'Pete Seadon', 'Jerry Callaghan', 'Ken Zilka', 'John Tench', 'Will Martin', 'Gary Lauder', 'Christian Fraser', 'Cam Sutherland', 'Barb Mitchell', 'Rodrigo Prieto', 'Ken Roberts', 'Kailin See', 'Jayson Therrien', 'Erika Walter']",4.1,5.0,"['Romance', 'Drama']",134,"['Canada', 'USA']",English,['English'],"['Focus Features', 'River Road Entertainment', 'Alberta Film Entertainment']",978961,170417,322321,18000,1523,2863,1709,9924,10258,57471,71781,198684,96457,170565,621235,https://letterboxd.com/film/brokeback-mountain/
Mysterious Skin,2004,Gregg Araki,"['Joseph Gordon-Levitt', 'Brady Corbet', 'Michelle Trachtenberg', 'Jeffrey Licon', 'Mary Lynn Rajskub', 'Elisabeth Shue', 'Chase Ellison', 'George Webster', 'Rachael Nastassja Kraft', 'Lisa Long', 'Chris Mulkey', 'David Lee Smith', 'Bill Sage', 'Riley McGuire', 'Ryan Stenzel', 'Richard Riehle', 'Larry Marko', 'Clover', 'Bruno Alexander', 'Forrest Fountain', 'Zane Huett', 'Reedy Gibbs', 'David Alan Graf', 'John Ganun', 'Billy Drago', 'Kelly Kruger', 'Pete Kasper', 'Joan Blair', 'Trieste Kelly Dunn']",4.18,4.0,['Drama'],105,"['USA', 'Netherlands']",English,['English'],"['Desperate Pictures', 'Fortissimo Films', 'Antidote Films']",266843,75090,104121,12000,545,805,604,2549,3304,13523,21239,57786,36019,62395,198769,https://letterboxd.com/film/mysterious-skin/
Saw,2004,James Wan,"['Cary Elwes', 'Leigh Whannell', 'Danny Glover', 'Monica Potter', 'Ken Leung', 'Makenzie Vega', 'Michael Emerson', 'Shawnee Smith', 'Dina Meyer', 'Alexandra Bokyun Chun', 'Tobin Bell', 'Mike Butters', 'Paul Gutrecht', 'Benito Martinez', 'Ned Bellamy', 'Avner Garbi', 'Hans Raith', 'Oren Koules']",3.61,4.0,"['Crime', 'Mystery', 'Horror']",103,['USA'],English,['English'],"['Twisted Pictures', 'Evolution Entertainment', 'Saw Productions Inc.']",928858,145423,221535,11000,2515,6651,5045,22926,26608,103367,114878,168499,43545,73811,567845,https://letterboxd.com/film/saw/
Swimming Pool,2003,François Ozon,"['Charlotte Rampling', 'Ludivine Sagnier', 'Charles Dance', 'Marc Fayolle', 'Jean-Marie Lamour', 'Mireille Mossé', 'Michel Fau', 'Jean-Claude Lecas', 'Émilie Gavois-Kahn', 'Erarde Forestali', 'Lauren Farrow', 'Sebastian Harcombe', 'Frances Cuka', 'Keith Yeates', 'Tricia Aileen', 'Glen Davies']",3.45,3.0,"['Crime', 'Thriller']",102,"['France', 'UK']",English,"['English', 'French']","['France 2 Cinéma', 'Canal+', 'Fidélité Productions', 'Gimages', 'FOZ', 'Headforce Ltd.', 'Focus Features', 'Celluloid Dreams']",37646,8425,5682,53,68,240,256,1200,1730,6168,6537,5245,932,835,23211,https://letterboxd.com/film/swimming-pool/
Y Tu Mamá También,2001,Alfonso Cuarón,"['Diego Luna', 'Gael García Bernal', 'Maribel Verdú', 'Daniel Giménez Cacho', 'Diana Bracho', 'Verónica Langer', 'María Aura', 'Emilio Echevarría', 'Marta Aura', 'Silverio Palacios', 'Ana López Mercado', 'Andrés Almeida', 'Nathan Grinberg', 'Giselle Audirac', 'Arturo Ríos', 'Juan Carlos Remolina', 'Liboria Rodríguez', 'Mayra Sérbulo', 'Andrea López', 'Amaury Sérbulo', 'Jorge Vergara']",4.19,4.5,"['Romance', 'Drama']",106,['Mexico'],Spanish,['Spanish'],"['Bésame Mucho Pictures', 'Anhelo Productions']",265651,88363,93250,9500,367,720,542,2428,2932,13984,20977,53872,33484,44210,173516,https://letterboxd.com/film/y-tu-mama-tambien/
In the Mood for Love,2000,Wong Kar-wai,"['Tony Leung Chiu-wai', 'Maggie Cheung', 'Rebecca Pan', 'Kelly Lai Chen', 'Siu Ping-lam', 'Chin Tsi-Ang', 'Joe Cheung Tung-cho', 'Kam-Wah Koo', 'Chan Man-Lei', 'Julien Carbon', 'Charles de Gaulle', 'Laurent Courtiaud']",4.4,4.5,"['Drama', 'Romance']",99,"['France', 'Hong Kong', 'Netherlands']",Cantonese,"['Cantonese', 'French', 'Spanish']","['Block 2 Pictures', 'Jet Tone Films', 'Paradis Films', 'Fortissimo Films']",644896,208255,282766,36000,465,959,855,4298,5328,24022,38334,117587,94063,185273,471184,https://letterboxd.com/film/in-the-mood-for-love/
Dancer in the Dark,2000,Lars von Trier,"['Björk', 'Catherine Deneuve', 'David Morse', 'Peter Stormare', 'Joel Grey', 'Cara Seymour', 'Vladica Kostic', 'Jean-Marc Barr', 'Vincent Paterson', 'Siobhan Fallon Hogan', 'Zeljko Ivanek', 'Udo Kier', 'Jens Albinus', 'Reathel Bean', 'Mette Berggreen', 'Lars Michael Dinesen', 'Katrine Falkenberg', 'Michael Flessas', 'John Randolph Jones', 'Noah Lazarus', 'Sheldon Litt', 'Andrew Lucre', 'John Martinus', 'Luke Reilly', 'T.J. Rizzo', 'Stellan Skarsgård', 'Sean-Michael Smith', 'Paprika Steen', 'Eric Voge', 'Nick Wolf', 'Timm Zimmermann', 'Al Agami', 'Alex Mouro', 'Alexander Arli', 'Allan Gyldenkærne', 'Ami Eklöf-Annell', 'Ana Christine Broström', 'Anders Tärneberg', 'Anders Thorhauge', 'Anders-Peter Torsleff Hansen', 'Ann Crosset', 'Anna David', 'Anna Norberg', 'Anna Rosenberg', 'Annette Lindholm', 'Anthony Ajoise Olufemi Jacob', 'Birgitte Skands', 'Bjorn Ahlander', 'Bo Westerholm', 'Bobo Eriksson', 'Britt Bendixen', 'Carl Johan De Neergaard', 'Carol Linda Nielsen', 'Claus Berenhard', 'Cristian Valle', 'Diana G.L. Watson', 'Ed Hickok', 'Edvin Karsson', 'Eli Stalhand', 'Elin Johansson', 'Emilie Bendz', 'Erik Dammann', 'Erik Drugge', 'Fredrik Börgesson', 'Frederik Mondrup', 'Marianne Bengtsson', 'Karoliina Heiskanen', 'Troels Asmussen', 'Caroline Sascha Cogez', 'Rikke Lylloff']",4.18,5.0,"['Drama', 'Crime']",140,"['Argentina', 'Denmark', 'Finland', 'France', 'Germany', 'Iceland', 'Italy', 'Netherlands', 'Norway', 'Sweden', 'UK', 'USA']",English,['English'],"['Lantia Cinema & Audiovisivi', 'Fine Line Features', 'Zentropa Entertainments', 'DR', 'SVT Drama', 'ARTE', 'Memfis Film', 'France 3 Cinéma', 'Angel films', 'YLE', 'Blind Spot Pictures', 'Liberator Productions', 'Íslenska kvikmyndasamsteypan', 'Pain Unlimited GmbH Filmproduktion', 'Trust Film Svenska', 'Cinematograph A/S', 'What Else? B.V', 'Filmek A/S', 'Film4 Productions', 'Canal+', 'ARTE France Cinéma', 'Film i Väst', 'TV 1000 Sverige', 'WDR', 'Constantin Film', 'VPRO']",177109,56595,59773,4500,661,1076,769,2416,2693,8445,12047,32603,22794,35128,118632,https://letterboxd.com/film/dancer-in-the-dark/
American Psycho,2000,Mary Harron,"['Christian Bale', 'Willem Dafoe', 'Jared Leto', 'Josh Lucas', 'Samantha Mathis', 'Matt Ross', 'Bill Sage', 'Chloë Sevigny', 'Cara Seymour', 'Justin Theroux', 'Guinevere Turner', 'Reese Witherspoon', 'Krista Sutton', 'Reg E. Cathey', 'Anthony Lemke', 'Stephen Bogaert', 'Monika Meier', 'Blair Williams', 'Marie Dame', 'Kelley Harron', 'Patricia Gage', 'Landy Cannon', 'Park Bench', 'Catherine Black', 'Margaret Ma', 'Peter Tufford Kennedy', 'Mark Pawson', 'Jessica Lau', 'Lilette Wiens', 'Glen Marc Silot', 'Charlotte Hunter', 'Kiki Buttignol', 'Joyce R. Korbin', 'Reuben Thompson', 'Bryan Renfro', 'Ross Gibby', 'Christina McKay', 'Alan McCullough', 'Connie Chen', 'Brett Alexander Davidson', 'Peter Loung', 'Joseph Oliveira', 'Leanne Poirier Greenfield', 'Somaya Reece', 'Kate Steen', 'Dan Rush', 'Chris Stone']",3.86,3.5,"['Crime', 'Thriller', 'Horror', 'Drama']",102,"['Canada', 'USA']",English,"['English', 'Spanish', 'Cantonese']","['Lionsgate', 'Pressman Film', 'Muse Productions', 'Am Psycho Productions']",2655375,272862,960296,32000,4513,11060,7455,44680,47494,250648,279050,623800,206722,326226,1801648,https://letterboxd.com/film/american-psycho/
The Virgin Suicides,1999,Sofia Coppola,"['James Woods', 'Kathleen Turner', 'Kirsten Dunst', 'Josh Hartnett', 'Michael Paré', 'Scott Glenn', 'Danny DeVito', 'A.J. Cook', 'Hanna Hall', 'Leslie Hayman', 'Chelse Swain', 'Anthony DeSimone', 'Lee Kagan', 'Robert Schwartzman', 'Noah ""40"" Shebib', 'Jonathan Tucker', 'Joe Roncetti', 'Hayden Christensen', 'Chris Hale', 'Joe Dinicol', 'Suki Kaiser', 'Dawn Greenhalgh', 'Allen Stewart-Coates', 'Sherry Miller', 'Jonathan Whittaker', 'Michèle Duquet', 'Murray McRae', 'Roberta Hanley', 'Paul Sybersma', 'Susan Sybersma', 'Peter Snider', 'Gary Brennan', 'Charles Boyland', 'Dustin Ladd', 'Kristin Fairlie', 'Melody Johnson', 'Sheyla Molho', 'Ashley Ainsworth', 'Courtney Hawkrigg', 'François Klanfer', 'Mackenzie Lawrenz', 'Tim Hall', 'Amos Crawley', 'Andrew Gillies', 'Mairlyn Smith', 'Sally Cahill', 'Tracey Ferencz', 'Scot Denton', 'Catherine Swing', 'Timothy Adams', 'Michael Michaelessi', 'Sarah Minhas', 'Megan Kennedy', 'Sandi Stahlbrand', 'Neil Girvan', 'Jaya Karsemeyer', 'Leah Straatsma', 'Mark Polley', 'Kirk Gonnsen', 'Marianne Moroney', 'Anne Wessels', 'Giovanni Ribisi', 'Derek Boyes', 'John Buchan', 'Conor Dean Smith', 'Mandy Lee Jones', 'Thomas Mars']",3.83,4.5,"['Romance', 'Drama']",97,['USA'],English,['English'],"['American Zoetrope', 'Muse Productions', 'Eternity Pictures']",755495,157577,267488,29000,1214,3066,2591,12698,15909,68280,83446,155821,53881,111236,508142,https://letterboxd.com/film/the-virgin-suicides/
The Mummy,1999,Stephen Sommers,"['Brendan Fraser', 'Rachel Weisz', 'John Hannah', 'Arnold Vosloo', 'Patricia Velásquez', 'Oded Fehr', ""Kevin J. O'Connor"", 'Jonathan Hyde', 'Erick Avari', 'Stephen Dunham', 'Corey Johnson', 'Mohammed Afifi', 'Tuc Watkins', 'Omid Djalili', 'Bernard Fox', 'Aharon Ipalé', 'Carl Chase', 'Abderrahim El Aadili', 'Jake Arnott', 'Mason Ball', 'Isobel Brook', 'James Traherne Burton', 'Peter Chequer', 'Porl Smith', 'Ian Warner', 'Taylor Murphy']",3.52,3.5,"['Fantasy', 'Action', 'Adventure']",124,['USA'],English,"['English', 'Arabic']",['Alphaville Films'],722216,68459,146865,5200,1175,4148,3985,18789,23336,84318,77035,89670,19198,40973,362627,https://letterboxd.com/film/the-mummy-1999/
Central Station,1998,Walter Salles,"['Fernanda Montenegro', 'Vinícius de Oliveira', 'Marília Pêra', 'Othon Bastos', 'Otávio Augusto', 'Matheus Nachtergaele', 'Caio Junqueira', 'Stela Freitas', 'Maria Menezes', 'Sergio Kato', 'Soia Lira', 'Rita Assemany', 'Harildo Déda', 'Gildásio Leite', 'Nanego Lira', 'José Pereira da Silva', 'Everaldo Pontes', 'Inaldo Santana', 'Gideon Rosa', 'Antonieta Noronha', 'Socorro Nobre', 'Iami Rebouças']",4.24,5.0,['Drama'],110,"['Brazil', 'France']",Portuguese,['Portuguese'],"['MACT Productions', 'Videofilms', 'Riofilm']",98598,31201,44544,5800,83,101,106,552,616,2626,4283,13282,10595,42123,74367,https://letterboxd.com/film/central-station/
Amistad,1997,Steven Spielberg,"['Morgan Freeman', 'Nigel Hawthorne', 'Anthony Hopkins', 'Djimon Hounsou', 'Matthew McConaughey', 'David Paymer', 'Pete Postlethwaite', 'Stellan Skarsgård', 'Razaaq Adoti', 'Abu Bakaar Fofanah', 'Anna Paquin', 'Tomas Milian', 'Chiwetel Ejiofor', 'Derrick N. Ashong', 'Geno Silva', 'John Ortiz', 'Ralph Brown', 'Darren E. Burrows', 'Allan Rich', 'Paul Guilfoyle', 'Peter Firth', 'Xander Berkeley', 'Jeremy Northam', 'Arliss Howard', 'Willie Amakye', 'Luc Assogba', 'Mariah Campbell', 'Habib Conteh', 'Stephen Conteh', 'Monguehy Fanzy', 'Jimmy Fotso', 'Adekunle Ilori', 'Sheriff Kargbo', 'Saye Lah', 'Sylvestre Massaquoi', 'Samson Odede', 'Chike Okpala', 'Willie Onafesso', 'Samuel Pieh', 'Lansana Sawi', 'Abu Sidique', 'El Hadj Malik Sow', 'Lamine Thiam', 'Austin Pendleton', 'Daniel von Bargen', 'Rusty Schwimmer', 'Pedro Armendáriz Jr.', 'Frank T. Wells', 'Michael Massee', 'Roy Cooper', 'Jake Weber', 'Victor Rivers', 'Joseph Kosseh', 'Steve Passewe', 'Sherly Acosta Williams', 'Matt Sarles', 'George Gerdes', 'Gerald R. Molen', ""Kevin J. O'Connor"", 'Robert Walsh', 'Sean McGuirk', 'Tony Owen', 'William Young', 'Michael Riley', 'León Singer', 'Castulo Guerra', 'Harry Groener', 'Hawthorne James', 'Ingrid Walters', 'Harry A. Blackmun', 'Curtis Shields', 'Carlos Spivey', 'Charles Udoma', 'Andrew L. Josiah', 'Tony Onafesso', 'Peter Mansaray', 'Clarence Mobley', 'Brian Macon', 'Edward Appiah', 'Denver Dowridge', 'Paul Mwakutuya', 'Rory Burton', 'Samuel Orekhio', 'Omo Lara Tosin', 'Ransford Thomas', 'Juliette Darko', 'Charlean Isata Bangalie', 'Roosevelt Flenoury', 'M.S. Kaleiwo', 'Tesfay Yohannes', 'George Kamara', 'Abdul-Fatai Balogun', 'Yaya Sissoko', 'Amadou Traore', 'Marlon Francis', 'Bundu Kamara', 'James Moses', 'Daniel Reid', 'Seydou Coulibaly', 'Lawal Tajudeen', 'Lester Mombelly', 'Ibrahim Sesay', 'Jeremy Shelton', 'Andrew Shoemo', 'Prince Coke', 'Ahmed Bangura', 'Bernard Singleton', 'Desere Mondon', 'Baboucar Jobe', 'Christopher Annino', 'Susan Bergeron', 'Eric Bruno Borgman', 'Luis Cabrera', 'Craig Calman', 'KimStacy Carter', 'Lisa Cavanaugh', 'Leonard Clifton', 'Alex Daunis', 'Nino Del Padre', 'Johnny Egan', 'Chris Fagan', 'Lawrence Gaughan', 'Morgan Hobart', 'Nick King', 'Tommy Lynch', 'Luis Muñoz', 'Ungenita Prevost', 'Glendon Rich', 'Kevin M. Simon', 'John H. Tobin', 'Harrison Young']",3.44,3.5,"['History', 'Drama', 'Mystery']",155,['USA'],English,"['English', 'Spanish']","['DreamWorks Pictures', 'HBO Films']",60383,17678,8072,17,112,297,369,1864,2887,9853,8882,7381,1493,1421,34559,https://letterboxd.com/film/amistad/
Lolita,1997,Adrian Lyne,"['Jeremy Irons', 'Dominique Swain', 'Melanie Griffith', 'Frank Langella', 'Suzanne Shepherd', 'Keith Reddin', 'Erin J. Dean', 'Joan Glover', 'Pat Perkins', 'Ed Grady', 'Angela Paton', 'Michael Goodwin', 'Ben Silverstone', 'Emma Griffiths Malin', 'Ronald Pickup']",3.15,1.0,"['Drama', 'Romance']",137,"['France', 'USA']",English,['English'],"['Pathé', 'Lolita Productions', 'AMLF', 'Pathé Films', 'Guild']",159682,21350,28971,1800,2847,3438,2311,7762,8169,23175,15762,18991,4166,9788,96409,https://letterboxd.com/film/lolita-1997/
Beautiful Thing,1996,Hettie Macdonald,"['Linda Henry', 'Glen Berry', 'Scott Neal', 'Tameka Empson', 'Ben Daniels', 'Meera Syal', 'Garry Cooper', 'Jeillo Edwards', 'Terry Duggan', 'Anna Karen', 'Julia-Lee Smith', 'Daniel Bowers', 'Martin Walsh', 'Jonathan Harvey', 'Marlene Sidaway', 'John Benfield', 'John Savage', 'Liane Ware', 'Sophie Stanton', 'Catherine Sanderson', 'Ozdemir Mamodeally', 'Beth Goddard', 'Davyd Harries', 'Andrew Fraser']",3.82,5.0,"['Romance', 'Comedy', 'Drama']",92,['UK'],English,['English'],"['Channel Four Films', 'World Productions']",17442,8603,6172,357,19,48,58,203,373,1582,2392,3905,1442,2259,12281,https://letterboxd.com/film/beautiful-thing/
"The Adventures of Priscilla, Queen of the Desert",1994,Stephan Elliott,"['Hugo Weaving', 'Guy Pearce', 'Terence Stamp', 'Bill Hunter', 'Sarah Chadwick', 'June Marie Bennett', 'Rebel Penfold-Russell', 'John Casey', 'Murray Davies', 'Frank Cornelius', 'Bob Boyce', 'Leighton Picken', 'Maria Kmet', 'Joseph Kmet', 'Alan Dargin', 'Julia Cortez', 'Daniel Kellie', 'Hannah Corbett', 'Trevor Barrie', 'Kenneth Radley']",3.88,3.0,"['Drama', 'Comedy']",104,"['Australia', 'USA']",English,['English'],"['PolyGram Filmed Entertainment', 'Latent Image Productions Pty. Ltd.', 'Specific Films']",82645,26024,24435,798,78,174,195,745,1255,6339,10104,17573,5805,7441,49709,https://letterboxd.com/film/the-adventures-of-priscilla-queen-of-the-desert/
Schindler's List,1993,Steven Spielberg,"['Liam Neeson', 'Ben Kingsley', 'Ralph Fiennes', 'Caroline Goodall', 'Jonathan Sagall', 'Embeth Davidtz', 'Malgorzata Gebel', 'Shmuel Levy', 'Mark Ivanir', 'Béatrice Macola', 'Andrzej Seweryn', 'Friedrich von Thun', 'Krzysztof Luft', 'Harry Nehring', 'Norbert Weisser', 'Adi Nitzan', 'Michael Schneider', 'Miri Fabian', 'Anna Mucha', 'Albert Misak', 'Michael Gordon', 'Aldona Grochal', 'Jacek Wójcicki', 'Beata Paluch', 'Piotr Polk', 'Ezra Dagan', 'Beata Deskur', 'Rami Heuberger', 'Leopold Kozłowski', 'Jerzy Nowak', 'Uri Avrahami', 'Adam Siemion', 'Magdalena Dandourian', 'Paweł Deląg', 'Shabtai Konorti', 'Oliwia Dabrowska', 'Henryk Bista', 'Tadeusz Bradecki', 'Wojciech Klata', 'Elina Löwensohn', 'Ewa Kolasińska-Szramel', 'Bettina Kupfer', 'Grzegorz Kwas', 'Vili Matula', 'Stanislaw Koczanowicz', 'Hans-Jörg Assmann', 'Geno Lechner', 'August Schmölzer', 'Ludger Pistor', 'Beata Rybotycka', 'Branko Lustig', 'Artus-Maria Matthiessen', 'Hans-Michael Rehberg', 'Eugeniusz Priwieziencew', 'Michael Z. Hoffmann', 'Erwin Leder', 'Jochen Nickel', 'Andrzej Welminski', 'Daniel Del-Ponte', 'Marian Glinka', 'Grzegorz Damięcki', 'Stanisław Brejdygant', 'Olaf Lubaszenko', 'Haymon Maria Buttinger', 'Peter Appiano', 'Jacek Pulanecki', 'Tomasz Dedek', 'Sławomir Holland', 'Martin Semmelrogge', 'Tadeusz Huk', 'Alexander Held', 'Piotr Cyrwus', 'Joachim Paul Assböck', 'Osman Ragheb', 'Maciej Orłoś', 'Marek Wrona', 'Zbigniew Kozłowski', 'Marcin Grzymowicz', 'Dieter Witting', 'Magdalena Komornicka', 'Agnieszka Krukówna', 'Anemona Knut', 'Jeremy Flynn', 'Agnieszka Wagner', 'Jan Jurewicz', 'Wiesław Komasa', 'Maciej Kozłowski', 'Martin Bergmann', 'Wilhelm Manske', 'Peter Flechtner', 'Sigurd Bemme', 'Etl Szyc', 'Lucyna Zabawa', 'Ruth Farhi', 'Jerzy Sagan', 'Dariusz Szymaniak', 'Dirk Bender', 'Maciej Winkler', 'Radosław Krzyżowski', 'Jacek Link-Lenczowski', 'Hanna Kossowska', 'Maja Ostaszewska', 'Sebastian Skalski', 'Ryszard Radwański', 'Piotr Kadlcik', 'Lech Niebielski', 'Thomas Morris', 'Sebastian Konrad', 'Lidia Wyrobiec-Bank', 'Ravit Ferera', 'Agnieszka Korzeniowska', 'Dominika Bednarczyk', 'Alicja Kubaszewska', 'Danny Marcu', 'Hans Rosner', 'Edward Linde-Lubaszenko', 'Alexander Strobele', 'Georges Kern', 'Alexander Buczolich', 'Michael Schiller', 'Götz Otto', 'Wolfgang Seidenberg', 'Hubert Kramar', 'Razia Israeli', 'Dorit Seadia', 'Esti Yerushalmi', 'Marta Bizoń', 'Maciej Kowalewski', 'Zuzanna Lipiec', 'Maria Peszek', 'Leopold Pfefferberg', 'Leopold Rosner', 'Emilie Schindler', 'Katarzyna Śmiechowicz']",4.52,5.0,"['History', 'Drama', 'War']",195,['USA'],English,"['English', 'German', 'Polish', 'Hebrew (modern)']",['Amblin Entertainment'],1211588,209200,373961,14000,973,1592,956,4996,4843,30521,38450,167030,134939,330912,715212,https://letterboxd.com/film/schindlers-list/
True Romance,1993,Tony Scott,"['Christian Slater', 'Patricia Arquette', 'Michael Rapaport', 'Bronson Pinchot', 'Gary Oldman', 'Dennis Hopper', 'Christopher Walken', 'Brad Pitt', 'Tom Sizemore', 'Samuel L. Jackson', 'Saul Rubinek', 'James Gandolfini', 'Frank Adonis', 'Paul Bates', 'Val Kilmer', 'Chris Penn', 'Anna Thomson', 'Eric Allan Kramer', 'Conchata Ferrell', 'Victor Argo', 'Said Faraj', 'Gregory Sporleder', 'Maria Pitillo', 'Kevin Corrigan', 'Paul Ben-Victor', 'Michael Beach', ""Joe D'Angerio"", 'John Bower', 'John Cenatiempo', 'Patrick John Hurley', 'Dennis Garber', 'Scott Evers', 'Hilary Klym', 'Steve Gonzales', 'Laurence Mason', 'David Dean', 'April Freeman', 'Ed Lauter', 'Enzo Rossi', 'Nancy Young']",3.94,3.5,"['Romance', 'Crime', 'Action']",120,"['France', 'USA']",English,"['English', 'Italian']","['Morgan Creek Entertainment', 'Davis Films', 'August Entertainment']",251548,63040,76156,5000,247,676,664,3083,4632,19400,31674,57600,23289,25490,166755,https://letterboxd.com/film/true-romance/
Death Becomes Her,1992,Robert Zemeckis,"['Goldie Hawn', 'Bruce Willis', 'Meryl Streep', 'Isabella Rossellini', 'Ian Ogilvy', 'Adam Storke', 'Nancy Fish', 'Alaina Reed Hall', 'Michelle Johnson', 'Mary Ellen Trainor', 'William Frankfather', 'John Ingle', 'Clement von Franckenstein', 'Petrea Burchard', 'Jim Jansen', 'Mimi Kennedy', 'Paulo Tocha', 'Mark Davenport', 'Thomas Murphy', 'Michael Mills', 'Sonia Jackson', 'Jill C. Klein', 'Jean St. James', 'Debra Jo Rupp', 'Carol Ann Susi', 'Kay Yamamoto', 'Jacquelyn K. Koch', 'Anya Longwell', 'Stuart Mabray', 'Colleen Morris', 'Jonathan Silverman', 'Meg Wittner', 'Carrie Jean Yazel', 'Michael A. Nickles', 'John Enos III', 'Danny Lee Clark', 'Fabio', 'Joel Beeson', 'Ron Stein', 'Bonnie Cahoon', 'Stéphanie Anderson', 'Bob Swain', 'Eric Clark', 'Dave Brock', 'Lydia Peterkoch', 'Phillip Irwin Cooper', 'Ernest Harada', 'Susan Kellermann', 'Kevin Caldwell', 'Alex Hernandez', 'Donna Ekholdt', 'Tammy Gantz', 'Melissa Martin', 'Jeff Adkins', 'Cheryl Baxter', 'Cameron English', 'Edmond Alan Forsyth', 'Bob Gaynor', 'Don Hesser', 'Michael Higgins', 'Kenneth Hughes', 'Kenneth Knaff', 'Glean Lewis', 'Keith McDaniel', 'Charles McGowan', 'Regan Patno', 'Lacy Darryl Phillips', 'Matt Sergott', 'Paul Michael Thorpe', 'Sergio Trujillo', 'Randy Crenshaw', 'Jon Joyce', 'Jerry Whitman', 'Anthony S. Johnson', ""Mike O'Hearn"", 'Sydney Pollack', 'Ai Wan', 'Richard Yett']",3.63,3.5,"['Comedy', 'Fantasy', 'Horror']",104,['USA'],English,['English'],['Universal Pictures'],227135,50774,64176,2100,301,916,998,4893,7350,26915,31009,39056,9673,18289,139400,https://letterboxd.com/film/death-becomes-her/
Basic Instinct,1992,Paul Verhoeven,"['Michael Douglas', 'Sharon Stone', 'George Dzundza', 'Jeanne Tripplehorn', 'Leilani Sarelle', 'Denis Arndt', 'Bruce A. Young', 'Chelcie Ross', 'Dorothy Malone', 'Wayne Knight', 'Daniel von Bargen', 'Stephen Tobolowsky', 'Benjamin Mouton', 'Jack McGee', 'Bill Cable', 'Stephen Rowe', 'Mitch Pileggi', 'Mary Pat Gleason', 'Freda Foh Shen', 'William Duff-Griffin', 'James Rebhorn', 'David Wells', 'Mary Ann Rodgers', 'Adilah Barnes', 'Irene Olga López', 'Juanita Jennings', 'Craig C. Lewis', 'Michael David Lally', 'Peter Appel', 'Michael Halton', 'Keith McDaniel', 'Eric Poppick', 'Ron Cacas', 'Kayla Blake', 'Bradford English', 'Ashlyn Gere', 'Jeanne Basone', 'Doreen Foo Croft', 'Christa Connor', 'Anne Lockhart', 'Patricia Anne Isgate-Hayward', 'Ken Liebenson', 'Lindy Rasmusson', 'Byron Berline', 'Eddie Dunbar', 'Tom McKibbin', 'Julia Bond', 'Dave LaBrucherie', 'Pui Fan Lee', 'Andy Rolfes', 'Bob Sallese', 'Theodore Carl Soderberg', 'Damon Stout', 'Chase Watson']",3.6,3.0,"['Thriller', 'Mystery']",128,"['USA', 'France']",English,['English'],"['Carolco Pictures', 'Le Studio Canal+', 'TriStar Pictures']",265686,46671,52613,846,570,1534,1592,7367,9867,33292,37420,44816,12764,12342,161564,https://letterboxd.com/film/basic-instinct/
Thelma & Louise,1991,Ridley Scott,"['Geena Davis', 'Susan Sarandon', 'Harvey Keitel', 'Michael Madsen', 'Christopher McDonald', 'Brad Pitt', 'Stephen Tobolowsky', 'Timothy Carhart', 'Lucinda Jenney', 'Jason Beghe', 'Sonny Carl Davis', 'Ken Swofford', 'Shelly Desai', 'Carol Mansell', 'Stephen Polk', 'Rob Roy Fitzgerald', 'Jack Lindine', 'Michael Delman', 'Kristel L. Rose', 'Noel L. Walcott III', 'Marco St. John', 'Gregory J. Barnett', ""Robert 'Bobby Z' Zajonc"", 'Charlie Sexton']",4.13,5.0,"['Drama', 'Thriller', 'Adventure', 'Crime']",130,"['UK', 'USA']",English,['English'],"['Metro-Goldwyn-Mayer', 'Pathé Entertainment', 'Star Partners III Ltd.']",418566,102110,137024,7100,215,563,492,3312,4336,23864,36179,88090,43238,58710,258999,https://letterboxd.com/film/thelma-louise/
The Silence of the Lambs,1991,Jonathan Demme,"['Jodie Foster', 'Anthony Hopkins', 'Scott Glenn', 'Ted Levine', 'Anthony Heald', 'Brooke Smith', 'Diane Baker', 'Kasi Lemmons', 'Frankie Faison', 'Tracey Walter', 'Charles Napier', 'Danny Darst', 'Alex Coleman', 'Dan Butler', 'Paul Lazar', 'Ron Vawter', 'Roger Corman', 'Lawrence A. Bonney', 'Lawrence T. Wrentz', 'Don Brockett', 'Frank Seals Jr.', 'Stuart Rudin', 'Jeffrie Lane', 'Leib Lensky', ""George 'Red' Schwartz"", 'Jim Roche', 'James B. Howard', 'Bill Miller', 'Chuck Aber', 'Gene Borkan', 'Pat McNamara', 'Kenneth Utt', 'Adelle Lutz', 'Obba Babatundé', 'Jim Dratfield', 'Rebecca Saxon', 'Cynthia Ettinger', 'Brent Hinkley', 'Steve Wyatt', 'David Early', 'Andre B. Blake', 'Bill Dalzell', 'Chris Isaak', 'Daniel von Bargen', 'Tommy Lafitte', 'Josh Broder', 'Buzz Kilman', 'Harry Northup', 'Lauren Roselli', 'Maria Skorobogatov', 'Lamont Arnold', 'John Hall', 'Ted Monte', 'George A. Romero', 'John W. Iwanonkiw', 'Robert W. Castle', 'Chris McGinn', 'Gary Goetzman', 'George Michael', 'D. Stanton Miranda']",4.33,4.5,"['Horror', 'Crime', 'Thriller', 'Drama']",119,['USA'],English,['English'],"['Orion Pictures', 'Strong Heart']",2278997,322383,875493,36000,988,2555,1471,11225,10870,89437,110571,435538,264711,517451,1444817,https://letterboxd.com/film/the-silence-of-the-lambs/
Tie Me Up! Tie Me Down!,1989,Pedro Almodóvar,"['Victoria Abril', 'Antonio Banderas', 'Loles León', 'María Barranco', 'Rossy de Palma', 'Julieta Serrano', 'Francisco Rabal', 'Lola Cardona', 'Montse G. Romeu', 'Emiliano Redondo', 'Oswaldo Delgado', 'Concha Rabal', 'Alberto Fernández', 'José María Tasso', 'Angelina Llongueras', 'Manuel Bandera', 'Virginia Díez', 'Juana Cordero', 'Francisca Caballero', 'Francisca Pajuelo', 'Víctor Coyote', 'Carlos García Cambero', 'Alito Rodgers', 'Tamaki', 'Malena Gracia', 'Agustín Almodóvar', 'Rodolfo Montero', 'Miguel García', 'Pedro Losada']",3.54,3.5,"['Romance', 'Drama', 'Comedy']",102,['Spain'],Spanish,['Spanish'],['El Deseo'],68633,19771,15848,249,218,417,415,1714,2766,10013,11942,12216,2894,3008,45603,https://letterboxd.com/film/tie-me-up-tie-me-down/
Hellraiser,1987,Clive Barker,"['Clare Higgins', 'Ashley Laurence', 'Sean Chapman', 'Oliver Smith', 'Andrew Robinson', 'Robert Hines', 'Doug Bradley', 'Grace Kirby', 'Nicholas Vince', 'Simon Bamford', 'Anthony Allen', 'Leon Davis', 'Michael Cassidy', 'Frank Baker', 'Kenneth Nelson', 'Gay Baynes', 'Niall Buggy', 'Dave Atkins', 'Oliver Parker', 'Sharon Bower', 'Raul Newney', 'Pamela Sholto']",3.52,4.0,"['Horror', 'Fantasy', 'Thriller']",94,"['UK', 'USA']",English,['English'],"['New World Pictures', 'Cinemarque Entertainment', 'Film Futures', 'Rivdel Films', 'New World']",353739,94409,96623,3300,1078,2870,2817,11512,14551,47616,50050,63090,17627,24663,235874,https://letterboxd.com/film/hellraiser/
Tenebre,1982,Dario Argento,"['Anthony Franciosa', 'John Saxon', 'Daria Nicolodi', 'Giuliano Gemma', 'Christian Borromeo', ""Mirella D'Angelo"", 'Veronica Lario', 'Ania Pieroni', ""Eva Robin's"", 'Carola Stagnaro', 'John Steiner', 'Lara Wendel', 'Isabella Amadeo', 'Mirella Banti', 'Ennio Girolami', 'Monica Maisani', 'Marino Masé', 'Fulvio Mingozzi', 'Giampaolo Saccarola', 'Ippolita Santarelli', 'Francesca Viscardi', 'Dario Argento', 'Lamberto Bava', 'Michele Soavi']",3.73,3.0,"['Mystery', 'Thriller', 'Horror']",101,['Italy'],English,"['English', 'Italian']",['Produzioni Intersound'],69596,38689,21879,415,78,247,316,1293,2168,7836,11577,16685,5734,5159,51093,https://letterboxd.com/film/tenebre/
Cane River,1982,Horace B. Jenkins,"['Tommye Myrick', 'Richard Romain', 'Barbara Tasker', 'Ilunga Adell', 'Lloyd La Cour', 'Carol Sutton', 'Stephen Severin', 'Noray Francis', 'Lolis Edward Elie', 'Kelli Rene Carpenter', 'Marie Dupre', 'Maurice Harrell', 'Thomas P. Brady', 'D.J. Ammons']",3.61,5.0,"['Drama', 'Romance']",104,['USA'],English,['English'],"['ZDF', 'Oscilloscope']",2272,1632,761,14,3,8,9,41,70,281,433,413,114,116,1488,https://letterboxd.com/film/cane-river/
Pixote,1980,Héctor Babenco,"['Fernando Ramos da Silva', 'Jorge Julião', 'Gilberto Moura', 'Edilson Lino', 'Zenildo Oliveira Santos', 'Claudio Bernardo', 'Israel Feres David', 'Jose Nilson Martin Dos Santos', 'Marília Pêra', 'Jardel Filho', 'Rubens de Falco', 'Elke Maravilha', 'Tony Tornado', 'Beatriz Segall', 'João José Pompeo', 'Rubens Rollo', 'Emílio Fontana', 'Luiz Serra', 'Ariclê Perez', 'Joe Kantor', 'Isadora de Farias', 'Beatriz Berg', 'Walter Breda', 'Raimundo Matos', 'Benedito Corsi', 'Damaceno Filho', 'Cleide Eunice Queiroz', 'Israel Pinheiro', 'Carlos Costa', 'Fábio Tomasini', 'Lineu Dias', 'César Pezzuoli', 'Kocoth']",4.17,5.0,"['Drama', 'Crime']",128,['Brazil'],Portuguese,['Portuguese'],"['HB Filmes', 'Embrafilme']",33989,20289,11708,607,41,77,63,251,367,1527,2714,7950,5087,7387,25464,https://letterboxd.com/film/pixote/
Halloween,1978,John Carpenter,"['Donald Pleasence', 'Jamie Lee Curtis', 'P.J. Soles', 'Nancy Kyes', 'Charles Cyphers', 'Kyle Richards', 'Brian Andrews', 'John Michael Graham', 'Nancy Stephens', 'Nick Castle', 'Arthur Malet', 'Mickey Yablans', 'Brent Le Page', 'Adam Hollander', 'Robert Phalen', 'Tony Moran', 'Will Sandin', 'Sandy Johnson', 'David Kyle', 'Peter Griffith', 'Barry Bernardi', 'Joseph Cornelius', ""George O'Hanlon Jr."", 'Darla Rae', 'John Carpenter', 'Tommy Lee Wallace', 'Gwen Van Dam', 'Jennifer Rhodes']",3.8,3.0,"['Horror', 'Thriller']",91,['USA'],English,['English'],"['Compass International Pictures', 'Falcon International Productions']",1000359,257916,300737,16000,1835,5388,4425,21115,23558,96418,98674,185748,65946,137715,640822,https://letterboxd.com/film/halloween-1978/
A Special Day,1977,Ettore Scola,"['Sophia Loren', 'Marcello Mastroianni', 'John Vernon', 'Françoise Berd', 'Patrizia Basso', 'Tiziano De Persio', 'Maurizio Di Paolantonio', 'Antonio Garibaldi', 'Vittorio Guerrieri', 'Alessandra Mussolini', 'Nicole Magny', 'Galeazzo Ciano', 'Adolf Hitler', 'King Victor Emmanuel III of Italy', 'Benito Mussolini']",4.27,4.0,"['Romance', 'Drama']",106,"['Canada', 'Italy']",Italian,['Italian'],"['C. C. Champion', 'Canafox Films']",31617,19226,11897,576,23,35,26,153,219,1047,2196,7032,5387,6234,22352,https://letterboxd.com/film/a-special-day/
Suspiria,1977,Dario Argento,"['Jessica Harper', 'Stefania Casini', 'Flavio Bucci', 'Miguel Bosé', 'Barbara Magnolfi', 'Susanna Javicoli', 'Eva Axén', 'Rudolf Schündler', 'Udo Kier', 'Alida Valli', 'Joan Bennett', 'Margherita Horowitz', 'Jacopo Mariani', 'Fulvio Mingozzi', 'Franca Scagnetti', 'Renato Scarpa', 'Serafina Scorceletti', 'Giuseppe Transocchi', 'Renata Zamengo', 'Alessandra Capozzi', 'Salvatore Capozzi', 'Diana Ferrara', 'Cristina Latini', 'Alfredo Raino', 'Claudia Zaccari', 'Dario Argento', 'Giovanni di Bernardo', 'Daria Nicolodi', 'Marina Pierro', 'Lela Svasta']",3.95,5.0,['Horror'],99,['Italy'],English,"['English', 'French', 'Latin', 'German', 'Italian']",['Seda Spettacoli'],480698,170742,170876,10000,806,2092,2031,8179,10593,39628,52629,106473,47756,69790,339977,https://letterboxd.com/film/suspiria/
Jaws,1975,Steven Spielberg,"['Roy Scheider', 'Robert Shaw', 'Richard Dreyfuss', 'Lorraine Gary', 'Murray Hamilton', 'Carl Gottlieb', 'Jeffrey Kramer', 'Susan Backlinie', 'Jonathan Filley', 'Ted Grossman', 'Chris Rebello', 'Jay Mello', 'Lee Fierro', 'Jeffrey Voorhees', 'Craig Kingsbury', 'Phil Murray', 'Robert Nevin', 'Peter Benchley', 'Fritzi Jane Courtney', 'David Engelbach', 'Dorothy Fielding', 'Joe La Creta', 'Belle McDonald', 'Joseph Oliveira', 'Beverly Powers', 'Ayn Ruymen', 'Christopher Sands', 'Steven Spielberg', 'Rex Trailer']",3.96,4.5,"['Adventure', 'Thriller', 'Horror']",124,['USA'],English,['English'],"['Zanuck/Brown Productions', 'Universal Pictures']",1518886,243436,390261,17000,2325,6745,3837,25363,21733,116823,111026,254830,101931,197853,842466,https://letterboxd.com/film/jaws/
Female Trouble,1974,John Waters,"['Divine', 'David Lochary', 'Mary Vivian Pearce', 'Mink Stole', 'Edith Massey', 'Cookie Mueller', 'Susan Walsh', 'Ed Peranio', 'Paul Swift', 'George Figgs', 'Susan Lowe', 'George Hulse', 'Elizabeth Coffey', 'Channing Wilroy', 'Michael Potter']",3.9,5.0,"['Comedy', 'Crime']",97,['USA'],English,['English'],"['Dreamland', 'Saliva Films', 'New Line Cinema']",41895,23798,15842,1000,178,197,211,559,749,2883,4262,9088,3643,5973,27743,https://letterboxd.com/film/female-trouble/
Cabaret,1972,Bob Fosse,"['Liza Minnelli', 'Michael York', 'Helmut Griem', 'Joel Grey', 'Fritz Wepper', 'Marisa Berenson', 'Elisabeth Neumann-Viertel', 'Helen Vita', 'Sigrid von Richthofen', 'Gerd Vespermann', 'Ralf Wolter', 'Georg Hartmann', 'Ricky Renée', 'Estrongo Nachama', 'Kathryn Doby', 'Inge Jaeger', 'Angelika Koch', 'Helen Velkovorska', 'Gitta Schmidt', 'Louise Quick', 'Pierre Franckh', 'Ellen Umlauf', 'Oliver Collignon', 'Mark Lambert']",4.09,5.0,"['Romance', 'Drama', 'Music']",124,['USA'],English,"['English', 'French', 'German', 'Hebrew (modern)']","['Allied Artists Pictures', 'ABC Pictures']",122487,56150,38265,2300,101,280,280,1374,1773,7249,10730,23975,12788,17134,75684,https://letterboxd.com/film/cabaret/
The Umbrellas of Cherbourg,1964,Jacques Demy,"['Catherine Deneuve', 'Nino Castelnuovo', 'Anne Vernon', 'Mireille Perrey', 'Marc Michel', 'Ellen Farner', 'Jean Champion', 'Pierre Caden', 'Jean-Pierre Dorat', 'Bernard Fradet', 'Michel Benoist', 'Philippe Dumat', 'Dorothée Blanck', 'Jane Carat', 'Harald Wolff', 'Danielle Licari', 'José Bartel', 'Christiane Legrand', 'Georges Blaness', 'Claudine Meunier', 'Claire Leclerc', 'Patrick Bricard', 'Jacques Camelinat', 'François Charet', 'Jean-Pierre Chizat', 'Jacques Demy', 'Bernard Garnier', 'Gisèle Grandpré', 'Hervé Legrand', 'Michel Legrand', 'Myriam Michelson', 'Paul Pavel', 'Roger Perrinoz', 'Rosalie Varda']",4.14,4.5,"['Drama', 'Romance']",93,"['France', 'Germany']",French,['French'],"['Parc Film', 'Madeleine Films', 'Beta Film']",149434,78046,55317,3400,174,513,459,1861,2459,9605,14555,31460,19483,25213,105782,https://letterboxd.com/film/the-umbrellas-of-cherbourg/
What Ever Happened to Baby Jane?,1962,Robert Aldrich,"['Bette Davis', 'Joan Crawford', 'Victor Buono', 'Wesley Addy', 'Julie Allred', 'Anne Barton', 'Marjorie Bennett', 'Bert Freed', 'Anna Lee', 'Maidie Norman', 'Dave Willock', 'William Aldrich', 'Ernest Anderson', 'Russ Conway', 'Maxine Cooper', 'Robert Cornthwaite', 'Michael Fox', 'Gina Gillespie', 'Barbara Merrill', 'Don Ross', 'James Seay', 'John Shay', 'Jon Shepodd', 'Peter Virgo', 'Bobs Watson', 'Debbie Burton', 'Murray Alper', 'Steve Condit', 'Dorothea Lord', 'Norman Papson', 'Mike Ragan', 'Sammy Shack', 'Michael St. Angel', 'Jack Tornek', 'Ralph Volkie', 'Robert Perry', 'Bill Walker', 'Ralph Hart']",4.15,4.0,"['Thriller', 'Drama', 'Horror']",135,['USA'],English,['English'],"['The Associates & Aldrich Company', 'Seven Arts Productions', 'Warner Bros. Pictures']",112821,51327,38033,1400,43,176,168,777,1153,5557,9687,25908,14193,17794,75456,https://letterboxd.com/film/what-ever-happened-to-baby-jane/
Imitation of Life,1959,Douglas Sirk,"['Lana Turner', 'John Gavin', 'Juanita Moore', 'Sandra Dee', 'Susan Kohner', 'Robert Alda', ""Dan O'Herlihy"", 'Karin Dicker', 'Terry Burnham', 'John Vivyan', 'Lee Goodman', 'Ann Robinson', 'Troy Donahue', 'Sandra Gould', 'David Tomack', 'Joel Fluellen', 'Jack Weston', 'Billy House', 'Maida Severn', 'Than Wyenn', 'Peg Shirley', 'Mahalia Jackson', 'Bess Flowers', 'Frank Baker', 'Alex Ball', 'George Barrows', 'Chet Brandenburg', 'Teddy Buckner', 'George Calliga', 'Steve Carruthers', 'Richard Collier', 'Paul Cristo', 'Joe Darensbourg', 'Robert Darin', 'Mike De Lay', 'Elinor Donahue', 'Adolf Eichmann', 'Cicely Evans', 'Myrna Fahey', 'George Ford', 'Tedd Hadfield', 'Lynne Hunter', 'Nelson Leigh', 'Paul Levitt', 'John McNamara', 'Joseph Mell', 'Eddie Parker', 'Waclaw Rekwart', 'Cosmo Sardo', 'Jeffrey Sayre', 'Cap Somers', 'Ted Thorpe', 'Napoleon Whiting']",3.99,2.0,"['Drama', 'Romance']",125,['USA'],English,['English'],['Universal International Pictures'],32893,20183,9133,225,38,69,107,384,637,2297,3306,6804,3588,3777,21007,https://letterboxd.com/film/imitation-of-life-1959/
The Cranes Are Flying,1957,Mikhail Kalatozov,"['Tatyana Samoylova', 'Aleksey Batalov', 'Vasili Merkuryev', 'Aleksandr Shvorin', 'Svetlana Kharitonova', 'Konstantin Kadochnikov', 'Valentin Zubkov', 'Antonina Bogdanova', 'Boris Kokovkin', 'Ekaterina Kupriyanova', 'Valentina Ananina', 'Valentina Vladimirova', 'Olga Dzisko', 'Leonid Knyazev', 'Georgiy Kulikov', 'Daniil Netrebin', 'Aleksandr Popov', 'Irina Preis', 'Nikolay Smorchkov', 'Galina Stepanova', 'Klarina Frolova-Vorontsova', 'Georgiy Shamshurin', 'Leonid Alekseyev', 'Valentina Berezutskaya', 'Maya Bulgakova', 'Lidiya Vinogradova', 'Lidiya Genel-Ablova', 'Aleksandr Degtyar', 'Anatoliy Dudorov', 'Tamara Evgeneva-Ivanova', 'Ivan Zalesskiy', 'Anna Zargitckaia', 'Maria Klyuchareva', 'Yuri Komissarov', 'Aleksandr Kuznetsov', 'Yevgeniya Lyzhina', 'Alevtina Rumyantseva', 'Mikhail Semenikhin', 'Lyubov Sokolova', 'Lyubov Studneva', 'Vasiliy Fushchich', 'Vasiliy Tsygankov', 'Evgeni Kudryashov']",4.4,4.5,"['Romance', 'War', 'Drama']",97,['USSR'],Russian,['Russian'],['Mosfilm'],44970,34263,17559,950,24,56,59,214,307,1398,2980,8895,8438,10063,32434,https://letterboxd.com/film/the-cranes-are-flying/
A Streetcar Named Desire,1951,Elia Kazan,"['Vivien Leigh', 'Marlon Brando', 'Kim Hunter', 'Karl Malden', 'Rudy Bond', 'Nick Dennis', 'Peg Hillias', 'Wright King', 'Richard Garrick', 'Ann Dere', 'Edna Thomas', 'Mickey Kuhn', 'Mel Archer', 'Walter Bacon', 'Dahn Ben Amotz', 'Marietta Canty', 'John George', 'John Gonetos', 'Chester Jones', 'Lyle Latell', 'Joe Brooks', 'Mike Morelli', ""William H. O'Brien"", 'Maxie Thrower', 'Charles Wagenheim', 'John B. Williams', 'Buck Woods']",4.0,3.5,"['Thriller', 'Drama']",125,['USA'],English,['English'],"['Charles K. Feldman Group', 'Warner Bros. Pictures']",165110,53508,39469,1100,172,433,429,1946,2548,10931,15469,33375,13944,15981,95228,https://letterboxd.com/film/a-streetcar-named-desire/
Brief Encounter,1945,David Lean,"['Celia Johnson', 'Trevor Howard', 'Stanley Holloway', 'Joyce Carey', 'Cyril Raymond', 'Everley Gregg', 'Marjorie Mars', 'Margaret Barton', 'Wilfred Babbage', 'Alfie Bass', 'Wallace Bosco', 'Sydney Bromley', 'Noël Coward', 'Nuna Davey', 'Valentine Dyall', 'Irene Handl', 'Dennis Harkin', 'Edward Hodge', 'Frederick Kelsey', 'Jack May', 'Avis Scott']",4.31,4.5,"['Romance', 'Drama']",86,['UK'],English,['English'],"['Cineguild', 'J. Arthur Rank Organisation']",87284,53156,31850,1600,51,126,123,630,904,3928,6789,18176,13632,17367,61726,https://letterboxd.com/film/brief-encounter/
