Film_title,Release_year,Director,Cast,Average_rating,Owner_rating,Genres,Runtime,Countries,Original_language,Spoken_languages,Studios,Watches,List_appearances,Likes,Fans,½,★,★½,★★,★★½,★★★,★★★½,★★★★,★★★★½,★★★★★,Total_ratings,Film_URL
Bob Marley: One Love,2024,Reinaldo Marcus Green,"['Kingsley Ben-Adir', 'Lashana Lynch', 'James Norton', 'Tosin Cole', 'Umi Myers', 'Anthony Welsh', 'Nia Ashi', 'Aston Barrett Jr.', 'Anna-Sharé Blake', ""Gawaine 'J-Summa' Campbell"", 'Naomi Cowan', 'Alexx A-Game', 'Michael Gandolfini', 'Quan-Dajai Henriques', 'David Marvin Kerr Jr.', 'Hector Donald Lewis', 'Abijah Livingston', 'Nadine Marshall', 'Sheldon Shepherd', 'Andrae Simpson', 'Stefan Wade', 'Brian Todd Boucher', 'Cornelius Grant', 'Nolan Collignon', 'Jesse Cilio', 'Sundra Oakley', 'Harry Burton', 'Nestor Aaron Absera', 'Tanner Paul', 'Sam Palladio', 'Cosmo Wellings', 'Yasmeen Scott', 'Micheal Ward', 'Ivy Freeman-Attwood']",2.97,3.0,"['Drama', 'History', 'Music']",104,['USA'],English,"['English', 'French']","['Paramount', 'Tuff Gong Pictures', 'Plan B Entertainment']",126359,24024,29072,129,425,1714,2622,10515,15833,33040,21442,16496,3653,6812,112552,https://letterboxd.com/film/bob-marley-one-love/
Mean Girls,2024,"Arturo Perez Jr., Samantha Jayne","['Angourie Rice', 'Reneé Rapp', ""Auli'i Cravalho"", 'Jaquel Spivey', 'Avantika Vandanapu', 'Bebe Wood', 'Christopher Briney', 'Jenna Fischer', 'Busy Philipps', 'Tina Fey', 'Tim Meadows', 'Lindsay Lohan', 'Jon Hamm', 'Ashley Park', 'Connor Ratliff', 'Mahi Alam', 'John El-Jor', 'Brian Altemus', 'Megan Thee Stallion', 'Ben Wang', 'Alexis Frias', 'Isabella Bria Lopez', 'Morgen McKynzie', 'Veronica S. Taylor', 'Stephanie Mincone', 'Gabriella Cila', 'Jordan Gallimore', 'Ari Notartomaso', 'Camille Umoff', 'Kaylee Kaleinani', 'Allison Winn', 'Ben Heineman', 'Fernell Hogan', 'Calidore Robinson', 'Sofia Dobrushin', 'Grant Harrison Mateo', 'Amann Iqbal', 'Nahscha', 'Gage Roark', 'Soona Lee-Tolley', 'Janna Graham', 'Matilde Heckler', 'Francesca Castro', 'Nuri Park', 'Grace Slear', 'Izzy Bank', 'Kayla LaVine', 'James Jones', 'Garid Garcia', 'Jake Schwencke', 'Ellena Eshraghi', 'Kelsie Daniels', 'Elizabeth Witek', 'Alexandra Witek', 'Brooke Johnson', 'Meredith Dunbar', 'Hank Pekarsky', 'Sri', 'Veronica Merrell-Burriss', 'Vanessa Merrell', 'Jordi', 'Énola Bédard', 'Nia Sioux', 'Emely Moreno', 'Jazz Jennings', 'Pierson Wodzynski', 'Mars Avila', 'Alan Chow', 'Chris Olsen', 'Bailey B. Angelski', 'Joshua M. Baer', 'Caitlin M. Beecham', 'Samantha R. Borsari', 'Briannon E. Bowman', 'Ian A. Boyce', 'Daniela Cassano', 'Danielle K. Catalano', 'Ismael Chino', 'Gianna M. Cologna', 'Jason L. DeGroff', 'Kaylin E. DeGroff', 'Joshua P. Doody', 'Christiana J. Doyle', 'Calysta R. Eachus', 'Kasey L. Ericson', 'Timothy S. Fletcher', 'Orlando A. Galazara', 'Cameron T. Garde', 'Sean G. Haight', 'Ryan J. Horgan', 'Teresa Kissel', 'Christopher J. Lucey', 'Megan A. Macneil', 'Malachi I. McLean', 'Colin J. McTernan', 'Julien F. Miller', 'Lauren M. Molfetta', 'Meryem G. Oldro', 'Connor D. Paul', 'Victoria G. Russo', 'Olivia C. Tona', 'Anthony M. Varbaro', 'Nico A. Varone', 'Thomas R. Wilson', 'Eric Patrick Cameron']",2.71,5.0,['Comedy'],113,['USA'],English,['English'],"['Little Stranger', 'Broadway Video', 'Paramount']",421494,64361,93650,567,9361,18116,16468,46740,48282,88551,56853,50182,11282,22980,368815,https://letterboxd.com/film/mean-girls-2024/
Renaissance: A Film by Beyoncé,2023,Beyoncé,"['Beyoncé', 'Jay-Z', 'Blue Ivy Carter', 'Sir Carter', 'Rumi Carter', 'Kendrick Lamar', 'Tina Knowles', 'Larry Bourgeois', 'Laurent Bourgeois', 'Honey Balenciaga', 'Jonté Moaning', 'Darius Hickman', 'Carlos Irizarry', 'Diana Ross', 'Megan Thee Stallion', 'Hannah Douglass', 'Alana Wilhite', 'Agape Jerry', 'Trinity Joy', 'Rob Bynes', ""Jus't Chase"", 'Alliya Janel', 'Nerita McFarlane', 'Zavion Brown', 'Aahkilah Cornelius', 'Amari Marshall', 'Ai Shimatsu', 'Brianna Pavon', 'Lisa Sainvil', 'Simone Alston', 'Kyndall Harris', 'Kevin ""Konkrete"" Davis Jr.', 'Autumn Miller', 'Khirye Tyler', 'Crystal Torres', 'Diamond Johnson', 'Don Alford', 'Emily Bear', 'Katty Rodriguez', 'Chris Johnson', 'Tiffany Ryan', 'Kay Manée', 'Natalie Imani', 'Tyler Green', 'Michelle Williams', 'Kelly Rowland', 'LaTavia Roberson', 'LeToya Luckett', 'Cardi B', 'Tracee Ellis Ross', 'Teyana Taylor', 'Lil Nas X', 'Kevin JZ Prodigy', 'ChaCha Balenciaga', 'Kevin Aviance', 'Arca']",4.56,5.0,"['Music', 'Documentary']",170,['USA'],English,['English'],['Parkwood Entertainment'],44304,8375,25096,729,102,51,15,88,119,568,941,4405,3752,27861,37902,https://letterboxd.com/film/renaissance-a-film-by-beyonce/
Taylor Swift: The Eras Tour,2023,Sam Wrench,"['Taylor Swift', 'Mike Meadows', 'Max Bernstein', 'Paul Sidoti', 'Amos Heller', 'Matt Billingslea', 'Karina DePiano', 'Melanie Nyema', 'Kamilah Marshall', 'Jeslyn Gorman', 'Eliotte Woodford', 'Amanda Balen', 'Tori Evans', 'Raphael Thomas', 'Audrey Douglass', 'Kevin Scheitzbach', 'Jan Ravnik', 'Kameron Saunders', 'Taylor Banks', 'Natalie Peterson', 'Sydney Moss', 'Tamiya Lewis', 'Natalie Lecznar', 'Sam McWilliams', 'Whyley Yoshimura', 'Karen Chuang']",4.31,3.5,['Music'],169,['USA'],English,['English'],"['Taylor Swift Productions', 'Silent House Productions']",262605,35144,131230,3600,6218,1717,460,1623,1862,8026,7885,27171,14935,139063,208960,https://letterboxd.com/film/taylor-swift-the-eras-tour/
Priscilla,2023,Sofia Coppola,"['Cailee Spaeny', 'Jacob Elordi', 'Ari Cohen', 'Dagmara Dominczyk', 'Tim Post', 'Lynne Griffin', 'Dan Beirne', 'Rodrigo Fernandez-Stoll', 'Dan Abramovici', 'Matthew Shaw', 'Tim Dowler-Coltman', 'R Austin Ball', 'Olivia Barrett', 'Stephanie Moore', 'Luke Humphrey', 'Deanna Jarvis', 'Jorja Cadence', 'Josette Halpert', 'Evan Annisette', 'Stephanie Moran', 'Daniel Lipka', 'Raine Monroe Boland', 'Emily Mitchell', 'Kamilla Kowal', 'Gwynne Phillips', 'Conni Miu', 'Megan Dallan', 'Tonia Venneri', 'Erin Mackinnon', 'Mary Kelly', 'Paige LeBlanc', 'Anna Mirodin', 'Sarah Dodd', 'Alanis Peart', 'Kelaiah Guiel', 'Andrew Mackay', 'Kelly Irene Whyte', 'Shawn Gordon Fraser', 'Kassandra C.A. Gray', 'E. Fegan DeCordova', 'Kelly Penner']",3.57,3.0,"['Romance', 'Music', 'Drama']",110,"['Italy', 'USA']",English,['English'],"['American Zoetrope', 'The Apartment Pictures', 'Fremantle']",693141,141164,226822,7900,1194,3720,4049,21148,30905,105236,126004,178229,53234,72296,596015,https://letterboxd.com/film/priscilla/
Saltburn,2023,Emerald Fennell,"['Barry Keoghan', 'Jacob Elordi', 'Rosamund Pike', 'Richard E. Grant', 'Alison Oliver', 'Archie Madekwe', 'Carey Mulligan', 'Paul Rhys', 'Ewan Mitchell', 'Sadie Soverall', 'Richard Cotterell', 'Millie Kent', 'Will Gibson', 'Tasha Lim', 'Aleah Aberdeen', 'Matthew Carver', 'Reece Shearsmith', 'Gabriel Bisset-Smith', 'Saga Spjuth-Säll', 'Glyn Grimstead', 'Joshua Samuels', 'Julian Lloyd Patten', 'Olivia Hanrahan-Barnes', 'Lolly Adefope', 'Joshua McGuire', 'Dorothy Atkinson', 'Shaun Dooley', 'Tomás Barry', 'Andy Brady']",3.43,3.5,"['Comedy', 'Drama', 'Thriller']",131,"['UK', 'USA']",English,['English'],"['LuckyChap Entertainment', 'MRC', 'Lie Still']",1980628,212300,577947,12000,12670,28533,24732,96974,110252,312209,306447,452501,145474,202834,1692626,https://letterboxd.com/film/saltburn/
"Red, White & Royal Blue",2023,Matthew López,"['Taylor Zakhar Perez', 'Nicholas Galitzine', 'Uma Thurman', 'Clifton Collins Jr.', 'Rachel Hilson', 'Sarah Shahi', 'Ellie Bamber', 'Thomas Flynn', 'Stephen Fry', 'Malcolm Atobrah', 'Akshay Khanna', 'Aneesh Sheth', 'Juan Castano', 'Donald Sage Mackay', 'Sharon D. Clarke', 'Rachel Maddow', 'Bridget Benstead', 'Helen Minassian', 'Isabelle Suwan', 'Ben-Hur Santos', 'Charles Nishikawa', 'Michael Ayala-Cole', 'Robert William Carlisle', 'Gabi Kerr', 'Gabriella Fanuele', 'Georgie Fellows', 'Martin Bishop', 'John King', 'Jonny Lee Kemp', 'Enver Mehmet', 'Monsurat Bello', 'Hughie Mann', 'Karina Núñez', 'Derek Siow', 'Valter Almeida', 'Gaia Mondadori', 'Reynold Koker', 'Roy Harrop', 'Joy Reid', 'Kathryn López', 'Frank Lopez', 'Lila Bata-Walsh', 'Khushboo Hirani', 'Nathan Musoki', 'Brian Naylor', 'Kaya Brown-Hallam', 'Rita Estevanovich', 'Miranda Heldt', 'Annabella King', 'Claire Ashton', 'Anastasia Zabarchuk', 'Miruna-Bianca Teodoru', 'Alice Raymond', 'Juan Sebastián Quintero', 'Sigmund Oakeshott', 'Casey McQuiston', 'Denisa Jahlová', 'Valerie Hazan', 'Stuart Cooke', 'Sean Coleman', 'Lindy Hennessy', 'Prince Marfo', 'Caroline Glass', 'Andro Cowperthwaite', 'Nathan Hall', 'Aleshia Williams', 'Josh Wild', 'Amira Walters-Byrne', 'Destiny Viva', 'Samara Tong', 'Amy Tomlinson', 'Mackenzie Stretch', 'Tyson Simon', 'Irene Salvi', 'Marcus St. Cyr', 'Julia Ruiz', 'Troy Rochester', 'Elise Pinel', 'Ronke Olagunju', 'Bettie Moon', 'Tom Mather', 'Mira Jebari', 'Emi Ichikawa', 'Robbie Ordona', 'Bethany Hunter', 'Nicole Hastings', 'Kamilla Halid', 'Jamie Graham', 'Marlie Goddard', 'Jakub Franasowicz', 'Kyle Flaherty', 'Emma Farnell-Watson', 'Davide Albonetti', 'Olive Andrews', 'Miekaile Browne', 'Harrison Claxton', 'Cam', 'Emma Falcon', 'Jemma Redgrave']",3.15,5.0,"['Comedy', 'Romance']",121,['USA'],English,"['English', 'Spanish']","['Amazon Studios', 'Berlanti Productions']",407557,52698,120373,3300,3651,7381,7445,24066,28964,71851,56739,66899,18067,48258,333321,https://letterboxd.com/film/red-white-royal-blue/
Oppenheimer,2023,Christopher Nolan,"['Cillian Murphy', 'Emily Blunt', 'Matt Damon', 'Robert Downey Jr.', 'Florence Pugh', 'Josh Hartnett', 'Casey Affleck', 'Rami Malek', 'Kenneth Branagh', 'Benny Safdie', 'Jason Clarke', 'Dylan Arnold', 'Tom Conti', ""James D'Arcy"", 'David Dastmalchian', 'Dane DeHaan', 'Alden Ehrenreich', 'Tony Goldwyn', 'Jefferson Hall', 'David Krumholtz', 'Matthew Modine', 'Scott Grimes', 'Kurt Koehler', 'John Gowans', 'Macon Blair', 'Harry Groener', 'Gregory Jbara', 'Ted King', 'Tim DeKay', 'Steven Houska', 'Petrie Willink', 'Matthias Schweighöfer', 'Alex Wolff', 'Josh Zuckerman', 'Rory Keane', 'Michael Angarano', 'Emma Dumont', 'Sadie Stratton', 'Britt Kyle', 'Guy Burnet', 'Tom Jenkins', 'Louise Lombard', 'Michael Andrew Baker', 'Jeff Hephner', 'Olli Haaskivi', 'David Rysdahl', 'Josh Peck', 'Jack Quaid', 'Brett DelBuono', 'Gustaf Skarsgård', 'James Urbaniak', 'Trond Fausa Aurvåg', 'Devon Bostick', 'Danny Deferrari', 'Christopher Denham', 'Jessica Erin Martin', 'Ronald Auguste', 'Máté Haumann', 'Olivia Thirlby', 'Jack Cutmore-Scott', 'Harrison Gilbertson', 'James Remar', 'Will Roberts', 'Pat Skipper', 'Steve Coulter', 'Jeremy John Wells', 'Sean Avery', 'Adam Kroeger', 'Drew Kenney', 'Bryce Johnson', 'Flora Nolan', 'Kerry Westcott', 'Christina Hogue', 'Clay Bunker', 'Tyler Beardsley', 'Maria Teresa Zuppetta', 'Kate French', 'Gary Oldman', 'Hap Lawrence', 'Meg Schimelpfenig']",4.23,5.0,"['Drama', 'History']",181,"['UK', 'USA']",English,"['English', 'Dutch']","['Syncopy', 'Universal Pictures', 'Atlas Entertainment']",2534869,466295,1016808,31000,4404,9323,5561,32273,33231,149538,184126,550134,450542,687404,2106536,https://letterboxd.com/film/oppenheimer-2023/
Barbie,2023,Greta Gerwig,"['Margot Robbie', 'Ryan Gosling', 'America Ferrera', 'Ariana Greenblatt', 'Issa Rae', 'Kate McKinnon', 'Alexandra Shipp', 'Emma Mackey', 'Hari Nef', 'Sharon Rooney', 'Ana Cruz Kayne', 'Ritu Arya', 'Dua Lipa', 'Nicola Coughlan', 'Emerald Fennell', 'Simu Liu', 'Kingsley Ben-Adir', 'Ncuti Gatwa', 'Scott Evans', 'John Cena', 'Michael Cera', 'Rhea Perlman', 'Helen Mirren', 'Will Ferrell', 'Connor Swindells', 'Jamie Demetriou', 'Andrew Leung', 'Will Merrick', 'Zheng Xi Yong', 'Asim Chaudhry', 'Ray Fearon', 'Erica Ford', 'Hannah Khalique-Brown', 'Mette', 'Marisa Abela', 'Lucy Boynton', 'Rob Brydon', 'Tom Stourton', 'Chris Taylor', 'David Mumeni', 'Olivia Brody', 'Isla Ashworth', 'Eire Farrell', 'Daisy Duczmal', 'Genvieve Toussaint', 'Isabella Nightingale-Mercado', 'Millie-Rose Crossley', 'Anvita Nehru', 'Kayla-Mai Alvares', 'Luke Mullen', 'Patrick Luwis', 'Mac Brandt', 'Paul Jurewicz', 'Oraldo Austin', 'Benjamin Arthur', 'Carlos Jacott', 'Adam Ray', 'George Basil', 'Ptolemy Slocum', 'Deb Hiett', 'James Leon', 'Oliver Vaquer', 'Tony Noto', 'Christopher T. Wood', 'Ann Roth', 'Annie Mumolo', 'Elise Gallup', 'McKenna Roberts', 'Brylee Hsu', 'Sasha Milstein', 'Lauren Holt', 'Sterling Jones', 'Ryan Piers Williams', 'Jamaal Lewis', 'Kathryn Akin', 'Grace Jabbari', 'Ira Mandela Siobhan', 'Lisa Spencer', 'Naomi Weijand', 'Tom Clark', 'Ireanne Abenoja', 'Davide Albonetti', 'Charlotte Anderson', 'Michael Anderson', 'Rico Bakker', 'James Bamford', 'William John Banks', 'Callum Bell', 'Adam Blaug', 'Mason Boyce', 'Taylor Bradshaw', 'Alex Brown', 'Miekaile Browne', 'Lewis Calcutt', 'Nikkita Chadha', 'Oliver Chapman', 'Megan Charles', 'Callum Clack', 'Danny Coburn', 'Kat Collings', 'Adam Crossley', 'Sia Dauda', 'Gustave Die', 'Grace Durkin', 'Joelle Dyson', 'Lewis Easter', 'Onyemachi Ejimofor', 'Cameron Everitt', 'Luke Field-Wright', 'Sasha Flesch', 'Adam Fogarty', 'Michael John French', 'Anna-Kay Gayle', 'Charlie Goddard', 'Marlie Goddard', 'Ellis Harman', 'Yasmin Harrison', 'Josh Hawkins', 'James Healy', 'Tim Hodges', 'Mira Jebari', 'Beccy Jones', 'Thomas Kalek', 'Lily Laight', 'Maiya Leeke', 'Cristian Liberti', 'Prodromos Marneros', 'Nahum McLean', 'Jordan Melchor', 'Ramzan Miah', 'Andy Monaghan', 'Florivaldo Mossi', 'Hannah Nazareth', 'Grant Neal', 'Freja Nicole', 'Shaun Niles', 'Ella Nonini', 'Jack William Parry', 'Josie Pocock', 'Barnaby Quarendon', 'Redmand Rance', 'Zara Richards', 'Liam Riddick', 'Alana Rixon', 'Adam Paul Robertson', 'Kingdom Sibanda', 'Sebastian Skov', 'Aaron J. Smith', 'Joshua Smith', 'Lucia-Rose Sokolowski', 'Janine Somcio', 'Alex Sturman', 'Callum Sterling', 'Todd Talbot', 'Charles Tatman', 'Grant Thresh', 'Connor Tidman', 'Wahchi Vong', 'Jerry Wan', 'Sasha Wareham', 'Stan West', 'Oliver Wheeler', 'Josh Wild', 'Joe Wolstenholme', 'Richard Womersley', 'Ashley Young']",3.87,3.5,"['Comedy', 'Adventure']",114,"['UK', 'USA']",English,['English'],"['LuckyChap Entertainment', 'Heyday Films', 'NB/GG Pictures', 'Mattel', 'Warner Bros. Pictures']",3548852,442134,1538882,26000,12118,25903,17384,85889,92235,370462,385529,806297,341583,764341,2901741,https://letterboxd.com/film/barbie/
Black Mirror: Joan Is Awful,2023,Ally Pankiw,"['Annie Murphy', 'Salma Hayek Pinault', 'Michael Cera', 'Himesh Patel', 'Avi Nash', 'Wunmi Mosaku', 'Lolly Adefope', 'Rob Delaney', 'Ben Barnes', 'Jared Goldstein', 'Jaboukie Young-White', 'Ayo Edebiri', 'Camirin Farmer', 'Kayla Lorette', 'Leila Farzad', 'Rich Fulcher', 'Ellen Robertson', 'Luke Beattie', 'Paul Gorvin', 'Laurel Lefkow', 'Éva Magyar', 'Bea Segura', 'Steen Raskopoulos', 'Max Harwood', 'Brian Law', 'Anthony Wise', 'Alex Magliaro', 'Mujde Ipek', 'Mark McKerracher', 'Tessa Wong', 'Danielle Vitalis', 'Mary Beth Barone']",3.13,5.0,"['TV Movie', 'Drama', 'Thriller', 'Science Fiction']",56,nan,English,['English'],nan,215598,18056,34952,9,1412,3545,3862,12939,18023,46101,36023,27983,5000,6176,161064,https://letterboxd.com/film/black-mirror-joan-is-awful/
The Little Mermaid,2023,Rob Marshall,"['Halle Bailey', 'Jonah Hauer-King', 'Daveed Diggs', 'Awkwafina', 'Jacob Tremblay', 'Noma Dumezweni', 'Javier Bardem', 'Melissa McCarthy', 'Art Malik', 'Jessica Alexander', 'Emily Coates', 'Jude Akuwudike', 'Russell Balogh', 'Adrian Christopher', 'Simone Ashley', 'Martina Laird', 'John Dagleish', 'Sienna King', 'Karolina Conchet', 'Lorena Andrea', 'Kajsa Mohammar', 'Nathalie Sorrell', 'Jodi Benson', 'Christopher Fairbank', 'Matthew Carver', 'Julz West', 'Shay Barclay', 'Arina Li', 'Leon Cooke', 'Tarik Frimpong', 'Chris George', 'Yasmin Harrison', 'Erica Stubbs', 'Kate Thompson', 'Jonathan Bishop', 'Aaron Bryan', 'Sophie Carmen-Jones', 'Jon-Scott Clark', 'Cameron Valentina', 'Austyn Farrell', 'Cecil Jee', 'Ben Hukin', 'Andrew Lyle-Pinnock', 'Chanel Mian', 'Ebony Molina', 'Ian Oswald', 'Oliver Ravelin', 'Charles Ruhrmund', 'Nicole Valverde', 'Craig Stein', 'Sasha Watson Lobo', 'Johnny White', 'Charlotte Wilmott', 'Bobby Windebank', 'Marcus Hodson', 'Gary the Labradoodle', 'Taitum Pitfield']",3.17,3.5,"['Family', 'Fantasy', 'Romance', 'Adventure']",135,['USA'],English,['English'],"['Walt Disney Pictures', 'Lucamar Productions', 'Marc Platt Productions']",519396,79932,123406,1200,5347,10215,9264,31640,37359,91485,72137,82703,23985,47730,411865,https://letterboxd.com/film/the-little-mermaid-2023/
Queen Charlotte: A Bridgerton Story,2023,Tom Verica,"['India Ria Amarteifio', 'Corey Mylchreest', 'Golda Rosheuvel', 'Arsema Thomas', 'Adjoa Andoh', 'Michelle Fairley', 'Ruth Gemmell', 'Sam Clemmett', 'Freddie Dennis', 'Hugh Sachs', 'Julie Andrews', 'Neil Edmond', 'Richard Cunningham']",4.0,5.0,['Drama'],387,['USA'],English,['English'],['ShondaLand'],53237,5039,17976,197,99,143,113,443,648,3173,4298,11198,5084,12474,37673,https://letterboxd.com/film/queen-charlotte-a-bridgerton-story/
Scream VI,2023,"Matt Bettinelli-Olpin, Tyler Gillett","['Melissa Barrera', 'Jenna Ortega', 'Jasmin Savoy Brown', 'Mason Gooding', 'Jack Champion', 'Roger L. Jackson', 'Liana Liberato', 'Dermot Mulroney', 'Devyn Nekoda', 'Josh Segarra', 'Hayden Panettiere', 'Henry Czerny', 'Tony Revolori', 'Skeet Ulrich', 'Samara Weaving', 'Courteney Cox', 'Matthew Giuffrida', 'Andre Anthony', 'Thomas Cadrot', 'Barry Morgan', 'Chanel Mings', 'Erika Prevost', 'Jesse Camacho', 'Jenna Wheeler-Hughes', 'Mizinga Mwinga', 'Céleste Dubé', 'André Bédard', 'Eric Davis', 'Lydia Zadel', 'Elizabeth Neale', 'Justin Johnson', 'Stephane Ishmael', 'Max Laferriere', 'Jack Quaid', 'Jason Cavalier', 'Thom Newell', 'Tim Robinson', 'Akiva Schaffer']",3.39,3.0,"['Crime', 'Horror', 'Thriller']",123,['USA'],English,['English'],"['Radio Silence', 'Project X Entertainment', 'Spyglass Media Group', 'Paramount']",615994,163114,187817,2500,3441,7578,7763,25823,33620,91550,100098,129037,42579,57931,499420,https://letterboxd.com/film/scream-vi/
Past Lives,2023,Celine Song,"['Greta Lee', 'Teo Yoo', 'John Magaro', 'Moon Seung-ah', 'Yim Seung-min', 'Yoon Ji-hye', 'Choi Won-young', 'An Min-young', 'Seo Yeon-woo', 'Chang Ki-ha', 'Shin Hee-cheol', 'Park Jun-hyuk', 'Jack Alberts', 'Jane Yubin Kim', 'Song Noo-ri', 'Jin Si-ah', 'Choi Yoon-seo', 'Hwang Seung-eon', 'Jojo T. Gibbs', 'Emily Cass McDonnell', 'Federico Rodriguez', 'Conrad Schott', 'Kristen Sieh', 'Oge Agulué', 'Chase Sui Wonders', 'Isaac Powell', 'Jay Karales']",4.18,4.0,"['Drama', 'Romance']",106,"['South Korea', 'USA']",English,"['English', 'Korean']","['A24', 'Killer Films', '2AM', 'CJ ENM']",1025009,282102,436389,23000,1252,2612,2165,11104,15233,60984,95284,263262,182787,252024,886707,https://letterboxd.com/film/past-lives/
Avatar: The Way of Water,2022,James Cameron,"['Sam Worthington', 'Zoe Saldaña', 'Sigourney Weaver', 'Stephen Lang', 'Kate Winslet', 'Cliff Curtis', 'Joel David Moore', 'CCH Pounder', 'Edie Falco', 'Jemaine Clement', 'Giovanni Ribisi', 'Britain Dalton', 'Jamie Flatters', 'Trinity Bliss', 'Jack Champion', 'Brendan Cowell', 'Bailey Bass', 'Filip Geljo', 'Duane Evans Jr.', 'Dileep Rao', 'Matt Gerald', 'Robert Okumu', 'Jennifer Stafford', 'Keston John', 'Kevin Dorman', 'Alicia Vela-Bailey', 'Sean Anthony Moran', 'Andrew Arrabito', 'Johnny Alexander', 'Kim Do', 'Victor T. Lopez', 'Maria Walker', 'Phil Brown', 'Jocelyn Christian', 'Joel Tobeck', 'Moana Ete', 'Phil Peleton', 'Jamie Landau', 'Jim Moore', 'Benjamin Hoetjes', 'Nikita Tu Bryant', 'Anthony Ahern', 'Shane Rangi', 'Rick Lucas', 'Tanya Drewery', 'Ava Diakhaby', 'Isaac Te Reina', 'Eric Farmer', 'Philip Mtambo', 'Daniel Lough', 'Cruz Moir', 'Alex Lucas', 'Scarlett Fernandez', 'Chloe Coleman', 'Jeremy Irwin', 'Jake McLean', 'CJ Jones']",3.61,4.0,"['Action', 'Adventure', 'Science Fiction']",192,['USA'],English,['English'],"['20th Century Studios', 'Lightstorm Entertainment']",1630616,192115,477900,6300,8082,19039,13862,59591,63603,202692,207759,341556,128142,188567,1232893,https://letterboxd.com/film/avatar-the-way-of-water/
Beyond the Universe,2022,Diego Freitas,"['Henry Zaga', 'Giulia Be', 'João Miguel', 'Othon Bastos', 'Leo Bahia', 'Rita Assemany', 'Denise Del Vecchio', 'Isabel Fillardis', 'Viviane Araújo', 'Adriana Lessa', 'Amélia Bittencourt', 'André Garcia', 'Chan Suan', 'Daniela Fontanali', 'Daniele Máximo', 'Diego Freitas', 'Fernanda Ross', 'Giselle Prattes', 'Guilherme Rodio', 'Juju Carvalho', 'Julio Aracaki', 'Ligia Botelho', 'Luiz Serra', 'Luiza Dantas', 'Luísa Moribe', 'Mateus Ribeiro', 'Nathalia Nieman', 'Rafael Facina', 'Rodrigo de Castro', 'Rosa Rosah', 'Sérgio Menezes', 'Tutty Mendes']",2.93,4.5,"['Drama', 'Romance']",126,['Brazil'],Portuguese,['Portuguese'],['Camisa Listrada'],14656,1654,2761,51,241,460,416,1227,1303,2796,1794,2127,558,1608,12530,https://letterboxd.com/film/beyond-the-universe-2022/
Guillermo del Toro's Pinocchio,2022,"Guillermo del Toro, Mark Gustafson","['Gregory Mann', 'Ewan McGregor', 'David Bradley', 'Christoph Waltz', 'Tilda Swinton', 'Cate Blanchett', 'Ron Perlman', 'Finn Wolfhard', 'Tim Blake Nelson', 'John Turturro', 'Burn Gorman', 'Alfie Tempest', 'Tom Kenny', 'Anthea Greco', 'Francesca Fanti', 'Sandro Carotti', 'Rio Mangini', 'Benjamin Valic', 'Sky Alexis', 'Ariana Molkara', 'Roy Halo', 'Luciano Palmeri', 'Peter Arpesella']",3.98,3.0,"['Family', 'Animation', 'Drama', 'Fantasy']",117,['USA'],English,['English'],"['The Jim Henson Company', 'ShadowMachine', 'Double Dare You Productions']",604994,126662,218936,2000,905,2332,1695,8315,10470,42982,71462,163820,81471,99708,483160,https://letterboxd.com/film/guillermo-del-toros-pinocchio/
Roald Dahl's Matilda the Musical,2022,Matthew Warchus,"['Alisha Weir', 'Emma Thompson', 'Lashana Lynch', 'Stephen Graham', 'Andrea Riseborough', 'Sindhu Vee', 'Carl Spencer', 'Lauren Alexandra', 'Winter Jarrett Glasspool', 'Andrei Shen', 'Ashton Robertson', 'Meesha Garbett', 'Charlie Hodson-Prior', 'Rei Yamauchi Fulker', 'Katherine Kingsley', 'Amber Adeyinka', 'James Laurenson', 'Ann Firbank', 'Amanda Lawrence', 'Thomas Arnold', 'James Dryden', 'Matt Henry', 'Karen Mavundukure', 'Tia Isaac', 'Ella Chadwick', 'Erin Rushidi', 'Rudy Gibson', 'Isa Islam', 'Joshua Moabi', 'Poppy Caton', 'Ian McIntosh', 'Kirsty Malpass', 'Tim Bentinck', 'Charlie Beeton', 'Daniel Bill', 'Serrana Su-Ling Bliss', 'Toby Brandon', 'Isla Brill', 'Olivia Clark', 'Atalia Mai Cornelia', 'Imogen Darwen', 'Demi Delord', 'Hannah Deverell', 'Dylan Duharty', 'Charlie Gordon', 'Lauren Hasselbaink', 'Miah Hasselbaink', 'Myka Holland', 'Noah Leggott', 'Bebe Massey', 'Chloe Muldowney', 'Sara Munday', 'Elizabeth Nurdin', 'Olivia Thomas', 'Lyla Toplass', 'Leon Ung', 'Scarlett Weegram', 'Poppy Whittaker', 'Rochelle Wyatt']",3.4,5.0,"['Fantasy', 'Comedy', 'Family']",117,['UK'],English,['English'],"['Working Title Films', 'The Roald Dahl Story Company']",160859,25645,38690,234,1146,2096,1841,6630,8083,25050,27054,32069,9255,13203,126427,https://letterboxd.com/film/roald-dahls-matilda-the-musical/
The Fabelmans,2022,Steven Spielberg,"['Gabriel LaBelle', 'Michelle Williams', 'Paul Dano', 'Seth Rogen', 'Judd Hirsch', 'David Lynch', 'Jeannie Berlin', 'Julia Butters', 'Keeley Karsten', 'Sam Rechner', 'Mateo Zoryan Francis-DeFord', 'Chloe East', 'Isabelle Kusman', 'Robin Bartlett', 'Oakes Fegley', 'Sophia Kopera', 'Birdie Borria', 'Alina Brace', 'Chandler Lovelle', 'Gustavo Escobar', 'Nicolas Cantu', 'Cooper Dodson', 'Gabriel Bateman', 'Stephen Matthew Smith', 'Lane Factor', 'James Urbaniak', 'Alex Quijano', 'Kalama Epstein', 'Connor Trinneer', 'Greg Grunberg', 'Jan Hoag', 'Carlos Javier Castillo', 'Ezra Buzzington', 'Paul Chepikian', 'Brinly Marum', 'Mason Bumba', 'Mary M. Flynn', 'Adriel Porter', 'Tia Nalls', 'Larkin Campbell', 'Harper Dustin', 'Crystal the Monkey', 'Art Bonilla', 'Meredith VanCuyk', 'Vera Myers', 'Cody Mitchell', 'Caroline Anna-Kaye Green', 'Rob Shiells', 'Julyah Rose', 'April Elize', 'Jonathan Moorwood', 'Ari Davis', 'Jared Becker', 'Kendal Evans', 'Trang Vo', 'Alejandro Fuenzalida', 'Orion Hunter', 'Samantha Rose Gomez', 'Taylor Hall', 'Sarah Hamilton', 'Paige Locke', 'Marissa McBride', 'Malachi Mickelonis', 'Max David Weinberg', 'Cameron Hennings']",4.01,5.0,['Drama'],151,['USA'],English,"['English', 'Portuguese']","['Amblin Entertainment', 'Reliance Entertainment']",524644,173858,187559,3400,734,1770,1817,7969,11571,42022,66840,140553,85552,74336,433164,https://letterboxd.com/film/the-fabelmans/
The Banshees of Inisherin,2022,Martin McDonagh,"['Colin Farrell', 'Brendan Gleeson', 'Kerry Condon', 'Barry Keoghan', 'Gary Lydon', 'Pat Shortt', 'Jon Kenny', 'Sheila Flitton', 'David Pearse', 'Bríd Ní Neachtain', 'Aaron Monaghan', 'Lasairfhíona Ní Chonaola', 'James Carty', 'Conor Connolly', 'Ryan Owens', 'John Carty', 'Oliver Farrelly']",4.11,4.5,"['Comedy', 'Drama']",114,"['UK', 'USA']",English,['English'],"['Searchlight Pictures', 'Blueprint Pictures', 'Film4 Productions', 'TSG Entertainment']",1033908,224771,378265,12000,1308,3644,2426,12781,14460,63559,104606,301851,188841,155149,848625,https://letterboxd.com/film/the-banshees-of-inisherin/
The Whale,2022,Darren Aronofsky,"['Brendan Fraser', 'Sadie Sink', 'Ty Simpkins', 'Hong Chau', 'Samantha Morton', 'Sathya Sridharan', 'Jacey Sink', 'Allison Altman', 'Wilhelm Schalaudek', 'Lance Oppenheim']",3.65,4.5,['Drama'],117,['USA'],English,['English'],"['A24', 'Protozoa Pictures']",808727,142265,224705,2600,4922,10364,9189,29711,34337,93881,115085,189490,76528,96845,660352,https://letterboxd.com/film/the-whale-2022/
Pearl,2022,Ti West,"['Mia Goth', 'David Corenswet', 'Tandi Wright', 'Matthew Sunderland', 'Emma Jenkins-Purro', 'Alistair Sewell', 'Amelia Reid', 'Gabe McDonnell', 'Lauren Stewart', 'Todd Rippon', 'Grace Acheson']",3.75,5.0,"['Horror', 'Drama']",102,['USA'],English,"['English', 'German']","['A24', 'Little Lamb Productions']",986819,217288,374670,18000,1954,4812,4296,19653,27191,107922,142171,263666,89259,155042,815966,https://letterboxd.com/film/pearl-2022/
TÁR,2022,Todd Field,"['Cate Blanchett', 'Nina Hoss', 'Noémie Merlant', 'Sophie Kauer', 'Julian Glover', 'Mark Strong', 'Sylvia Flote', 'Mila Bogojevic', 'Allan Corduner', 'Fabian Dirr', 'Vincent Riotta', 'Sam Douglas', 'Lucie Pohl', 'Vivian Full', 'Lee Sellars', 'Frank Röth', 'André Röhner', 'Jessica Hansen', 'Murali Perumal', 'Sydney Lemmon', 'Dorothea Plans Casal', 'Jan Wolf', 'Peter Hering', 'Artjom Gilz', 'Marie-Lou Sellem', 'Marie-Anne Fliegel', 'Jasmine Leung', 'Chalee Sricharoen', 'Lydia Schamschula', 'Tilla Kratochwil', 'Christoph Tomanek', 'Sarah Bauerett', 'Zethphan Smith-Gneist', 'Adam Gopnik', 'Alec Baldwin', 'Marc-Martin Straub', 'Egon Brandstetter', 'Ylva Pollak', 'Paula Först', 'Nicolas Hopchet', 'Kitty Watson', 'Alma Löhr', 'Christian Höcherl', 'Han Lai', 'Andreas Jentzsch', 'Daniel Söhner', 'Alexandra Montag', 'Rose Knox-Peebles', 'Normann Höhne', 'Sven Rothe', 'Ed White', 'Johann von Bülow', 'Oliver Mills', 'Xenia Assenza', 'Johanne Murdock', 'Burkhard Nitsch', 'Ian Gallego', 'Joy Villanueva', 'Aldrin Poblete', 'Froilan Japano', 'Pattarawadee Thiwwatpakorn', 'Parami Mingmitpatanakun', 'Prapruttam Khumchat', 'Jevimary de Guia', 'Kenneth Won', 'An Cerne', 'Wenteng Chang', 'Songha Choi', 'Rucheng Fan', 'Christopher Lindner', 'Sarah Martin', 'Levin Petersen', 'Qu Yunrui', 'Felix Amrhein', 'Tilman Baubkus', 'Kathrin Baz', 'Antje Becker', 'Donatus Bergemann', 'Christina Biwank', 'Bruno Alves Borralhinho', 'Adela-Maria Bratu', 'Alexey Bröse', 'Peter Conrad', 'Ilie Cozmatchi', 'Jonathan Debus', 'Irena Dietze', 'Signe Dietze', 'Andrea Dittrich', 'Eva Dollfuß', 'Tatiana Dvortsova', 'Sarah Ennouhi', 'Thilo Ermold', 'Hanno Felthaus', 'Joachim Franke', 'Steffen Gaitzsch', 'Nathan Giem', 'Carsten Gießmann', 'Matan Gilitchensky', 'Tobias Glöckler', 'Torsten Gottschalk', 'Marcus Gottwald', 'Johannes Groth', 'Olena Guliei', 'Markus Gundermann', 'Theresia Hänsche', 'Mario Hendel', 'Wolfgang Hentrich', 'Susanne Herberg', 'Jörn Hettfleisch', 'Karin Hofmann', 'Harald Hufnagel', 'Klaus Jopp', 'Sonsoles Jouve del Castillo', 'Björn Kadenbach', 'Ute Kelemen', 'Isabel Kern', 'Friedrich Kettschau', 'Juliane Kettschau', 'Olaf Kindel', 'Stefan Kittlaus', 'Nora Koch', 'Philipp Könen-Dose', 'Sawako Kosuge', 'Andreas Kuhlmann', 'Stefan Langbein', 'Christiane Liskowsky', 'Beate Müller', 'Heiko Mürbe', 'Teresa Novák', 'David Esteban Coral Patino', 'Johannes Pfeiffer', 'Razvan Popescu', 'Jens Prasse', 'Ulf Prelle', 'Rainer Promnitz', 'Miguel Blanco Puente', 'Sofija Radic', 'Annekathrin Rammelt', 'Tatjana Reuter', 'Claudia Rose', 'Constanze Sandmann', 'André Schiefferdecker', 'Robert-Christian Schuster', 'Dorit Schwarz', 'Lisabet Seibold', 'Alexander Will', 'Joanna Szumiel', 'Alexander Teichmann', 'Annegret Teichmann', 'Daniel Thiele', 'Tim Thrin', 'Dittmar Trebeljahr', 'Léa Villeneuve', 'Jörg Wachsmuth', 'Xianbo Wen', 'Petra Willmann', 'Hobin Yi', 'Hyelin Yun', 'Damian Bahrke', 'Raphael Bauer', 'Alexander Bergert', 'Marcel Borggrefe', 'Hanna-Maria Bormuth', 'Eva Brockhaus', 'Benedict Brouwer', 'Anselm Bruchholz', 'Justus Czarnikow', 'Anna Dobbelstein', 'Carla Mathilde Ehrhardt', 'Leonie Theresa Eschenburg', 'Elias Falk', 'Clemens Fischer', 'Agne Gecaite', 'Tabea Günther', 'Paula Harders', 'Paula Heineck', 'Sonja Hentrich', 'Caspar Hoba', 'Lisa Hoba', 'Clemens Raphael Holter', 'Ludwig Huhn', 'Erasmus Koch', 'Lewin August Krella', 'Emanuel Kruopis', 'Amelie Kummell', 'Juliana Catriona Laenger', 'Alexander Lewis', 'Nathalie Lewis', 'Sijia Liu', 'Salome Manyak', 'Anna-Lea Marquigny', 'Sophia Nagl', 'Paula Su Odenthal', 'Hannah Palinske', 'Martha Pesel', 'David Pollini', 'Gregor Pollini', 'Jeremias Preisler', 'Josias Preisler', 'Richard Prokein', 'Paula Sophie Prudlo', 'Jonathan Rebstock', 'Lucilla Rudolph', 'Teresa Philomena Schild', 'Darius Thilo Schmelzer', 'Antonia Seidel', 'Kaela Solene Spranger', 'Leonard Stanoschefsky', 'Amelie Stein', 'Tamaki Steinert', 'Lukas Stiasny', 'Josefine Stoll', 'Jasmin Marie Tittmann', 'Alma Triller', 'Nikolaj Trivukas', 'Lucien Verheylewegen', 'Lennard Noah Voigt', 'Julia Isabella Waimann', 'Yvonne Jacqueline Waimann', 'Nina Walter', 'Anton Niklas Weiche', 'Finn Weigelt', 'Rahel Weiler', 'Una Weske', 'Patchara Amarintarovat', 'Vikran Arayaprayoon', 'Poon Booranamaitree', 'Punn Booranamaitree', 'Fasai Buranasiri', 'Wazin Chaiprasert', 'Sinprapha Chanthalok', 'Phanliphong Chanthosri', 'Warubon Chongtrong', 'Pluempiti Chotikulo', 'Suppatat Chotiyaputta', 'Patnaree Chulasakcharoen', 'Krittaboon Doktoey', 'Takkamol Duongsawat', 'Suradech Ek-Imphol', 'Nuttanon Googietgarn', 'Rittiporn Hirunpattarra-Aniun', 'Soranont Hommonthia', 'Bhakasak Jaowanariohi', 'Panitaporn Jarutaweesin', 'Chayuth Kaivikai', 'Pimchanok Ketmee', 'Eitthibron Khamkaen', 'Yoshio Khunwathanaphakdee', 'Varat Kokamicate', 'Siryakorn Komuttanon', 'Nattaphon Kosalpraphai', 'Patitta Labchitkuson', 'Chanakan Lertsapanan', 'Phongphairoj Lertsudwichai', 'Sudlert Lertsudwichai', 'Patchara Manoonphol', 'Pawarest Martsima', 'Janjira Mongskolsakuukit', 'Atikarn Niaksen', 'Janjao Nipehaya', 'Nitcha Panimjan', 'Benjamapa Pattatham', 'Piya Phoomala', 'Suksan Phosriya', 'Patuviwan Piensub', 'Sopida Pranitipong', 'Thanpiapon Prinyakul', 'Ravich Rachatasompope', 'Thanatdiaporn Raksakul', 'Supachan Rattanaratree', 'Thananan Rochankit', 'Nithit Rujikajorindiej', 'Chaiwattana Sangtrong', 'Yotwadee Sangtrong', 'Pisit Sanitiphan', 'Thammaporn Saratan', 'Sarunchana Senchai', 'Charapinyo Shuthamavong', 'Somiko Singha-Sila', 'Chayanit Siriroj', 'Artima Sookaew', 'Napasanin Soisuwan', 'Pornnutcha Sonthimettaporn', 'Siwat Sopacharoen', 'Sorawith Sorinchaipaisal', 'Patcharada Sornchaipaisal', 'Komkrit Suriya', 'Chatchaya Suwanphithak', 'Tanutt Tanavoravongsa', 'Thara Tengrumphung', 'Rachata Thiwwatpakorn', 'Pachara Tooparoh', 'Ittikorn Tuchmalee', 'Phumraphi Wong-Anusorn', 'Vorapirach Wongsathapornpat', 'Nut Wuththepelincha', 'Diana Birenytė', 'Arthur Gannaban']",3.95,4.0,"['Music', 'Drama']",158,['USA'],English,"['English', 'German', 'French', 'Portuguese', 'Tagalog']","['Focus Features', 'Standard Film Company', 'EMJAG Productions']",573293,159513,178530,4500,1666,4067,3084,12892,14997,47724,65999,148395,94546,71031,464401,https://letterboxd.com/film/tar-2022/
Nope,2022,Jordan Peele,"['Daniel Kaluuya', 'Keke Palmer', 'Brandon Perea', 'Michael Wincott', 'Steven Yeun', 'Wrenn Schmidt', 'Keith David', 'Devon Graye', 'Terry Notary', 'Barbie Ferreira', 'Donna Mills', 'Osgood Perkins', 'Eddie Jemison', 'Jacob Kim', 'Sophia Coto', 'Jennifer Lafleur', 'Andrew Patrick Ralston', 'Lincoln Lambert', 'Pierce Kang', 'Roman Gross', 'Alex Hyde-White', 'Hetty Chang', 'Liza Treyger', 'Ryan W. Garcia', 'Courtney Stephens', 'Caden J. Lovgren', ""Malcolm Jae O'Shea"", 'Evan Shafran', 'Mark Casimir Dyniewicz Jr.']",3.72,5.0,"['Mystery', 'Science Fiction', 'Horror']",130,['USA'],English,"['English', 'Spanish', 'Portuguese']","['Monkeypaw Productions', 'Universal Pictures']",1652033,275680,585144,12000,5112,14296,9353,50236,51017,192573,219992,410020,165756,192490,1310845,https://letterboxd.com/film/nope/
Close,2022,Lukas Dhont,"['Eden Dambrine', 'Gustav De Waele', 'Émilie Dequenne', 'Léa Drucker', 'Igor van Dessel', 'Kevin Janssens', 'Marc Weiss', 'Léon Bataille', 'Serine Ayari', 'Robin Keyaert', 'Herman van Slambrouck', 'Iven Deduytschaver', 'Jeffrey Vanhaeren', 'Hélène Theunissen', 'Baptiste Bataille', 'Pieter Piron', 'Freya De Corte', 'Cachou Kirsch', 'Ahlaam Teghadouini', 'Hervé Guerrisi']",4.1,5.0,['Drama'],104,"['Belgium', 'France', 'Netherlands']",French,"['French', 'Dutch']","['Menuet', 'Diaphana Films', 'Topkapi Films', 'Versus Production', 'VTM', 'RTBF']",236823,66073,94970,5900,239,557,558,2696,4333,15650,25880,61136,35965,52321,199335,https://letterboxd.com/film/close-2022/
Elvis,2022,Baz Luhrmann,"['Austin Butler', 'Tom Hanks', 'Olivia DeJonge', 'Helen Thomson', 'Richard Roxburgh', 'Kelvin Harrison Jr.', 'David Wenham', 'Kodi Smit-McPhee', 'Luke Bracey', 'Dacre Montgomery', 'Leon Ford', 'Gary Clark Jr.', 'Yola', 'Natasha Bassett', 'Xavier Samuel', 'Adam Dunn', 'Alton Mason', 'Shonka Dukureh', 'David Gannon', 'Shannon Sanders', 'Charles Grounds', 'Josh McConville', 'Kate Mulvany', 'Gareth Davies', 'Chaydon Jay', 'Christian Kisando', 'John Mukristayo', 'Miles Burton', 'Gad Banza', 'Aristene Kisando', 'Senayt Mebrahtu', 'Mariama Princess Andrews', 'Sharon Brooks', 'Nicholas Bell', 'Anthony Phelan', 'Sandro Colarelli', 'Cle Morgan', 'Charles Allen', 'Natalie Bassingthwaighte', 'Liz Blackett', 'Mike Bingaman', 'Christian McCarty', 'Tony Nixon', 'Andrea Moor', 'Mark Leonard Winter', 'Hugh Parker', 'Thomas Larkin', 'Hilton Hyppolite Denis', 'Christopher Sommers', 'Brad Leaver', 'Simon Mallory', 'Terepai Richmond', 'Alex Knight', 'Jordan A. Holland', 'Lenesha Randolph', 'Elizabeth Cullen', 'Angie Milliken', 'Luke Corrin Care', 'Jack McGirr', 'Miranda Frangou', 'Lakota Johnson', 'Ruby Gonzales-Judd', 'Greg Powell', 'Patrick Shearer', 'Sarah Ogden', 'Iain Gardiner', 'Melina Vidler', 'Traneshia Chiles', 'Lauren McClinton', 'Gary Hale', 'Kellee Halford', 'Angela Hill', 'Jamiah Hudson', 'Norris Jones', 'Stephen R. Ladson', 'Alfreda McCrary', 'Angela McCrary', 'Beverly Ann McCrary', ""Keb' Mo'"", 'Tamica Nicole', 'Marqo Patton', 'Robert Randolph', 'Calvin Settles II', 'Calvin V. Settles Sr.', 'Ira Wayne Settles Sr.', 'Odessa L. Settles', 'Sara Settles', 'Shirley M. Settles', 'Jacqueline Smith-Jefferson', 'Torshia Suggs', 'Cameron Keith Walls', 'Andrea Baker', 'Libe Barer', 'Doug Burch', 'Cathy Cavadini']",3.34,3.5,"['Drama', 'Music']",159,"['Australia', 'USA']",English,['English'],"['Warner Bros. Pictures', 'Bazmark', 'The Jackal Group']",948320,150259,224530,3900,6587,15051,13422,49232,57078,153437,146423,172142,47857,66602,727831,https://letterboxd.com/film/elvis-2022/
Triangle of Sadness,2022,Ruben Östlund,"['Harris Dickinson', 'Charlbi Dean', 'Woody Harrelson', 'Zlatko Burić', 'Vicki Berlin', 'Dolly de Leon', 'Henrik Dorsin', 'Iris Berben', 'Jean-Christophe Folly', 'Amanda Walker', 'Oliver Ford Davies', 'Sunnyi Melles', 'Thobias Thorwid', 'Jiannis Moustos', 'Timoleon Gketsos', 'Alicia Eriksson', 'Carolina Gynning', 'Ralph Schicha', 'Arvin Kananian', 'Mia Benson', 'Stefan Gödicke', 'Nana Manu', 'Alexander Virenhem', 'Malte Gårdinger', 'William-Patrik Molvén', 'Fredrik Quinones', 'Filip Roséen', 'Chidiegwu Chidi', 'Charlie Westerberg', 'Erik Andersson', 'Hamlet Talje Willoughby', 'Victor Köhler', 'Daniel Estehghari', 'Alfons Miari', 'Isak Barrow', 'Alfred Lindström', 'Augustine Kajue', 'Florand Kaufeldt', 'Theodor Öhrn', 'Jin Zou', 'David Alexanderson', 'Olof Källström', 'Julian Redaelli', 'Egil Ahlenius', 'Carl Jood', 'Chand Smith', 'Malick Afocozi', 'Ludvig Fast', 'Victor Norlander', 'Anton Isaksson', 'Brian Kamara', 'Eric Svirins', 'Hugo Palm', 'Simon Bredenberg', 'Noa Del Castillo Hallberg', 'Ann-Sofi Back', 'Robert Rydberg', 'Robert Nordberg', 'Charlotte Brattin', 'Mira Uszkureit', 'Alex Schulman', 'Amanda Schulman', 'Emma Warg', 'Camilla Läckberg', 'Christina Saliba', 'Karin Myrenberg', 'Linnea Olsson', 'Asta Stensson', 'Elsa Sjökvist', 'Johanna Ovelius', 'Shaniaz Hama Ali', 'Catrin Nilsson', 'Jacob Papinniemi', 'Mimmi Brundin', 'Melodie Von Sass', 'Ellen Dixdotter', 'Sofia Lücke', 'Ronja Kruus', 'Chris Westerstrom', 'Hedda Rehnberg', 'Robert Martufi', 'Hanna Oldenburg', 'Arnella Zetterström', 'Sepideh Mazloom', 'Eric Dernsjö', 'Nikolas Drosopoulos', 'Chrysanthi Theodosi', 'Maria Alexiou', 'Marilena Lampropoulou', 'Christos Ntoulas', 'Nikolas Chalkiadakis', 'Grace Milaszewski', 'Melina Marksaitis', 'Theresa Johannesson', 'Leocilyn Capanas', 'Nanette Lipponen', 'Maria Danica Herrera', 'Maria Grace Concepcion', 'Kristin Delfinado', 'Shanilou Del Mundo', 'John Michael Yadao', 'Freedom Ziad Ahmed', 'Robert Jomar', 'Garry Villador Deveratturda', 'Christopher Janiola', 'Mario Rowen Bugtai', 'Mohamed Lachras', 'Taye Nathanail', 'Athanasios Papaioannou', 'Alexandros Sargologos', 'Allen Bandiola', 'Nicolas Refin', 'Lontoc Rolyn', 'John Paul Paugio', 'John Paulo', 'Anne Brocklin Bergman', 'Johnny Bergman', 'Fredrik Wikingsson', 'Henrik Thott', 'Thomas Peteus', 'Magnus Jeansson', 'Stefan Martikainen', 'Britt-Marie Svensson', 'Arash Raoufi', 'Nafiseh Hadizadeh', 'Inga Hahn', 'Lennart Hahn', 'Linda Anborg', 'Karina Baldock Wiking', 'Olof Myhrman', 'Rebecca Fager', 'Hilde Fager', 'Emmylou Saguindel-Holmé', 'Ann-Marie Eriksson', 'Pål Svensson', 'Giorgos Kyriakopoulos', 'Pavlos Laoutaris', 'Eva Koroli', 'Alexia Mpogdanou', 'Giannis Papathymios', 'Achilles Vatrikas', 'Gianna Andritsaki', 'Dauda Coneth', 'Beh Solo Kone', 'Yussif Zakaria', 'Papa Cheik Jade']",3.69,4.5,"['Drama', 'Comedy']",147,"['Denmark', 'France', 'Germany', 'Greece', 'Mexico', 'Sweden', 'Switzerland', 'Turkey', 'UK', 'USA']",English,"['English', 'Akan', 'German', 'French', 'Swedish', 'Tagalog', 'Greek (modern)']","['30WEST', 'BBC Film', 'Bord Cadre Films', 'Coproduction Office', 'Film i Väst', 'Heretic', 'Imperative Entertainment', 'Sovereign Films', 'Plattform Produktion', 'SVT', 'BFI', 'Piano', 'ARTE France Cinéma', 'ZDF/Arte', 'Essential Filmproduktion', 'TRT Sinema']",719140,137909,196302,2800,2960,6519,5933,22259,28605,84418,119332,185542,71917,55109,582594,https://letterboxd.com/film/triangle-of-sadness/
Aftersun,2022,Charlotte Wells,"['Paul Mescal', 'Frankie Corio', 'Brooklyn Toulson', 'Celia Rowlson-Hall', 'Sally Messham', 'Ayşe Parlak', 'Sophia Lamanova', 'Spike Fearn', 'Harry Perdios', 'Frank Corio', 'Ruby Thompson', 'Ethan James Smith', 'Onur Ekşioğlu', 'Cafer Karahan', 'Kayleigh Coleman', 'John Stuifzand', 'Tyler Mutlu', 'Kieran Burton', 'Nijat Gachayev', 'Sarah Makharine', 'Erol Cengizalp', 'Djamel Turner']",4.24,1.0,['Drama'],102,"['UK', 'USA']",English,"['English', 'Spanish', 'Turkish']","['PASTEL', 'BBC Film', 'Tango Entertainment', 'Unified Theory', 'Screen Scotland', 'BFI']",916534,244497,406156,53000,1303,3052,2089,10699,12838,51533,72849,202865,146278,261829,765335,https://letterboxd.com/film/aftersun/
Everything Everywhere All at Once,2022,"Daniel Scheinert, Daniel Kwan","['Michelle Yeoh', 'Stephanie Hsu', 'Ke Huy Quan', 'James Hong', 'Jamie Lee Curtis', 'Tallie Medel', 'Jenny Slate', 'Harry Shum Jr.', 'Biff Wiff', 'Sunita Mani', 'Aaron Lazar', 'Brian Le', 'Andy Le', 'Neravana Cabral', 'Chelsey Goldsmith', 'Craig Henningsen', 'Anthony Molinari', 'Dan Brown', 'Anthony N.', 'Cara Marie Chooljian', 'Randall Archer', 'Efka Kvaraciejus', 'Peter Banifaz', 'Audrey Wasilewski', 'Li Jing', 'Dylan Henry Lau', 'Boon Pin Koh', 'Timothy Eulich', 'Daniel Scheinert', 'Michiko Nishiwaki', 'Jane Lui', 'Jason Hamer', 'Timothy Ralston', 'Hiroshi Yada', 'Randy Newman', 'Amanda MacLeod']",4.31,4.0,"['Science Fiction', 'Action', 'Adventure']",140,['USA'],English,"['English', 'Cantonese', 'Chinese']","['A24', 'IAC Films', 'AGBO', 'Ley Line Entertainment', 'TPC', 'Year of the Rat']",2849028,488853,1444660,128000,9443,19821,9935,46006,36359,140762,145123,439465,350488,1104125,2301527,https://letterboxd.com/film/everything-everywhere-all-at-once/
CODA,2021,Siân Heder,"['Emilia Jones', 'Marlee Matlin', 'Troy Kotsur', 'Eugenio Derbez', 'Ferdia Walsh-Peelo', 'Daniel Durant', 'Amy Forsyth', 'Kevin Chapman', 'John Fiore', 'Lonnie Farmer', 'Courtland Jones', 'Molly Beth Thomas', 'Ayana Brown', 'Jason Pugatch', 'Kyana Fanene', 'Anilee List', 'Stone Martin', 'Maeve Chapman', 'Stephen Caliskan', 'Amanda Bradshaw', 'Bryan Sabbag', 'Kayla Caulfield', 'Samidio DePina', 'Dominic Andersen', 'Jose Guns Alves', 'Owen Burke', 'Lance Norris', 'Mark Pettograsso', 'Tony Viveiros', 'Armen Garo', 'Jared Voss', 'Emilia Faucher', 'Marilyn Busch', 'Melissa McMeekin', 'Erica McDermott', 'Garrett McKechnie', 'Rebecca Gibel', 'TJ Ciarametaro', 'Gary Galone', 'Nikki Kim', 'Mary Ann Schaub', 'Cassandra Berta', 'Sarah Clarke', 'Rena Maliszewski', 'David Newsom', 'Kiara Pichardo', 'Pamela Jayne Morgan', 'Elbert Kim', 'Dominic Cannarella-Andersen']",3.86,5.0,"['Music', 'Romance', 'Drama']",112,"['France', 'USA']",English,"['English', 'Spanish']","['Vendôme Pictures', 'Pathé', 'Picture Perfect Entertainment']",379485,94511,120870,1800,909,1910,1928,7903,11066,37666,54274,94973,41014,48135,299778,https://letterboxd.com/film/coda-2021/
Soul,2020,Pete Docter,"['Jamie Foxx', 'Tina Fey', 'Graham Norton', 'Rachel House', 'Alice Braga', 'Richard Ayoade', 'Phylicia Rashād', 'Donnell Rawlings', 'Questlove', 'Angela Bassett', 'Cora Champommier', 'Margo Hall', 'Daveed Diggs', 'Rhodessa Jones', 'Wes Studi', 'Sakina Jaffrey', 'Fortune Feimster', 'Calum Grant', 'Laura Mooney', 'Zenobia Shroff', 'June Squibb', 'Ochuwa Oghie', 'Jeannie Tirado', 'Cathy Cavadini', 'Dorian Lockett', 'Doris Burke', 'Ronnie del Carmen', 'Esther K. Chae', 'Élisapie', 'Marcus Shelby']",3.94,4.5,"['Family', 'Animation', 'Comedy', 'Fantasy']",101,['USA'],English,['English'],"['Walt Disney Pictures', 'Pixar']",1927628,204359,650798,7600,2062,7490,4846,33455,31673,170105,173012,417286,174163,272962,1287054,https://letterboxd.com/film/soul-2020/
Hollywood,2020,"Ryan Murphy, Daniel Minahan","['David Corenswet', 'Darren Criss', 'Laura Harrier', 'Joe Mantello', 'Dylan McDermott', 'Jake Picking', 'Jeremy Pope', 'Holland Taylor', 'Samara Weaving', 'Jim Parsons', 'Patti LuPone']",3.48,5.0,['Drama'],355,['USA'],English,['English'],['Ryan Murphy Productions'],39352,4193,8854,27,238,461,489,1369,1695,4379,4790,6434,1860,2997,24712,https://letterboxd.com/film/hollywood-2020/
Joker,2019,Todd Phillips,"['Joaquin Phoenix', 'Robert De Niro', 'Zazie Beetz', 'Frances Conroy', 'Brett Cullen', 'Shea Whigham', 'Bill Camp', 'Glenn Fleshler', 'Leigh Gill', 'Josh Pais', 'Rocco Luna', 'Marc Maron', 'Sondra James', 'Murphy Guyer', 'Douglas Hodge', 'Dante Pereira-Olson', 'Carrie Louise Putrello', 'Sharon Washington', 'Hannah Gross', 'Frank Wood', 'Brian Tyree Henry', 'April Grace', 'Mick Szal', 'Carl Lundstedt', 'Michael Benz', 'Ben Warheit', 'Gary Gulman', 'Sam Morril', 'Chris Redd', 'Mandela Bellamy', 'Demetrius Dotson II', 'Greer Barnes', 'Ray Iannicelli', 'Bryan Callen', 'Peter Hans Benson', 'Vito Gerbino', 'Adam Quezada', 'Xavyer Ureña', 'Evan Rosado', 'Damian Emmanuel', 'Mike Troll', 'Jane Fergus', 'David Gibson', 'Tony D. Head', 'Jeff McCarthy', 'Kim Brockington', 'Troy Roberts', 'Lou Young', 'Michael-Scott Druckenmiller', 'Craig Austin', 'John Cenatiempo', 'Danny Schoch', 'Keith Buterbaugh', 'James Ciccone', 'Rich Campbell', 'Roger Squitero', 'Steven Elson', 'Graham Mabry', 'John Alldred', 'Alonzo Wright', 'Jack Wilkins', 'Richard Baratta', 'Mary Kate Malat', 'Adrienne Acevedo Lovette', 'Justin Theroux', 'Alissa Bourne', 'Jamaal Burcher', 'John Cashin', 'Jason John Cicalese', 'Brendan Patrick Connor', 'Blaise Corrigan', 'Dennis Jay Funny', 'James P. Harkins', 'Joseph Hernandez', 'Ben Heyman', 'Graham Maby', 'Jesse Schratz', 'Isabella Ferreira', 'Shade Rupe']",3.84,3.0,"['Crime', 'Drama', 'Thriller']",122,"['Canada', 'USA']",English,['English'],"['Warner Bros. Pictures', 'Joint Effort', 'Village Roadshow Pictures', 'Bron Studios', 'DC Films']",3727963,287327,1522189,22000,9881,25689,16492,87335,74464,337232,309080,830959,300827,602879,2594838,https://letterboxd.com/film/joker-2019/
Marriage Story,2019,Noah Baumbach,"['Adam Driver', 'Scarlett Johansson', 'Laura Dern', 'Alan Alda', 'Ray Liotta', 'Julie Hagerty', 'Merritt Wever', 'Azhy Robertson', 'Wallace Shawn', 'Martha Kelly', ""Mark O'Brien"", 'Julia Greer', 'Matthew Maher', 'Eric Berryman', 'Mickey Sumner', 'Jasmine Cephas Jones', 'Gideon Glick', 'Motell Gyn Foster', 'David Turner', 'Raymond J. Lee', 'Mary Wiseman', 'Pete Simpson', 'Irene Choi', 'Matthew Shear', 'Becca Blackwell', 'Brooke Bloom', 'Hannah Dunne', 'McKinley Belcher III', 'Roslyn Ruff', 'Santiago Mallan', 'Robert Smigel', 'Amanda Rovner', 'Carlos Jacott', 'Sarah Jones', 'Dean Wareham', 'Bashir Salahuddin', 'Vinny Chhibber', 'Ayden Mayeri', 'Erin Evans', 'Lucas Neff', 'Annie Hamilton', 'Tunde Adebimpe', 'Jordyn Curet', 'Justin Claiborne', 'Kyle Bornheimer', 'Pilar Holland', 'Emily Cass McDonnell', 'Andrew Steven Hernandez', 'Amir Talai', 'Juan Alfonso', 'Connie Marie Flores', 'Jeremy Barber', 'Rich Fulcher', 'Mary Hollis Inboden', 'Peter Oliver', 'Bill Blair']",4.0,5.0,['Drama'],137,"['UK', 'USA']",English,['English'],['Heyday Films'],1402389,190794,464917,8600,2525,7766,3966,25615,21468,108708,124389,325972,163023,186518,969950,https://letterboxd.com/film/marriage-story-2019/
Once Upon a Time… in Hollywood,2019,Quentin Tarantino,"['Leonardo DiCaprio', 'Brad Pitt', 'Margot Robbie', 'Emile Hirsch', 'Margaret Qualley', 'Timothy Olyphant', 'Julia Butters', 'Austin Butler', 'Dakota Fanning', 'Bruce Dern', 'Mike Moh', 'Luke Perry', 'Damian Lewis', 'Al Pacino', 'Nicholas Hammond', 'Samantha Robinson', 'Rafał Zawierucha', 'Lorenza Izzo', 'Costa Ronin', 'Damon Herriman', 'Lena Dunham', 'Madisen Beaty', 'Mikey Madison', 'James Landry Hébert', 'Maya Hawke', 'Victoria Pedretti', 'Sydney Sweeney', 'Harley Quinn Smith', 'Dallas Jay Hunter', 'Kansas Bowling', 'Parker Love Bowling', 'Cassidy Vick Hice', 'Ruby Rose Skotchdopole', 'Danielle Harris', 'Josephine Valentina Clark', 'Scoot McNairy', 'Clifton Collins Jr.', 'Marco Rodríguez', 'Ramón Franco', 'Raúl Cardona', 'Courtney Hoffman', 'Dreama Walker', 'Rachel Redleaf', 'Rebecca Rittenhouse', 'Rumer Willis', 'Spencer Garrett', 'Clu Gulager', 'Martin Kove', 'Rebecca Gayheart', 'Kurt Russell', 'Zoë Bell', 'Michael Madsen', 'Perla Haney-Jardine', 'James Remar', 'Monica Staggs', 'Craig Stark', 'Keith Jefferson', 'Omar Doom', 'Kate Berlant', 'Victoria Truscott', 'Allison Yaple', 'Bruce Del Castillo', 'Brenda Vaccaro', 'Lew Temple', 'Daniella Pick', 'David Steen', 'Mark Warrack', 'Gabriela Flores', 'Heba Thorisdottir', 'Breanna Wing', 'Kenneth Sonny Donato', 'Sergio Gonzalez', ""Casey O'Neill"", 'Michael Graham', 'Emile Williams', 'Vincent Laresca', 'JLouis Mills', 'Gilbert Saldivar', 'Maurice Compte', 'Eddie Perez', 'Hugh McCallum', 'Zander Grable', 'Ed Regine', 'Michael Bissett', 'Lenny Langley Jr.', 'Gillian M. Berrow', 'Chad Ridgely', 'Chic Daniel', 'Corey Burton', 'Michaela Sprague', 'Ryan Ramirez', 'Kayla Jenee Radomski', 'Kerry Westcott', 'William DeAtley', 'Brianna Joy Chomer', 'Quentin Tarantino', 'Johnny Otto', 'Gina Aponte', 'Adam West', 'Burt Ward', 'Katarína Paveleková', 'Weston Razooli']",3.76,2.0,"['Drama', 'Thriller', 'Comedy']",162,"['China', 'UK', 'USA']",English,"['English', 'Italian', 'Spanish']","['Heyday Films', 'Columbia Pictures', 'Bona Film Group']",2452203,328195,855817,19000,6688,22209,11488,74640,59499,277566,260924,538409,203413,269058,1723894,https://letterboxd.com/film/once-upon-a-time-in-hollywood/
Parasite,2019,Bong Joon-ho,"['Song Kang-ho', 'Lee Sun-kyun', 'Cho Yeo-jeong', 'Choi Woo-shik', 'Park So-dam', 'Lee Jung-eun', 'Jang Hye-jin', 'Park Myung-hoon', 'Jung Ji-so', 'Jung Hyeon-jun', 'Park Keun-rok', 'Jung Yi-seo', 'Cho Jae-myung', 'Jeong Ik-han', 'Kim Kyu-baek', 'Ahn Seong-bong', 'Yoon Young-woo', 'Park Jae-wook', 'Lee Dong-yong', 'Jeon Eun-mi', 'Kim Geon', 'Lee Joo-hyung', 'Lee Ji-hye', 'Kim Bo-ryeong', 'Park Hye-sook', 'Baek Seung-hwan', 'Riccardo Ferraresso', 'Ko Kwan-jae', 'Lee Si-hoon', 'Seo Bok-hyeon', 'Shim Soo-mi', 'Yoon Hye-ree', 'Andreas Fronk', 'Anna Elisabeth Rihlmann', 'Rosie Peralta', 'Shin Seung-min', 'Park Seo-jun', 'Kwak Sin-ae', 'Choi Jeong-hyun', 'Kim Ha-eon', 'Lee Eun-hee', 'Choi Ji-won', 'Park Jae-wan', 'Hwang In-gyeong', 'Kim Yeong-jo', 'Kim Jung-woo', 'Lee Sang-kyung', 'Lee Si-hoo', 'Ahn Jin-sang', 'Joost Klein']",4.56,5.0,"['Comedy', 'Thriller', 'Drama']",133,['South Korea'],Korean,"['Korean', 'English', 'German']",['Barunson E&A'],3731337,513539,2140468,88000,2461,5417,2257,15061,12600,90737,105588,565769,469763,1521294,2790947,https://letterboxd.com/film/parasite-2019/
Bohemian Rhapsody,2018,Bryan Singer,"['Rami Malek', 'Gwilym Lee', 'Ben Hardy', 'Joseph Mazzello', 'Lucy Boynton', 'Aidan Gillen', 'Allen Leech', 'Tom Hollander', 'Mike Myers', 'Aaron McCusker', 'Meneka Das', 'Ace Bhatti', 'Priya Blackburn', 'Max Bennett', 'Dermot Murphy', 'Dickie Beau', 'Jack Roth', 'Neil Fox-Roberts', 'Jess Radomska', 'Michelle Duncan', 'Ross Green', 'Bruce Mackinnon', 'Joshua Higgott', 'Pat Lally', 'William Owen', 'Philip Andrew', 'Tim Plester', 'Felipe Bejarano', 'Kieran Hardcastle', 'Martin Oelbermann', 'Ian Gabriel Dumdum', 'Matt Greenwood', 'Royce Cronin', 'James MacLaren', 'Andrew Bowerman', 'Drew P.', 'Haf Gibson', 'Honor Hellon', 'Rosy Benjamin', 'Leila Crerar', 'Katherine Newman', 'Adam Rauf', 'Peter Howe', 'John Ottman', 'James Wallace', 'Matthew Houston', 'Scott Morrison Watson', 'Devlin Lloyd', 'Stefan Kopiecki', 'Garry Summers', 'Matthew Fredricks', 'Ian Jareth Williamson', 'Adam Lazarus', 'Johanna Thea', 'Adam Lambert', 'Andreea Helen David', 'Jason Lines', 'Adam James Johnston', 'Freddie Mercury', 'Brian May', 'Roger Taylor', 'John Deacon']",3.41,4.5,"['Drama', 'Music']",135,"['UK', 'USA']",English,['English'],"['20th Century Fox', 'Regency Enterprises', 'GK Films', 'TSG Entertainment']",1748421,110935,442728,5400,10978,25501,22467,75475,72575,206261,168669,260673,70621,159911,1073131,https://letterboxd.com/film/bohemian-rhapsody/
Coco,2017,Lee Unkrich,"['Anthony Gonzalez', 'Gael García Bernal', 'Benjamin Bratt', 'Alanna Ubach', 'Renée Victor', 'Ana Ofelia Murguía', 'Edward James Olmos', 'Jaime Camil', 'Alfonso Arau', 'Herbert Siguenza', 'Lombardo Boyar', 'Sofía Espinosa', 'Dyana Ortelli', 'Gabriel Iglesias', 'Selene Luna', 'Natalia Cordova-Buckley', 'Carla Medina', 'Luis Valdez', 'Blanca Araceli', 'Polo Rojas', 'Montse Hernandez', 'Octavio Solis', 'Cheech Marin', 'Salvador Reyes', 'John Ratzenberger', 'Daniel Edward Mora']",4.12,5.0,"['Adventure', 'Animation', 'Music', 'Family']",105,['USA'],English,"['English', 'Spanish']","['Pixar', 'Walt Disney Pictures']",2420218,221520,855798,11000,1861,5314,3311,23132,23484,146737,152028,449843,193099,461529,1460338,https://letterboxd.com/film/coco-2017/
Baby Driver,2017,Edgar Wright,"['Ansel Elgort', 'Kevin Spacey', 'Lily James', 'Jon Hamm', 'Jamie Foxx', 'Jon Bernthal', 'Eiza González', 'Flea', 'CJ Jones', 'Lanny Joon', 'Micah Howard', 'Morgan Brown', 'Morse Diggs', 'Sky Ferreira', 'Lance Palmer', 'Hudson Meek', 'Viviana Chavez', 'Hal Whiteside', 'Clay Donahue Fontenot', 'Brigitte Kali Canales', 'Patrick Walker', 'Ben VanderMey', 'David Robert Lewis', 'Big Boi', 'Killer Mike', 'Brogan Hall', 'Allison King', 'R. Marcos Taylor', 'Paul Williams', 'Joe Loya', 'Andy McDermott', 'Christopher Beanland', 'Andrea Frye', 'Thomas E. Haynes', 'Russell B. Spencer', 'Cynne Simpson', 'Keith Hudson', 'Sidney Sewell', 'Thurman Sewell', 'Elijah Everett', 'Jon Spencer', 'Walter Hill', 'Wilbur Fitzgerald', 'Jeff Chase', 'Shellita Boxie', 'Marshall Choka', 'Juliette Sicard', 'Marvin E. West', 'Connie Lee', 'James Blackshear', 'Erica Frene', 'Elizabeth Davidovich', 'Duke Jackson', 'Colin Lacativa', 'Trey McGriff', 'Donald K. Overstreet', 'Danny Le Boyer', 'David Conk', 'Troy Faruk', 'Mark Smith', 'Kenneth Manos', 'Nathaniel Perry', 'Kent Wagner', 'Whit Whitman', 'Perry Zulu Jr.', 'Chad Joyce']",3.72,4.0,"['Crime', 'Action']",113,"['UK', 'USA']",English,['English'],"['Big Talk Studios', 'Working Title Films', 'Working Title Films']",2533330,204902,888391,26000,4788,16235,9588,66608,58228,297444,270326,528905,168120,238037,1658279,https://letterboxd.com/film/baby-driver/
Call Me by Your Name,2017,Luca Guadagnino,"['Armie Hammer', 'Timothée Chalamet', 'Michael Stuhlbarg', 'Amira Casar', 'Esther Garrel', 'Victoire du Bois', 'Vanda Capriolo', 'Antonio Rimoldi', 'Elena Bucci', 'Marco Sgrosso', 'André Aciman', 'Peter Spears']",3.86,4.0,"['Romance', 'Drama']",132,"['Brazil', 'France', 'Italy', 'USA']",English,"['English', 'French', 'Italian']","['La Cinéfacture', 'Frenesy Film', 'M.Y.R.A. Entertainment', 'RT Features', ""Water's End Productions""]",2083649,285191,779121,61000,13616,24345,12218,60520,45915,184952,152928,370232,156607,383520,1404853,https://letterboxd.com/film/call-me-by-your-name/
Moonlight,2016,Barry Jenkins,"['Trevante Rhodes', 'André Holland', 'Janelle Monáe', 'Ashton Sanders', 'Jharrel Jerome', 'Alex R. Hibbert', 'Jaden Piner', 'Tanisha Cidel', 'Naomie Harris', 'Mahershala Ali', 'Shariff Earp', 'Duan Sanderson', ""Herman 'Caheei McGloun"", 'Kamal Ani-Bellow', 'Keomi Givens', 'Eddie Blanchard', 'Rudi Goblen', 'Edson Jean', 'Patrick Decile', 'Herveline Moncion', 'Fransley Hyppolite', 'Jesus Mitchell', 'Larry Anderson', 'Stephon Bron', 'Don Seward', 'Justin Ebenhack']",4.2,3.0,['Drama'],111,['USA'],English,['English'],"['A24', 'Plan B Entertainment', 'PASTEL']",1336054,264516,508076,27000,2631,5638,2770,17038,15271,75656,82868,244152,146682,317081,909787,https://letterboxd.com/film/moonlight-2016/
La La Land,2016,Damien Chazelle,"['Ryan Gosling', 'Emma Stone', 'John Legend', 'Rosemarie DeWitt', 'J.K. Simmons', 'Amiée Conn', 'Terry Walters', 'Thom Shelton', 'Cinda Adams', 'Callie Hernandez', 'Jessica Rothe', 'Sonoya Mizuno', 'Claudine Claudio', 'Jason Fuchs', 'D.A. Wallach', 'Trevor Lissauer', 'Olivia Hamilton', 'Anna Chazelle', 'Marius de Vries', 'Finn Wittrock', 'Josh Pence', 'Nicole Coulon', 'Damon Gupton', 'Christopher Michael Stevens', 'Keith Harris', 'Kaveh Rastegar', 'David Douglas', 'Miles Anderson', 'Bobo Chang', 'Meagen Fay', 'John Hindman', 'Valarie Rae Miller', 'Nicole Wolf', 'Corrin Evans', 'Kiff VandenHeuvel', 'Tom Everett Scott', 'Hemky Madera', 'Zoë Hall', 'Dempsey Pappion', ""Clifton 'Fou Fou' Eddie"", 'Cal Bennett', 'Nedra Wheeler', 'Javier Gonzalez', 'Khirye Tyler', 'Briana Lee', 'Shaylah J. Stevens', 'Natalie Imani', 'Camryn Ray Cavaliero', 'Sandra Rosko', 'Arthur Horowitz', 'Reshma Gajjar', 'Candice Coke', 'Hunter Hamilton', 'Damian Gomez', 'Amanda Balen', 'Lou Becker', 'Dominic Chaiduang', 'Cindera Che', 'Chris Moss', 'Marissa Labog', 'Tiffany Daniels', 'Melinda Sullivan', 'Stephanie Landwehr', 'Britt Stewart', 'Clarice Ordaz', 'Nathan Prevost', 'Mecca Vazie Andrews', 'Scott Hislop', 'KC Monnie', 'Krystal Ellsworth', 'Sarah Mitchell', 'Khasan Brailsford', 'Morgan Larson', 'Becca Sweitzer', 'Gakenia Muigai', 'Michael Stein', 'Mario Diaz', 'Julie Schmid', 'Samantha Abrantes', 'Lexie Contursi', 'Eartha Robinson', 'Sybil Azur', 'Tara Nicole Hughes', 'Kayla Kalbfleisch', 'Martha Nichols', 'Anthony Marciona', 'Bill Prudich', 'Robert Roldan', 'Ryan Novak', 'Demian Boergadine', 'Gustavo Vargas', 'Robert Haynes', 'Jesse Houk', 'Ana Flavia Gavlak', 'Kristin Slaysman', 'Cameron Brinkman', 'Jordan Ray Fox', 'C.J. Stussi', 'Margaret Newborn', 'Nadia Tumanova', 'Crystal Nichol', 'Kristin Elliott', 'Andrea Lareo', 'Christopher Aber', 'Anna Lunberry', 'Shannon Leann', 'Jenna Curtis', 'Noah James', 'Tommy Cooley', 'Morgan Cohen', 'Jeremy Nathan Tisser', 'Patty Tobin', 'Heather Turman', 'Ottavio Taddei', 'April Martucci', 'Trent Kerpsack', 'Kaye L. Morris', 'Vince Donvito', 'Steffen Dziczek', 'Melvin LaThomas Brimm', 'Kelly Kennedy', 'Destinee Handly', 'Tommy Otis', 'Doran Butler', 'Matt Cady', 'Carol Connors', 'Patrick Cook', ""Aaron 'Deuce' Cooke"", 'Bubba Dean Rambo', 'Nick Drago', 'Shaun Evaristo', 'Dana Fukagawa', 'Daniel Gaymon', 'Liz Imperio', 'Casey Johansen', 'Cris Judd', 'Yoori Kim', 'Bradley M. Rapier', 'Dana Wilson', 'Terrance Yates', 'Tracy Shibata', 'Dominique Domingo', 'Asiel Hardison', 'Corey Anderson', 'Nick Baga', 'Leah Adler', 'Noel Bajandas', 'Denzel Chisolm', 'Montana Efaw', 'Natalie Gilmore', 'Shannon Holtzapffel', 'Galen Hooks', 'Jeremy Hudson', 'George Lawrence Jr.', 'Scott Myrick', 'Cassidy Noblett', 'Brittany Parks', 'Víctor Rojas', 'Tony Bellissimo', 'Ryan Ramirez', 'Catalina Cat Rendic', 'Bryan Tanaka', 'Ava Bernstine', 'Quinn Lipton', 'Monie Adamson', 'Matthew Aylward', 'McKenzie Anderson', 'Pamela Chu', 'Mallauri Esquibel', 'Michael Higgins', 'Chris Jarosz', 'Matthew Kazmierczak', 'Paul Kirkland', 'Megan Lawson', 'Michael Munday', ""Brandon O'Neal"", 'Chelsea Thedinga', 'Danny Valle', 'Emily Williams', 'Deniz Altunay', 'Holly Houk', 'Clarence Robinson', 'Dapo Torimiro', 'Sasha Fine', 'Eren Kayakıran', 'Ali Arda Özdeniz', 'Phillip E. Walker', 'Susie Ganiere', 'Lynn Moore', 'Nilla Elizabeth Watkins', 'Andres Perez-Molina', 'Milica Govich', 'Frederick Keeve', 'Amanda Fields']",4.08,3.0,"['Drama', 'Comedy', 'Music', 'Romance']",129,"['Hong Kong', 'USA']",English,['English'],"['Summit Entertainment', 'Black Label Media', 'Gilbert Films', 'Impostor Pictures', 'Marc Platt Productions', 'TIK Films']",3121594,451173,1381656,198000,10674,33100,11059,79070,45201,231101,176017,527913,280490,831377,2226002,https://letterboxd.com/film/la-la-land/
Inside Out,2015,Pete Docter,"['Amy Poehler', 'Phyllis Smith', 'Bill Hader', 'Lewis Black', 'Mindy Kaling', 'Richard Kind', 'Kaitlyn Dias', 'Diane Lane', 'Kyle MacLachlan', 'Bobby Moynihan', 'Paula Poundstone', 'Paula Pell', 'Dave Goelz', 'Frank Oz', 'Josh Cooley', 'Flea', 'John Ratzenberger', 'Carlos Alazraqui', 'Peter Sagal', 'Rashida Jones', 'Lori Alan', 'Gregg Berger', 'Veronika Bonell', 'John Cygan', 'Laraine Newman']",3.82,5.0,"['Comedy', 'Family', 'Animation', 'Adventure', 'Drama']",95,['USA'],English,['English'],"['Pixar', 'Walt Disney Pictures']",2724833,201142,750533,7200,4034,12314,8024,51728,48710,243507,204411,457447,145732,311238,1487145,https://letterboxd.com/film/inside-out-2015/
The Grand Budapest Hotel,2014,Wes Anderson,"['Ralph Fiennes', 'F. Murray Abraham', 'Tony Revolori', 'Mathieu Amalric', 'Adrien Brody', 'Willem Dafoe', 'Jeff Goldblum', 'Edward Norton', 'Harvey Keitel', 'Jude Law', 'Bill Murray', 'Saoirse Ronan', 'Jason Schwartzman', 'Léa Seydoux', 'Tilda Swinton', 'Tom Wilkinson', 'Owen Wilson', 'Florian Lukas', 'Bob Balaban', 'Fisher Stevens', 'Wallace Wolodarsky', 'Waris Ahluwalia', 'Uwe Holoubek', 'Larry Pine', 'Karl Markovics', 'Volker Michalowski', 'Daniel Steiner', 'Hendrik von Bültzingslöwen', 'Lisa Kreuzer', 'Rainer Reiners', 'Sabine Urig', 'Matthias Matschke', 'Philipp Sonntag', 'Hans Martin Stier', 'Giselda Volodi', 'Neal Huff', 'Steffen Scheumann', 'Milton Welsh', 'Piet Paes', 'Michaela Caspar', 'Heike Hanold-Lynch', 'Roy Macready', 'Carl Sprague', 'Golo Euler', 'Roman Berger', 'Michael Benthin', 'Lucas Hedges', 'Wolfgang Ceczor', 'Georg Tryphon', 'Gabriel Rush', 'Hannes Wegener', 'Gerald Sullivan', 'Ben Howard', 'Marko Dyrlich', 'Jella Niemann', 'Marcel Mazur', 'Robert Bienas', 'Oliver Claridge', 'Bernhard Kremser', 'Kunichi Nomura', 'Sister Anna Rademacher', 'Heinz-Werner Jeschkowski', 'Sabine Euler', 'Renate Klein', 'Paul Schlase', 'Darin Damjanow', 'Dar Ronge', 'Robin Hurlstone', 'Jutta Westphal', 'Gisela Bech', 'Birgit Müller', 'Ursula Kuhnt', 'Monika Krüger', 'Wolfram Nielacny', 'John Peet', 'Jürgen Schwämmle', 'Frank Jacob', 'Lennart Meyer', 'Alfred Hänel', 'Manpreet Gerlach', 'David Adamik', 'Moritz Hepper', 'David Cioffi', 'Oliver Hazell', 'Bohumil Váchal', 'Ed Munro', 'Francesco Zippel', 'Enrico Hoffmann', 'Marie Goyette', 'Jeno Orosz', 'Gyula Lukács', 'Georg Rittmannsperger', 'Dirk Bossmann', 'Arwin Lobedann', 'Matthias Holfert', 'Reinhold Hegelow', 'Steffen Nixdorf', 'Manfred Lindner']",4.24,3.0,"['Drama', 'Comedy']",100,"['Germany', 'USA']",English,"['English', 'French']","['Fox Searchlight Pictures', 'Scott Rudin Productions', 'Studio Babelsberg', 'Indian Paintbrush', 'TSG Entertainment', 'American Empirical Pictures']",2488364,356514,1087397,57000,1633,5892,2780,22969,18707,135416,146556,521656,293328,542593,1691530,https://letterboxd.com/film/the-grand-budapest-hotel/
Frozen,2013,"Chris Buck, Jennifer Lee","['Kristen Bell', 'Idina Menzel', 'Jonathan Groff', 'Josh Gad', 'Santino Fontana', 'Alan Tudyk', 'Maia Wilson', 'Paul Briggs', 'Stephen J. Anderson', 'Maurice LaMarche', 'Jennifer Lee', 'Chris Williams', 'Ciarán Hinds', 'Edie McClurg', 'Robert Pine', 'Spencer Lacey Ganus', 'Livvy Stubenrauch', 'Eva Bella', 'Jesse Corti', 'Jeffrey Marcus', 'Tucker Gilmore', 'Ava Acres', 'Stephen Apostolina', 'Annaleigh Ashford', 'Kirk Baily', 'Jenica Bergere', 'David Boat', 'Tyree Brown', 'Woody Buck', 'June Christopher', 'Lewis Cleale', 'Wendy Cutler', 'Terri Douglas', 'Eddie Frierson', 'Jean Gilpin', 'Jackie Gonneau', 'Nicholas Guest', 'Bridget Hoffman', 'Nick Jameson', 'Daniel Kaz', 'John Lavelle', 'Patricia Lentz', 'Annie Lopez', 'Katie Lowes', 'Mona Marshall', 'Dara McGarry', 'Scott Menville', 'Adam Overett', 'Paul Pape', 'Courtney Peldon', 'Jennifer Perry', 'Raymond S. Persi', 'Jean-Michel Richaud', 'Lynwood Robinson', 'Carter Sand', 'Jadon Sand', 'Katie Silverman', 'Pepper Sweeney', 'Fred Tatasciore', 'Jack Whitehall']",3.38,4.0,"['Fantasy', 'Animation', 'Adventure', 'Family']",102,['USA'],English,['English'],"['Walt Disney Pictures', 'Walt Disney Animation Studios']",1810790,110433,278052,3200,7271,16800,12173,59727,61905,213291,145731,195339,41067,104349,857653,https://letterboxd.com/film/frozen-2013/
The Purge,2013,James DeMonaco,"['Ethan Hawke', 'Lena Headey', 'Max Burkholder', 'Adelaide Kane', 'Edwin Hodge', 'Rhys Wakefield', 'Tony Oller', 'Arija Bareikis', 'Tom Yi', 'Chris Mulkey', 'Tisha French', 'Dana Bunch', 'Peter Gvozdas', 'John Weselcouch', 'Alicia Vela-Bailey', 'David Basila', 'Boima Blake', 'Nathan Clarkson', 'Jesse Jacobs', 'Mickey Facchinello', 'Chester Lockhart', 'Tyler Osterkamp', 'Rj Wolfe', 'Aaron Kuban', 'Karen Strassman', 'Cindy Robinson']",2.69,1.0,"['Science Fiction', 'Thriller', 'Horror']",86,"['France', 'USA']",English,['English'],"['Universal Pictures', 'Why Not Productions', 'Platinum Dunes', 'Blumhouse Productions']",689765,51553,72716,307,6499,19320,21137,61710,57985,104010,43951,38926,5127,13362,372027,https://letterboxd.com/film/the-purge/
Black Swan,2010,Darren Aronofsky,"['Natalie Portman', 'Mila Kunis', 'Vincent Cassel', 'Barbara Hershey', 'Winona Ryder', 'Benjamin Millepied', 'Ksenia Solo', 'Kristina Anapau', 'Janet Montgomery', 'Sebastian Stan', 'Toby Hemingway', 'Sergio Torrado', 'Mark Margolis', 'Tina Sloan', 'Abraham Aronofsky', 'Charlotte Aronofsky', 'Marcia Jean Kurtz', ""Shaun O'Hagan"", 'Chris Gartin', 'Deborah Offner', 'Stanley B. Herman', 'Michelle Rodriguez Nouel', 'Kurt Froman', 'Marty Krzywonos', 'Leslie Lyles', 'John Epperson', 'Arkadiy Figlin', 'Tim Fain', 'Sarah Lane', 'Liam Flaherty', 'Patrick Heusinger', 'Marina Stavitskaya', 'Olga Kostritzky', 'Christine Redpath', 'Alexandra Damiani', 'Rebecca Azenberg', 'Laura Bowman', 'Holly L. Fusco', 'Abigail Mentzer', 'Barette Vance', 'Lillian di Piazza', 'Megan Dickinson', 'Jessy Hendrickson', 'Geneviève Lebean', 'Rachel Jambois', 'Ryoko Sadoshima', 'Kaia A. Tack', 'Lauren Fadeley', 'Sarah Hay', 'Adrianna de Svastich', 'Jamie Wolf', 'Carrie Lee Riggins', 'Gina Artese', 'Daralina Komar', 'Tim Lacatena', 'Alyson Cambridge', 'Anne Bergstedt Jordanova']",4.14,3.0,"['Drama', 'Thriller', 'Horror']",108,['USA'],English,"['English', 'French', 'Italian']","['Fox Searchlight Pictures', 'Cross Creek Pictures', 'Protozoa Pictures', 'Phoenix Pictures', 'Dune Entertainment']",2229860,307181,848227,58000,1971,5824,3331,24558,20415,134860,138057,439540,214016,466802,1449374,https://letterboxd.com/film/black-swan/
Avatar,2009,James Cameron,"['Sam Worthington', 'Zoe Saldaña', 'Sigourney Weaver', 'Stephen Lang', 'Michelle Rodriguez', 'Giovanni Ribisi', 'Joel David Moore', 'CCH Pounder', 'Wes Studi', 'Laz Alonso', 'Dileep Rao', 'Matt Gerald', 'Sean Anthony Moran', 'Jason Whyte', 'Scott Lawrence', 'Kelly Kilgour', 'James Patrick Pitt', 'Sean Patrick Murphy', 'Peter Dillon', 'Kevin Dorman', 'Kelson Henderson', 'David Van Horn', 'Jacob Tomuri', 'Michael Blain-Rozgay', 'Jon Curry', 'Julene Renee', 'Luke Hawker', 'Woody Schultz', 'Peter Mensah', 'Sonia Yee', 'Jahnel Curfman', 'Ilram Choi', 'Kyla Warren', 'Lisa Roumain', 'Debra Wilson', 'Taylor Kibby', 'Jodie Landau', 'Chris Mala', 'Julie Lamm', 'Cullen B. Madden', 'Joseph Brady Madden', 'Frankie Torres', 'Austin Wilson', 'Sara Wilson', 'Tamica Washington-Miller', 'Lucy Briant', 'Nathan Meister', 'Gerry Blair', 'Matthew Chamberlain', 'Paul Yates', 'Wray Wilson', 'James Gaylyn', 'Melvin Leno Clark III', 'Carvon Futrell', 'Brandon Jelkes', 'Micah Moch', 'Haniyyah Tahirah', 'Christopher Nolen', 'Christa Oliver', 'April Marie Thomas', 'Bravita A. Threatt', 'Alicia Vela-Bailey', 'Larry Rew', 'Dina Morrone', 'Rodney Cook']",3.57,5.0,"['Fantasy', 'Science Fiction', 'Adventure', 'Action']",162,"['USA', 'UK']",English,"['English', 'Spanish']","['Dune Entertainment', 'Lightstorm Entertainment', '20th Century Fox', 'Ingenious Media']",2469069,149916,547956,14000,12006,29269,17398,80748,73260,252475,207126,349542,106950,235653,1364427,https://letterboxd.com/film/avatar/
Up,2009,Pete Docter,"['Ed Asner', 'Christopher Plummer', 'Jordan Nagai', 'Bob Peterson', 'Delroy Lindo', 'Jerome Ranft', 'John Ratzenberger', 'David Kaye', 'Elie Docter', 'Jeremy Leary', 'Mickie McGowan', 'Danny Mann', 'Donald Fullilove', 'Jess Harnell', 'Josh Cooley', 'Pete Docter', 'Mark Andrews', 'Bob Bergen', 'Brenda Chapman', 'Emma Coats', 'John Cygan', 'Paul Eiding', 'Tony Fucile', 'Teresa Ganzel', 'Sherry Lynn', 'Laraine Newman', 'Teddy Newton', 'Jeff Pidgeon', 'Valerie LaPointe', 'Jan Rabson', 'Bob Scott']",4.09,5.0,"['Animation', 'Adventure', 'Family', 'Comedy']",96,['USA'],English,['English'],['Pixar'],2886966,201200,844937,6200,1365,4535,3044,22863,23572,162080,175424,498842,185936,416036,1493697,https://letterboxd.com/film/up/
WALL·E,2008,Andrew Stanton,"['Ben Burtt', 'Elissa Knight', 'Jeff Garlin', 'Fred Willard', 'John Ratzenberger', 'Kathy Najimy', 'Sigourney Weaver', 'Teddy Newton', 'Bob Bergen', 'John Cygan', 'Pete Docter', 'Paul Eiding', 'Donald Fullilove', 'Teresa Ganzel', 'Mickie McGowan', 'Laraine Newman', 'Lori Alan', 'Jeff Pidgeon', 'Jan Rabson', 'Lori Richardson', 'Andrew Stanton', 'Jim Ward', 'Colette Whitaker', 'Kim Kopf', 'Angus MacLane', 'Niki McElroy', 'Garrett Palmer', 'Sherry Lynn', 'Jess Harnell', 'MacInTalk']",4.19,3.0,"['Animation', 'Science Fiction', 'Family']",98,['USA'],English,['English'],"['Pixar', 'Walt Disney Pictures']",2566705,227681,816966,17000,2379,7371,3171,23286,18667,124595,128311,407273,199874,440905,1355832,https://letterboxd.com/film/walle/
Ratatouille,2007,Brad Bird,"['Patton Oswalt', 'Lou Romano', 'Ian Holm', 'Brian Dennehy', 'Peter Sohn', ""Peter O'Toole"", 'Brad Garrett', 'Janeane Garofalo', 'Will Arnett', 'Julius Callahan', 'James Remar', 'John Ratzenberger', 'Teddy Newton', 'Tony Fucile', 'Jake Steinfeld', 'Brad Bird', 'Stéphane Roux', 'Andrea Boerries', 'Marco Boerries', 'Lindsey Collins', 'Thomas Keller', 'Brad Lewis', 'Lori Richardson', 'Jack Bird', 'Jamie Oliver', 'Bill Farmer', 'Michael Giacchino']",4.2,4.0,"['Animation', 'Family', 'Comedy', 'Fantasy']",111,['USA'],English,"['English', 'French']","['Pixar', 'Walt Disney Pictures']",3075089,243976,1048191,29000,1345,3960,2410,20324,20167,162415,163144,511418,210987,594055,1690225,https://letterboxd.com/film/ratatouille/
The Producers,2005,Susan Stroman,"['Nathan Lane', 'Matthew Broderick', 'Uma Thurman', 'Will Ferrell', 'Gary Beach', 'Roger Bart', 'Eileen Essell', 'Michael McKean', 'David Huddleston', 'Debra Monk', 'Andrea Martin', 'Jon Lovitz', 'Bryn Dowling', 'Meg Gillentine', 'Kevin Ligon', 'Ray Wills', 'Marilyn Sokol', 'Brad Oscar', 'Tory Ross', 'Brent Barrett', 'Peter Bartlett', 'Jim Borstelmann', 'Kathy Fitzgerald', 'Jai Rodriguez', 'Jason Antoon', 'Jonathan Freeman', 'John Barrowman', 'Fred Applegate', 'Jerry Richardson', 'Timothy Shew', 'Danny Mastrogiorgio', 'Richard Kind', 'James Biberi', 'Mel Brooks', 'Dan Bittner', 'Ronn Carroll', 'Nancy Johnston', 'Francesca Harper', 'Roland Rusinek']",3.21,2.5,['Comedy'],134,['USA'],English,['English'],"['Universal Pictures', 'Columbia Pictures', 'Brooksfilms']",49513,8110,7637,187,238,678,768,2501,2953,6316,4404,4248,1034,1694,24834,https://letterboxd.com/film/the-producers-2005/
The Incredibles,2004,Brad Bird,"['Craig T. Nelson', 'Holly Hunter', 'Sarah Vowell', 'Spencer Fox', 'Jason Lee', 'Samuel L. Jackson', 'Elizabeth Peña', 'Eli Fucile', 'Maeve Andrews', 'Brad Bird', 'Teddy Newton', 'Jean Sincere', 'Bud Luckey', 'Lou Romano', 'Dominique Louis', 'Wallace Shawn', 'Bret Parker', 'Michael Bird', 'Kimberly Adair Clark', 'John Ratzenberger', 'Wayne Canney', 'Mark Andrews', 'Nicholas Bird', 'Louis Martin Braga III', 'Mary Elizabeth Clark', 'Pete Docter', 'Louis Gonzales', 'Elizabeth Greenberg', 'Juliet Greenberg', 'Billy Guardino', ""Dennis 'D.J.' Jennings"", 'Ollie Johnston', 'Brad Lewis', 'Ted Mathot', 'Jazzie Mahannah', 'Randy Nelson', 'Bob Peterson', 'Jeff Pidgeon', 'Juliet Pokorny', 'Joe Ranft', 'Lori Richardson', 'A.J. Riebli III', 'Katherine Ringgold', 'Stephen Schaffer', 'Bob Scott', 'Peter Sohn', 'Andrew Stanton', 'Frank Thomas', 'Pamela Gaye Walker', 'Patrick Walker', 'Deirdre Warin']",4.07,5.0,"['Animation', 'Family', 'Adventure', 'Action']",115,['USA'],English,"['English', 'French']","['Walt Disney Pictures', 'Pixar']",2476114,197164,652361,7900,1149,4275,2801,22673,21939,150797,144337,398394,154735,313365,1214465,https://letterboxd.com/film/the-incredibles/
10 Things I Hate About You,1999,Gil Junger,"['Heath Ledger', 'Julia Stiles', 'Joseph Gordon-Levitt', 'Larisa Oleynik', 'David Krumholtz', 'Andrew Keegan', 'Susan May Pratt', 'Gabrielle Union', 'Larry Miller', 'Daryl Mitchell', 'Allison Janney', 'David Leisure', 'Greg Jackson', 'Kyle Cease', 'Terence Heuston', 'Cameron Fraser', 'Eric Riedmann', 'Quinn Maixner', 'Demegio Kimbrough', 'Todd Butler', 'Dennis Mosley', 'Bianca Kajlich', 'Nick Vukelic', 'Ben Laurance', 'Aidan Kennedy', 'Jelani Quinn', 'Jesse Dyer', 'Aaron Therol', 'Carlos Lacámara', 'Heather Taylor', 'Joshua Thorpe', 'J.R. Johnson', 'Wendy Gottlieb', 'Brian Hood', 'Travis Muller', 'Ari Karczag', 'Laura Kenny', 'Alice Evans', 'Jesper Inglis', 'Nick Brown', 'Monique Powell', 'Brian Mashburn', 'Kay Hanley', 'Michael Eisenstein']",3.99,4.0,"['Comedy', 'Romance', 'Drama']",97,['USA'],English,"['English', 'French']","['Mad Chance', 'Jaret Entertainment']",2143569,279881,884664,71000,1529,4805,3784,23608,28686,157652,169001,382667,126634,466668,1365034,https://letterboxd.com/film/10-things-i-hate-about-you/
Titanic,1997,James Cameron,"['Leonardo DiCaprio', 'Kate Winslet', 'Billy Zane', 'Kathy Bates', 'Frances Fisher', 'Gloria Stuart', 'Victor Garber', 'Bill Paxton', 'Bernard Hill', 'David Warner', 'Jonathan Hyde', 'Lewis Abernathy', 'Suzy Amis', 'Nicholas Cascone', 'Danny Nucci', 'Jason Barry', 'Lew Palter', 'Eric Braeden', 'Ewan Stewart', 'Bernard Fox', 'Ioan Gruffudd', 'Jonny Phillips', 'Edward Fletcher', 'Scott G. Anderson', 'Martin East', 'Gregory Cooke', 'Alexandrea Owens', 'Seth Adkins', 'Michael Ensign', 'Anatoly M. Sagalevitch', 'Martin Hub', 'Mark Lindsay Chapman', 'Richard Graham', 'Paul Brightwell', 'Craig Kelly', 'Ron Donachie', 'Charlotte Chatton', 'Fannie Brett', 'Jenette Goldstein', 'Camilla Overbye Roos', 'Linda Kerns', 'Amy Gaipa', 'Martin Jarvis', 'Rosalind Ayres', 'Rochelle Rose', 'Jonathan Evans-Jones', 'Rocky Taylor', 'Liam Tuohy', 'Simon Crane', 'James Lancaster', 'Elsa Raven', 'Reece P. Thompson III', 'Laramie Landis', 'Mark Rafael Truitt', 'John Walcutt', 'Terry Forrestal', 'Derek Lea', 'Richard Ashton', 'Sean Nepita', 'Brendan Connolly', 'David Cronnelly', 'Garth Wilton', 'Richard Fox', 'Nick Meaney', 'Kevin Owers', 'Mark Capri', 'Marc Cass', 'Paul Herbert', 'Emmett James', 'Chris Byrne', 'Oliver Page', 'James Garrett', 'Erik Holland', 'Jari Kinnunen', 'Anders Falk', 'Barry Dennen', 'Vern Urich', 'Rebecca Klingler', ""Tricia O'Neil"", 'Kathleen S. Dunn', 'Romeo Francis', 'Mandana Marino', 'Van Ling', 'Bjørn Olsen', 'Dan Pettersson', 'Shay Duffin', 'Greg Ellis', 'Diana Morgan', 'Kris Andersson', 'Bobbie Bates', 'Aaron James Cash', 'Anne Fletcher', 'Edmond Alan Forsyth', 'Andie Hicks', 'Scott Hislop', 'Stan Mazin', 'Lisa Ratzin', 'Julene Renee', 'Brian Walsh', 'Alexandra Boyd', 'James Cameron', 'Mike Butters', 'Bruno Campolo', 'Kevin De La Noy', 'Tony Kenny', 'Sean Lawlor', 'Don Lynch', 'Johnny Martin', 'Ryan McClurkin', 'Meghan McLeod', ""Mike O'Neal"", 'Phil Parlapiano', 'Steven Quale', 'R. Gern Trowbridge', 'Olivia Rosewood', 'John Slade', 'Brian McDermott', 'Bret Aaron Knower']",3.81,5.0,"['Drama', 'Romance']",194,['USA'],English,"['English', 'French', 'German', 'Swedish', 'Italian', 'Russian']","['Paramount', '20th Century Fox', 'Lightstorm Entertainment']",2672537,218103,654832,28000,5716,14877,8460,53819,47674,241357,196476,401788,122763,331504,1424434,https://letterboxd.com/film/titanic-1997/
Toy Story,1995,John Lasseter,"['Tom Hanks', 'Tim Allen', 'Don Rickles', 'Jim Varney', 'Wallace Shawn', 'John Ratzenberger', 'Annie Potts', 'John Morris', 'Erik von Detten', 'Laurie Metcalf', 'R. Lee Ermey', 'Sarah Freeman', 'Penn Jillette', 'Jack Angel', 'Spencer Aste', 'Greg Berg', 'Lisa Bradley', 'Kendall Cunningham', 'Debi Derryberry', 'Cody Dorkin', 'Bill Farmer', 'Craig Good', 'Gregory Grudt', 'Danielle Judovits', 'Sam Lasseter', 'Brittany Levenbrown', 'Sherry Lynn', 'Scott McAfee', 'Mickie McGowan', ""Ryan O'Donohue"", 'Jeff Pidgeon', 'Patrick Pinney', 'Phil Proctor', 'Jan Rabson', 'Joe Ranft', 'Andrew Stanton', 'Shane Sweet', 'John Lasseter', 'Jonathan Benair', 'Anthony Burch', 'Tracy Fraim']",4.13,4.0,"['Comedy', 'Animation', 'Family', 'Adventure']",81,['USA'],English,['English'],['Pixar'],2560855,204947,653272,6800,1417,4625,2363,19733,17242,133601,130918,411287,154266,358953,1234405,https://letterboxd.com/film/toy-story/
