Film_title,Release_year,Director,Cast,Average_rating,Owner_rating,Genres,Runtime,Countries,Original_language,Spoken_languages,Studios,Watches,List_appearances,Likes,Fans,½,★,★½,★★,★★½,★★★,★★★½,★★★★,★★★★½,★★★★★,Total_ratings,Film_URL
Sick of Myself,2022,Kristoffer Borgli,"['Kristine Kujath Thorp', 'Eirik Sæther', 'Fanny Vaager', 'Fredrik Stenberg Ditlev-Simonsen', 'Sarah Francesca Brænne', 'Steinar Klouman Hallert', 'Ingrid Vollan', 'Andrea Bræin Hovig', 'Henrik Mestad', 'Anders Danielsen Lie', 'Frida Natland', 'Guri Hagen Glans', 'Matilda Höög', 'Seda Witt', 'Elisabeth Bech Aschehoug', 'Terje Strømdahl', 'Anne Kokkinn', 'Christian Torp', 'Erlend Mørch', 'Kristoffer Borgli', 'Babatunde Adam Oluwalana', 'Knut Fougner', 'Mohammad Afzal', 'Jonas Bakke', 'Magnus Aasheim', 'Bengt-Åke Gustafsson', 'Alexander Berg', 'Bente Vikman', 'Marit Heger', 'Sophia Leeber', 'Håkon Ramstad', 'Robert Skjærstad', 'Birgit Nordby', 'Bjørnar Bruun', 'Lene Finnestad']",3.73,4.0,"['Comedy', 'Drama']",97,"['France', 'Norway', 'Sweden']",Norwegian,"['Norwegian', 'Swedish']","['Oslo Pictures', 'Garagefilm International', 'Film i Väst', 'Memento Films International', 'Tandem']",118440,22873,30214,492,215,543,538,2310,4103,15810,24507,32481,7769,6207,94483,https://letterboxd.com/film/sick-of-myself/
The Batman,2022,Matt Reeves,"['Robert Pattinson', 'Zoë Kravitz', 'Paul Dano', 'Jeffrey Wright', 'John Turturro', 'Peter Sarsgaard', 'Andy Serkis', 'Colin Farrell', 'Jayme Lawson', 'Gil Perez-Abraham', 'Peter McDonald', ""Con O'Neill"", 'Alex Ferns', 'Rupert Penry-Jones', 'Charlie Carver', 'Max Carver', 'Barry Keoghan', 'Kosha Engler', 'Archie Barnes', 'Janine Harouni', 'Hana Hrzic', 'Joseph Walker', 'Luke Roberts', 'Oscar Novak', 'Stella Stocker', 'Sandra Dickinson', 'Jack Bennett', 'Andre Nightingale', 'Richard James-Neale', 'Lorraine Tai', 'Joseph Balderrama', 'James Eeles', 'Dave Simon', 'Angela Yeoh', 'Leemore Marrett Jr.', 'Ezra Elliott', 'Itoya Osagiede', 'Stewart Alexander', 'Adam Rojko Vega', 'Heider Ali', 'Marcus Onilude', 'Elena Saurel', 'Ed Kear', 'Sid Sagar', 'Amanda Blake', 'Todd Boyce', 'Brandon Bassir', 'Will Austin', 'Chabris Napier-Lawrence', 'Douglas Russell', 'Phil Aizlewood', 'Mark Killeen', 'Philip Shaun McGuinness', 'Lorna Brown', 'Elliot Warren', 'Jay Lycurgo', 'Stefan Race', 'Elijah Baker', 'Craige Middleburg', 'Akie Kotabe', 'Spike Fearn', 'Urielle Klein-Mekongo', 'Bronson Webb', 'Madeleine Gray', 'Ste Johnston', 'Arthur Lee', 'Parry Glasspool', 'Jordan Coulson', 'Hadas Gold', 'Pat Battle', 'Bobby Cuza', 'Dean Meminger', 'Roma Torre', 'Mike Capozzola', 'Amanda Hurwitz', 'Joshua Eldridge-Smith', 'Daniel Rainford', 'Nathalie Armin', 'Jose Palma', 'Kazeem Tosin Amore', 'Rodrig Andrisan', 'Craig Douglas']",3.98,4.0,"['Crime', 'Mystery', 'Thriller']",177,['USA'],English,['English'],"['6th & Idaho', 'Dylan Clark Productions', 'DC Films', 'Warner Bros. Pictures']",2862462,385418,1225626,43000,4615,15380,8286,57063,48675,246079,260159,697689,364554,490838,2193338,https://letterboxd.com/film/the-batman/
Kimi,2022,Steven Soderbergh,"['Zoë Kravitz', 'Byron Bowers', 'Jaime Camil', 'Erika Christensen', 'Derek DelGaudio', 'Robin Givens', 'Charles Halford', 'Devin Ratray', 'Jacob Vargas', 'Rita Wilson', 'India de Beaufort', 'Sarai Koo', 'Koya Harada', 'George Evans', 'Sheila Evans', 'Sebastian Evans', 'Henrich Evans', 'Betsy Brantley', 'Alyana Gomez', 'Brian Flores', 'Lakin Valdez', 'Patrika Darbo', 'Cheyenne Nguyen', 'Andrew Daymer', 'Alex Dobrenko', 'David Wain', 'Andy Daly', 'Noelle E Parker', 'Finnegan George', 'Jamie Baer', 'Emily Kuroda', 'Alina Gatti', 'Caleb Emery', 'Beka Sikharulidze', 'Aviona Rodriguez Brown', 'Erica Matthews', 'Megan Gotz', 'Raymond Power', 'Brenna Wagner', 'Conner Marx', 'Lauryn Scoon']",3.14,2.5,"['Thriller', 'Drama', 'Crime']",89,['USA'],English,['English'],"['New Line Cinema', 'HBO Max']",151865,36020,30519,35,877,2217,2499,9219,13832,34955,32160,20032,2664,2061,120516,https://letterboxd.com/film/kimi/
House of Gucci,2021,Ridley Scott,"['Lady Gaga', 'Adam Driver', 'Al Pacino', 'Jeremy Irons', 'Jared Leto', 'Jack Huston', 'Salma Hayek Pinault', 'Alexia Murray', 'Vincent Riotta', 'Gaetano Bruno', 'Camille Cottin', 'Youssef Kerkour', 'Reeve Carney', 'Florence Andrews', 'Mehdi Nebbou', 'Miloud Mourad Benamara', 'Andrea Piedimonte Bodini', 'Vincenzo Tanassi', 'Mauro Lamantia', 'Nicole Bani Sarkute', 'Mia McGovern Zaini', 'Clelia Rossi Marcelli', 'Pietro Ragusa', 'Alessandro Pess', 'Al Mariotti', 'Monica Nappo', 'Alessandro Piavani', 'Marina Occhionero', 'Pierpaolo Palladino', 'Jun Ichikawa', 'Daphne Morelli', 'Mãdãlina Ghenea', 'Gjergj Lala', 'Alessandra Borgia', 'Havana Alfarano', 'Philippe Boa', 'Ira Fronten', 'Marika De Chiara', 'Antonello Annunziata', 'Edouard Philipponnat', 'Nicola Garofalo', 'Daniele De Martino', 'Beatrice Pelliccia', 'Beppe Rosso', 'Jay Natelle', 'Johanna Santos', 'Larry Kapust', 'Livio Beshir', 'Pietro Pace', 'Bianca Nappi', 'Paolo De Giorgio', 'Mario Opinato', 'Gianpiero Pumo', 'Stefano Moretti', 'Catherine Walker', 'Martino Palmisano', 'Eva Moore', 'Filippo De Carli', 'Marco Sincini', 'Daniele Monterosi', 'Daniela Macaluso', 'Alfredo Pea', 'Dirk Plönissen', 'Mimmo Mancini', 'Eric Alexander', 'Beniamino Marcone', 'Simone Spinazzè', 'Fausto Caroli', 'Bruce McGuire', 'Loris Loddi', 'Luca Chikovani', 'Alessandro Egger', 'Roger Garth', 'Andrea Bruschi', 'Dante Alba']",2.92,3.0,"['Drama', 'Crime', 'History']",158,"['Canada', 'USA']",English,"['English', 'Arabic', 'French', 'Italian', 'Japanese']","['Metro-Goldwyn-Mayer', 'Bron Studios', 'Scott Free Productions']",496878,65213,72067,243,4218,11492,12479,46044,52348,104602,65187,46827,7750,11434,362381,https://letterboxd.com/film/house-of-gucci/
Happening,2021,Audrey Diwan,"['Anamaria Vartolomei', 'Kacey Mottet Klein', 'Luàna Bajrami', 'Louise Orry-Diquéro', 'Pio Marmaï', 'Sandrine Bonnaire', 'Cyril Metzger', 'Anna Mouglalis', 'Fabrizio Rongione', 'Julien Frison', 'Alice de Lencquesaing', 'François Loriquet', 'Louise Chevillotte', 'Leonor Oberson', 'Louis Bédot', 'Isabelle Mazin', 'Eric Verdin', 'Édouard Sulpice', 'Leïla Muse', 'Madeleine Baudot', 'Mélodie Adda']",3.97,4.5,['Drama'],100,['France'],French,['French'],"['France 3 Cinéma', 'Rectangle Productions', 'Srab Films', 'Wild Bunch']",51772,19415,13923,156,55,100,78,480,818,4089,8480,16540,5682,3934,40256,https://letterboxd.com/film/happening/
Dune,2021,Denis Villeneuve,"['Timothée Chalamet', 'Rebecca Ferguson', 'Oscar Isaac', 'Jason Momoa', 'Josh Brolin', 'Stellan Skarsgård', 'Stephen McKinley Henderson', 'Javier Bardem', 'Sharon Duncan-Brewster', 'Chang Chen', 'Dave Bautista', 'David Dastmalchian', 'Zendaya', 'Charlotte Rampling', 'Babs Olusanmokun', 'Benjamin Clémentine', 'Souad Faress', 'Golda Rosheuvel', 'Roger Yuan', 'Seun Shote', 'Neil Bell', 'Oliver Ryan', 'Stephen Collins', 'Charlie Rawes', 'Richard Carter', 'Benjamin Dilloway', 'Elmi Rashid Elmi', 'Tachia Newall', 'Gloria Obianyo', 'Fehinti Balogun', 'Dora Kápolnai-Schvab', 'Joelle', 'Jimmy Walker', 'Paul Bullion', 'Milena Sidorova', 'János Timkó', 'Jean Gilpin', 'Marianne Faithfull', 'Ellen Dubin']",3.9,4.0,"['Science Fiction', 'Adventure']",155,['USA'],English,"['English', 'Chinese']",['Legendary Pictures'],2805887,332335,1043892,21000,7750,22388,11087,67873,58873,260946,289357,715365,339418,394045,2167102,https://letterboxd.com/film/dune-2021/
C'mon C'mon,2021,Mike Mills,"['Joaquin Phoenix', 'Woody Norman', 'Gaby Hoffmann', 'Scoot McNairy', 'Molly Webster', 'Jaboukie Young-White', 'Deborah Strang', 'Sunni Patterson', 'Jenny Eliscu', 'Mary Passeri', 'Brandon Rush', ""Brey'on Shaw"", ""Todd D'Amour"", 'Beth Bartley', 'Artrial Clark', 'Eleanor Halm Simmons', 'Keisuke Hoashi', 'Maximilla Lukacs', 'Nancy Gell', 'Gita Reddy', 'Mya Gonzales', 'Cooper Jack Rubin', 'Faith Steptore', 'Mahfuzul Islam', 'Elaine Kagan', 'Kate Adams', 'Joseph Bishop', 'Callan Farris', 'Khadija Emma Neumann']",4.13,5.0,['Drama'],109,['USA'],English,['English'],['Be Funny When You Can'],203503,74902,82669,3900,226,556,607,2523,3756,13791,22660,51408,32359,36171,164057,https://letterboxd.com/film/cmon-cmon/
Belfast,2021,Kenneth Branagh,"['Jude Hill', 'Lewis McAskie', 'Caitríona Balfe', 'Jamie Dornan', 'Judi Dench', 'Ciarán Hinds', 'Colin Morgan', 'Lara McDonnell', 'Gerard Horan', 'Josie Walker', 'Olive Tennant', 'Michael Maloney', 'Turlough Convery', 'Conor MacNeill', 'Chris McCurry', 'Elly Condron', 'Samuel Menhinick', 'Vanessa Ifediora', 'Gerard McCarthy', 'Sid Sagar', 'Mark Hadfield', 'John Sessions', 'Mairéad Tyers', 'Drew Dillon', 'Leonard Buckley', 'Kit Rakusen', 'Freya Yates', 'Nessa Eriksson', 'Charlie Barnard', 'Frankie Hastings', 'Caolan McCarthy', 'Ian Dunnett Jnr', 'Oliver Savell', 'Orla McDonagh', ""Ross O'Donnellan"", 'Olivia Flanagan', 'Serrana Su-Ling Bliss', 'Rachel Feeney', 'Estelle Cousins', 'Scott Gutteridge', 'Bill Branagh', 'Joyce Branagh', ""James O'Donnell"", 'Victor Alli', 'Matthew Blaney', 'Scarlett Nunes']",3.48,4.0,"['Drama', 'History']",98,['UK'],English,"['English', 'Portuguese']","['TKBC', 'Northern Ireland Screen', 'Focus Features']",243670,65773,53224,410,778,2277,3350,11275,16003,39913,43478,49123,14804,13325,194326,https://letterboxd.com/film/belfast/
Drive My Car,2021,Ryūsuke Hamaguchi,"['Hidetoshi Nishijima', 'Toko Miura', 'Masaki Okada', 'Reika Kirishima', 'Park Yu-rim', 'Jin Dae-yeon', 'Sonia Yuan', 'Ahn Hwi-tae', 'Perry Dizon', 'Satoko Abe', 'Hiroko Matsuda', 'Toshiaki Inomata', 'Takako Yamamura', 'Ryo Iwase', 'Faisal Anwar', 'Kamal Zharif', 'Massimo Biondi', 'Shoichiro Tanigawa', 'Yoshinori Miyata']",4.2,4.0,['Drama'],179,['Japan'],Japanese,"['Japanese', 'Chinese', 'English', 'German', 'Indonesian', 'Korean', 'Malay', 'Tagalog']","['Bitters End', 'C&I entertainment', 'Culture Entertainment', 'Agency for Cultural Affairs', 'J-LOD', 'nekojarashi', 'Quaras', 'Bungeishunju', ""L'espace Vision"", 'Nippan Group Holdings', 'The Asahi Shimbun']",343205,115526,129128,7300,544,1246,1040,4439,5510,19689,30490,80585,62419,62873,268835,https://letterboxd.com/film/drive-my-car/
The Summit of the Gods,2021,Patrick Imbert,"['Éric Herson-Macarel', 'Damien Boisseau', 'Elisabeth Ventura', 'Lazare Herson-Macarel', 'Kylian Rehlinger', 'François Dunoyer', 'Philippe Vincent', 'Luc Bernard', 'Marc Arnaud', 'Jérôme Keen', 'Gauthier Battoue']",4.0,4.0,"['Mystery', 'Animation', 'Adventure']",95,"['France', 'Luxembourg']",French,['French'],"['Julianne Films', 'Folivari', 'Melusine Productions']",38391,11396,13702,390,10,40,49,239,534,2819,6420,12483,5168,3593,31355,https://letterboxd.com/film/the-summit-of-the-gods/
Flee,2021,Jonas Poher Rasmussen,"['Amin Nawabi', 'Daniel Karimyar', 'Fardin Mijdzadeh', 'Milad Eskandari', 'Belal Faiz', 'Elaha Faiz', 'Zahra Mehrwarz', 'Sadia Faiz', 'Georg Jagunov', 'Rashid Aitouganov', 'Navid Nazir', 'Hafiz Højmark', 'Denis Rivin', 'Vadim Nedaskovskij', 'Viktor Melnikov', 'Mikhail Belinson', 'Ditte Graa Wulff', 'Bo Asdal Andersen', 'The Dungeon Master', 'Behrouz Bigdeli', 'Christian Torp Carlsen', 'Gustaf Georg Lindström', 'Tormod Ringnes', 'Susanna Azevedo', 'Mauricio González-Aranda', 'Jean-Pierre Pernaut', 'Mohammad Najibullah']",4.19,5.0,"['Documentary', 'Animation']",89,"['Denmark', 'Estonia', 'Finland', 'France', 'Italy', 'Norway', 'Slovenia', 'Spain', 'Sweden', 'UK', 'USA']",Danish,"['Danish', 'English', 'Persian (Farsi)', 'Russian', 'French', 'Swedish']","['Final Cut for Real', 'ARTE', 'RYOT Films', 'Det Danske Filminstitut', 'Svenska Filminstitutet', 'Norsk Filminstitutt', 'Nordisk Film & TV Fond', 'Den Vestdanske Filmpulje', 'Creative Europe Media', 'Région Bretagne', 'Pictanovo', 'CNC', 'La Procirep-Angoa', 'Mer Film', 'VICE Media', 'Copenhagen Film Fund', 'DR', 'I Wonder Pictures', 'Movistar+', 'Cinephil', 'Left Handed Films', 'SVT', 'Vivement lundi !', 'Sun Creature', 'Participant', 'Fritt Ord']",87892,41771,30429,296,75,112,136,534,1006,4517,9326,25770,14881,13571,69928,https://letterboxd.com/film/flee-2021/
"Oslo, August 31st",2011,Joachim Trier,"['Anders Danielsen Lie', 'Malin Crépin', 'Hans Olav Brenner', 'Ingrid Olava', 'Tone Beate Mostraum', 'Øystein Røger', 'Aksel Thanke', 'Kjærsti Odden Skjeldal', 'Renate Reinsve', 'Anders Borchgrevink', 'Petter Width Kristiansen', 'Johanne Kjellevik Ledang', 'Iselin Steiro', 'Elin Gunnarsdotter Sandvik']",4.09,4.0,['Drama'],94,['Norway'],Norwegian,"['Norwegian', 'English']","['Motlys', ""Don't Look Now""]",94533,26957,30322,2000,85,177,179,755,1432,6246,11701,25731,12419,10313,69038,https://letterboxd.com/film/oslo-august-31st/
The Matrix,1999,"Lilly Wachowski, Lana Wachowski","['Keanu Reeves', 'Laurence Fishburne', 'Carrie-Anne Moss', 'Hugo Weaving', 'Gloria Foster', 'Joe Pantoliano', 'Marcus Chong', 'Julian Arahanga', 'Matt Doran', 'Belinda McClory', 'Anthony Ray Parker', 'Paul Goddard', 'Robert Taylor', 'David Aston', 'Marc Aden Gray', 'Ada Nicodemou', 'Deni Gordon', 'Rowan Witt', 'Eleanor Witt', 'Tamara Brown', 'Janaya Pender', 'Adryn White', 'Natalie Tjen', 'Bill Young', ""David O'Connor"", 'Jeremy Ball', 'Fiona Johnson', 'Harry Lawrence', 'Steve Dodd', 'Luke Quinton', 'Lawrence Woodward', 'Michael Butcher', 'Bernard Ledger', 'Chris Pattinson', 'Robert Simper', 'Nigel Harbach']",4.16,5.0,"['Science Fiction', 'Action']",136,['USA'],English,['English'],"['Village Roadshow Pictures', 'Groucho II Film Partnership', 'Silver Pictures', 'Warner Bros. Pictures']",2508428,256004,863598,31000,1824,6755,3473,25582,22318,144980,150583,462688,220564,446167,1484934,https://letterboxd.com/film/the-matrix/
Perfect Blue,1997,Satoshi Kon,"['Junko Iwao', 'Rica Matsumoto', 'Shiho Niiyama', 'Masaaki Okura', 'Shinpachi Tsuji', 'Emiko Furukawa', 'Yosuke Akimoto', 'Yoku Shioya', 'Hideyuki Hori', 'Emi Shinohara', 'Masashi Ebara', 'Kiyoyuki Yanada', 'Toru Furusawa', 'Teiya Ichiryusai', 'Shin-ichiro Miki', 'Megumi Tano', 'Emi Motoi', 'Akio Suyama', 'Osamu Hosoi', 'Koichi Tochika', 'Soichiro Hoshi', 'Kisho Taniyama', 'Shokkâ Ôno', 'Rofuto Purasu Wan Burazâzu', 'Makoto Kitano', 'Kaori Minami', 'Jin Yamanoi', 'Takashi Nagasako']",4.4,4.0,"['Thriller', 'Animation']",82,['Japan'],Japanese,['Japanese'],"['Madhouse', 'Rex Entertainment', 'Kotobuki Seihan Printing', 'Asahi Broadcasting Corporation', 'Fangs Co.']",735820,190420,337892,31000,616,1015,714,3372,4551,22407,40080,141774,119393,214800,548722,https://letterboxd.com/film/perfect-blue/
