Film_title,Release_year,Director,Cast,Average_rating,Owner_rating,Genres,Runtime,Countries,Original_language,Spoken_languages,Studios,Watches,List_appearances,Likes,Fans,½,★,★½,★★,★★½,★★★,★★★½,★★★★,★★★★½,★★★★★,Total_ratings,Film_URL
Wonka,2023,Paul King,"['Timothée Chalamet', 'Calah Lane', 'Keegan-Michael Key', 'Hugh Grant', 'Paterson Joseph', 'Olivia Colman', 'Tom Davis', 'Jim Carter', 'Rowan Atkinson', 'Matt Lucas', 'Mathew Baynton', 'Natasha Rothwell', 'Rakhee Thakrar', 'Rich Fulcher', 'Kobna Holdbrook-Smith', 'Simon Farnaby', 'Ellie White', 'Sally Hawkins', ""Colin O'Brien"", 'Freya Parker', 'Murray McArthur', 'Charlotte Ritchie', 'Phil Wang', 'Rufus Jones', 'Isy Suttie', 'Ian Bartholomew', 'Sophie Winkleman', 'Justin Edwards', 'Michael Abubakar', 'Tim Fitzhigham', 'Jane Bertish', 'Tracy Ifeachor', 'Dominic Coleman', 'Muzz Khan', 'Ben Howard', 'Alison Pargeter', 'Bleu Woodward', 'Paul G. Raymond', 'Lola Shepelev', 'Marina Bye', 'Robyn Rose', ""Millie O'Donnell"", 'Susie Fairfax', 'Macie Blake', 'Ellie Blake', 'Matilda Tucker', 'Bertie Caplan', 'Gustave Die']",3.28,3.5,"['Comedy', 'Fantasy', 'Family']",117,"['UK', 'USA']",English,['English'],"['Warner Bros. Pictures', 'Village Roadshow Pictures', 'The Roald Dahl Story Company', 'Heyday Films', 'Domain Entertainment']",976267,129422,259615,1800,6739,15335,12671,52428,64012,190137,176956,200304,47745,68779,835106,https://letterboxd.com/film/wonka/
Saltburn,2023,Emerald Fennell,"['Barry Keoghan', 'Jacob Elordi', 'Rosamund Pike', 'Richard E. Grant', 'Alison Oliver', 'Archie Madekwe', 'Carey Mulligan', 'Paul Rhys', 'Ewan Mitchell', 'Sadie Soverall', 'Richard Cotterell', 'Millie Kent', 'Will Gibson', 'Tasha Lim', 'Aleah Aberdeen', 'Matthew Carver', 'Reece Shearsmith', 'Gabriel Bisset-Smith', 'Saga Spjuth-Säll', 'Glyn Grimstead', 'Joshua Samuels', 'Julian Lloyd Patten', 'Olivia Hanrahan-Barnes', 'Lolly Adefope', 'Joshua McGuire', 'Dorothy Atkinson', 'Shaun Dooley', 'Tomás Barry', 'Andy Brady']",3.43,3.0,"['Comedy', 'Drama', 'Thriller']",131,"['UK', 'USA']",English,['English'],"['LuckyChap Entertainment', 'MRC', 'Lie Still']",1987002,212704,579938,12000,12720,28678,24837,97378,110601,313398,307136,453616,145694,203421,1697479,https://letterboxd.com/film/saltburn/
The Boy and the Heron,2023,Hayao Miyazaki,"['Soma Santoki', 'Masaki Suda', 'Ko Shibasaki', 'Aimyon', 'Yoshino Kimura', 'Takuya Kimura', 'Keiko Takeshita', 'Jun Fubuki', 'Sawako Agawa', 'Karen Takizawa', 'Shinobu Otake', 'Jun Kunimura', 'Kaoru Kobayashi']",3.96,5.0,"['Animation', 'Adventure', 'Fantasy']",124,['Japan'],Japanese,['Japanese'],['Studio Ghibli'],689965,166807,264368,3200,640,1740,1799,10221,15589,63201,92830,190269,98559,103842,578690,https://letterboxd.com/film/the-boy-and-the-heron/
Bingo: The King of the Mornings,2017,Daniel Rezende,"['Vladimir Brichta', 'Leandra Leal', 'Tainá Müller', 'Ana Lúcia Torre', 'Augusto Madeira', 'Cauã Martins', 'Emanuelle Araújo', 'Pedro Bial', 'Domingos Montagner', 'Fernando Sampaio', 'Raul Barreto', 'Soren Hellerup', 'Ricardo Ciciliano', 'Wally Araújo', 'Roberto Audio', 'Cleto Baccic', 'Luciano Baldan', 'Luiz Bolognesi', 'Clodoaldo Borges', 'Pedro Casali', 'Vitor Davied', 'Rodrigo Fernandes', 'Lila Guimarães', 'Caio Gullane', 'Arthur Kohl', 'Andrey Lima', 'Márcio Magno', 'Caio Marinho', 'Thalyta Medeiros', 'Martha Mellinger', 'Wagner Molina', 'Vítor Moura', 'Alessandro Ramos', 'Felipe Riquelme', 'Tomás Sampaio', 'Carol Vidotti', 'Natalia Viviani', 'Maurício Cid']",3.86,4.0,"['Comedy', 'Drama']",113,['Brazil'],Portuguese,"['Portuguese', 'Spanish', 'English']","['Warner Bros. Pictures', 'Gullane Entretenimento']",43753,7258,15131,307,34,75,70,424,649,2913,5411,13510,6409,7949,37444,https://letterboxd.com/film/bingo-the-king-of-the-mornings/
High School Musical 3: Senior Year,2008,Kenny Ortega,"['Zac Efron', 'Vanessa Hudgens', 'Ashley Tisdale', 'Lucas Grabeel', 'Corbin Bleu', 'Monique Coleman', 'Olesya Rulin', 'Chris Warren', 'Ryne Sanborn', 'Kaycee Stroh', 'Bart Johnson', 'Alyson Reed', 'Matt Prokop', 'Justin Martin', 'Jemma McKenzie-Brown', 'Leslie Wing', 'Socorro Herrera', 'David Reivers', 'Yolanda Wood', 'Robert Curtis Brown', 'Jessica Tuck', 'Joey Miyashima', 'Stan Ellsworth', 'Dave Fox', 'Jeremy Banks', 'Todd Snyder', 'Tara Starling', 'Manly ""Little Pickles"" Ortega', 'Bayli Baker', 'Shawn Carter', 'Katie Cockrell', 'Max Ehrich', 'Italo Elgueta', 'Christina Glur', 'Jaimie Goodwin', 'Mollee Gray', 'Charles Klapow', 'Kimberly Klapow', 'Nick Lanzisera', 'Roger Malaga', 'Doug Penikas', 'Jameson Perry', 'Tia Robinson', 'Haylee Roderick', 'Britt Stewart', 'Jason Williams', 'Nikola Clark', 'Audra Griffis', 'Megan Honore', 'Cara Horibe', 'David Huff', 'Melissa Magleby', 'Allysa Shorte', 'Mercedes Bailey', 'Lisa Benson', 'Christina Bluth', 'Nacole Brown', 'Erica L. Bryce', 'Taylor Cate', 'Stacey Clark', 'Lacey Derrick', 'Mallauri Esquibel', 'Alexander Farnsworth', 'Hayley Folsom', 'Raquel Goodsell', 'Daysha Hannemann', 'Adair Hensley', 'Bailee Hunsaker', 'Kelene Johnson', 'Kaelee Jones', 'Tiffany Mallari', 'Nina Miller', 'Seneca Miner', 'Taylour Paige', 'Amber Snow', 'Jessica Snowden', 'Kelsey Peterson Tanner', 'Tyler Welling', 'Chelsea Williams', 'Tadd Gadduang', 'Kaleb Henderson', 'Skyler Johnson', 'Miguel Olague', 'Chris Owens', 'Tui-Niua Tuita', 'Josh Unice', 'Zack Wilson', 'Katie Allred', 'Kelli Baker', 'Chaz Bodily', 'Averie DelGrosso', 'D.J. Guthrie', 'Casey Harward', 'Jaremy Hill', 'Eldon Johnson', 'Noelle Menard', 'Jen Osorio', 'Junar Pasco', 'Brandon Perry', 'Sydney T. Sorenson', 'Jessie Thacker', 'Hefa Leone Tuita', 'Lisa Whittaker', 'Veronica Yeager', 'Chrysal Saji']",3.08,5.0,"['Family', 'Romance', 'Drama', 'Music', 'Comedy']",111,['USA'],English,['English'],"['Walt Disney Pictures', 'Borden & Rosenbush Entertainment']",487547,39398,64037,2000,4173,9429,6969,22584,18493,43682,20965,28833,7719,32741,195588,https://letterboxd.com/film/high-school-musical-3-senior-year/
Estômago: A Gastronomic Story,2007,Marcos Jorge,"['João Miguel', 'Babu Santana', 'Zeca Cenovicz', 'Marco Zenni', 'Marcel Szymanski', 'Sidy Correa', 'Alexander Sil', 'Rodrigo Ferrarini', 'Tino Viana', 'Helder Silva', 'Fabiula Nascimento', 'Carlo Briani', 'Andrea Fumagalli', 'Lilian Marchiori', 'Flávia Strongolli', 'Patricia Saravy', 'Zilda Carvalho', 'Natasha Gandelman', 'Altamar Cezar', 'Débora Becker', 'Pedro Moreira', 'Luimar Lang', 'Paulo Miklos', 'Jean Pierre Noher', 'Luiz Brambilla', 'Ed Canedo', 'Adriano Carvalhaes', 'Dieizol Motta', 'Ivan Tuir', 'Luis Mendes Júnior', 'Moacir Leal', 'Betina Belli', 'Lusa Silvestre', 'Arthur Rocha Sievers']",3.95,5.0,"['Drama', 'Comedy']",113,"['Brazil', 'Italy']",Portuguese,['Portuguese'],"['Indiana Production', 'Zencrane Filmes']",50122,9374,18084,923,59,111,189,453,601,2590,5499,15414,7172,9756,41844,https://letterboxd.com/film/estomago-a-gastronomic-story/
Drained,2006,Heitor Dhalia,"['Selton Mello', 'Paula Braun', 'Alice Braga', 'Lourenço Mutarelli', 'Fabiana Gugli', 'Sílvia Lourenço', 'Milhem Cortaz', 'Xico Sá', 'Zemanuel Piñero', 'Flávio Bauraqui', 'Paulo César Peréio', 'Mário Schoemberger', 'Augusto Pompeo', 'Hugo Villavicenzio', 'Raul Barreto', 'Martha Meola', 'Suzana Alves', 'Carlos Morelli', 'Jorge Cerruti', 'Abrahão Farc', 'André Frateschi', 'Thobias da Vai-Vai', 'Boi', 'Ariel Moche', 'Waldir Grillo', 'Fernando Macário', 'Wolney de Assis', 'Estevan Santos', 'Paula Pretta', 'Pedro Vicente', 'Hossen Minussi', 'Álvaro Diniz', 'Lorena Lobato', 'Paulo Alves', 'Negro Rico', 'Gustavo Trentini', 'Calico']",3.57,2.5,['Comedy'],112,['Brazil'],Portuguese,['Portuguese'],"['Tristero Filmes', 'Primo Filmes', 'Branca Filmes', 'Geração Conteúdo', 'RT Features']",11964,2545,2486,79,59,111,86,316,389,1403,1561,2271,639,955,7790,https://letterboxd.com/film/drained/
