Film_title,Release_year,Director,Cast,Average_rating,Owner_rating,Genres,Runtime,Countries,Original_language,Spoken_languages,Studios,Watches,List_appearances,Likes,Fans,½,★,★½,★★,★★½,★★★,★★★½,★★★★,★★★★½,★★★★★,Total_ratings,Film_URL
Family Switch,2023,McG,"['Jennifer Garner', 'Ed Helms', 'Emma Myers', 'Brady Noon', 'Rita Moreno', 'Matthias Schweighöfer', 'Vanessa Carrasco', 'Cyrus Arnold', 'Ilia Isorelýs Paulino', 'Xosha Roquemore', 'Bashir Salahuddin', 'Paul Scheer', 'Helen Hong', 'Ned Bellamy', 'Andrew Bachelor', 'Dan Finnerty', 'Howie Mandel', 'Scott Shriner', 'Patrick Wilson', 'Naomi Ekperigin', 'Pete Holmes', 'Fortune Feimster', 'Adam Lustick', 'Ravi Kapoor', 'Carl McDowell', 'Anwar Jibawi', 'Hannah Stocking', 'Bob Stephenson', 'Mark McGrath', 'Benjamin Flores Jr.', 'Connor Finnerty', 'Punam Patel', 'Chloé Wepper', 'Jason Rogel', 'Alanna Fox', 'Preston Galli', 'Lauren Ash', 'M.J. George', 'Erica Lynn Cunanan', 'Jordan Leftwich', 'Theodore Sykes', 'Lincoln Sykes', 'Rivers Cuomo', 'Riannah Pouncy', 'Joe Mortimer', 'Sebastian Quinn', 'Snowden Grey', 'Brad Ofo', 'Violet Miller', 'William Adams', 'Arjun Sriram', 'Nate Arnold', 'Kiara T. Romero', 'Stefan Sacks', 'Kelsey Guy', 'Ho-Jung', 'Austin Boyce', 'Jamie Pasquinelli', 'Julia Wein', 'Hanbit Yi', 'Ryann Torrero', 'Karen Callado', 'Juan De La Rosa', 'William Barletta', 'Bahar Barkzi', 'Andrew Bursiaga', 'Ryan James', 'Chiyeko Jones']",2.38,2.5,"['Family', 'Fantasy', 'Comedy']",106,['USA'],English,['English'],"['Linden Entertainment', 'Grey Matter Productions', 'Wonderland Sound and Vision']",97720,13507,12855,25,2422,4999,5267,13996,14389,19596,8031,6860,1222,2684,79466,https://letterboxd.com/film/family-switch/
Leave the World Behind,2023,Sam Esmail,"['Julia Roberts', 'Mahershala Ali', 'Ethan Hawke', 'Myha’la', 'Farrah Mackenzie', 'Charlie Evans', 'Kevin Bacon', 'Vanessa Aspillaga', 'Orli Gottesman', 'Alexis Rae Forlenza', 'Josh Drennen', 'Erica Cho', 'Pavel Frolov', 'Jesse King', 'Kevin Kenny', 'Stephanie Groves', 'Sam Esmail', 'Heather Lee']",2.86,1.0,"['Thriller', 'Drama', 'Mystery']",142,['USA'],English,"['English', 'Spanish']","['Esmail Corp', 'Red Om Films', 'Higher Ground']",601657,62730,97472,205,9950,20679,18774,63421,68228,135766,89374,74208,13580,15591,509571,https://letterboxd.com/film/leave-the-world-behind-2023/
Nowhere,2023,Albert Pintó,"['Anna Castillo', 'Tamar Novas', 'Irina Bravo', 'Victoria Teijeiro', 'Lucia Soria', 'Mary Ruiz', 'Tony Corvillo', 'Mariam Torres', 'Edu Bulnes', 'Antonio Buíl', 'Said El Mouden', 'Kaabil Sekali', 'Saorla Wright', 'Emma Sánchez']",2.94,3.5,"['Drama', 'Thriller']",109,['Spain'],Spanish,['Spanish'],['Rock & Ruz'],60719,6331,8912,37,626,1440,1454,5135,6507,14724,8969,7588,1478,3051,50972,https://letterboxd.com/film/nowhere-2023-2/
Barbie,2023,Greta Gerwig,"['Margot Robbie', 'Ryan Gosling', 'America Ferrera', 'Ariana Greenblatt', 'Issa Rae', 'Kate McKinnon', 'Alexandra Shipp', 'Emma Mackey', 'Hari Nef', 'Sharon Rooney', 'Ana Cruz Kayne', 'Ritu Arya', 'Dua Lipa', 'Nicola Coughlan', 'Emerald Fennell', 'Simu Liu', 'Kingsley Ben-Adir', 'Ncuti Gatwa', 'Scott Evans', 'John Cena', 'Michael Cera', 'Rhea Perlman', 'Helen Mirren', 'Will Ferrell', 'Connor Swindells', 'Jamie Demetriou', 'Andrew Leung', 'Will Merrick', 'Zheng Xi Yong', 'Asim Chaudhry', 'Ray Fearon', 'Erica Ford', 'Hannah Khalique-Brown', 'Mette', 'Marisa Abela', 'Lucy Boynton', 'Rob Brydon', 'Tom Stourton', 'Chris Taylor', 'David Mumeni', 'Olivia Brody', 'Isla Ashworth', 'Eire Farrell', 'Daisy Duczmal', 'Genvieve Toussaint', 'Isabella Nightingale-Mercado', 'Millie-Rose Crossley', 'Anvita Nehru', 'Kayla-Mai Alvares', 'Luke Mullen', 'Patrick Luwis', 'Mac Brandt', 'Paul Jurewicz', 'Oraldo Austin', 'Benjamin Arthur', 'Carlos Jacott', 'Adam Ray', 'George Basil', 'Ptolemy Slocum', 'Deb Hiett', 'James Leon', 'Oliver Vaquer', 'Tony Noto', 'Christopher T. Wood', 'Ann Roth', 'Annie Mumolo', 'Elise Gallup', 'McKenna Roberts', 'Brylee Hsu', 'Sasha Milstein', 'Lauren Holt', 'Sterling Jones', 'Ryan Piers Williams', 'Jamaal Lewis', 'Kathryn Akin', 'Grace Jabbari', 'Ira Mandela Siobhan', 'Lisa Spencer', 'Naomi Weijand', 'Tom Clark', 'Ireanne Abenoja', 'Davide Albonetti', 'Charlotte Anderson', 'Michael Anderson', 'Rico Bakker', 'James Bamford', 'William John Banks', 'Callum Bell', 'Adam Blaug', 'Mason Boyce', 'Taylor Bradshaw', 'Alex Brown', 'Miekaile Browne', 'Lewis Calcutt', 'Nikkita Chadha', 'Oliver Chapman', 'Megan Charles', 'Callum Clack', 'Danny Coburn', 'Kat Collings', 'Adam Crossley', 'Sia Dauda', 'Gustave Die', 'Grace Durkin', 'Joelle Dyson', 'Lewis Easter', 'Onyemachi Ejimofor', 'Cameron Everitt', 'Luke Field-Wright', 'Sasha Flesch', 'Adam Fogarty', 'Michael John French', 'Anna-Kay Gayle', 'Charlie Goddard', 'Marlie Goddard', 'Ellis Harman', 'Yasmin Harrison', 'Josh Hawkins', 'James Healy', 'Tim Hodges', 'Mira Jebari', 'Beccy Jones', 'Thomas Kalek', 'Lily Laight', 'Maiya Leeke', 'Cristian Liberti', 'Prodromos Marneros', 'Nahum McLean', 'Jordan Melchor', 'Ramzan Miah', 'Andy Monaghan', 'Florivaldo Mossi', 'Hannah Nazareth', 'Grant Neal', 'Freja Nicole', 'Shaun Niles', 'Ella Nonini', 'Jack William Parry', 'Josie Pocock', 'Barnaby Quarendon', 'Redmand Rance', 'Zara Richards', 'Liam Riddick', 'Alana Rixon', 'Adam Paul Robertson', 'Kingdom Sibanda', 'Sebastian Skov', 'Aaron J. Smith', 'Joshua Smith', 'Lucia-Rose Sokolowski', 'Janine Somcio', 'Alex Sturman', 'Callum Sterling', 'Todd Talbot', 'Charles Tatman', 'Grant Thresh', 'Connor Tidman', 'Wahchi Vong', 'Jerry Wan', 'Sasha Wareham', 'Stan West', 'Oliver Wheeler', 'Josh Wild', 'Joe Wolstenholme', 'Richard Womersley', 'Ashley Young']",3.87,5.0,"['Comedy', 'Adventure']",114,"['UK', 'USA']",English,['English'],"['LuckyChap Entertainment', 'Heyday Films', 'NB/GG Pictures', 'Mattel', 'Warner Bros. Pictures']",3549247,442127,1539068,26000,12119,25903,17385,85902,92247,370513,385562,806366,341597,764390,2901984,https://letterboxd.com/film/barbie/
Fast X,2023,Louis Leterrier,"['Vin Diesel', 'Michelle Rodriguez', 'Tyrese Gibson', 'Ludacris', 'John Cena', 'Nathalie Emmanuel', 'Jordana Brewster', 'Sung Kang', 'Jason Momoa', 'Scott Eastwood', 'Daniela Melchior', 'Alan Ritchson', 'Helen Mirren', 'Brie Larson', 'Jason Statham', 'Charlize Theron', 'Rita Moreno', 'Joaquim de Almeida', 'Leo A. Perry', 'Luis Da Silva Jr.', 'Jaz Hutchins', 'Luka Hays', 'Alexander Capon', 'Pete Davidson', 'Shadrach Agozino', 'Ludmilla', 'Miraj Grbić', 'Meadow Walker Thornton-Allan', 'Michael Irby', 'Shahir Figueira', 'Ben-Hur Santos', 'Debby Ryan', 'Josh Dun', 'Dwayne Johnson', 'Gal Gadot', 'Paul Walker', 'Ali Baddou', 'Emily Buchan']",2.48,3.0,"['Crime', 'Action', 'Thriller']",142,['USA'],English,['English'],"['Universal Pictures', 'Original Film', 'One Race', 'Perfect Storm Entertainment']",249383,62638,40403,175,7755,14594,14946,33329,31206,44072,21795,17647,3590,9359,198293,https://letterboxd.com/film/fast-x/
F9,2021,Justin Lin,"['Vin Diesel', 'Michelle Rodriguez', 'Tyrese Gibson', 'Ludacris', 'John Cena', 'Nathalie Emmanuel', 'Jordana Brewster', 'Sung Kang', 'Michael Rooker', 'Helen Mirren', 'Kurt Russell', 'Charlize Theron', 'Finn Cole', 'Thue Ersted Rasmussen', 'Anna Sawai', 'Lucas Black', 'Shad Moss', 'Don Omar', 'Shea Whigham', 'Vinnie Bennett', 'J. D. Pardo', 'Jim Parrack', 'Siena Agudong', 'Isaac Holtane', 'Immanuel Holtane', 'Azia Dinea Hale', 'Zhang Juju', 'Karson Kern', 'Igby Rigney', 'Sophia Tatum', 'Francis Ngannou', 'Martyn Ford', 'Bad Bunny', 'Jimmy Lin', 'Jason Tobin', 'Cardi B', 'Cered', 'Ozuna', 'Oqwe Lin', 'Bill Simmons', 'Vincent Sinclair Diesel', 'Luka Hays', 'Robert Bastens', 'Jason Statham', 'Gal Gadot', 'Demitra Sealy']",2.35,3.0,"['Crime', 'Adventure', 'Action']",143,['USA'],English,"['English', 'French', 'German', 'Spanish']","['Original Film', 'One Race', 'Perfect Storm Entertainment', 'Universal Pictures', 'Roth-Kirschenbaum Films']",281969,55935,35526,126,9026,17101,16475,38566,31672,41618,17764,13804,2453,6589,195068,https://letterboxd.com/film/f9/
"ariana grande: excuse me, i love you",2020,Paul Dugdale,"['Ariana Grande', 'Scott Nicholson', 'Brian Nicholson', 'Joesar Alva', 'Cory Graves', 'Bong Buño', 'Igor Faria', 'Darrion Gallegos', 'Nekai Johnson', 'Mao Kawakami', 'Luz Remigio Frias', 'Taya Shawki', 'Tiley Strozewski', 'Kristopher Terry', 'Victoria Monét', 'Joan Grande', 'Alfredo Flores', 'Josh Liu']",3.61,4.5,"['Documentary', 'Music']",97,['USA'],English,['English'],['Federal Films'],38667,4115,11387,263,236,360,325,1319,1267,3842,2507,4648,1174,8539,24217,https://letterboxd.com/film/ariana-grande-excuse-me-i-love-you/
Soul,2020,Pete Docter,"['Jamie Foxx', 'Tina Fey', 'Graham Norton', 'Rachel House', 'Alice Braga', 'Richard Ayoade', 'Phylicia Rashād', 'Donnell Rawlings', 'Questlove', 'Angela Bassett', 'Cora Champommier', 'Margo Hall', 'Daveed Diggs', 'Rhodessa Jones', 'Wes Studi', 'Sakina Jaffrey', 'Fortune Feimster', 'Calum Grant', 'Laura Mooney', 'Zenobia Shroff', 'June Squibb', 'Ochuwa Oghie', 'Jeannie Tirado', 'Cathy Cavadini', 'Dorian Lockett', 'Doris Burke', 'Ronnie del Carmen', 'Esther K. Chae', 'Élisapie', 'Marcus Shelby']",3.94,4.5,"['Family', 'Animation', 'Comedy', 'Fantasy']",101,['USA'],English,['English'],"['Walt Disney Pictures', 'Pixar']",1927737,204351,650835,7600,2062,7491,4846,33461,31673,170119,173021,417304,174170,272989,1287136,https://letterboxd.com/film/soul-2020/
Eduardo and Monica,2020,René Sampaio,"['Alice Braga', 'Gabriel Leone', 'Otávio Augusto', 'Juliana Carneiro da Cunha', 'Bruna Spinola', 'Victor Lamoglia', 'Digão Ribeiro', 'Eli Ferreira', 'Luisa Viotti', 'Ivan Mendes', 'Fabrício Boliveira']",3.57,3.0,"['Romance', 'Drama']",120,['Brazil'],Portuguese,['Portuguese'],"['Barry Company', 'Gávea Filmes', 'Fogo Cerrado Filmes', 'Globo Filmes', 'Agência Nacional do Cinema - ANCINE', 'Fundo Setorial do Audiovisual', 'Banco Regional de Desenvolvimento do Extremo Sul', 'RioFilme', 'Telecine', 'Secretaria de Cultura e Economia Criativa do GDF', 'Investimage']",21392,3997,7770,289,79,155,132,653,813,2852,3132,5103,1701,3982,18602,https://letterboxd.com/film/eduardo-and-monica/
Miss Americana,2020,Lana Wilson,"['Taylor Swift', 'Joe Alwyn', 'Todrick Hall', 'Brendon Urie', 'Jack Antonoff', 'Bobby Berk', 'Jonathan van Ness', 'Karamo Brown', 'Antoni Porowski', 'Max Martin', 'Andrea Swift', 'Scott Swift', 'Joel Little', 'Tree Paine', 'Kamilah Marshall', 'Melanie Nyema', 'Dave Meyers', 'Paul Sidoti', 'Riley Knoxx', 'Robert G. Allen', 'Abigail Anderson', 'Jade Jolie', 'Tan France']",3.99,5.0,"['Music', 'Documentary']",85,['USA'],English,['English'],['Tremolo Productions'],222648,28265,76750,1800,733,979,805,3162,4247,16480,16234,31907,9708,65074,149329,https://letterboxd.com/film/miss-americana/
Little Women,2019,Greta Gerwig,"['Saoirse Ronan', 'Florence Pugh', 'Emma Watson', 'Eliza Scanlen', 'Laura Dern', 'Timothée Chalamet', 'Meryl Streep', 'Tracy Letts', 'Bob Odenkirk', 'James Norton', 'Louis Garrel', 'Jayne Houdyshell', 'Chris Cooper', 'Rafael Silva', 'Mason Alban', 'Emily Edström', 'Maryann Plunkett', 'Hadley Robinson', 'Lonnie Farmer', 'Charlotte Kinder', 'Ana Cruz Kayne', 'Edgar Damatian', 'Erin Rose', 'Lizzie Short', 'Dash Barber', 'Edward Fletcher', 'Sasha Frolova', 'David J. Curtis', 'Abby Quinn', 'Harper Pilat', 'Eowyn Young', 'Lucy Austin', 'Bill Mootos', 'Lewis D. Wheeler', 'Jen Nikolaisen', 'Jonathon Acorn', 'Lilly Englert', 'J.M. Davis', 'Tom Kemp', 'Anthony Estrella', 'Adrianne Krstansky', 'Sophia Gialloreto', 'Lily Gavin', 'Finola Weller Baldet', 'Flannery Gregg', 'Tony Tucker', 'Joanne Caidor', 'Rosario Guillen', 'Lily Peterson', 'Jared Reinfeldt', 'Amber Rothberg']",4.14,4.5,"['Romance', 'Drama']",135,['USA'],English,"['English', 'French']","['Columbia Pictures', 'Regency Enterprises', 'Pascal Pictures']",1987330,346325,895126,96000,1883,5606,3508,22900,21581,126896,131909,390849,194684,510179,1409995,https://letterboxd.com/film/little-women-2019/
Toy Story 4,2019,Josh Cooley,"['Tom Hanks', 'Tim Allen', 'Annie Potts', 'Tony Hale', 'Keegan-Michael Key', 'Madeleine McGraw', 'Christina Hendricks', 'Jordan Peele', 'Keanu Reeves', 'Ally Maki', 'Jay Hernandez', 'Lori Alan', 'Joan Cusack', 'Bonnie Hunt', 'Kristen Schaal', 'Emily Davis', 'Wallace Shawn', 'John Ratzenberger', 'Blake Clark', 'June Squibb', 'Carl Weathers', 'Lila Sage Bromley', 'Don Rickles', 'Jeff Garlin', 'Maliah Bargas-Good', 'Jack McGraw', 'Juliana Hansen', 'Estelle Harris', 'Laurie Metcalf', 'Steve Purcell', 'Mel Brooks', 'Alan Oppenheimer', 'Carol Burnett', 'Betty White', 'Carl Reiner', 'Bill Hader', 'Patricia Arquette', 'Timothy Dalton', 'Flea', 'Melissa Villaseñor', 'Jeff Pidgeon', 'John Morris']",3.42,5.0,"['Adventure', 'Comedy', 'Fantasy', 'Animation', 'Family']",100,['USA'],English,['English'],"['Walt Disney Pictures', 'Pixar']",1280890,142667,230906,387,6449,14690,10084,48496,48841,158152,133966,178792,47285,59589,706344,https://letterboxd.com/film/toy-story-4/
Captain Marvel,2019,"Ryan Fleck, Anna Boden","['Brie Larson', 'Samuel L. Jackson', 'Ben Mendelsohn', 'Jude Law', 'Annette Bening', 'Djimon Hounsou', 'Lee Pace', 'Lashana Lynch', 'Gemma Chan', 'Clark Gregg', 'Rune Temte', 'Algenis Perez Soto', 'Mckenna Grace', 'Akira Akbar', 'Matthew Maher', 'Chuku Modu', 'Vik Sahay', 'Colin Ford', 'Kenneth Mitchell', 'Stephen A. Chang', 'Pete Ploszek', ""Matthew 'Spider' Kimmel"", ""Stephen 'Cajun' Del Bagno"", 'London Fuller', 'Azari Akbar', 'Mark Daugherty', 'Diana Toshiko', 'Barry Curtis', 'Emily Ozrey', 'Abigaille Ozrey', 'Marilyn Brett', 'Stan Lee', 'Robert Kazinsky', 'Nelson Franklin', 'Patrick Brennan', 'Patrick Gallagher', 'Ana Ayora', 'Lyonetta Flowers', 'Rufus Flowers', 'Sharon Blynn', 'Auden L. Ophuls', 'Harriet L. Ophuls', 'Matthew Bellows', 'Richard Zeringue', 'Duane Henry', 'Chris Evans', 'Scarlett Johansson', 'Don Cheadle', 'Mark Ruffalo', 'Kelly Sue DeConnick', ""Vinny O'Brien"", 'Joey Courteau', 'Anthony Molinari']",2.7,3.0,"['Science Fiction', 'Action', 'Adventure']",124,['USA'],English,['English'],['Marvel Studios'],1674297,222324,262635,694,30144,62419,47915,158290,130851,254994,124354,123305,20715,47048,1000035,https://letterboxd.com/film/captain-marvel/
What Men Want,2019,Adam Shankman,"['Taraji P. Henson', 'Aldis Hodge', 'Josh Brener', 'Tracy Morgan', 'Shane Paul McGhie', 'Erykah Badu', 'Richard Roundtree', 'Tamala Jones', 'Wendi McLendon-Covey', 'Phoebe Robinson', 'Max Greenfield', 'Jason Jones', 'Brian Bosworth', 'Chris Witaske', 'Kellan Lutz', ""Shaquille O'Neal"", 'Grant Hill', 'Mark Cuban', 'Karl-Anthony Towns', 'Lisa Leslie', 'Auston Jon Moore', 'Pete Davidson', 'John Collins', 'Paul Brian Johnson', 'Kausar Mohammed', 'Taj-Naranja Jenkines', 'Kristen Ledlow', 'Devonta Freeman', 'Justin Alvarez', 'Desi-Ray Morris', 'Kyra Claxton', 'Marc Inniss', 'Christopher Alvarez', 'Charles Green', 'Denitra Isler', 'Jim France', 'Déjá Dee', 'Charmin Lee', 'Roshawn Franklin', 'Dawn Halfkenny', 'Jay DeVon Johnson', 'Antjuan Rhames', 'Taraja Ramsess', 'Ashani Roberts', 'Cristian Gonzalez', 'Ben Aycrigg', 'JoAnna Lorene', 'Damita Jane Howard', 'Adam Silver', 'Shonda Morgan', 'Timothy Carr']",2.42,2.0,"['Romance', 'Comedy']",117,['USA'],English,['English'],"['BET Films', 'Paramount Players', 'Paramount', 'Will Packer Productions']",54502,7122,4456,9,1049,2471,2813,6771,5877,7879,2896,2280,287,759,33082,https://letterboxd.com/film/what-men-want/
Taylor Swift: Reputation Stadium Tour,2018,Paul Dugdale,"['Taylor Swift', 'Charli XCX', 'Camila Cabello', 'David Cook', 'Amos Heller', 'Eliotte Woodford', 'Jeslyn Gorman', 'Kamilah Marshall', 'Matt Billingslea', 'Max Bernstein', 'Melanie Nyema', 'Mike Meadows', 'Paul Sidoti', 'Tiffany Haddish', 'Christian Henderson', 'Christian Owens', 'Giuseppe Giofre', 'Gracie Stewart', 'Grant Gilmore', 'Jake Kodish', 'Jake Landgrebe', 'Jazz Smith', 'Maho Udo', 'Maria Wada', 'Mark Villaver', 'Nadine Olmo', 'Robert Green', 'Stephanie Mincone', 'Yoe Apolinario Renovales', 'Kim Davidson', 'Stephen Thomas Hatez', 'Julia Railey Mendes', 'Cain Nevarez', 'Audrey Peterman', 'Maya Schomaker', 'Noah Levy']",4.46,3.5,['Music'],125,['USA'],English,['English'],"['Den of Thieves', 'Taylor Swift Productions']",126309,12716,56083,1200,587,292,125,519,567,2799,2778,10228,5161,62790,85846,https://letterboxd.com/film/taylor-swift-reputation-stadium-tour/
Ralph Breaks the Internet,2018,"Rich Moore, Phil Johnston","['John C. Reilly', 'Sarah Silverman', 'Gal Gadot', 'Taraji P. Henson', 'Bill Hader', 'Jack McBrayer', 'Timothy Simons', 'Phil Johnston', 'Anika Noni Rose', 'Irene Bedard', 'Kristen Bell', 'Ali Wong', 'Alan Tudyk', 'Idina Menzel', 'Glozell Green', 'Hamish Blake', 'Jane Lynch', 'Mandy Moore', 'Flula Borg', ""Auli'i Cravalho"", ""Ed O'Neill"", 'Melissa Villaseñor', 'Jennifer Hale', 'Jodi Benson', 'Alfred Molina', 'Ming-Na Wen', 'Della Saba', 'Katie Lowes', 'John DiMaggio', 'Pamela Ribon', 'Jamie Elman', 'Rich Moore', 'Kelly Macdonald', ""Paige O'Hara"", 'Kate Higgins', 'Linda Larkin', 'Roger Craig Smith', 'Raymond S. Persi', 'Sean Giambrone', 'Rebecca Wisocky', 'Sam Richardson', 'Jaboukie Young-White', 'Maurice LaMarche', 'Brad Garrett', 'Anthony Daniels', 'Tim Allen', 'Vin Diesel', 'Colleen Ballinger', 'Dani Fernandez', 'Tiffany Herrera', 'Horatio Sanz', 'Alex Moffat', 'June Squibb', 'Michaela Zee', 'Ana Ortiz', 'Dianna Agron', 'Jason Mantzoukas', 'Fuschia!', 'Corey Burton', 'Jason Hightower', 'Brian Curless', 'Ann Barry Colgin', 'Viveca Paulin', 'Michael Giacchino', 'Kevin Deters', 'Jeremy Milton', 'Jesse Averna', 'Nicole Scherzinger', 'Brittany Kikuchi', 'Olivier Bénard', 'Ben McKee', 'Daniel Platzman', 'Dan Reynolds', 'Wayne Sermon', 'John Lavelle', 'Josie Trinidad', 'Ruth Strother', 'Elise Aliberti', 'Maddix Robinson', 'Bradford Simonsen']",2.91,4.0,"['Animation', 'Family', 'Adventure', 'Comedy']",112,['USA'],English,['English'],"['Walt Disney Pictures', 'Walt Disney Animation Studios']",717021,59326,87308,117,7943,16854,16537,46524,46587,103201,61480,54769,9787,18199,381881,https://letterboxd.com/film/ralph-breaks-the-internet/
Coco,2017,Lee Unkrich,"['Anthony Gonzalez', 'Gael García Bernal', 'Benjamin Bratt', 'Alanna Ubach', 'Renée Victor', 'Ana Ofelia Murguía', 'Edward James Olmos', 'Jaime Camil', 'Alfonso Arau', 'Herbert Siguenza', 'Lombardo Boyar', 'Sofía Espinosa', 'Dyana Ortelli', 'Gabriel Iglesias', 'Selene Luna', 'Natalia Cordova-Buckley', 'Carla Medina', 'Luis Valdez', 'Blanca Araceli', 'Polo Rojas', 'Montse Hernandez', 'Octavio Solis', 'Cheech Marin', 'Salvador Reyes', 'John Ratzenberger', 'Daniel Edward Mora']",4.12,5.0,"['Adventure', 'Animation', 'Music', 'Family']",105,['USA'],English,"['English', 'Spanish']","['Pixar', 'Walt Disney Pictures']",2420384,221512,855848,11000,1861,5315,3311,23132,23484,146750,152034,449869,193110,461553,1460419,https://letterboxd.com/film/coco-2017/
"I, Tonya",2017,Craig Gillespie,"['Margot Robbie', 'Sebastian Stan', 'Allison Janney', 'Julianne Nicholson', 'Paul Walter Hauser', 'Bobby Cannavale', 'Bojana Novaković', 'Mckenna Grace', 'Caitlin Carver', 'Maizie Smith', 'Suehyla El-Attar', 'Jason Davis', 'Mea Allen', 'Cory Chapman', 'Amy Fox', 'Cara Mantella', 'Joshua Mikel', 'Lynne Ashe', 'Steve Wedan', ""Brandon O'Dell"", 'Davin Allen Grindstaff', 'Daniel Thomas May', 'Anthony Reynolds', 'Ricky Russert', 'Al Bianchi', 'Miles Mussenden', 'Annie Livingston', 'Jan Harrelson', 'Luray Cooper', 'Dan Triandiflou', ""Kelly O'Neal"", 'Lisa Kaye Kinsler', 'Cecil Love', 'Alphie Hyorth', 'Sean Goulding', 'Bobby Browning', 'Little Man', 'Heather Jocelyn Blair', 'Raven Wynn', 'Evan George Vourazeris', 'Joe Heath']",3.85,3.5,"['Drama', 'Comedy']",120,['USA'],English,['English'],"['LuckyChap Entertainment', 'Clubhouse Pictures']",1106906,122303,337052,5800,577,2211,1976,12624,17434,99070,135607,265483,79993,111553,726528,https://letterboxd.com/film/i-tonya/
Guardians of the Galaxy Vol. 2,2017,James Gunn,"['Chris Pratt', 'Zoe Saldaña', 'Dave Bautista', 'Vin Diesel', 'Bradley Cooper', 'Michael Rooker', 'Karen Gillan', 'Pom Klementieff', 'Sylvester Stallone', 'Kurt Russell', 'Elizabeth Debicki', 'Chris Sullivan', 'Sean Gunn', 'Tommy Flanagan', 'Laura Haddock', 'Aaron Schwartz', 'Hannah Gottesman', 'Hilty Bowen', 'Ben Browder', 'Alex Klein', 'Luke Cook', 'Evan Jones', 'Joe Fria', 'Terence Rosemore', 'Jimmy Urine', 'Stephen Blackehart', 'Steve Agee', 'Blondy Baruti', 'Richard Christy', 'Rob Zombie', 'Sierra Love', 'Kendra Carelli', 'Seth Green', 'Molly C. Quinn', 'Michael Rosenbaum', 'Rhoda Griffis', 'Milynn Sarley', 'Stan Lee', 'David Hasselhoff', 'Mac Wells', 'Jim Gunn Sr.', 'Leota Gunn', 'Elizabeth Faith Ludlow', 'Wyatt Oleff', 'Gregg Henry', 'Damita Jane Howard', 'Ving Rhames', 'Michelle Yeoh', 'Mike Escamilla', 'Miley Cyrus', 'Jeff Goldblum', 'Donny Carrington', 'Nea Dune', 'Fred Galle', ""Alphonso A'Qen-Aten Jackson"", 'Kelly Richardson', 'Guillermo Rodriguez', 'Josh Tipis', 'Jason Williams', 'Joe Heath']",3.51,4.0,"['Action', 'Science Fiction', 'Adventure']",137,['USA'],English,['English'],['Marvel Studios'],2152106,249184,559653,2600,4302,13404,10651,61492,67798,270959,241472,343338,86346,129036,1228798,https://letterboxd.com/film/guardians-of-the-galaxy-vol-2/
The Fate of the Furious,2017,F. Gary Gray,"['Vin Diesel', 'Jason Statham', 'Dwayne Johnson', 'Michelle Rodriguez', 'Tyrese Gibson', 'Ludacris', 'Charlize Theron', 'Kurt Russell', 'Nathalie Emmanuel', 'Luke Evans', 'Elsa Pataky', 'Kristofer Hivju', 'Scott Eastwood', 'Corey Maher', 'Tego Calderon', 'Don Omar', 'Patrick St. Esprit', 'Eden Estrella', 'Janmarco Santiago', 'Oren Hawxhurst', 'Celestino Cornielle', 'Olek Krupa', 'Alexander Babara', 'Andre Pushkin', 'Roberts Jekabsons', 'Nick Gracer', 'Gary Weeks', 'Friday Chamberlain', 'Joe Fishel', 'Michael W. Broomer', 'Sam Hadid', 'Matthew Cornwell', 'Jason Rhymer', 'Jeremy Anderson', 'Peter Hansen', 'Todd Cole', 'Jordan Baumer', 'Scott Proctor', 'Carrie Lee Consolino', 'Madalyn Defler', 'Taylor Donaldson', 'Isabel Downing', 'Anna Duvall', 'Jaci Grace Edwards', 'Reese Edwards', 'Caylin Ingram', 'Caroline Kimmel', 'Katherine Kimmel', 'Jordan Price', 'Anna MacKenzie Rogers', 'Marina Lyn Serra', 'D66', 'James Ayoub', 'Carlos De La Hoz', 'Alejandro Bosch', 'Lisandra Delgado', 'Santiago Solis Chavez', 'Joyvan Guevara', 'Brenda Nuñez López', 'Anita Farmer Bergman', 'Karin Boesler', 'Apollo GT', 'Yassie Hawkes', 'Myrom Kingery', 'Gary Lavard', 'Helen Mirren', 'Pauline Nowakowski', 'Charles Poole', 'Oleg Prudius', 'William Cowboy Reed', 'Mark Salas', 'Ramona Schwalbach', 'Jon Komp Shin', 'Doug Stroup', 'Branislav R. Tatalović', 'Alan Tuskes', 'Zachary Vazquez', 'Gary Lee Vincent', 'Megan Marie Wilson', 'Yuliya Zelenskaya', 'Özcan Özdemir', 'Zac Henry', 'Tait Fletcher', 'Scott Hunter', 'Tyrone C. Wiggins', 'Mya Levels', 'Kim Evans', 'Djimon Hounsou']",2.71,4.0,"['Crime', 'Action', 'Thriller']",136,['USA'],English,"['English', 'Spanish']","['Original Film', 'One Race', 'Universal Pictures']",355010,50436,41453,159,4392,10079,10010,31601,32310,55026,26668,20740,3607,8094,202527,https://letterboxd.com/film/the-fate-of-the-furious/
Baby Driver,2017,Edgar Wright,"['Ansel Elgort', 'Kevin Spacey', 'Lily James', 'Jon Hamm', 'Jamie Foxx', 'Jon Bernthal', 'Eiza González', 'Flea', 'CJ Jones', 'Lanny Joon', 'Micah Howard', 'Morgan Brown', 'Morse Diggs', 'Sky Ferreira', 'Lance Palmer', 'Hudson Meek', 'Viviana Chavez', 'Hal Whiteside', 'Clay Donahue Fontenot', 'Brigitte Kali Canales', 'Patrick Walker', 'Ben VanderMey', 'David Robert Lewis', 'Big Boi', 'Killer Mike', 'Brogan Hall', 'Allison King', 'R. Marcos Taylor', 'Paul Williams', 'Joe Loya', 'Andy McDermott', 'Christopher Beanland', 'Andrea Frye', 'Thomas E. Haynes', 'Russell B. Spencer', 'Cynne Simpson', 'Keith Hudson', 'Sidney Sewell', 'Thurman Sewell', 'Elijah Everett', 'Jon Spencer', 'Walter Hill', 'Wilbur Fitzgerald', 'Jeff Chase', 'Shellita Boxie', 'Marshall Choka', 'Juliette Sicard', 'Marvin E. West', 'Connie Lee', 'James Blackshear', 'Erica Frene', 'Elizabeth Davidovich', 'Duke Jackson', 'Colin Lacativa', 'Trey McGriff', 'Donald K. Overstreet', 'Danny Le Boyer', 'David Conk', 'Troy Faruk', 'Mark Smith', 'Kenneth Manos', 'Nathaniel Perry', 'Kent Wagner', 'Whit Whitman', 'Perry Zulu Jr.', 'Chad Joyce']",3.72,4.0,"['Crime', 'Action']",113,"['UK', 'USA']",English,['English'],"['Big Talk Studios', 'Working Title Films', 'Working Title Films']",2533484,204894,888450,26000,4789,16235,9588,66610,58231,297460,270344,528938,168132,238054,1658381,https://letterboxd.com/film/baby-driver/
Trolls,2016,"Mike Mitchell, Walt Dohrn","['Anna Kendrick', 'Justin Timberlake', 'Zooey Deschanel', 'Christopher Mintz-Plasse', 'Christine Baranski', 'Russell Brand', 'James Corden', 'Jeffrey Tambor', 'Ron Funches', 'Aino Jawo', 'Caroline Hjelt', 'Kunal Nayyar', 'Quvenzhané Wallis', 'John Cleese', 'Gwen Stefani', 'Iris Dohrn', 'Liam Henry', 'Glozell Green', 'Meg DeAngelis', 'Ricky Dillon', 'Kandee Johnson', 'Walt Dohrn', 'Rhys Darby', 'Grace Helbig', 'Curtis Stone', 'Mike Mitchell', 'Nina Zoe Bakshi', 'Zoë Crawford', 'Riley Crawford', 'Ollie Mitchell', 'Emmett Mitchell', 'Phoebe Dohrn']",2.69,3.5,"['Fantasy', 'Animation', 'Comedy', 'Family', 'Adventure', 'Music']",92,['USA'],English,['English'],['DreamWorks Animation'],260922,27652,29667,768,5036,9285,8398,21166,17874,32648,15556,16373,2981,10867,140184,https://letterboxd.com/film/trolls/
Split,2016,M. Night Shyamalan,"['James McAvoy', 'Anya Taylor-Joy', 'Betty Buckley', 'Haley Lu Richardson', 'Jessica Sula', 'Izzie Coffey', 'Brad William Henke', 'Sebastian Arcelus', 'Neal Huff', 'Ukee Washington', 'Ann Wood', 'Robert Michael Kelly', 'M. Night Shyamalan', 'Rosemary Howard', 'Jerome Gallman', 'Lyne Renee', 'Kate Jacoby', 'Peter Patrikios', 'Kash Goins', 'Roy James Wilson', 'Christopher Lee Philips', 'Julie Potter', 'Ameerah Briggs', 'Nakia Dillard', 'Robin Rieger', 'Emlyn Elisabeth Morinelli', 'Dann Fink', 'Bruce Winant', 'Bruce Willis', 'Kelly Werkheiser', 'Kim Director', 'Robert Bizik', 'Junnie Lopez', 'Steven Dennis', 'Matthew Nadu', 'Barbara Edwards', 'James Robinson Jr.', 'Corinne Costa', 'John Mitchell', 'Andrea Havens', 'Shawn Gonzalez', 'Aleksandra Svetlichnaya', 'Jalina Mercado', 'Michael J. Kraycik', 'Michaela Bockarie', 'Colin Campbell', 'John Jillard Sr.', 'Vincent Riviezzo', 'Gary Ayash', 'Jeff Buckner']",3.46,3.0,"['Thriller', 'Horror']",117,['USA'],English,['English'],"['Universal Pictures', 'Blinding Edge Pictures', 'Blumhouse Productions']",1582601,114300,362777,2800,5541,12961,9940,49059,56023,208848,203100,264594,58849,99645,968560,https://letterboxd.com/film/split-2016/
Zootopia,2016,"Byron Howard, Rich Moore","['Jason Bateman', 'Ginnifer Goodwin', 'Idris Elba', 'Jenny Slate', 'Nate Torrence', 'Bonnie Hunt', 'Don Lake', 'Tommy Chong', 'J.K. Simmons', 'Octavia Spencer', 'Alan Tudyk', 'Shakira', 'Raymond S. Persi', 'Della Saba', 'Maurice LaMarche', 'Phil Johnston', 'Fuschia!', 'John DiMaggio', 'Katie Lowes', 'Gita Reddy', 'Jesse Corti', 'Tommy Lister Jr.', 'Josh Dallas', 'Leah Latham', 'Rich Moore', 'Kath Soucie', 'Peter Mansbridge', 'Byron Howard', 'Jared Bush', 'Mark Rhino Smith', 'Josie Trinidad', 'John Lavelle', 'Kristen Bell', 'Evelyn Wilson Bresee', 'Hewitt Bush', 'Jill Cordes', 'Madeleine Curry', 'Terri Douglas', 'Melissa Goodwin Shepherd', 'Zach King', 'Dave Kohut', 'Jeremy Milton', 'Pace Paulsen', 'Fabienne Rawley', 'Bradford Simonsen', 'Claire K. Smith', 'Jackson Stein', 'David A. Thibodeau', 'Hannah G. Williams']",3.69,5.0,"['Animation', 'Comedy', 'Family', 'Adventure']",109,['USA'],English,['English'],"['Walt Disney Animation Studios', 'Walt Disney Pictures']",1731939,109185,386423,2900,2294,6734,5341,32076,37316,169831,165261,274352,73488,124075,890768,https://letterboxd.com/film/zootopia/
Ant-Man,2015,Peyton Reed,"['Paul Rudd', 'Michael Douglas', 'Evangeline Lilly', 'Bobby Cannavale', 'Corey Stoll', 'Anthony Mackie', 'Judy Greer', 'Abby Ryder Fortson', 'Michael Peña', 'David Dastmalchian', 'T.I.', 'Wood Harris', 'Hayley Atwell', 'John Slattery', 'Martin Donovan', 'Garrett Morris', 'Gregg Turkington', 'Rod Hallett', 'Joe Chrest', 'Joe Bucaro III', 'Jean Louisa Kelly', 'Dax Griffin', 'Hayley Lovitt', 'Anna Akana', 'Stan Lee', 'Tom Kenny', 'Norma Alvarez', 'Darcie Isabella Cottrell', 'Teddy Williams', 'Carol Anne Watts', 'Chuck David Willis', 'Diana Chiritescu', 'Neko Parham', 'Onira Tarés', 'Zamani Wilder', 'Kylen Davis', 'Jim R. Coleman', 'Desmond Phillips', 'Aaron Saxton', 'Michael A. Cook', 'Ricki Lander', 'Rus Blackwell', 'Johnny Pemberton', 'Nicholas Barrera', 'Carlos Aviles', 'Lyndsi LaRose', 'Robert Crayton', 'Ajani Perkins', 'Jessejames Locorriere', 'Kevin Lacz', 'Michael Trisler', 'Daniel Stevens', 'Clay Donahue Fontenot', 'Michael Jamorski', 'Casey Pieretti', 'Antal Kalik', 'Adam Hart', 'Reuben Langdon', 'Todd Schneider', 'Zack Duhame', 'Alex Chansky', 'Kevin Buttimer', 'Danny Vasquez', 'Rick Avery', 'Erik Betts', 'Raul Colon', 'Chris Evans', 'Hayley Gagner', 'Vanessa Ross', 'Sebastian Stan']",3.23,3.5,"['Adventure', 'Science Fiction', 'Action']",117,['USA'],English,['English'],['Marvel Studios'],1800218,200193,350959,518,4763,15222,13592,69444,84973,288573,207435,203009,29741,55704,972456,https://letterboxd.com/film/ant-man/
Furious 7,2015,James Wan,"['Vin Diesel', 'Paul Walker', 'Jason Statham', 'Michelle Rodriguez', 'Jordana Brewster', 'Tyrese Gibson', 'Ludacris', 'Dwayne Johnson', 'Lucas Black', 'Kurt Russell', 'Nathalie Emmanuel', 'Elsa Pataky', 'Gal Gadot', 'John Brotherton', 'Luke Evans', 'Tony Jaa', 'Djimon Hounsou', 'Noel Gugliemi', 'Ali Fazal', 'Sung Kang', 'Ronda Rousey', 'Miller Kimsey', 'Charlie Kimsey', 'Eden Estrella', 'Gentry White', 'Iggy Azalea', 'Jon Lee Brody', 'Levy Tran', 'Anna Colwell', 'Viktor Hernandez', 'Steve Coulter', 'Robert Pralgo', 'Antwan Mills', 'J.J. Phillips', 'Jorge Ferragut', 'Sara Sohn', 'Benjamin Blankenship', 'D.J. Hapa', 'T-Pain', 'Brian Mahoney', 'Brittney Alger', 'Romeo Santos', 'Jocelin Donahue', 'Stephanie Langston', 'Jorge-Luis Pallo', 'Tego Calderon', 'Shad Moss', 'Don Omar', 'Klement Tinaj', 'Caleb Walker', 'Cody Walker', 'Lateef Crowder', 'Dennis Keiffer', 'Tara Macken', 'John Koyama', 'Aaron J. Brooks', 'Caitlin Dechelle']",3.23,3.0,"['Action', 'Thriller', 'Crime']",137,['USA'],English,"['English', 'Arabic', 'Spanish', 'Thai']","['Original Film', 'One Race', 'Universal Pictures']",462266,59849,71278,1000,2846,6529,5654,20320,23346,63355,50569,49087,11539,20238,253483,https://letterboxd.com/film/furious-7/
Fifty Shades of Grey,2015,Sam Taylor-Johnson,"['Dakota Johnson', 'Jamie Dornan', 'Jennifer Ehle', 'Eloise Mumford', 'Victor Rasuk', 'Luke Grimes', 'Marcia Gay Harden', 'Rita Ora', 'Max Martini', 'Callum Keith Rennie', 'Andrew Airlie', 'Dylan Neal', 'Elliat Albrecht', 'Rachel Skarsten', 'Emily Fonda', 'Anthony Konechny', 'Bruce Dawson', 'Tom Butler', 'Christine Willes', 'Chris Shields', 'Anna Louise Sargeant', 'Megan Danso', 'Jason Cermak', 'Brent McLaren', 'Steven Cree Molison', 'Elise Gatien', 'Reese Alexander', 'David Orth', 'Julia Dominczak', 'Brandi Alexander', 'Raj Lal', 'Matthew Hoglie']",1.74,1.5,"['Romance', 'Thriller', 'Drama']",125,['USA'],English,['English'],"['Focus Features', 'Michael De Luca Productions', 'Trigger Street Productions']",456694,29146,24656,456,40108,51035,25861,42503,18792,28492,8592,11082,1603,7736,235804,https://letterboxd.com/film/fifty-shades-of-grey/
Guardians of the Galaxy,2014,James Gunn,"['Chris Pratt', 'Zoe Saldaña', 'Dave Bautista', 'Vin Diesel', 'Bradley Cooper', 'Lee Pace', 'Michael Rooker', 'Karen Gillan', 'Djimon Hounsou', 'John C. Reilly', 'Glenn Close', 'Benicio del Toro', 'Laura Haddock', 'Sean Gunn', 'Peter Serafinowicz', 'Christopher Fairbank', 'Krystian Godlewski', 'Wyatt Oleff', 'Gregg Henry', 'Janis Ahern', 'Solomon Mousley', 'Lindsay Morton', 'Robert Firth', 'Melia Kreiling', 'Tom Proctor', 'Nick Holmes', 'Max Wrottesley', 'Stan Lee', 'Nicole Alexandra Shipley', 'Sharif Atkins', 'Brendan Fehr', 'Tomas Arana', 'Mikaela Hoover', 'Emmett Scanlan', 'Dominic Grant', 'Spencer Wilding', 'Alison Lintott', 'Alexis Rodney', 'Nathan Fillion', 'Keeley Forsyth', 'Frank Gilhooley', 'Alexis Denisof', 'Enzo Cilenti', 'Richard Katz', 'Ene Frost', 'Ronan Summers', 'Ophelia Lovibond', 'Laura Ortiz', 'Marama Corlett', 'Rosie Jones', 'Abidemi Sobande', 'Alex Rose', 'Ekaterina Zalitko', 'Emily Redding', 'Stephen Blackehart', 'Jennifer Moylan-Taylor', 'Bruce Mackinnon', 'Ralph Ineson', 'Rob Zombie', 'Naomi Ryan', 'John Brotherton', 'Graham Shiels', 'James Gunn', 'Douglas Robson', 'Rachel Cullen', 'Isabella Poynton', 'Imogen Poynton', 'David Yarovesky', 'Miriam Lucia', 'Josh Brolin', 'Lloyd Kaufman', 'Tyler Bates', 'Seth Green', 'Jozef Aoki', 'Erica Melargo', 'Rosie Jones']",3.78,4.0,"['Adventure', 'Action', 'Science Fiction']",121,['USA'],English,['English'],['Marvel Studios'],2896150,289868,933049,7100,3599,12065,6542,46589,43223,271437,257135,598265,164294,264515,1667664,https://letterboxd.com/film/guardians-of-the-galaxy/
Deliver Us from Evil,2014,Scott Derrickson,"['Eric Bana', 'Olivia Munn', 'Edgar Ramírez', 'Joel McHale', 'Sean Harris', 'Chris Coy', 'Dorian Missick', 'Mike Houston', 'Lulu Wilson', 'Antoinette LaVecchia', 'Scott Johnsen', 'Valentina Rendón', 'Daniel Sauli', 'Olivia Horton', 'Sean Bennett', 'Lolita Foster', 'Sean Nelson', 'Raiden Integra', 'John Cenatiempo', 'Jenna Gavigan', 'Victor Pagan', 'Ben Livingston', 'John Cariani', 'Tijuana Ricks', 'Ivan Cardona', 'Umar Khan', 'Carol Stanzione', 'Steve Hamm', 'Mark David Watson', 'Robert Keiley', 'Adam Kobylarz', 'Aidan Gemme', 'Mari-Ange Ramirez', 'Blair Sams', 'Ben Horner', 'Sebastian La Cause', 'Kevin Nagle', 'Lauro David Chartrand-DelValle', 'John Auer', 'Joseph Basile', 'José Báez', 'Mikhael DeVille', 'Dennis Jay Funny', 'Joseph Anthony Jerez', 'Amra Mallassi']",2.6,3.5,"['Crime', 'Thriller', 'Horror']",118,['USA'],English,['English'],"['LStar Capital', 'Screen Gems', 'Jerry Bruckheimer Films']",50387,7953,5265,47,777,1967,2280,6390,6188,8806,3958,2679,457,904,34406,https://letterboxd.com/film/deliver-us-from-evil-2014/
Rio 2,2014,Carlos Saldanha,"['Jesse Eisenberg', 'Anne Hathaway', 'Will.i.am', 'Jamie Foxx', 'Leslie Mann', 'George Lopez', 'Andy García', 'Bruno Mars', 'Bernardo de Paula', 'Rodrigo Santoro', 'Jemaine Clement', 'Jake T. Austin', 'Amandla Stenberg', 'Pierce Gagnon', 'Rita Moreno', 'Kristin Chenoweth', 'Tracy Morgan', 'Rachel Crow', 'Bebel Gilberto', 'Jason Harris', 'Janelle Monáe', 'Amy Heidemann', 'Carlinhos Brown', 'Jim Conroy', 'Nola Donkin', 'Miguel Ferrer', 'Jeffrey Garcia', 'Kevin W. Keane', 'Philip Lawrence', 'Gracinha Leporace', 'Sérgio Mendes', 'Kate Micucci', 'Pablo Ramírez', 'Marco Antonio Regil', 'Peter Pamela Rose', 'Carlos Saldanha', 'Julia Scarpa Saldanha', 'Manoela Scarpa Saldanha', 'Rafael Scarpa Saldanha', 'Sofia Scarpa Saldanha', 'Cindy Slattery', 'Randy Thom', 'Claira Nicole Titman', 'Miriam Wallen', 'Claudine Barros', 'Mauro Blanco', 'Jeremy Bowker', 'Dennis T. Carnegie', 'Shanti Correa', 'Alberto Costa', 'David Cowgill', 'Holly Dorff', 'Harry Hitner', 'Rif Hutton', 'Vanessa Lemonides', 'Hope Levy', 'Henry Leyva', 'Anselmo Martini', 'Renata Becker', 'Ron McClary', 'Brian Scott McFadden', 'Phil Miler', 'Edie Mirman', 'Heber Moreira', 'Leo Nobre', 'Mina Olivera', 'Jackeline Olivier', 'Kleber Jorge Pimenta', 'Byron Thames', 'Annie Maginnis Tippe', 'Natalie Morales']",2.7,2.0,"['Adventure', 'Comedy', 'Animation', 'Family']",101,['USA'],English,"['English', 'Portuguese']","['Blue Sky Studios', '20th Century Fox Animation', '20th Century Fox']",229181,15684,19145,84,1354,4243,5373,17286,17672,28233,10898,10750,1879,6523,104211,https://letterboxd.com/film/rio-2/
Captain America: The Winter Soldier,2014,"Anthony Russo, Joe Russo","['Chris Evans', 'Scarlett Johansson', 'Sebastian Stan', 'Anthony Mackie', 'Cobie Smulders', 'Frank Grillo', 'Emily VanCamp', 'Hayley Atwell', 'Robert Redford', 'Samuel L. Jackson', 'Toby Jones', 'Jenny Agutter', 'Maximiliano Hernández', 'Georges St-Pierre', 'Callan Mulvey', 'Alan Dale', 'Chin Han', 'Bernard White', 'Stan Lee', 'Garry Shandling', 'Salvator Xuereb', 'Brian Duffy', 'Zack Duhame', ""Adetokumboh M'Cormack"", 'Christopher George Sarris', 'Aaron Himelstein', 'Allan Chanes', 'Joe Russo', 'Christopher Markus', 'Stephen McFeely', 'Pat Healy', 'Ed Brubaker', 'D.C. Pierson', 'Danny Pudi', 'Bernie Zilinskas', 'Branka Katić', 'Angela Russo-Otstot', 'Jon Sklaroff', 'Chad Todhunter', 'Abigail Marlowe', 'Jeremy Maxwell', 'Emerson Brooks', 'Evan Parke', 'Ricardo Chacon', 'Griffin M. Allen', 'Ann Russo', 'Joe Rosalina', 'Michael Debeljak', 'Eddie J. Fernandez', 'Jody Hart', 'Steven Culp', 'Derek Hughes', 'Wendy Hoopes', 'Ethan Rains', 'Dominic Rains', 'Charles Wittman', 'Andy Martinez, Jr.', 'Michael De Geus', ""Terence O'Rourke"", 'Anne Grimenstein', 'Dante Rosalina', 'Robert Clotworthy', 'June Christopher', 'Gary Sinise', 'Henry Goodman', 'Dean Barlage', 'Joel Thingvall', 'Thomas Kretschmann', 'Elizabeth Olsen', 'Nestor Serrano', 'Aaron Taylor-Johnson', 'Joss Whedon']",3.71,3.0,"['Adventure', 'Science Fiction', 'Action']",136,['USA'],English,['English'],['Marvel Studios'],2007872,252191,509578,8600,4142,13646,8308,48184,45044,187337,170416,318882,119714,174911,1090584,https://letterboxd.com/film/captain-america-the-winter-soldier/
Fast & Furious 6,2013,Justin Lin,"['Vin Diesel', 'Paul Walker', 'Dwayne Johnson', 'Jordana Brewster', 'Michelle Rodriguez', 'Tyrese Gibson', 'Sung Kang', 'Gal Gadot', 'Ludacris', 'Luke Evans', 'Elsa Pataky', 'Gina Carano', 'Clara Paget', 'Kim Kold', 'Joe Taslim', 'Samuel M. Stewart', 'Benjamin Davies', 'Matthew Stirling', 'David Ajala', 'Thure Lindhardt', 'Shea Whigham', 'Andrei Zayats', 'John Ortiz', 'Jason Thorpe', 'Alexander Vegh', 'Stephen Marcus', 'Magda Rodriguez', 'Andy Pointon', 'Victor Gardener', 'Sol de la Barreda', 'Elvira Tricás', 'Carolina Pozo', 'Revil Beat', 'Li Yimo', 'Eddie Bagayawa', 'Dean Barlage', 'Gintare Beinoraviciute', 'Catherine Delaloye', 'Rowena Diamond', 'Mark Haldor', 'Andrew Koji', 'Alex Martin', 'Rita Ora', 'Gemita Samarra', 'Jason Statham', 'Jason Harris']",3.05,3.5,"['Crime', 'Action', 'Thriller']",131,"['Japan', 'USA', 'Spain', 'UK']",English,"['English', 'Cantonese', 'Dutch', 'Japanese', 'Russian', 'Spanish']","['Universal Pictures', 'Relativity Media', 'Original Film', 'One Race', 'Fuji Television Network', 'dentsu']",397272,48337,51925,199,2298,5509,5304,20376,25385,65721,39819,32285,5684,10873,213254,https://letterboxd.com/film/fast-furious-6/
Step Up Revolution,2012,Scott Speer,"['Kathryn McCormick', 'Ryan Guzman', 'Misha Gabriel', ""Stephen 'tWitch' Boss"", 'Cleopatra Coleman', 'Peter Gallagher', 'Tommy Dewey', 'Emiliano Díez', 'Steve Zurk', 'Mia Michaels', 'Claudio Pinto', 'Adam Sevani', 'Mario Ernesto Sánchez', 'Kevin A. Walton', 'Megan Boone', 'Tangi Colombel', 'Katie Peterson', ""Michael 'Xeno' Langebeck"", 'Sabina V. Gomez', 'Dominique Bell', 'Chadd Smith', 'Mari Koda', 'Nicole Dabeau', 'Chris Charles Herbert', 'Alejandro Posada', 'Marc Macaulay', 'Claudia Rocafort', 'Jordana DePaula', 'Tiger Kirchharz', 'Christopher Scott', 'Ceasare Willis', 'Celestina Aladekoba', 'Brandy Lamkin', 'Mayuko Kitayama', 'Jean Lloret', 'Justin Valles', 'Phillip Chbeeb', 'Marc Inniss', 'Tony Bellissimo', 'Angeline Appel', 'Christopher Brian Granitz III', 'Bianca Brewton', 'Daniel Graham', 'Brittny Sugarman', 'Brandon Mitchell', 'Amanda Vieira', 'Allan Skeene, Jr.', 'Nolan Padilla', 'Natalli Reznik', 'Ted Anthony Forance', 'Nick Lazzarini', 'Michael Jaeho Song', 'Lorenzo Chapman', 'Luam Keflezgy', 'Billy Bell', 'Angela Marie Cifone', 'Jennifer Jong', 'Danielle Dominguez', 'Shaunna Lazzaro', 'David Lorenzo', 'Albena Aleksandrova']",2.79,4.5,"['Music', 'Romance', 'Drama']",99,"['USA', 'Singapore']",English,['English'],"['Summit Entertainment', 'Offspring Entertainment']",59009,5170,6103,105,621,1376,1279,3818,3180,5882,2739,3233,647,2305,25080,https://letterboxd.com/film/step-up-revolution/
Captain America: The First Avenger,2011,Joe Johnston,"['Chris Evans', 'Tommy Lee Jones', 'Hugo Weaving', 'Hayley Atwell', 'Sebastian Stan', 'Dominic Cooper', 'Toby Jones', 'Neal McDonough', 'Derek Luke', 'Bruno Ricci', 'JJ Feild', 'Kenneth Choi', 'Richard Armitage', 'Stanley Tucci', 'Samuel L. Jackson', 'Lex Shrapnel', 'Michael Brandon', 'Martin Sherman', 'Natalie Dormer', 'Oscar Pearce', 'William Hope', 'Nicholas Pinnock', 'Marek Oravec', 'David Bradley', 'Leander Deeny', 'Sam Hoare', 'Simon Kunz', ""Kieran O'Connor"", 'Jenna Coleman', 'Sophie Colquhoun', 'Doug Cockle', 'Ben Batt', 'Mollie Fitzgerald', 'Damon Driver', 'David McKail', 'Amanda Walker', 'Richard Freeman', 'Katherine Press', 'Sergio James', 'Marcello Walton', 'Anatole Taubman', 'Jan Pohl', 'Erich Redman', 'Rosanna Hoult', 'Naomi Slights', 'Kirsty Mather', 'Laura Haddock', 'James Payton', 'Ronan Raftery', 'Nick Hendrix', 'Luke Allen-Gale', 'Jack Gordon', 'Benjamin Uttley', 'Patrick Monckeberg', 'Amanda Righetti', 'Stan Lee', 'Fabrizio Santino', 'Caroline Royce']",3.26,2.5,"['Science Fiction', 'Action', 'Adventure']",124,['USA'],English,"['English', 'French', 'Norwegian']","['Marvel Studios', 'Marvel Entertainment']",1802621,206706,342789,1100,5323,17241,13463,67383,80153,267029,191805,202186,35536,67705,947824,https://letterboxd.com/film/captain-america-the-first-avenger/
Monte Carlo,2011,Thomas Bezucha,"['Selena Gomez', 'Katie Cassidy', 'Leighton Meester', 'Cory Monteith', 'Andie MacDowell', 'Brett Cullen', 'Amanda Fairbank-Hynes', 'Joe Camp III', 'Luke Bracey', 'Valérie Lemercier', 'Franck de la Personne', 'Máté Haumann', 'István Göz', 'Attila Árpa', 'Joël Lefrançois', 'Virág Bárány', 'Shay Cunliffe', 'Barna Illyés', 'Dániel Mogács', 'Gábor Nagypál', 'Matt Devere', 'Mark Phelan', 'Pierre Boulanger', 'Christophe Malavoy', 'Catherine Tate', 'Giulio Berruti', 'Bruno Abraham-Kremer', 'Romain Cottard', 'Arnaud Aldigé', 'Antal Leisen', 'Richard Rifkin', 'Sophie Thompson', 'George Mendel', 'Séverine Vasselin', 'Vilma Szécsi', ""Ben O'Brien"", 'Bernadett Kis', 'Éva Magyar', 'Kamel Laadaili']",3.18,4.5,"['Comedy', 'Adventure', 'Romance']",109,"['Hungary', 'USA']",English,['English'],"['Blossom Films', 'Fox 2000 Pictures', 'Regency Enterprises', 'Di Novi Pictures', 'Dune Entertainment', 'Dune Entertainment III']",222799,28859,40553,1200,916,2518,2466,9601,9427,25857,14806,22047,4370,18297,110305,https://letterboxd.com/film/monte-carlo/
Fast Five,2011,Justin Lin,"['Vin Diesel', 'Paul Walker', 'Jordana Brewster', 'Tyrese Gibson', 'Ludacris', 'Matt Schulze', 'Sung Kang', 'Gal Gadot', 'Tego Calderon', 'Don Omar', 'Joaquim de Almeida', 'Dwayne Johnson', 'Elsa Pataky', 'Michael Irby', 'Fernando Chien', 'Alimi Ballard', 'Yorgo Constantine', 'Geoff Meed', 'Joseph Melendez', 'Jeirmarie Osorio', 'Mark Hicks', 'Esteban Cueto', 'Corey Michael Eubanks', 'Luis Da Silva Jr.', 'Eva Mendes', 'Luis Gonzaga', 'Benjamin Blankenship', 'Jay Jackson', 'Arlene Santana', 'Kent Shocknek', 'Sharon Tay', 'Andy Rosa Adler']",3.45,3.0,"['Crime', 'Action', 'Thriller']",130,['USA'],English,"['English', 'Spanish', 'Portuguese', 'Italian']","['Original Film', 'Universal Pictures', 'One Race']",448932,57989,79073,1700,1870,4234,3662,14258,17199,53268,51495,61277,16546,24103,247912,https://letterboxd.com/film/fast-five/
Rio,2011,Carlos Saldanha,"['Jesse Eisenberg', 'Anne Hathaway', 'Leslie Mann', 'Jane Lynch', 'Will.i.am', 'George Lopez', 'Wanda Sykes', 'Jamie Foxx', 'Rodrigo Santoro', 'Jemaine Clement', 'Jake T. Austin', 'Tracy Morgan', 'Carlos Ponce', 'Karen Disher', 'Jason Fricchione', 'Sofia Scarpa Saldanha', 'Kelly Keaton', 'Gracinha Leporace', 'Phil Miler', 'Bernardo de Paula', 'Carlos Saldanha', ""Renato D'Angelo"", 'Jeffrey Garcia', 'Davi Vieira', 'Thomas F. Wilson', 'Cindy Slattery', 'Justine Warwick', 'Bebel Gilberto', 'Judah Friedlander', 'Francisco Ramos', 'Tim Nordquist', 'Miriam Wallen', 'Sérgio Mendes', 'Ester Dean', 'Priscilla Avila', 'Anzolin Borges', 'Claudia Bretas', 'Carlinhos Brown', 'Ubirajara de Castro', 'Shanti Correa', 'Wendy Cutler', 'Heber Moreira', 'Flávia de Mellow', 'Andrea De Oliveira', 'Holly Dorff', 'Matheus dos Santos', 'Lucas dos Santos', 'Andrea Ferraz', 'Marcos Daniel Ferreira', 'Hanna Frankel', 'Johnny Gidcomb', 'Jean Gilpin', 'Julia Saraiva Gomez', 'Nicholas Guest', 'Rif Hutton', 'Julia Kamanchek Lopes', 'Lorrayne Mathias', 'Mikael Mutti', 'Leo Nobre', 'Mina Olivera', 'Bianca Rossini', 'Julia Scarpa Saldanha', 'Manoela Scarpa Saldanha', 'Adriana Souza', 'Maxwell Wippich', 'Matthew Wolf']",3.27,4.5,"['Adventure', 'Animation', 'Comedy', 'Family']",96,['USA'],English,"['English', 'Portuguese']","['Blue Sky Studios', '20th Century Fox Animation', '20th Century Fox']",614703,35634,78208,1200,1155,4230,4829,21388,27459,75262,47465,49743,10361,31721,273613,https://letterboxd.com/film/rio-2011/
Mean Girls 2,2011,Melanie Mayron,"['Meaghan Jette Martin', 'Maiara Walsh', 'Jennifer Stone', 'Nicole Gale Anderson', 'Claire Holt', 'Diego Boneta', 'Linden Ashby', 'Rhoda Griffis', 'Mike Pniewski', 'Patrick Johnson', 'Colin Dennard', 'Tim Meadows', 'Donn Lamkin', 'Dan Coleman', 'Bethany Anne Lind', 'Amber Wallace', 'Juliet Kim', 'Willie Larson', 'Greg Perrow', 'Kimberly Banta', 'Rachel Filsoof', 'Katelyn E. Bulluck', 'Kelly Gilmore', 'Autumn Dial']",1.3,3.0,['Comedy'],96,['USA'],English,['English'],['Paramount Famous Productions'],87055,6028,2846,29,16619,11356,4076,6118,2357,3271,828,1009,140,713,46487,https://letterboxd.com/film/mean-girls-2/
Step Up 3D,2010,Jon M. Chu,"['Rick Malambri', 'Adam Sevani', 'Joe Slaughter', 'Sharni Vinson', 'Alyson Stoner', 'Kendra Andrews', ""Stephen 'tWitch' Boss"", ""Daniel 'Cloud' Campos"", ""Ivan 'Flipz' Velez"", 'Christopher Scott', 'Luis Rosado', 'Martín Lombard', 'Keith Stallworth', 'Facundo Lombard', 'Oren Michaeli', 'Aja George', ""Straphanio 'Shonnie' Solomon"", 'Terence Dickson', 'Chadd Smith', ""Britney 'B' Thomas"", 'Terrance Harrison', ""Jonathan 'Legacy' Perez"", 'Jaime Burgos III', 'Ashlee Nino', 'Tamara Levinson', ""Ricardo 'Boogie Frantick' Rodriguez Jr."", 'Mari Koda', 'LaJon Dantzler', 'Janelle Cambridge', ""Anjelo 'Lil Demon' Baligad"", 'Jalen Testerman', ""Jose 'Boy Boi' Tena"", 'Simrin C. Player', 'Joshua Allen', ""Jeffrey 'Machine' McCann"", 'Casper Smart', 'Joshua Lee Ayers', 'Philip Albuquerque', 'Richard Steelo Vasquez', ""John 'J-Rock' Nelson"", ""Aaron 'Deuce' Cooke"", 'Moises Rivas', ""Zahra 'Jeskilz' Hamani"", 'Ivan Koumaev', 'Sharya Howell', 'Carly Lang', 'Nick Wilson', 'Nick DeMoura', 'Bailey Hanks', 'Robin Lord Taylor', 'Alex Zelenty', 'Jimmy Smagula', 'Christopher Place', 'Mark Blum', 'Alex Charak', 'Carolina Ravassa', 'Ally Maki', 'Jamal Sims', 'Kevin Chew', 'Ken Marks', 'Mark Tallman', 'Jennifer Van Dyck', 'Kylie Liya Page', 'David Brown', 'Rhapsody James', 'Dylan Hartigan', 'Sal Mistretta', 'Sonnie Brown', 'Akira Takayama', 'Grandmaster Caz', 'Hi-Hat', 'Raymond Del Barrio', 'Marley Marl', 'Dan Ziskie', 'Ryan Daniel Beck', 'Sawandi Wilson', 'Noel Rodriguez', ""Marie 'Pandora' Medina"", 'Tyrell Washington', 'Anthony Carr', 'Adrian Wiltshire', 'Dave Scott', 'Cedric Gardner', 'Josue Anthony', 'Richie Soto', 'Cheryl Alessio', 'Gee Alexander', 'Shawn Breathwaite', 'Leon C. Carswell', 'Bryan Dechart', 'Monique Dupree', 'Jason Etter', 'Ruby Feliciano', 'Moe Hindi', 'Jeremy Hudson', 'Morris Isby', 'Joseph Charles Kaye', 'Kristen Kress Parness', 'Chris Kulanusorstit', 'Zachary McElderry', 'Shauna Mitchell', 'Owen J. Murphy', 'Kathy Najimy', 'Stefanie Paige', 'Danielle Polanco', 'Alicia Quiñones', 'Tony Styles', 'Ashley Sugarman', 'Michael Trobiano', 'Uzimann', 'Sean Van der Wilt', 'Penelope Vazquez', 'Harry Shum Jr.', 'Delia Goncalves', 'Julie Nathanson']",2.89,3.5,"['Drama', 'Romance']",107,['USA'],English,['English'],"['Touchstone Pictures', 'Summit Entertainment']",68300,6457,8054,260,511,1313,1321,3975,3868,7607,3355,3688,745,2861,29244,https://letterboxd.com/film/step-up-3d/
Toy Story 3,2010,Lee Unkrich,"['Tom Hanks', 'Tim Allen', 'Joan Cusack', 'Don Rickles', 'Wallace Shawn', 'John Ratzenberger', 'Estelle Harris', 'Blake Clark', 'Jeff Pidgeon', 'Ned Beatty', 'Michael Keaton', 'Jodi Benson', 'John Morris', 'Emily Hahn', 'Timothy Dalton', 'Kristen Schaal', 'Jeff Garlin', 'Bonnie Hunt', 'Whoopi Goldberg', 'Jack Angel', 'John Cygan', 'Jan Rabson', 'Laurie Metcalf', 'Lori Alan', 'Bea Miller', 'R. Lee Ermey', 'Teddy Newton', 'Richard Kind', 'Bud Luckey', 'Javier Fernández-Peña', 'Charlie Bright', 'Amber Kroner', 'Brianna Maiwand', 'Erik von Detten', 'Jack Willis', 'Woody Smith', 'Carlos Alazraqui', 'Teresa Ganzel', 'Jess Harnell', 'Danny Mann', 'Mickie McGowan', 'Laraine Newman', ""Colleen O'Shaughnessey"", 'Bob Peterson', 'Jerome Ranft', 'Lee Unkrich', 'Colette Whitaker', 'Constantino Bravos', 'Taiana Huff', 'Adam Joshua Jastrow', 'Leo Jergovic', 'Theodore F. Kayser', 'Gia Michailidis', 'Nikolas Michailidis', 'Aramé Scott', 'Hannah Unkrich', 'Godfrey Gao', 'Sherry Lynn', 'Jim Ward', 'Frank Welker']",3.99,5.0,"['Comedy', 'Animation', 'Family']",103,['USA'],English,"['English', 'Spanish']","['Pixar', 'Walt Disney Pictures']",1896224,176741,411738,3500,1662,5237,3394,23812,23779,125878,115707,273158,119691,203243,895561,https://letterboxd.com/film/toy-story-3/
Letters to Juliet,2010,Gary Winick,"['Amanda Seyfried', 'Christopher Egan', 'Gael García Bernal', 'Vanessa Redgrave', 'Franco Nero', 'Luisa Ranieri', 'Milena Vukotić', 'Marina Massironi', 'Marcia DeBonis', 'Luisa De Santis', 'Paolo Arvedi', 'Lidia Biondi', 'Dario Conti', 'Giordano Formenti', 'Remo Remotti', 'Ivana Lotito', 'Angelo Infanti', 'Giacomo Piperno', 'Fabio Testi', 'Sara Armentano', 'Benito Deotto', 'Marcello Catania', 'Silvana Bosi', 'Elio Veller', 'Sandro Dori', 'Adriano Guerri', 'Stefano Guerrini', 'Daniel Emilio Baldock', 'Robbie Neigeborn', 'Hilary Edson', 'Ashley Lilley', 'Peter Arpesella', 'Ginevra Iorio', 'Laura Jane Jones', 'Gabriele Manfredi', 'Oliver Platt', 'Antonio Randazzo', 'Uzimann']",3.15,3.5,"['Drama', 'Comedy', 'Romance']",105,['USA'],English,"['English', 'Italian', 'Spanish']","['Summit Entertainment', 'Applehead Pictures']",235322,30270,44305,2000,788,2571,2380,9500,10062,28330,17447,23170,5679,19509,119436,https://letterboxd.com/film/letters-to-juliet/
Iron Man 2,2010,Jon Favreau,"['Robert Downey Jr.', 'Mickey Rourke', 'Don Cheadle', 'Gwyneth Paltrow', 'Sam Rockwell', 'Scarlett Johansson', 'Samuel L. Jackson', 'Jon Favreau', 'Garry Shandling', 'John Slattery', 'Paul Bettany', 'Clark Gregg', 'Leslie Bibb', 'Evgeniy Lazarev', 'Kate Mara', 'Christiane Amanpour', 'Philippe Bergeron', 'James Bethea', 'Michael Bruno', 'Kate Clark', 'Luminita Docan', 'François Duhamel', 'Larry Ellison', 'Adam Goldstein', 'Tim Guinee', 'Eric L. Haney', 'Ali Khan', 'Stan Lee', 'Isaiah Guyman Martin IV', 'Helena Mattsson', 'Anya Monzikova', 'Keith Middlebrook', 'Margy Moore', 'Olivia Munn', 'Elon Musk', ""Bill O'Reilly"", 'Alejandro Patiño', 'Davin Ransom', 'Karim Saleh', 'Brian Schaeffer', 'Phillipe Simon', 'Jack White', 'Jenny Robinson', 'Melanie Brown', 'Krystal Ellsworth', 'Victoria Gracie', 'Gina Cantrell', 'Renee Herlocker', 'Jill Ann Pineda-Arnold', 'Sandy Colton', 'Annika Ihnat', 'Lindsay Dennis', 'Jennifer D. Johnson', 'Lindsay Rosenberg', 'Hannah Douglass', 'Brooke Long', 'Rachele Brooke Smith', 'Kylette Zamora', 'Nadine Ellis', 'Ayelet Ben-Shahar', 'John Ceallach', 'Katie Cleary', 'Ajarae Coleman', ""Timothy 'TJ' James Driscoll"", 'Jasmine Dustin', 'Sam Felman', 'Shakira Vanise Gamble', 'Paul Grace', 'Mark Kubr', 'Cameron Lee', 'Jee-Yun Lee', 'Mathew Lorenceau', 'Christopher Maleki', 'Bryan McCoy', 'Tony Nevada', 'Allison Ochmanek', 'Nicolas Pajon', 'Steven James Price', 'Tanoai Reed', 'Peter Trenholm Smith', 'Doug Swander', 'Peter Sebastian Wrobel', 'Nick W. Nicholson', 'Kristin Quick', 'Matt McColm', 'Seth Green']",2.86,2.5,"['Adventure', 'Science Fiction', 'Action']",124,['USA'],English,"['English', 'Russian', 'French']","['Marvel Studios', 'Fairview Entertainment', 'Marvel Entertainment']",1703369,192751,243120,504,7534,25994,29161,125180,128245,263394,117685,105850,14547,39592,857182,https://letterboxd.com/film/iron-man-2/
The Twilight Saga: New Moon,2009,Chris Weitz,"['Kristen Stewart', 'Robert Pattinson', 'Taylor Lautner', 'Dakota Fanning', 'Michael Sheen', 'Ashley Greene', 'Rachelle Lefevre', 'Billy Burke', 'Peter Facinelli', 'Elizabeth Reaser', 'Jackson Rathbone', 'Kellan Lutz', 'Nikki Reed', 'Edi Gathegi', 'Graham Greene', 'Gil Birmingham', 'Anna Kendrick', 'Michael Welch', 'Justin Chon', 'Christian Serratos', 'Jamie Campbell Bower', 'Christina Jastrzembska', 'Russell Roberts', 'Christopher Heyerdahl', 'Curtis Caravaggio', 'Daniel Cudmore', 'Charlie Bewley', 'Chaske Spencer', 'Adrien Dorval', 'Michael Adamthwaite', 'Alexander Mendeluk', 'Hunter Jackson', 'Gavin Bristol', 'Sean McGrath', 'Tyson Houseman', 'Kiowa Gordon', 'Alex Meraz', 'Bronson Pelletier', 'Tinsel Korey', 'Corinna Russo', 'Maria Grazia Pompei', 'Roberto Marchetti', 'Alessandro Federico', 'Justine Wachsberger', 'Cameron Bright', 'Noot Seear']",2.57,3.5,"['Romance', 'Adventure', 'Drama', 'Fantasy']",131,['USA'],English,"['English', 'Italian']","['Summit Entertainment', 'Temple Hill Entertainment', 'Maverick Films', 'Imprint Entertainment', 'Sunswept Entertainment']",903332,66081,117237,2900,20285,41022,29341,75931,46319,84917,31315,45139,8116,47269,429654,https://letterboxd.com/film/the-twilight-saga-new-moon/
Jennifer's Body,2009,Karyn Kusama,"['Megan Fox', 'Amanda Seyfried', 'Johnny Simmons', 'Adam Brody', 'J.K. Simmons', 'Amy Sedaris', 'Kyle Gallner', 'Chris Pratt', 'Cynthia Stevenson', 'Sal Cortez', 'Ryan Levine', 'Juan Riedinger', 'Colin Askey', 'Juno Rinaldi', 'Josh Emerson', 'Nicole Leduc', 'Aman Johal', 'Dan Joffre', 'Candus Churchill', 'Carrie Genzel', 'Emma Gallello', 'Megan Charpentier', 'Jeremy Schuetze', 'Valerie Tian', 'Emily Tennant', 'Karissa Tynes', 'Eve Harlow', 'Michael Brock', 'Genevieve Buechner', 'Adrian Hough', 'Gabrielle Rose', 'Michael Bean', 'Bill Fagerbakke', 'Marilyn Norry', 'Cut Chemist', 'Zoe LaLiberté', 'Chelsey Smith', 'Whitney Chow', 'Michael Orstad', 'Ronnie Robinson', 'Ed Anders', 'Roxanne Wong', 'Diane Dutra', 'Maya Toews', 'Andrea Baker', 'Lisa Breitman', 'Cathy Cavadini', 'Lanei Chapman', 'Vicki Davis', 'Jeff Fischer', 'Aaron Fors', 'Barbara Harris', 'Caryn Johnson', 'Jeremy Maxwell', 'David Michie', 'Levi Nunez', 'Paige Pollack', 'David J. Randolph', 'Roger Craig Smith', 'Joel Swetow', 'Andreana Weiner', 'Lennon Wynn', 'Diablo Cody', 'Lance Henriksen']",3.42,3.5,"['Horror', 'Comedy']",107,['USA'],English,"['English', 'Spanish']","['Fox Atomic', 'Dune Entertainment', 'Dubiecki/Novick/Reitman Productions']",1001453,177745,299768,13000,4944,12701,10861,40206,41395,122662,104574,153163,42134,104464,637104,https://letterboxd.com/film/jennifers-body/
Fast & Furious,2009,Justin Lin,"['Vin Diesel', 'Paul Walker', 'Michelle Rodriguez', 'Jordana Brewster', 'John Ortiz', 'Laz Alonso', 'Sung Kang', 'Tego Calderon', 'Gal Gadot', 'Don Omar', 'Jack Conley', 'Liza Lapira', 'Shea Whigham', 'Mirtha Michelle', 'Greg Cipes', 'Ron Yuan', 'Alejandro Patiño', 'Joe Hursley', 'Cesar Garcia', 'Brandon T. Jackson', 'Mousa Kraish', 'Neil Brown Jr.', 'Wilmer Calderon', 'J. J. Soria', 'Don Theerathada', 'Robert Miano', 'Luis Moncada', 'McCaleb Burnett', 'Greg Collins', 'Monique Gabriela Curnen', 'Jimmy Lin', 'Roger Fan', 'Brendan Wayne', 'Breon Ansley', 'Assaf Cohen', 'Loren Lazerine', 'Lou Beatty Jr.', 'Julian Starks', 'Christopher Gehrman', 'Marco Rodríguez', 'Naureen Zaim', ""Becky O'Donohue"", 'Alexandra Castro', 'Leigh Folsom Boyd', 'Jeff Lam', 'Gilbert J. Menchaca', 'Frank Miranda', 'Kristen DeLuca', 'Holly Weber', 'Bruna Rubio', 'Ashley Green Elizabeth', 'Valenzia Algarin', 'Liberty Cordova', 'Lexi Baxter', 'Christian Calloway', 'Jerald Garner', 'Meredith Giangrande', 'Victoria Gracie', 'Fatimah Hassan', 'Adrienne McQueen', 'Christina Neferis', 'Lindsay Rosenberg', 'Sharon Zeev']",2.83,2.0,"['Action', 'Crime', 'Thriller', 'Drama']",107,"['Japan', 'USA']",English,"['English', 'Spanish']","['dentsu', 'Universal Pictures', 'Relativity Media', 'Original Film', 'One Race']",393756,43490,44216,219,2048,6351,7798,29251,33276,62839,27532,22023,3094,10109,204321,https://letterboxd.com/film/fast-furious/
Confessions of a Shopaholic,2009,P.J. Hogan,"['Isla Fisher', 'Hugh Dancy', 'Krysten Ritter', 'Joan Cusack', 'John Goodman', 'John Lithgow', 'Kristin Scott Thomas', 'Fred Armisen', 'Leslie Bibb', 'Lynn Redgrave', 'Robert Stanton', 'Julie Hagerty', 'Nick Cornish', 'Wendie Malick', 'Clea Lewis', 'Stephen Guarino', 'Tuomas Hiltunen', 'Yoshiro Kono', 'John Salley', 'Lennon Parham', 'Christine Ebersole', 'Michael Panes', 'Kaitlin Hopkins', 'Katherine Sigismund', 'Alexandra Balahoutis', 'Elisabeth Riley', 'Madeleine Rockwitz', 'Tommy Davis', 'Andrew Serwer', 'Kelli Barrett', 'Kristen Connolly', 'Paloma Guzmán', 'Ilana Levine', 'Lenora May', 'Ed Crescimanni', 'Susan Blommaert', 'Jenn Harris', 'Matt Servitto', 'Jennifer Kim', 'Ginifer King', 'Steve Greenstein', 'Bill Corsair', 'Heidi Kristoffer', 'Claire Lautier', 'Brandi Burkhardt', 'Denicia Marie Jefferson', 'Renée Victor', 'Scott Evans', 'Asmeret Ghebremichael', 'Chris P. Bachman', 'Peter Kapetan', 'Jim Holmes', 'Claudia Rocafort', 'Molly Regan', 'Rose Rosconi', 'Robin E. Billson', 'Richard G. Batista', 'Maeve Yore', 'Ptolemy Slocum', 'Jenny Powers', 'Vinci Alonso', 'Jennifer Smith', 'Gonzalo Escudero', 'Tim Ware', 'Anjali Bhimani', 'Jonathan Tisch', 'Shonn Wiley', 'Brad Aldous', 'Annie Chadwick', 'Laurie Cole', 'Kara Jackson', 'Yadira Santana', 'Charles De La Rosa', 'Jordyn Taylor Wilsea', 'Harvey Waldman', 'Howard Samuelsohn', 'Marceline Hugot', 'Abby Lee', 'Caitlin McColl', 'Marie-Pierre Beausejour', 'Bea Miller', 'Peyton List', 'Izzy Palmieri', 'Ed Helms']",3.08,3.0,"['Romance', 'Comedy']",104,['USA'],English,"['English', 'Finnish']","['Touchstone Pictures', 'Jerry Bruckheimer Films']",263824,31324,41772,885,1203,3620,3351,12495,12769,31844,18498,21929,4340,14296,124345,https://letterboxd.com/film/confessions-of-a-shopaholic/
Twilight,2008,Catherine Hardwicke,"['Kristen Stewart', 'Robert Pattinson', 'Billy Burke', 'Peter Facinelli', 'Elizabeth Reaser', 'Cam Gigandet', 'Ashley Greene', 'Anna Kendrick', 'Nikki Reed', 'Taylor Lautner', 'Kellan Lutz', 'Jackson Rathbone', 'Michael Welch', 'Gil Birmingham', 'Justin Chon', 'Christian Serratos', 'José Zúñiga', 'Rachelle Lefevre', 'Edi Gathegi', 'Sarah Clarke', 'Matt Bushell', 'Gregory Tyree Boyce', 'Trish Egan', 'Ayanna Berkshire', 'Ned Bellamy', 'Bryce Flint-Sommerville', 'Solomon Trimble', 'Alexander Mendeluk', 'Hunter Jackson', 'Gavin Bristol', 'Sean McGrath', 'Katie Powers', 'Catherine Grimme', 'William Joseph Elk III', 'Victoria Geil', 'Stephenie Meyer', 'Rick Mora', 'Edward Stiner', 'Robert Zorn', 'Humberto Amor', 'Kristopher Hyatt', 'Sherry Nelson', 'Tyler Nordby', 'Trip Ross', 'Josh Turner', 'Maggie-Jo Turner']",2.91,1.5,"['Romance', 'Drama', 'Fantasy']",122,['USA'],English,['English'],"['Summit Entertainment', 'Temple Hill Entertainment', 'Maverick Films', 'Imprint Entertainment', 'Goldcrest', 'Twilight Productions']",1627642,141987,314218,21000,31350,63706,40428,117653,76165,167524,70371,108571,19785,153717,849270,https://letterboxd.com/film/twilight-2008/
Iron Man,2008,Jon Favreau,"['Robert Downey Jr.', 'Terrence Howard', 'Jeff Bridges', 'Gwyneth Paltrow', 'Leslie Bibb', 'Bill Smitrovich', 'Paul Bettany', 'Jon Favreau', 'Shaun Toub', 'Faran Tahir', 'Clark Gregg', 'Peter Billingsley', 'Sayed Badreya', 'Tim Guinee', 'Will Lyman', 'Tom Morello', 'Marco Khan', 'Daston Kalili', 'Ido Mor', 'Kevin Foster', 'Garret Noël', 'Eileen Weisinger', 'Ahmed Ahmed', 'Fahim Fazli', 'Gerard Sanders', 'Tim Rigby', 'Russell Richardson', 'Nazanin Boniadi', 'Thomas Craig Plumer', 'Robert Berkman', 'Stacy Stas Hurst', 'Lauren Scyphers', 'Frank Nyi', 'Marvin Jordan', 'Jim Cramer', 'Donna Evans', 'Reid Harper', 'Summer Kylie Remington', 'Ava Rose Williams', 'Vladimir Kubr', 'Callie Croughwell', 'Javan Tahir', 'Sahar Bibiyan', ""Patrick O'Connell"", 'Adam Harrington', 'Meera Simhan', 'Ben Newmark', 'Ricki Lander', 'Jeannine Kaspar', 'Sarah Cahill', 'Stan Lee', 'Justin Rex', 'Zorianna Kit', 'Lana Kinnear', 'Nicole Lindeblad', 'Masha Lund', 'Gabrielle Tuite', 'Tim Griffin', 'Joshua Harto', 'Micah A. Hauptman', 'James Bethea', 'Mike Cochrane', 'Flavia Manes Rossi', 'Samuel L. Jackson', 'Kristin J. Hooper']",3.69,4.5,"['Adventure', 'Science Fiction', 'Action']",126,['USA'],English,"['English', 'Persian (Farsi)', 'Urdu', 'Arabic']","['Marvel Studios', 'Marvel Entertainment', 'Fairview Entertainment']",2307512,241442,563436,4900,3129,10018,6193,41360,40986,223438,217143,402913,98309,166290,1209779,https://letterboxd.com/film/iron-man-2008/
What Happens in Vegas,2008,Tom Vaughan,"['Cameron Diaz', 'Ashton Kutcher', 'Rob Corddry', 'Lake Bell', 'Jason Sudeikis', 'Treat Williams', ""Deirdre O'Connell"", 'Michelle Krusiec', 'Dennis Farina', 'Zach Galifianakis', 'Queen Latifah', 'Krysten Ritter', 'Ricky Garcia', 'Andy Daly', 'Benita Robledo', 'Dennis Miller', 'Amanda Setton', 'Toni Busker', 'Jessica McKee', 'Ricardo Walker', 'Valerie Orlik', 'Ben Best', 'Clem Cheung', 'Eric Zuckerman', 'Caroline Willman', 'Tommy McGoldrick', 'Billy Eichner', 'Heather Kristin', 'Maddie Corman', 'Jerry V. Lindsay', 'Samantha Ridge', 'Richard M. Schaeffer', 'Michael P. Molnar', 'John Eisenberg', ""Ciaran T. O'Kelly"", 'Jennifer Trier', 'Michael Harkins', 'Patrick Knighton', 'Adam Zuniga', 'Aaron Nauta', 'Christopher Negrin', 'Brittany Dawn Beall', 'Ariel Shafir', 'Sheena Alonzo', 'Bradley Morone', 'Bob Golden', 'Ron Carter', 'Evan Palazzo', 'Jason Keith Davis', 'Ulysses Owens Jr.', 'Michael Rodoja', 'Jules Hartley', 'Maya Jenkins', 'Dave Gibson', 'Brian M. Wixson', 'Justin Flynn', 'Josh Tane', 'Russ Spiegel', 'Martinez Little', 'Darrell Reuben Hall', 'Joe Mancini', 'Beth Laufer', 'Harry Corrigan', 'Dennis Albanese', 'Matthew Martini', 'Cher Cosenza', 'Maria Di Angelis', 'Cassidy Gard', 'Meagan Gordon', 'Tex Allen', 'August Costa', 'Robert Gerrits', 'Ty Izquierdo', 'Adam Goodnoff Cernese', 'Delia Sheppard', 'Anna Elizabeth Kendrick', 'Lynn Witty', 'Kutcha', 'Hector Lincoln', 'Bob Pepper', 'Mauro Bossi', 'Charles Pendelton', 'Bruce Perkins', 'RJ Konner', 'Brandon Goins', 'Ronald E. Giles', 'Rosalind Lipsett', 'Myriam Blanckaert', 'Stephanie Domini', 'Audrey Fafard', 'Dalila Orozco', 'Vladimir Troitsky', 'Thomas Torrey', 'Jon Yvon', 'Ralph A. Wilburn Jr.', 'Tom Stratford', 'Charlotte Johnston', 'Mark Santomauro', 'Lanette Fugit Hannah', 'Nicole Dupre Sobchack', 'Sarah Poynter']",2.59,3.0,"['Comedy', 'Romance']",99,['USA'],English,"['English', 'Serbo-Croatian']","['Penn Station Entertainment', 'Regency Enterprises', '21 Laps Entertainment', 'Dune Entertainment III', 'Mosaic Media Group', '20th Century Fox', 'Monarchy Enterprises B.V.']",193561,17420,18011,141,1800,4966,5385,15716,14249,24033,9955,9550,1526,4875,92055,https://letterboxd.com/film/what-happens-in-vegas/
Superhero Movie,2008,Craig Mazin,"['Drake Bell', 'Sara Paxton', 'Christopher McDonald', 'Leslie Nielsen', 'Kevin Hart', 'Marion Ross', 'Ryan Hansen', 'Keith David', 'Brent Spiner', 'Robert Joy', 'Jeffrey Tambor', 'Ryan Stiles', 'Nicole Sullivan', 'Sam Cohen', 'Regina Hall', 'Marisa Lauren', 'Craig Bierko', 'Richard Tillman', 'Simon Rex', 'Dan Castellaneta', 'Atom Gorelick', 'Alison Woods', 'Eric Artell', 'Sean Simms', 'Pamela Anderson', 'Miles Fisher', 'Brian Carpenter', 'Vincent Larusso', 'Michael Papajohn', 'Anna Osceola', 'Rod McLachlan', 'John Getz', 'Charlene Tilton', 'Jenica Bergere', 'Byrne Offutt', 'Vic Polizos', 'Daryl J. Johnson', 'Kent Shocknek', 'Amanda Carlin', 'Clay Greenbush', 'Kurt Fuller', 'Seth McCook', 'Craig Mazin', 'Jonathan Chase', 'Kourtney Kaas', 'Karlton Johnson', 'Charles W. Gray', 'Wendy L. Walsh', 'Ian Patrick Williams', 'Elisabeth Noone', 'Aki Aleong', 'Howard Mungo', 'David McKnight', 'Freddie Pierce', 'Steve Monroe', 'Jerry Haleva', 'Jeremiah Hu', 'Matt Champagne', 'Susan Breslau', 'Nick Kiriazis', 'Aubrie Lemon', 'Ajay Mehta', 'Cameron Ali Sims', ""Lil' Kim"", 'Jordan Rubin', 'Shanna Beauchamp', 'James J. Burke', 'Kristen Endow', 'Timothy Farmer', 'Whitney Ann Jenkins', 'James Lew', 'Alan Mueting', 'Gene Richards', 'Marque Richardson', 'Thomas Rosales Jr.', 'Jeffry Tamara', 'Manu Toigo', 'Julie Van', 'Tracy Morgan']",2.12,4.0,"['Science Fiction', 'Action', 'Comedy']",75,['USA'],English,['English'],"['Dimension Films', 'Craig Mazin Company']",101153,8124,10712,118,5339,8523,6001,10377,7050,9209,4154,3704,784,2653,57794,https://letterboxd.com/film/superhero-movie/
Step Up 2: The Streets,2008,Jon M. Chu,"['Briana Evigan', 'Robert Hoffman', 'Will Kemp', 'Cassie Ventura', 'Adam Sevani', 'Black Thomas', 'Harry Shum Jr.', 'Channing Tatum', 'Kate Lacey', 'Alison Faulk', 'Sonja Sohn', 'Telisha Shaw', 'Danielle Polanco', 'Mari Koda', 'Hi-Hat', 'Delia Goncalvez', 'Christopher Scott', 'Janelle Cambridge', 'Kmel Howell', 'LaJon Dantzler', 'Luis Rosado']",2.92,2.0,"['Romance', 'Drama', 'Music']",98,['USA'],English,"['English', 'Russian']","['Touchstone Pictures', 'Summit Entertainment', 'Offspring Entertainment', 'Walt Disney Studios']",101686,8587,11556,280,619,1652,1739,5531,5548,11418,5097,5421,1016,3686,41727,https://letterboxd.com/film/step-up-2-the-streets/
Step Up,2006,Anne Fletcher,"['Channing Tatum', 'Jenna Dewan', 'Damaine Radcliff', 'Rachel Griffiths', 'Deirdre Lovejoy', 'Alyson Stoner', 'Drew Sidora', 'Josh Henderson', 'Heavy D', 'Ryan Sands', 'Frank Ferrara', 'Frank Herzog', ""De'Shawn Washington"", 'Mario', 'Tim Lacatena', 'Jane Beard', 'Richard Pelzman', 'Carlyncia S. Peck', 'DeLon Howell', 'Dominique Boyd', 'Reina Poindexter', 'Angelica Huesca', 'Anne Fletcher', 'Natalie Steinberg', 'Jamie Scott', 'Isaiah Washington', 'Jiehae Park', 'Sheila Cutchlow', 'John Leslie Wolfe', 'Karim Fawzy', 'Tom Quinn', 'Shiloh Monaco', 'Caitlin Kinney', 'Jeanne', 'Jeannie Ortega', 'Donald Rheubottom', 'Donald Waugh', 'Michael Seresin', 'Spencer Longmore', 'Adrienne Canterna', 'Oscar Campisi', 'Tara Ghassemieh', 'Nikkia Parish', 'Ryan Rankine', 'Emily Bicks', 'Whitney Brown', 'Ashley Canterna', 'Sara Cato', 'Caitlin Gold', 'Stephanie Jingle', 'Rebecca Mejia', 'Anthony Carr', 'Laura Edwards', 'Samantha Frampton', 'Antonio Hudnell', 'Julie Nelson', 'Samantha Zweben', 'Shawn Michelle Cosby', 'Melissa Emrico', 'Sabrina Furr', 'George Hubela', 'Jameson Perry', 'Ashley Phipps', 'Denise Piane', 'Sarah Satow', 'Jamal Sims', 'Adam Shankman', 'Zachary Woodlee', 'John Alix', 'Kellie Corbett', 'Lance Guillermo', 'Kirk Jennings', 'Monica Warr', 'Joanna Becker', 'Tony Devon', 'Kawan Kean', ""Chris O'Brocki"", 'Emily Peachey', 'Jennifer Rouse', 'Natasha Sattler', 'Noah Schaftel', 'Leo Christopher Sheridan', 'Thomas W. Stewart', 'JB Tadena', 'Eddy Shalita']",3.02,2.5,"['Romance', 'Crime', 'Drama', 'Music']",104,['USA'],English,['English'],"['Eketahuna LLC', 'Touchstone Pictures', 'Summit Entertainment', 'Offspring Entertainment']",204792,17286,23964,426,842,2405,2402,9638,10247,24719,11748,12884,2278,7374,84537,https://letterboxd.com/film/step-up/
The Fast and the Furious: Tokyo Drift,2006,Justin Lin,"['Lucas Black', 'Nathalie Kelley', 'Sung Kang', 'Shad Moss', 'Brian Tee', 'Leonardo Nam', 'Brian Goodman', 'Zachery Ty Bryan', 'Nikki Griffin', 'Jason Tobin', 'Keiko Kitagawa', 'Lynda Boyd', 'Sonny Chiba', 'Damien Marzette', 'Trula M. Marcus', 'Brandon Brendel', 'Daniel Booko', 'David V. Thomas', 'Amber Stevens West', 'Ashika Gogna', 'Vincent Laresca', 'Yoko Maki', 'Toshi Hayama', 'Atley Siauw', 'Kaila Yu', 'Aiko Tanaka', 'Satoshi Tsumabuki', 'Alden Ray', 'Konishiki', 'Caroline de Souza Correa', 'Silvia Šuvadová', 'Jimmy Lin', 'Shoko Nakagawa', 'Koji Kataoka', 'Trey Sanford', 'Christian Salazar', 'Danny Ray McDonald II', 'Joey Crumpton', 'Rie Shibata', 'Hiroshi Hatayama', 'Keiichi Tsuchiya', 'Kazutoshi Wadakura', 'Verena Mei', 'Mari Jaramillo', 'Mikiko Yano', 'Wendy Watanabe', 'Tina Tsunoda', 'Tak Kubota', 'Hidesuke Motoki', 'Toshio Ariki', 'Mitsuru Ôno', 'Mitsuki Koga', 'Vin Diesel', 'Britten Kelley', 'Kevin Ryan', 'Kazuki Namioka', 'Chris Astoyan', 'Tessa Bartholomew', 'April Betts', 'Ai Cherie', 'Willis Chung', 'Stacy Ross', 'Victoria Gracie', 'Jade Gzi', 'Elizabeth Hara', 'Bud Joseph Hebert', 'Alexis Hernandez', 'Jimmy Hsu', 'Harley Jay', 'Eunice Kiss', 'Tara Kredel', 'Sandra McCurdy', 'Chaoxiang Ming', 'Emmi Nakagawa', 'Tyler Nelson', 'Masami Okada', 'Sandy Velasco', 'Minn Vo', 'Stuart W. Yee', 'Joshua Collins']",3.08,4.0,"['Crime', 'Action', 'Drama', 'Thriller']",104,"['Germany', 'USA']",English,"['English', 'Japanese']","['MP Munich Pape Filmproductions', 'Original Film', 'Relativity Media', 'Universal Pictures']",508672,52556,90523,3600,3160,9007,10331,30147,31991,68898,46480,46064,11871,27545,285494,https://letterboxd.com/film/the-fast-and-the-furious-tokyo-drift/
Marie Antoinette,2006,Sofia Coppola,"['Kirsten Dunst', 'Jason Schwartzman', 'Steve Coogan', 'Judy Davis', 'Rip Torn', 'Asia Argento', 'Molly Shannon', 'Shirley Henderson', 'Rose Byrne', 'Mary Nighy', 'Danny Huston', 'Marianne Faithfull', 'Jamie Dornan', 'Tom Hardy', 'Al Weaver', 'Sebastian Armesto', 'Aurore Clément', 'Guillaume Gallienne', 'Jean-Christophe Bouvet', 'James Lance', 'André Oumansky', 'Io Bottoms', 'Céline Sallette', 'Clémentine Poidatz', 'Sarah Adler', 'Francis Leplay', 'Mathieu Amalric', 'Carlo Brandt', 'Alexia Landeau', 'Clara Brajtman', 'Mélodie Berenfeld', 'Katrine Boorman', 'Susan Graham', 'Jean-Paul Scarpitta', 'Lucien Rolland', 'Camille Micelli', 'Paul Fortune', 'Natasha Fraser-Cavassoni', 'Joe Sheridan', 'Jean-Marc Stehlé', 'Paul Jasmin', 'Raphaël Neal', 'John Arnold', 'Scali Delpeyrat', 'Chloé Van Barthold', 'Thomas Mars', ""Deck d'Arcy"", 'Laurent Brancowitz', 'Christian Mazzalai', 'Lauriane Mascaro', 'Gaëlle Bona', 'William Doherty', 'Florrie Betts', 'Dominic Gould', 'Jago Betts', 'Axel Küng', 'Driss Hugo-Kalff', 'Fabrice Scott', 'Alain Doutey', 'Bo Barrett', 'Joseph Malerba', 'Laurent Cotillard', 'Xavier Bonastre', 'Hamish Bowles', 'Khasan Brailsford', 'Jeanne Raimbault', 'Denzel Chisolm', 'Madison Clapp', 'Krystal Ellsworth', 'Isabelle Montoya', 'Sabine Glaser']",3.72,3.5,"['History', 'Drama']",123,"['France', 'Japan', 'Canada', 'USA']",English,"['English', 'French', 'Latin']","['Pricel', 'Columbia Pictures', 'TFC', 'American Zoetrope']",566029,106529,176366,12000,866,2698,2388,12202,15042,59274,66852,107950,34884,63053,365209,https://letterboxd.com/film/marie-antoinette-2006/
She's the Man,2006,Andy Fickman,"['Amanda Bynes', 'Channing Tatum', 'Laura Ramsey', 'Vinnie Jones', 'David Cross', 'Julie Hagerty', 'Robert Hoffman', 'Alexandra Breckenridge', 'Jonathan Sadowski', 'Amanda Crew', 'Jessica Lucas', 'Brandon Jay McLaren', 'Clifton MaCabe Murray', 'James Snyder', 'James Kirk', 'Emily Perkins', 'Robert Torti', 'Lynda Boyd', 'John Pyper-Ferguson', 'Katie Stuart', 'Colby Wilson', 'Jeffrey Ballard', 'Brenda McDonald', 'Patricia Idlette', 'Ken Kirby', 'Alberto Ghisi', 'David Richmond-Peck', 'Mark Acheson', 'Dee Jay Jackson', 'Barbara Kottmeier', 'Chad Krowchuk', 'Cassandra Sawtell', 'Stuart Cowan', 'Debbie Timuss', 'Michelle Brownlee', 'Mara Branscombe', 'Katharine Horsman', 'Alex Price', 'Natasha Gorrie', 'Deena Minichiello', 'Tania Saulnier', 'Melissa Robertson', 'Michelle Grigor', 'Aaron Young', 'Justin Carvery', 'Andrew Hutson', 'Luca Bellisome', 'Giovanni Valente', 'Ivan Estrada', 'Glen Krizek', 'Evan Turner', 'Daniel Rogic', 'Alvaro Picado', 'Brady Horvath', 'Ryan Horvath', 'C.J. Greenside', 'Devon Greenside', ""Chris D'Andrea"", 'Meysam Soltani', 'Struan Saddler', 'Andrew Reed', 'Luke Moger', 'Riyad Zuber', 'Jason Mosberian', 'Sofia Hidalgo', 'Deena Sparling', 'Melissa Howard', 'Nicola Elbro', 'Carly Barkley', 'Shannon McDonald', 'Daniel Colletti', 'Sandra-Jessica Couturier', 'Michael Kozak', 'Michael Logie', 'Doug Murray', 'Duncan Pattillo', 'Adrianna Spence', 'Celeste White Steele']",3.32,4.5,"['Comedy', 'Romance']",105,['USA'],English,['English'],"['Lakeshore Entertainment', 'DreamWorks Pictures', ""The Donners' Company""]",602232,75897,125232,4400,2221,5799,6036,22116,25430,70545,48017,64346,14943,50229,309682,https://letterboxd.com/film/shes-the-man/
Mr. & Mrs. Smith,2005,Doug Liman,"['Brad Pitt', 'Angelina Jolie', 'Vince Vaughn', 'Adam Brody', 'Kerry Washington', 'Keith David', 'Chris Weitz', 'Rachael Huntley', 'Michelle Monaghan', 'Stephanie March', 'Jennifer Morrison', 'Theresa Barrera', 'Perrey Reeves', 'Melanie Tolbert', 'Jerry T. Adams', 'Elijah Alexander', 'Hans F. Alexander', 'Lauryn Alvarez', 'Burke Armstrong', 'Ron Bottitta', 'Earl H. Bullock', 'Miguel Angel Caballero', 'Victor A. Chapa', 'Maree Cheatham', 'Laine Collins', 'Noah Dahl', 'Merrilee Dale', 'Chris Daniels', 'Patrika Darbo', 'Jennifer DeMille', 'Tyce Diorio', 'Patricia Donaldson', 'Sabi Dorr', 'Greg Ellis', 'David Escobedo', 'Kaela Freeman', 'Megan Gallagher', 'Amy Hathaway', 'Jessica Hedden', 'Kathrine Herzer', 'Nigel Hudson', 'Ravil Isyanov', 'Stephanie Ittleson', 'Mark Ivanir', 'Benton Jennings', 'Simon Kinberg', 'Peter Lavin', 'Deren Tadlock', 'Sean Mahon', 'Kevin Makely', 'Mike McCaul', 'Derek Medina', 'Will Moore', 'Joel Munoz', 'Mark Newsom', 'Richie Ornelas', 'Jordan Osher', 'Edward Padilla', 'Eugene C. Palmer', 'Luis Racer', 'Liz Ramos', 'Leonard Robinson', 'Felix A. Ruiz', 'Sam Sabbah', 'Kim Schioldan', 'Ty Sharp', 'Jimmy Shubert', 'Abigail Rose Solomon', 'Hannah Von Kanel', 'Ali Marsh', 'Kim H. Winther', 'Michael Winther', 'Michael-John Wolfe', 'Jeff Yagher', 'Bryan Anthony', 'Douglas Caldwell', 'R.J. Durell', 'Melissa Hurley', 'Jacqui Landrum', 'Carol Mack', 'Michael Morris', 'Gloria Rodriguez', 'Linda Kathleen Taylor', 'Anne Vardanian', 'Ara Vardanian', 'Luis Vasquez', 'John W. Woodruff', 'Angela Bassett', 'William Fichtner', 'David Block', 'John Branch', 'Julius Callahan', 'Shilo Frontierro', 'Lisa Gabriel', 'Tony Longo', 'Janelle Marra', 'Heather Petrone', 'Bill Viney', 'Hawk Younkins', 'Matt McColm', 'Mo Gallini']",3.18,3.0,"['Thriller', 'Drama', 'Action', 'Comedy']",119,"['Switzerland', 'USA']",English,"['English', 'Spanish']","['Regency Enterprises', 'New Regency Pictures', 'Summit Entertainment', 'Weed Road Pictures', 'Epsilon Motion Pictures', 'New Regency Productions', '20th Century Fox']",951976,54709,154482,2300,2573,8549,9062,41290,51588,142626,89972,86811,16866,40011,489348,https://letterboxd.com/film/mr-mrs-smith-2005/
Mean Girls,2004,Mark Waters,"['Lindsay Lohan', 'Rachel McAdams', 'Lizzy Caplan', 'Lacey Chabert', 'Amanda Seyfried', 'Daniel Franzese', 'Jonathan Bennett', 'Rajiv Surendra', 'Tim Meadows', 'Tina Fey', 'Ana Gasteyer', 'Neil Flynn', 'Amy Poehler', 'Ky Pham', 'Dwayne Hill', 'Diego Klattenhoff', 'Alexandra Stapley', 'Laura de Carteret', 'Molly Shanahan', 'Elana Shilling', 'Graham Kartna', 'Ely Henry', 'David Aherne', 'Ayo Agbonkpolo', 'Jonathan Malen', 'Jeff Moser', 'Danielle Nguyen', 'Miranda Edwards', 'Les Porter', 'Eve Crawford', 'Jack Newman', 'Michelyn Emelle', 'Bathsheba Garnett', 'Daniel DeSanto', 'Alisha Morrison', 'Chris Anton', 'Jan Caruana', 'Wai Choy', 'Julia Chantrey', 'Jacky Chamberlain', 'Olympia Lukis', 'Stefanie Drummond', 'Kristen Bone', 'Jessie Wright', 'Tyson Fennell', 'Stephan Dickson', 'Andreja Punkris', 'Noelle Boggio', 'Jordan Dawe', 'Nicole Crimi', 'Erin Norah Thompson', 'Dan Willmott', 'Michelle Hoffman', 'Valerie Casault', 'Sharron Matthews', 'Bruce Hunter', 'Jo Chim', 'Randi Lee Butcher', 'Erin Jarvis', 'Kaylen Christensen', 'Jill Morrison', 'David Sazant', 'Clare Preuss', 'Megan Millington', 'Tara Shelley', 'Shannon Todd', 'David Reale', 'Krysta Carter']",3.83,5.0,"['Comedy', 'Drama']",97,['USA'],English,"['English', 'Swahili', 'German', 'Vietnamese']","['Broadway Video', 'Paramount', 'M.G. Films']",2327764,188497,710903,19000,2420,6914,5552,32786,36973,196690,188865,399867,104270,336846,1311183,https://letterboxd.com/film/mean-girls/
13 Going on 30,2004,Gary Winick,"['Jennifer Garner', 'Mark Ruffalo', 'Judy Greer', 'Andy Serkis', 'Christa B. Allen', 'Sean Marquette', 'Alexandra Kyle', 'Kathy Baker', 'Phil Reeves', 'Lynn Collins', 'Sam Ball', 'Susan Egan', 'Marcia DeBonis', 'Kiersten Warren', 'Scout Taylor-Compton', 'Jim Gaffigan', 'Alex Black', 'Ashley Benson', 'Brie Larson', 'Brittany Curran', 'Renee Olstead', 'Kayla Hickson', 'Nick Olig', 'Steven Strozza', 'Maz Jobrani', 'Joe Grifasi', 'Mary Pat Gleason', 'Megan Lusk', 'Julia Roth', 'Sarah Loew', 'Philip Pavel', 'Robinne Lee', 'Benita Krista Nall', 'Catherine Combs', 'Gia Mantegna', 'Sydni Beaudoin', 'George Hine', 'Irena Violette', 'Ian Barford', 'Sara Swain', 'Corena Chase', 'Crystal Michelle', 'Nadine Ellis', 'Adrian Armas', 'Carmit Bachar', 'Tyce Diorio', 'Stacey Harper', 'Brandon Henschel', 'Kadee Sweeney', 'Kimberly Wyatt', ""Nancy O'Meara"", 'Tara Battani', 'Nicole Abisinio']",3.57,5.0,"['Comedy', 'Romance', 'Fantasy']",98,['USA'],English,['English'],"['Columbia Pictures', 'Revolution Studios', 'Thirteen Productions']",1103152,130464,288512,12000,1859,5531,5406,25670,30333,114752,95159,150712,37801,133114,600337,https://letterboxd.com/film/13-going-on-30/
Charlie's Angels: Full Throttle,2003,McG,"['Cameron Diaz', 'Drew Barrymore', 'Lucy Liu', 'Demi Moore', 'Bernie Mac', 'Justin Theroux', 'Robert Patrick', 'Crispin Glover', 'Shia LaBeouf', 'Luke Wilson', 'Matt LeBlanc', 'John Cleese', 'John Forsythe', 'Rodrigo Santoro', 'Robert Forster', ""Ja'net DuBois"", 'Yuen Cheung-Yan', 'Daxing Zhang', 'Bruce Comtois', 'Khin-Kyaw Maung', 'Tanoai Reed', 'Andrew Wilson', 'Eric Bogosian', 'Eve', 'Pink', 'Carrie Fisher', 'Zack Shada', 'Jennifer Gimenez', 'Kate Hendrickson', 'Josh Janowicz', 'Tommy Flanagan', 'Chris Pontius', 'Luke Massy', 'Big Boy', 'Anthony Griffith', 'Wayne Federman', 'Steve Hytner', 'Bob Stephenson', 'Shanti Lowry', 'Nadine Ellis', 'Cyia Batten', 'Staci B. Flood', 'Carmit Bachar', 'Béla Károlyi', 'Ricky Carmichael', 'Carey Hart', 'Chris Gosselaar', 'Jeremy McGrath', 'Mark Cotone', 'Melissa McCarthy', 'Ashley Olsen', 'Mary-Kate Olsen', 'Jaclyn Smith', 'Bruce Willis', 'Sven-Ole Thorsen', 'Joan Blair', 'Khristian Lupo', 'Matt McColm']",2.78,2.0,"['Comedy', 'Adventure', 'Action']",106,"['USA', 'Brazil']",English,"['English', 'Chinese', 'Spanish']","['Wonderland Sound and Vision', 'Tall Trees Productions', 'Flower Films', 'Columbia Pictures']",194623,16229,22403,466,1756,4818,5008,13873,11671,19448,8079,9398,1932,7090,83073,https://letterboxd.com/film/charlies-angels-full-throttle/
2 Fast 2 Furious,2003,John Singleton,"['Paul Walker', 'Tyrese Gibson', 'Eva Mendes', 'Cole Hauser', 'Ludacris', 'James Remar', 'Thom Barry', 'Michael Ealy', 'Mark Boone Junior', 'Devon Aoki', ""Roberto 'Sanz' Sanchez"", 'Mo Gallini', 'Edward Finlay', 'Jin Au-Yeung', 'Amaury Nolasco', 'Eric Etebari', 'John Cenatiempo', 'Neal H. Moritz', 'Troy Brown', 'Corey Michael Eubanks', 'Sammy Maloof', 'Troy Robinson', 'Sincerely A. Ward', 'Nievecita Dubuque', 'Mateo Herreros', 'Kerry Rossall', 'Marc Macaulay', 'Tony Bolano', 'Marianne M. Arreaga', 'Tara Carroll', 'Tamara Jones']",2.91,3.5,"['Action', 'Crime', 'Thriller']",108,"['Germany', 'USA']",English,"['English', 'Spanish']","['Ardustry Entertainment', 'Mikona Productions', 'Original Film', 'Universal Pictures']",462488,50764,70357,1800,2582,8407,10779,35363,36386,65794,34371,32260,7424,19945,253311,https://letterboxd.com/film/2-fast-2-furious/
The Princess Diaries,2001,Garry Marshall,"['Anne Hathaway', 'Julie Andrews', 'Heather Matarazzo', 'Caroline Goodall', 'Hector Elizondo', 'Robert Schwartzman', 'Erik von Detten', 'Patrick John Flueger', 'Sandra Oh', 'Mandy Moore', ""Sean O'Bryan"", 'Kathleen Marshall', 'Kimleigh Smith', 'Mindy Burbano', 'Elizabeth Gudenrath', 'Bianca Lopez', 'Tamara Levinson', 'Lenore Thomas', 'Erik Bragg', 'Meredith Shevory', 'Anita Marie Curran', 'Cassie Rowell', 'Todd Lowe', 'Joe Unitas', 'Joel McCrary', 'Clare Sera', 'Greg Lewis', 'Bonnie Aarons', 'Darwood Chung', 'Julie Paris', 'Jeff Michalski', ""Erin O'Reilly"", 'Steve Restivo', 'Brigitta Lauren', 'Jane Morris', 'Gary Combs', 'Marvin Braverman', 'Allan Kent', 'Robert Glaudini', 'Bill Ferrell', 'Joe Ross', 'Charles Guardino', 'Sparrow Heatley', 'Gwenda Perez', 'Barbara Marshall', 'Sam Denoff', 'Tracy Reiner', 'Daru Kawalkowski', 'Diane Frazen', 'Stanley Frazen', 'Barbara Nabozny', 'Ira Glick', 'Sol Rosenthal', 'Hope Alexander-Willis', 'Joe Allen Price', 'Willie Brown', 'Patrick Richwood', 'Terry Brown', 'James Brown Orleans', 'Rob Zylowski', 'Karl Makinen', 'Sunny Hawks', 'Kathy Garver', 'Erika Young', 'Ethan Sandler', 'Shan Elliot', 'Trey Carter', 'Bud Markowitz', 'Mark Thompson', 'Brian Phelps', 'Lily Marshall-Fricker', 'Sandra Taylor', 'Tom Hines', 'Nicholle Tom', 'Patrick Noonan', 'Ali Gage', 'John Moran', 'Tanya DiFrancesco', 'Shannon Wilcox', 'Tonje Larsgard', 'Rueben Grundy', 'Gwen Holloway', 'Lori Sigrist', 'Terri Sigrist', 'Andy Arness', 'René Auberjonois', 'Ned Brower', 'Jodi Essex', 'Larry Miller', 'Barry Ratcliffe', 'Craig Richards', 'Terry Wayne', 'Charlotte Marshall-Fricker']",3.63,3.5,"['Comedy', 'Family', 'Romance']",115,['USA'],English,['English'],"['Bottom of the Ninth Productions', 'Walt Disney Pictures', 'BrownHouse Productions']",1074069,105724,248895,5500,1372,4591,4262,20754,24264,94628,75329,134225,30117,121107,510649,https://letterboxd.com/film/the-princess-diaries/
Legally Blonde,2001,Robert Luketic,"['Reese Witherspoon', 'Luke Wilson', 'Selma Blair', 'Matthew Davis', 'Victor Garber', 'Jennifer Coolidge', 'Holland Taylor', 'Ali Larter', 'Jessica Cauffiel', 'Alanna Ubach', 'Osgood Perkins', 'Linda Cardellini', 'Bruce Thomas', 'Meredith Scott Lynn', 'Raquel Welch', 'Samantha Lemole', 'Kelly Nyks', 'Ted Kairys', 'Michael B. Silver', 'Kimberly McCullough', ""Shannon O'Hurley"", 'Greg Serano', 'Francesca P. Roberts', 'Lisa Arch', 'Natalie Barish', 'Cici Lau', 'Allyce Beasley', 'Kevin Cooney', 'Ted Rooney', 'David Moreland', 'Wayne Federman', 'James Read', 'Tane McClure', 'Niklaus Lange', 'Doug Spinuzza', 'Lisa K. Wyatt', 'Jason Christopher', 'Corinne Reilly', 'Victoria Mahoney', 'Lacey Beeman', 'Melissa Anne Young', 'Brody Hutzler', 'Chaney Kley', 'John Cantwell', 'Ondrea de Vincentis', 'Terence Michael', 'Nectar Rose', 'Jodi Harris', 'Patricia Kimes', 'Sasha Barrese', 'Kelly Driscoll', 'Elizabeth Matthews', 'Kennedy Stone', 'Moonie', 'Lily', 'John Kapelos', 'Richard Hillman']",3.77,5.0,"['Romance', 'Comedy']",96,['USA'],English,"['English', 'Portuguese']","['Metro-Goldwyn-Mayer', 'Marc Platt Productions']",1219822,127485,329996,11000,1568,4791,4036,20649,23899,104008,98574,183340,50037,153724,644626,https://letterboxd.com/film/legally-blonde/
The Fast and the Furious,2001,Rob Cohen,"['Paul Walker', 'Vin Diesel', 'Michelle Rodriguez', 'Jordana Brewster', 'Rick Yune', 'Chad Lindberg', 'Johnny Strong', 'Matt Schulze', 'Ja Rule', 'Ted Levine', 'Thom Barry', 'Vyto Ruginis', 'Stanton Rutledge', 'Noel Gugliemi', 'R.J. de Vera', 'Beau Holden', 'Reggie Lee', 'David Douglas', 'Peter Navy Tuiasosopo', 'Neal H. Moritz', 'Doria Anselmo', 'Glenn K. Ota', 'F. Valentino Morales', 'Mike White', 'Delphine Pacific', 'Monica Tamayo', 'Megan Baker', 'Tammy Monica Gegamian', 'Rob Cohen', 'Kevin Smith']",3.32,4.5,"['Action', 'Crime', 'Thriller']",106,"['Germany', 'USA']",English,['English'],"['Ardustry Entertainment', 'Universal Pictures', 'Original Film', 'Mediastream Film GmbH & Co. Productions KG']",683014,66078,121868,3800,2041,5948,5553,24635,31090,97044,71516,72350,14969,37507,362653,https://letterboxd.com/film/the-fast-and-the-furious-2001/
What Women Want,2000,Nancy Meyers,"['Mel Gibson', 'Helen Hunt', 'Marisa Tomei', 'Alan Alda', 'Ashley Johnson', 'Mark Feuerstein', 'Lauren Holly', 'Delta Burke', 'Valerie Perrine', 'Judy Greer', 'Sarah Paulson', 'Ana Gasteyer', 'Lisa Edelstein', 'Loretta Devine', 'Diana Maria Riva', 'Eric Balfour', 'Andrea Baker', 'Robin Pearson Rose', 'Christopher Emerson', 'Ashlee Turner', 'Sierra Pecheur', 'Joe Petcka', 'Brian Callaway', 'Coburn Goss', 'Christian Michel', 'Perry Cavitt', 'Crystal McKinney', 'Jeanne Marie Rice', 'Kathrin Middleton', 'Logan Lerman', 'Kelly Cooper', 'Palmer Davis', 'Katie Miller', 'Dana Waters', 'Gregory Cupoli', 'Alexondra Lee', 'Aviva Gale', 'Shirley Prestia', 'T.J. Thyne', 'Norman H. Smith', 'Audrey Wasilewski', 'Angela Oh', 'Robert Briscoe Evans', 'Chris Rolfes', 'Katie Kneeland', ""Jeanine O'Connell"", 'Kelley Hazen', 'Brooke Elliott', 'Kristina Martin', 'Harmony Rousseau', 'Lisa Long', 'Heidi Helmer', 'Marla Martensen', 'Sally Meyers Kovler', 'Ashley Quirico', 'Regan Rohde', 'Liz Tannebaum', 'LeShay N. Tomlinson', 'Cristine Rose', 'Arden Myrin', 'Rachel Duncan', 'Alex McKenna', 'Regiane Gorski', 'Juliandra Gillen', 'Lisa Anne Hillman', 'Tracy Pacheco', 'Jamie Gutterman', 'Maggie Egan', 'Juanita Jennings', 'Hallie Meyers-Shyer', 'Kate Asner', 'Caryn Greenhut', 'Jennifer Greenhut', 'Marnie Mosiman', 'Nnenna Freelon', 'Gil Hacohen', 'Nancy Monsarat', 'Jacqueline Thomas', 'Rory Byrne', 'Victoria Garcia-Kelleher', 'Gertrude Wong', 'Andi Eystad', 'Greg Bronson', 'Kira Coplin', 'Kiva Dawson', 'Elizabeth Friedman', 'Melanie Good', 'Drew Howerton', 'Kimberly Lyon', 'Krista McRoberts', 'Bette Midler', 'Andy Schofield', 'Nancy Sinclair', 'Melinda Songer', 'Lauren Stewart', 'Tracey Stone', 'Dean Teaster', 'Gena Vazquez', 'Nancy Wetzel']",2.76,3.0,"['Comedy', 'Romance']",127,['USA'],English,"['English', 'French']","['Paramount', 'Icon Productions', 'Wind Dancer Films']",166822,13137,14490,35,1591,3982,3934,11922,12860,22967,10630,7241,1038,2146,78311,https://letterboxd.com/film/what-women-want/
Charlie's Angels,2000,McG,"['Cameron Diaz', 'Drew Barrymore', 'Lucy Liu', 'Bill Murray', 'Sam Rockwell', 'Tim Curry', 'Kelly Lynch', 'Crispin Glover', 'John Forsythe', 'Matt LeBlanc', 'LL Cool J', 'Tom Green', 'Luke Wilson', 'Sean Whalen', 'Alex Trebek', 'Raliegh Wilson', 'Mark Ryan', 'Bobby Ore', 'Guy Oseary', 'Joe Duer', 'Matthew Frauman', 'Reggie Hayes', 'Melissa McCarthy', 'Bob Stephenson', 'Ned Bellamy', 'Raymond Patterson', 'Björn Flor', 'Gaven E. Lucas', 'Michael Barryte', 'Andrew Wilson', 'Branden Williams', 'Michiko Nishiwaki', 'Frank Marocco', 'Diesel Pfingsten', 'Jim Calloway', 'Kevin Grevioux', 'Michael Papajohn', 'Jim Palmer', 'Shawn Woods', 'Kenny Endoso', 'Tom Garner', 'Isaac C. Singleton Jr.', 'Paul Eliopoulos', 'Tim Gilbert', 'Al Goto', 'Steven Ito', 'Felipe Savahge', 'Mike Smith', 'Jerry Trimble', 'Kevin Stea', 'Ivana Bozilovic', 'Ariane Von Kamp', 'Karen McDougal', 'Heather Elizabeth Parkhurst', 'Yuen Cheung-Yan', ""Tony Stef'Ano""]",3.07,3.5,"['Thriller', 'Crime', 'Adventure', 'Comedy', 'Action']",98,['USA'],English,"['English', 'German', 'Finnish', 'Japanese', 'Cantonese']","['Columbia Pictures', 'Tall Trees Productions', 'Flower Films', 'Leonard Goldberg Productions']",442926,37020,64021,1400,2115,6915,6623,23771,23074,51421,26122,30792,6259,18551,195643,https://letterboxd.com/film/charlies-angels/
Toy Story 2,1999,John Lasseter,"['Tom Hanks', 'Tim Allen', 'Joan Cusack', 'Kelsey Grammer', 'Don Rickles', 'Jim Varney', 'Wallace Shawn', 'John Ratzenberger', 'Annie Potts', 'Wayne Knight', 'John Morris', 'Laurie Metcalf', 'Estelle Harris', 'R. Lee Ermey', 'Jodi Benson', 'Jonathan Harris', 'Joe Ranft', 'Andrew Stanton', 'Jeff Pidgeon', 'Jack Angel', 'Bob Bergen', 'Mary Kay Bergman', 'Sheryl Bernstein', 'Rodger Bumpass', 'Corey Burton', 'Rachel Davey', 'Debi Derryberry', 'Jessica Evans', 'Bill Farmer', 'Pat Fraley', 'Jess Harnell', 'John Lasseter', 'Nicolette Little', 'Sherry Lynn', 'Mickie McGowan', 'Phil Proctor', 'Jan Rabson', 'Carly Schroeder', 'Madylin Sweeten', 'Hannah Unkrich', 'Lee Unkrich', 'Andi Peters', 'Dave Foley', 'Frank Welker', 'Steven Weber']",3.93,5.0,"['Family', 'Animation', 'Comedy']",92,['USA'],English,['English'],['Pixar'],1837459,147873,373298,2900,1136,3868,2621,21993,21149,125680,119833,268909,94763,165175,825127,https://letterboxd.com/film/toy-story-2/
Fight Club,1999,David Fincher,"['Edward Norton', 'Brad Pitt', 'Helena Bonham Carter', 'Meat Loaf', 'Jared Leto', 'Zach Grenier', 'Holt McCallany', 'Eion Bailey', 'Richmond Arquette', 'David Andrews', 'George Maguire', 'Eugenie Bondurant', 'Christina Cabot', ""Sydney 'Big Dawg' Colston"", 'Rachel Singer', 'Christie Cronenweth', 'Tim DeZarn', 'Ezra Buzzington', 'Dierdre Downing-Jackson', 'Bob Stephenson', 'Charlie Dell', 'Rob Lanza', 'David Lee Smith', 'Joel Bissonnette', 'Evan Mirand', 'Robby Robinson', 'Lou Beatty Jr.', 'Thom Gossom Jr.', 'Valerie Bickford', 'Peter Iacangelo', 'Carl Ciarfalio', 'Stuart Blumberg', 'Todd Peirce', 'Mark Fite', 'Matt Winston', 'Joon Kim', 'Bennie Moore', 'Lauren Sánchez', 'Pat McNamara', 'Tyrone R. Livingston', 'Owen Masterson', 'David Jean Thomas', 'Paul Carafotes', 'Christopher John Fields', 'Anderson Bourell', 'Scotch Ellis Loring', 'Michael Shamus Wiles', 'Andi Carnick', 'Ed Kowalczyk', 'Leonard Termo', 'Van Quattro', 'Markus Redmond', 'Michael Girardin', 'Michael Arturo', 'Greg Bronson', 'Matt Cinquanta', 'Paul Dillon', 'Eddie Hargitay', 'Phil Hawn', 'Bruce Holman', 'Jawara', 'Baron Jay', 'Jim Jenkins', 'Kevin Scott Mack', 'Trey Ore', 'Louis Ortiz', 'Hugh Peddy', 'J.T. Pontino', 'Chad Randau', 'Marcio Rosario', 'Gregory Silva', 'Brian Tochi', 'Michael Zagst', 'Marc Cinquanta', 'Summer Moore']",4.27,3.5,['Drama'],139,"['Germany', 'USA']",English,['English'],"['Fox 2000 Pictures', 'Regency Enterprises', 'The Linson Company', '20th Century Fox', 'Taurus Film']",3644781,408050,1677758,111000,3453,9233,4471,30698,25333,169669,181631,698780,406518,978573,2508359,https://letterboxd.com/film/fight-club/
Notting Hill,1999,Roger Michell,"['Julia Roberts', 'Hugh Grant', 'Gina McKee', 'Tim McInnerny', 'Rhys Ifans', 'Emma Chambers', 'Hugh Bonneville', 'Richard McCabe', 'James Dreyfus', 'Dylan Moran', 'Roger Frost', 'Henry Goodman', 'Julian Rhind-Tutt', 'Lorelei King', 'John Shrapnel', 'Emily Mortimer', 'Dorian Lough', 'Sanjeev Bhaskar', 'Paul Chahidi', 'Matthew Whittle', 'Mischa Barton', 'Clarke Peters', 'Ann Beach', 'Samuel West', 'Tony Armatrading', 'Andy de la Tour', 'Rupert Procter', 'Maureen Hibbert', 'David Sternberg', 'Arturo Venegas', 'Phillip Manikum', 'Patrick Barlow', 'Yolanda Vazquez', 'Melissa Wilson', 'Emma Bernard', 'September Buckley', 'Dennis Matsuki', 'Alec Baldwin', 'Simon Callow', 'Omid Djalili', 'Matthew Modine', 'Taylor Murphy']",3.62,2.5,"['Comedy', 'Romance']",124,"['UK', 'USA']",English,['English'],"['Notting Hill Pictures', 'Bookshop Productions', 'PolyGram Filmed Entertainment', 'Working Title Films', 'Universal Pictures']",820530,106714,211681,12000,1567,4496,3963,19537,23884,89591,88670,131208,36622,81896,481434,https://letterboxd.com/film/notting-hill/
My Best Friend's Wedding,1997,P.J. Hogan,"['Julia Roberts', 'Dermot Mulroney', 'Cameron Diaz', 'Rupert Everett', 'Christopher Masterson', 'M. Emmet Walsh', 'Philip Bosco', 'Rachel Griffiths', 'Carrie Preston', 'Susan Sullivan', 'Raci Alexander', 'Jennifer Garrett', 'Kelleia Sheerin', 'Bree Turner', 'Cassie Creasy', 'Lucina Paquet', 'Aida Baggio', 'Shirley Kelly', 'George Bozonelos', 'Loretta Paoletti', 'Paul Giamatti', 'Paul Adelstein', 'Harry Shearer', 'Davenia McFadden', 'Chelcie Ross', 'Ray Uhler', 'Rose Abdoo', 'Joseph Sikora', 'Shale Marks', 'Phillip Ingram', 'JoBe Cerny', 'Charlie Trotter', 'Guillermo Téllez', 'Ned Schmidtke', 'Mark Swenson', 'Mara Casey', 'Tonray Ho', 'Michelle Hutchison', 'Robert Sutter', 'Charlotte Zucker', 'Susan Breslau', 'Burton Zucker', 'Sharon Haight', 'Nydia Rodriguez Terracina', 'Mike Bacarella', 'Larry Santori', 'Gene Janson', 'Kevin Michael Doyle', 'Scott Kuhagen', 'Sid Hillman', 'Norman Merrill', 'Renata Scott', 'Anh Duong', 'Jennifer McComb', 'Mary-Pat Green', 'Jo Farkas', 'Stephanie Burton', 'Kathi Copeland', 'Amy Danles', 'Jeff Dlugolecki', 'Reese Foster', 'Kristi Gescheidler', 'Patricia E. Harrington', 'Jerod Howard', 'Chris Lowe', 'Debbie Marks', 'Molly Murphy', 'Eric A. Pot', 'Dominic Paolo Testa', 'Robert Velo', 'Johnny White', 'Niko El Santo Zavero']",3.18,3.5,"['Comedy', 'Romance']",105,['USA'],English,"['English', 'French', 'Italian']","['TriStar Pictures', 'Zucker Brothers Productions', 'Predawn Productions']",279039,40444,48254,1600,1205,3226,3192,12943,15421,41861,27715,27671,5752,14273,153259,https://letterboxd.com/film/my-best-friends-wedding/
Toy Story,1995,John Lasseter,"['Tom Hanks', 'Tim Allen', 'Don Rickles', 'Jim Varney', 'Wallace Shawn', 'John Ratzenberger', 'Annie Potts', 'John Morris', 'Erik von Detten', 'Laurie Metcalf', 'R. Lee Ermey', 'Sarah Freeman', 'Penn Jillette', 'Jack Angel', 'Spencer Aste', 'Greg Berg', 'Lisa Bradley', 'Kendall Cunningham', 'Debi Derryberry', 'Cody Dorkin', 'Bill Farmer', 'Craig Good', 'Gregory Grudt', 'Danielle Judovits', 'Sam Lasseter', 'Brittany Levenbrown', 'Sherry Lynn', 'Scott McAfee', 'Mickie McGowan', ""Ryan O'Donohue"", 'Jeff Pidgeon', 'Patrick Pinney', 'Phil Proctor', 'Jan Rabson', 'Joe Ranft', 'Andrew Stanton', 'Shane Sweet', 'John Lasseter', 'Jonathan Benair', 'Anthony Burch', 'Tracy Fraim']",4.13,4.5,"['Comedy', 'Animation', 'Family', 'Adventure']",81,['USA'],English,['English'],['Pixar'],2561006,204939,653309,6800,1417,4625,2363,19734,17244,133616,130923,411311,154273,358967,1234473,https://letterboxd.com/film/toy-story/
Pretty Woman,1990,Garry Marshall,"['Richard Gere', 'Julia Roberts', 'Ralph Bellamy', 'Jason Alexander', 'Laura San Giacomo', 'Alex Hyde-White', 'Amy Yasbeck', 'Elinor Donahue', 'Hector Elizondo', 'Judith Baldwin', 'Jason Randal', 'Bill Applebaum', 'Tracy Bjork', 'Gary Greene', 'Billy Gallo', 'Abdul Salaam El Razzac', 'Hank Azaria', 'Larry Hankin', 'Julie Paris', 'Rhonda Hansome', 'Harvey Keenan', 'Marty Nadler', 'Lynda Goodfriend', 'Reed Anthony', 'Frank Campanella', ""Jackie O'Brien"", 'Cheri Caspari', 'Scott Marshall', 'Patrick Richwood', 'Kathleen Marshall', 'Laurelle Mehus', 'Don Feldstein', 'Marvin Braverman', 'Al Sapienza', 'Jeff Michalski', 'James Patrick Stuart', 'Lloyd T. Williams', 'R. Darrell Hunter', 'James Patrick Dunne', 'Valorie Armstrong', 'Steve Restivo', 'Rodney Kageyama', 'Douglas Stitzel', 'Larry Miller', 'Dey Young', 'Shane Ross', 'Carol Williard', 'Minda Burr', 'Robyn Peterson', 'Mariann Aalda', 'RC Everbeck', 'Michael French', 'Allan Kent', 'Stacy Keach, Sr.', 'Lucinda Crosby', 'Nancy Locke', 'Calvin Remsberg', 'Lloyd Nelson', 'Norman Large', 'Tracy Reiner', 'Tom Nolan', 'John David Carson', 'Daniel Bardol', 'Karin Calabro', 'Bruce Eckstut', 'Amzie Strickland', 'Mychael Bates', 'Gary Bohn', 'Paul Bradley', 'Robert Buckingham', 'Selby Dessner', 'Rio Hackford', 'Robert Liguori', 'Garry Marshall', 'Charles Minsky', 'Blair Richwood', 'Randall Rutledge', 'John Simone']",3.62,3.5,"['Romance', 'Comedy']",119,['USA'],English,['English'],"['Touchstone Pictures', 'Silver Screen Partners IV', 'Regency Enterprises', 'Arnon Milchan Productions']",866662,96548,202345,7000,1461,3940,3426,17603,23037,93458,91132,131351,32136,82457,480001,https://letterboxd.com/film/pretty-woman/
