Film_title,Release_year,Director,Cast,Average_rating,Owner_rating,Genres,Runtime,Countries,Original_language,Spoken_languages,Studios,Watches,List_appearances,Likes,Fans,½,★,★½,★★,★★½,★★★,★★★½,★★★★,★★★★½,★★★★★,Total_ratings,Film_URL
Mean Girls,2024,"Arturo Perez Jr., Samantha Jayne","['Angourie Rice', 'Reneé Rapp', ""Auli'i Cravalho"", 'Jaquel Spivey', 'Avantika Vandanapu', 'Bebe Wood', 'Christopher Briney', 'Jenna Fischer', 'Busy Philipps', 'Tina Fey', 'Tim Meadows', 'Lindsay Lohan', 'Jon Hamm', 'Ashley Park', 'Connor Ratliff', 'Mahi Alam', 'John El-Jor', 'Brian Altemus', 'Megan Thee Stallion', 'Ben Wang', 'Alexis Frias', 'Isabella Bria Lopez', 'Morgen McKynzie', 'Veronica S. Taylor', 'Stephanie Mincone', 'Gabriella Cila', 'Jordan Gallimore', 'Ari Notartomaso', 'Camille Umoff', 'Kaylee Kaleinani', 'Allison Winn', 'Ben Heineman', 'Fernell Hogan', 'Calidore Robinson', 'Sofia Dobrushin', 'Grant Harrison Mateo', 'Amann Iqbal', 'Nahscha', 'Gage Roark', 'Soona Lee-Tolley', 'Janna Graham', 'Matilde Heckler', 'Francesca Castro', 'Nuri Park', 'Grace Slear', 'Izzy Bank', 'Kayla LaVine', 'James Jones', 'Garid Garcia', 'Jake Schwencke', 'Ellena Eshraghi', 'Kelsie Daniels', 'Elizabeth Witek', 'Alexandra Witek', 'Brooke Johnson', 'Meredith Dunbar', 'Hank Pekarsky', 'Sri', 'Veronica Merrell-Burriss', 'Vanessa Merrell', 'Jordi', 'Énola Bédard', 'Nia Sioux', 'Emely Moreno', 'Jazz Jennings', 'Pierson Wodzynski', 'Mars Avila', 'Alan Chow', 'Chris Olsen', 'Bailey B. Angelski', 'Joshua M. Baer', 'Caitlin M. Beecham', 'Samantha R. Borsari', 'Briannon E. Bowman', 'Ian A. Boyce', 'Daniela Cassano', 'Danielle K. Catalano', 'Ismael Chino', 'Gianna M. Cologna', 'Jason L. DeGroff', 'Kaylin E. DeGroff', 'Joshua P. Doody', 'Christiana J. Doyle', 'Calysta R. Eachus', 'Kasey L. Ericson', 'Timothy S. Fletcher', 'Orlando A. Galazara', 'Cameron T. Garde', 'Sean G. Haight', 'Ryan J. Horgan', 'Teresa Kissel', 'Christopher J. Lucey', 'Megan A. Macneil', 'Malachi I. McLean', 'Colin J. McTernan', 'Julien F. Miller', 'Lauren M. Molfetta', 'Meryem G. Oldro', 'Connor D. Paul', 'Victoria G. Russo', 'Olivia C. Tona', 'Anthony M. Varbaro', 'Nico A. Varone', 'Thomas R. Wilson', 'Eric Patrick Cameron']",2.71,3.0,['Comedy'],113,['USA'],English,['English'],"['Little Stranger', 'Broadway Video', 'Paramount']",423283,64667,93885,564,9437,18252,16568,46982,48491,88880,56977,50271,11309,23058,370225,https://letterboxd.com/film/mean-girls-2024/
Wonka,2023,Paul King,"['Timothée Chalamet', 'Calah Lane', 'Keegan-Michael Key', 'Hugh Grant', 'Paterson Joseph', 'Olivia Colman', 'Tom Davis', 'Jim Carter', 'Rowan Atkinson', 'Matt Lucas', 'Mathew Baynton', 'Natasha Rothwell', 'Rakhee Thakrar', 'Rich Fulcher', 'Kobna Holdbrook-Smith', 'Simon Farnaby', 'Ellie White', 'Sally Hawkins', ""Colin O'Brien"", 'Freya Parker', 'Murray McArthur', 'Charlotte Ritchie', 'Phil Wang', 'Rufus Jones', 'Isy Suttie', 'Ian Bartholomew', 'Sophie Winkleman', 'Justin Edwards', 'Michael Abubakar', 'Tim Fitzhigham', 'Jane Bertish', 'Tracy Ifeachor', 'Dominic Coleman', 'Muzz Khan', 'Ben Howard', 'Alison Pargeter', 'Bleu Woodward', 'Paul G. Raymond', 'Lola Shepelev', 'Marina Bye', 'Robyn Rose', ""Millie O'Donnell"", 'Susie Fairfax', 'Macie Blake', 'Ellie Blake', 'Matilda Tucker', 'Bertie Caplan', 'Gustave Die']",3.28,5.0,"['Comedy', 'Fantasy', 'Family']",117,"['UK', 'USA']",English,['English'],"['Warner Bros. Pictures', 'Village Roadshow Pictures', 'The Roald Dahl Story Company', 'Heyday Films', 'Domain Entertainment']",976566,129611,259674,1800,6744,15346,12674,52450,64033,190188,176991,200338,47753,68788,835305,https://letterboxd.com/film/wonka/
Poor Things,2023,Yorgos Lanthimos,"['Emma Stone', 'Mark Ruffalo', 'Willem Dafoe', 'Ramy Youssef', 'Christopher Abbott', 'Suzy Bemba', 'Jerrod Carmichael', 'Kathryn Hunter', 'Vicki Pepperdine', 'Hanna Schygulla', 'Margaret Qualley', 'Jack Barton', 'Charlie Hiscock', 'Attila Dobai', 'Emma Hindle', 'Anders Grundberg', 'Attila Kecskeméthy', 'Jucimar Barbosa', 'Carminho', 'Angela Paula Stander', 'Gustavo Gomes', 'Kate Handford', 'Owen Good', 'Zen Joshua Poisson', 'Vivienne Soan', 'Jerskin Fendrix', 'István Göz', 'Bruna Asdorian', 'Tamás Szabó Sipos', 'Tom Stourton', 'Mascuud Dahir', 'Miles Jovian', 'Jeremy Wheeler', 'János Geréb', 'Patrick de Valette', 'Raphaël Thiéry', 'Boris Gillot', 'Dorina Kovács', 'Yorgos Stefanakos', 'Hubert Benhamdine', 'Laurent Borel', 'Gábor Patay', 'Laurent Winkler', 'Andrew Hefler', 'Damien Bonnard', 'Noah Breton', 'Donovan Fouassier', 'Wayne Brett', 'John Locke', 'Keeley Forsyth', 'David Bromley', 'Celina Schleicher', 'Roderick Hill']",4.06,4.0,"['Romance', 'Science Fiction', 'Comedy']",142,"['Ireland', 'UK', 'USA']",English,"['English', 'French', 'Portuguese']","['Searchlight Pictures', 'Film4 Productions', 'TSG Entertainment', 'Element Pictures', 'Limp', 'Fruit Tree']",1656832,322123,656766,23000,10070,14400,9502,33057,34248,104782,145894,396132,303708,385504,1437297,https://letterboxd.com/film/poor-things-2023/
Saltburn,2023,Emerald Fennell,"['Barry Keoghan', 'Jacob Elordi', 'Rosamund Pike', 'Richard E. Grant', 'Alison Oliver', 'Archie Madekwe', 'Carey Mulligan', 'Paul Rhys', 'Ewan Mitchell', 'Sadie Soverall', 'Richard Cotterell', 'Millie Kent', 'Will Gibson', 'Tasha Lim', 'Aleah Aberdeen', 'Matthew Carver', 'Reece Shearsmith', 'Gabriel Bisset-Smith', 'Saga Spjuth-Säll', 'Glyn Grimstead', 'Joshua Samuels', 'Julian Lloyd Patten', 'Olivia Hanrahan-Barnes', 'Lolly Adefope', 'Joshua McGuire', 'Dorothy Atkinson', 'Shaun Dooley', 'Tomás Barry', 'Andy Brady']",3.43,3.0,"['Comedy', 'Drama', 'Thriller']",131,"['UK', 'USA']",English,['English'],"['LuckyChap Entertainment', 'MRC', 'Lie Still']",1987572,212658,580137,12000,12725,28690,24843,97411,110631,313477,307195,453727,145711,203476,1697886,https://letterboxd.com/film/saltburn/
Barbie,2023,Greta Gerwig,"['Margot Robbie', 'Ryan Gosling', 'America Ferrera', 'Ariana Greenblatt', 'Issa Rae', 'Kate McKinnon', 'Alexandra Shipp', 'Emma Mackey', 'Hari Nef', 'Sharon Rooney', 'Ana Cruz Kayne', 'Ritu Arya', 'Dua Lipa', 'Nicola Coughlan', 'Emerald Fennell', 'Simu Liu', 'Kingsley Ben-Adir', 'Ncuti Gatwa', 'Scott Evans', 'John Cena', 'Michael Cera', 'Rhea Perlman', 'Helen Mirren', 'Will Ferrell', 'Connor Swindells', 'Jamie Demetriou', 'Andrew Leung', 'Will Merrick', 'Zheng Xi Yong', 'Asim Chaudhry', 'Ray Fearon', 'Erica Ford', 'Hannah Khalique-Brown', 'Mette', 'Marisa Abela', 'Lucy Boynton', 'Rob Brydon', 'Tom Stourton', 'Chris Taylor', 'David Mumeni', 'Olivia Brody', 'Isla Ashworth', 'Eire Farrell', 'Daisy Duczmal', 'Genvieve Toussaint', 'Isabella Nightingale-Mercado', 'Millie-Rose Crossley', 'Anvita Nehru', 'Kayla-Mai Alvares', 'Luke Mullen', 'Patrick Luwis', 'Mac Brandt', 'Paul Jurewicz', 'Oraldo Austin', 'Benjamin Arthur', 'Carlos Jacott', 'Adam Ray', 'George Basil', 'Ptolemy Slocum', 'Deb Hiett', 'James Leon', 'Oliver Vaquer', 'Tony Noto', 'Christopher T. Wood', 'Ann Roth', 'Annie Mumolo', 'Elise Gallup', 'McKenna Roberts', 'Brylee Hsu', 'Sasha Milstein', 'Lauren Holt', 'Sterling Jones', 'Ryan Piers Williams', 'Jamaal Lewis', 'Kathryn Akin', 'Grace Jabbari', 'Ira Mandela Siobhan', 'Lisa Spencer', 'Naomi Weijand', 'Tom Clark', 'Ireanne Abenoja', 'Davide Albonetti', 'Charlotte Anderson', 'Michael Anderson', 'Rico Bakker', 'James Bamford', 'William John Banks', 'Callum Bell', 'Adam Blaug', 'Mason Boyce', 'Taylor Bradshaw', 'Alex Brown', 'Miekaile Browne', 'Lewis Calcutt', 'Nikkita Chadha', 'Oliver Chapman', 'Megan Charles', 'Callum Clack', 'Danny Coburn', 'Kat Collings', 'Adam Crossley', 'Sia Dauda', 'Gustave Die', 'Grace Durkin', 'Joelle Dyson', 'Lewis Easter', 'Onyemachi Ejimofor', 'Cameron Everitt', 'Luke Field-Wright', 'Sasha Flesch', 'Adam Fogarty', 'Michael John French', 'Anna-Kay Gayle', 'Charlie Goddard', 'Marlie Goddard', 'Ellis Harman', 'Yasmin Harrison', 'Josh Hawkins', 'James Healy', 'Tim Hodges', 'Mira Jebari', 'Beccy Jones', 'Thomas Kalek', 'Lily Laight', 'Maiya Leeke', 'Cristian Liberti', 'Prodromos Marneros', 'Nahum McLean', 'Jordan Melchor', 'Ramzan Miah', 'Andy Monaghan', 'Florivaldo Mossi', 'Hannah Nazareth', 'Grant Neal', 'Freja Nicole', 'Shaun Niles', 'Ella Nonini', 'Jack William Parry', 'Josie Pocock', 'Barnaby Quarendon', 'Redmand Rance', 'Zara Richards', 'Liam Riddick', 'Alana Rixon', 'Adam Paul Robertson', 'Kingdom Sibanda', 'Sebastian Skov', 'Aaron J. Smith', 'Joshua Smith', 'Lucia-Rose Sokolowski', 'Janine Somcio', 'Alex Sturman', 'Callum Sterling', 'Todd Talbot', 'Charles Tatman', 'Grant Thresh', 'Connor Tidman', 'Wahchi Vong', 'Jerry Wan', 'Sasha Wareham', 'Stan West', 'Oliver Wheeler', 'Josh Wild', 'Joe Wolstenholme', 'Richard Womersley', 'Ashley Young']",3.87,4.0,"['Comedy', 'Adventure']",114,"['UK', 'USA']",English,['English'],"['LuckyChap Entertainment', 'Heyday Films', 'NB/GG Pictures', 'Mattel', 'Warner Bros. Pictures']",3560336,442618,1544283,26000,12176,26021,17459,86339,92574,372200,386650,808717,342058,765946,2910140,https://letterboxd.com/film/barbie/
John Wick: Chapter 4,2023,Chad Stahelski,"['Keanu Reeves', 'Donnie Yen', 'Bill Skarsgård', 'Ian McShane', 'Laurence Fishburne', 'Lance Reddick', 'Clancy Brown', 'Hiroyuki Sanada', 'Rina Sawayama', 'Scott Adkins', 'Aimée Kwan', 'Marko Zaror', 'Natalia Tena', 'Shamier Anderson', 'George Georgiou', 'Yoshinori Tashiro', 'Hiroki Sumi', 'Daiki Suzuki', 'Julia Asuka Riedl', 'Milena Rendón', 'Ivy Quainoo', 'Irina Trifanov', 'Iryna Fedorova', 'Andrej Kaminsky', 'Sven Marquardt', 'Raicho Vasilev', 'Marie Pierra Kakoma', 'Gina Aponte', 'Christoph Hofmann']",3.93,3.5,"['Action', 'Thriller', 'Crime']",170,"['Germany', 'USA']",English,"['English', 'Arabic', 'Cantonese', 'French', 'German', 'Japanese', 'Latin', 'Russian', 'Spanish']","['Thunder Road', '87Eleven', 'Summit Entertainment', 'Studio Babelsberg']",745175,164099,260343,3500,1782,4184,3515,14533,18419,63384,87805,185076,106730,109090,594518,https://letterboxd.com/film/john-wick-chapter-4/
Talk to Me,2022,"Michael Philippou, Danny Philippou","['Sophie Wilde', 'Alexandra Jensen', 'Joe Bird', 'Otis Dhanji', 'Miranda Otto', 'Zoe Terakes', 'Chris Alosio', 'Marcus Johnson', 'Alexandria Steffensen', 'Ari McCarthy', 'Sunny Johnson', 'James Oliver', 'Cass Cumerford', 'Jett Gazley', 'Kitt Erhart-Bruce', 'Hamish Phillips', 'Kidaan Zelleke', 'Sarah Brokensha', 'Jayden Davison', 'Jodie Dry', 'Frances Cassar', 'Kelly Butler', 'Ava Stenta', 'Harli Ames', 'Leeanna Walsman', 'Kerry Reid', 'Robin Northover', 'Jacek Koman', 'Helene Philippou', 'Jude Turner', 'Zac Scott', 'Jess Kuss', 'David Roberts', 'Demi Van Kasteren', 'Pia Gillings', 'Oscar Wangel', 'Courtlan Gordan', 'Louisa Giameos', ""Jem O'Callaghan"", 'Joe Romeo', 'Alex Noel McCarthy', 'Charlie Morkunas', 'Patricia Haycock', 'Murray Haycock', 'Catherine Purling', 'Nicola Thiele', 'David Simmons', 'Joseph House Baker', 'Alice Scheid', 'Anita Kimber', 'Ben Bullock', 'Brian Godfrey', 'Cooper Duncan', 'Daniel Pitt', 'Danielle Ruggiero-Prior', 'Dylan Warren', 'Emily Fogg', 'Emily Gun', 'Jason Moore', 'Jessica Homewood', 'Kate Portus', 'Lelum Rathnayake', 'Matt Goldwyn', 'Michael Gilmore', 'Philip Maynard', 'Sarah Baber', 'Saravjit Singh', 'Shadrack Kamau', 'Thomas Gardner', 'Mark Duncan', 'Ella Fenwick', 'Michael Harpas', 'Nikolas Gelios', 'Alex Philippou', 'Con Lipapis', 'Con Patelias', 'Louis Vavaroutsos', 'Uncle Mars', 'Nick Lipapis', 'KSI', 'Simon Minter', 'Harry Lewis', 'Josh Bradley', 'Ethan Payne', 'Vikram Barn', 'Tobi Brown']",3.56,4.0,"['Horror', 'Thriller']",95,"['Australia', 'UK']",English,"['English', 'Greek (modern)']","['Causeway Films', 'Metrol Technology', 'Screen Australia', 'South Australian Film Corporation', 'Bankside Films', 'Head Gear Films', 'Adelaide Film Festival Investment Fund']",851945,162718,256071,2200,3168,6690,6524,26259,36340,120528,164436,235712,68133,63568,731358,https://letterboxd.com/film/talk-to-me-2022/
Glass Onion,2022,Rian Johnson,"['Daniel Craig', 'Edward Norton', 'Janelle Monáe', 'Kathryn Hahn', 'Leslie Odom Jr.', 'Kate Hudson', 'Dave Bautista', 'Jessica Henwick', 'Madelyn Cline', 'Noah Segan', 'Jackie Hoffman', 'Dallas Roberts', 'Stephen Sondheim', 'Angela Lansbury', 'Natasha Lyonne', 'Kareem Abdul-Jabbar', 'Serena Williams', 'Yo-Yo Ma', 'Jacek Czajka', 'Dan Chariton', 'Eddie Gorodetsky', 'Coco Shinomiya', 'Dilcia Barrera', 'Mark Newman', 'Adam Davenport', 'Lauren Ivy', ""Momčilo 'Momo' Pićurić"", 'N.J. Gentry', 'Ali Goksoy', 'James Payton', 'T. Florian Karnowski', 'Jake Tapper', 'Panagiotis Margetis', 'Adele Franck', 'Ethan Hawke', 'Hugh Grant', 'Joseph Gordon-Levitt']",3.45,3.5,"['Comedy', 'Crime', 'Mystery']",140,['USA'],English,['English'],['T-Street'],2120708,186702,608570,1500,6545,22354,16820,93429,97899,347517,323556,451549,123007,121741,1604417,https://letterboxd.com/film/glass-onion/
Business Proposal,2022,Park Seon-ho,"['Ahn Hyo-seop', 'Kim Se-jeong', 'Kim Min-gue', 'Seol In-a', 'Lee Duck-hwa', 'Kim Kwang-kyu', 'Jung Young-ju', 'Kim Hyun-sook', 'Song Won-seok', 'Choi Byung-chan', 'Im Gi-hong', 'Yun Sang-jeong', 'Bae Woo-hee', 'Seo Hye-won']",3.93,4.5,"['Comedy', 'Drama']",732,['South Korea'],Korean,['Korean'],"['Studio S', 'Kross Pictures', 'Kakao Entertainment']",42537,7955,15032,254,73,122,109,486,725,3147,3859,8784,3414,10512,31231,https://letterboxd.com/film/business-proposal/
Twenty Five Twenty One,2022,Jung Jee-hyun,"['Kim Tae-ri', 'Nam Joo-hyuk', 'Bona', 'Choi Hyun-wook', 'Lee Joo-myung', 'Kim Hye-eun', 'Choi Myeong-been', 'Joo Bo-young', 'Choi Min-yeong', 'Kim So-hyun', 'Park Yoon-hee', 'Kim Young-sun', 'So Hee-jung', 'Seo Jae-hee', 'Lee Ye-jin', 'Heo Ji-na', 'Kim Dong-gyun', 'Lee Chan-jong', 'Esther K. Chae']",4.23,3.5,['Drama'],1,['South Korea'],Korean,['Korean'],"['Hwa&Dam Pictures', 'Studio Dragon']",32940,7280,15770,966,46,57,35,217,247,1176,1653,5604,4005,12370,25410,https://letterboxd.com/film/twenty-five-twenty-one/
Spider-Man: No Way Home,2021,Jon Watts,"['Tom Holland', 'Zendaya', 'Benedict Cumberbatch', 'Jacob Batalon', 'Jon Favreau', 'Jamie Foxx', 'Willem Dafoe', 'Alfred Molina', 'Benedict Wong', 'Tony Revolori', 'Marisa Tomei', 'Andrew Garfield', 'Tobey Maguire', 'Angourie Rice', 'Arian Moayed', 'Paula Newsome', 'Hannibal Buress', 'Martin Starr', 'J.B. Smoove', 'J.K. Simmons', 'Rhys Ifans', 'Charlie Cox', 'Thomas Haden Church', 'Emily Fong', 'Mary Rivera', 'Rudy Eisenzopf', 'Kathleen Cardoso', 'Jonathan Sam', 'Andrew Dunlap', 'Ben VanderMey', 'Zany Dunlap', 'B. Clutch Dunlap', 'Minnah Dunlap', 'Gary Weeks', 'Gregory Konow', 'Carol Anne Dines', 'Anisa Nyell Johnson', 'Willie Burton', 'Mallory Hoff', 'Greg Clarkson', 'Regina Ting Chen', 'Robert Mitchel Owenby', 'Glenn Keogh', 'Paris Benjamin', 'Jwaundace Candece', 'Taylor St. Clair', 'Gabriella Cila', 'Darnell Appling', 'Rolando Fernandez', 'Edward Force', 'Michael Le', 'Dean Meminger', 'Frederick A. Brown', 'Cristo Fernández', 'Clay Savage', 'Tom Hardy', 'Jake Gyllenhaal', 'Jay Karales', 'Gina Aponte', 'John Barnes', 'Harry Holland', 'Haroon Khan', 'John M. Maiers']",3.84,3.5,"['Action', 'Adventure', 'Science Fiction']",148,['USA'],English,"['English', 'Tagalog']","['Marvel Studios', 'Pascal Pictures', 'Columbia Pictures']",2818164,395379,1115077,18000,7173,15066,12642,60082,69519,279683,266954,552255,226674,492770,1982818,https://letterboxd.com/film/spider-man-no-way-home/
Don't Look Up,2021,Adam McKay,"['Jennifer Lawrence', 'Leonardo DiCaprio', 'Meryl Streep', 'Rob Morgan', 'Jonah Hill', 'Cate Blanchett', 'Mark Rylance', 'Tyler Perry', 'Timothée Chalamet', 'Ron Perlman', 'Ariana Grande', 'Kid Cudi', 'Himesh Patel', 'Melanie Lynskey', 'Michael Chiklis', 'Tomer Sisley', 'Paul Guilfoyle', 'Robert Joy', 'Jack Alberts', 'Ting Lik', 'Lance A. Williams', 'Shimali de Silva', 'Hettienne Park', 'Rafael Silva', 'Lonnie Farmer', 'Homa Sarabi Daunis', 'Barbara Douglass', 'Rena Maliszewski', 'Erik Parillo', 'Robert Hurst Radochia', 'Conor Sweeney', 'Ross Partridge', 'Richard Donelly', 'Liev Schreiber', 'Samsara Yett', 'Meara Mahoney Gross', 'Jaden Onwuakor', 'Staci Roberts', 'Wendy Bellevue', 'Mishka Yarovoy', 'Chris Everett', 'Annette Miller', 'Stephen Thorne', 'Aimee Doherty', 'Natalie Rebenkoff', 'Gary Tanguay', 'Georgia Lyman', 'Patricia DeHaney', 'Ben Sidell', 'Therese Plaehn', 'Omar Ghonim', ""Jody O'Neil"", 'Meghan Leathers', 'Ashleigh Banfield', 'Sarah Silverman', 'Richard Snee', 'Darryl Wooten', 'Danielle Waxman', 'Jeffrey Smith', 'Jon Glaser', 'Dorothy Dwyer', 'Odis Spencer', 'André Silva', 'Zach Holmes', 'Sarah Nolen', 'Alvin Keith', 'Alaina Pinto', 'Lizzie Short', 'Juri Love', 'Sujoy De', 'Brahms Guignard', 'Sergei Bushmanov', 'Lewis D. Wheeler', 'Steve Gagliastro', 'David J. Curtis', 'Kevin Craig West', 'Alison Weller', 'Rob Lévesque', 'Sam Zephir', 'Dee Nelson', 'Beau Allen', 'Rebecca Gibel', 'Brian Faherty', 'Celeste Oliva', 'Amanda Cass', 'Roman Mitichyan', 'Paul Marini', 'Alex Huynh', 'Michael Jibrin', 'Bill Mootos', 'Patti Tippo', 'Allyn Burrows', 'Tori Davis Lawlor', 'Joy Lang', 'June Holmes', 'Graham Holmes', 'Jacob Sanditen', 'Anthony Marrese', 'Chris Evans', 'Caroline Bergwall', 'Anania Williams', 'Nate Richman', 'Wes Johnson', 'John Bucy', 'Patrick Gover', 'Conrad Perry', 'Matt Rouillard', 'Christopher Deschenes', 'J.P. Aaron', 'Daniela August', 'Nicholai Senat', 'Alexandra Zilch', 'Jonathan Kobs', 'Bianca de la Garza', 'Caitlin Ishibashi', 'Claire Davis', 'Elder Isaiah Perez', 'Coran Spardakis Henley', 'Lance Norris', 'Ralph M. Studley', 'Frank Ridley', 'Andrew Haserlat', 'Jayne McLendon', 'Ishaan Khattar', 'Khaldoun Rajeh', 'Sheren Rajeh', 'Khaled Rajeh', 'Kareem Rajeh', 'Ahmad Rajeh', 'Adila Rajeh', 'J.T. Turner', 'Ed Peed', 'Clara Kovacic']",3.01,2.0,"['Science Fiction', 'Comedy', 'Drama']",138,['USA'],English,['English'],['Hyperobject Industries'],2079416,133870,424245,1200,20951,55897,42643,167228,150044,386320,243368,267754,49052,78241,1461498,https://letterboxd.com/film/dont-look-up-2021/
My Name,2021,Kim Jin-min,"['Han So-hee', 'Park Hee-soon', 'Ahn Bo-hyun', 'Kim Sang-ho', 'Lee Hak-ju', 'Chang Ryul', 'Seo Sung-Jong', 'Im Gi-hong']",4.02,4.0,"['Mystery', 'Drama', 'Crime']",400,['South Korea'],Korean,['Korean'],['Studio Santa Claus Entertainment'],42048,7210,15195,511,32,77,76,314,548,2505,3964,9359,4186,10610,31671,https://letterboxd.com/film/my-name/
Squid Game,2021,Hwang Dong-hyuk,"['Lee Jung-jae', 'Wi Ha-jun', 'Park Hae-soo', 'Jung Ho-yeon', 'Oh Young-soo', 'Heo Sung-tae', 'Kim Joo-ryoung', 'Anupam Tripathi', 'Lee You-mi']",3.74,3.5,"['Drama', 'Mystery']",495,['South Korea'],Korean,"['Korean', 'English', 'Urdu']","['Siren Pictures', 'Firstman Studio']",1047431,34918,242588,292,3946,7433,5164,22697,25935,98282,109841,204422,72263,89509,639492,https://letterboxd.com/film/squid-game/
Hometown Cha-Cha-Cha,2021,Yu Je-won,"['Shin Min-a', 'Kim Seon-ho', 'Lee Sang-yi', 'Gong Min-jeung', 'Kim Yeong-ok', 'Jo Han-chul', 'In Gyo-jin', 'Lee Bong-ryeon', 'Cha Chung-hwa', 'Kang Hyung-suk', 'Lee Suk-hyeong', 'Lee Yong-i', 'Shin Shin-ae', 'Yoon Seok-hyun', 'Kim Min-seo', 'Kim Seong-beom', 'Gi Eun-you', 'Go Do-yeon', 'Hong Ji-hee', 'Seo Sang-won', 'Woo Mi-hwa', 'Park Ye-yeong', 'Byun Sung-tae', 'Baek Seung', 'An Seong-won']",4.02,4.5,"['Drama', 'Comedy']",1,['South Korea'],Korean,['Korean'],"['Studio Dragon', 'GTist']",26897,6036,9838,231,36,60,46,277,355,1622,1888,5167,2580,7189,19220,https://letterboxd.com/film/hometown-cha-cha-cha/
Vincenzo,2021,"Kim Hee-won, Ham Seung-hoon","['Song Joong-ki', 'Jeon Yeo-been', 'Ok Taec-yeon', 'Kwak Dong-yeon', 'Yoo Jae-myung', 'Kim Yeo-jin', 'Jo Han-chul', 'Lee Hang-na', 'Choi Deok-moon', 'Kim Hyeong-mook', 'Yang Kyung-won', 'Yoon Byung-hee', 'Kim Seol-jin', 'Lim Cheol-soo', 'Seo Ye-hwa', 'Kim Yoon-hye', 'Kim Young-woong', 'Choi Young-jun', 'Kang Chae-min', 'Yun Bok-in', 'Jung Ji-yoon', 'Kim Woo Jin', 'Kwon Seung-woo', 'Ri Woo-jin', 'Kwon Tae-won', 'Lee Dal', 'Seo Jin-won', 'Hwang Tae-kwang', 'Lee Do-guk', 'Kim Tae-Hoon', 'Na Chul', 'Jung Wook-jin', 'Hong Seo-jun', 'Kim Geun-Hwan']",4.06,3.5,"['Drama', 'Comedy']",1,['South Korea'],Korean,"['Korean', 'Italian']","['Studio Dragon', 'Logos Film']",26092,5371,9327,267,69,105,70,300,341,1373,1592,4419,2453,7821,18543,https://letterboxd.com/film/vincenzo/
Flower of Evil,2020,Kim Cheol-kyu,"['Lee Joon-gi', 'Moon Chae-won', 'Jang Hee-jin', 'Seo Hyun-woo', 'Jung Seo-yeon', 'Nam Kee-ae', 'Son Jong-hak', 'Jo Kyung-sook', 'Choi Dae-hoon', 'Choi Young-jun', 'Kim Soo-oh', 'Im Cheol-hyung', 'Yang Hye-Jin', 'Ju Ye-eun', 'Hong Seo-jun', 'Park Hyun Joon', 'Lim Na-young', 'Jeong Taek-hyeon', 'Choi Byung-mo', 'Kim Ji-hun']",4.09,5.0,"['Crime', 'Mystery', 'Drama']",1,"['South Korea', 'USA']",Korean,"['Korean', 'Spanish', 'Thai']","['Studio Dragon', 'Monster Union']",11631,3156,4195,117,15,25,18,96,138,573,735,2147,1330,3210,8287,https://letterboxd.com/film/flower-of-evil-2020/
Itaewon Class,2020,Kim Seong-yoon,"['Park Seo-jun', 'Kim Da-mi', 'Kwon Na-ra', 'Yoo Jae-myung', 'Ahn Bo-hyun', 'Kim Dong-hee', 'Lee Joo-young', 'Ryu Kyung-soo', 'Chris Lyon', 'Kim Hye-eun', 'Lee Da-wit', 'Yoon Kyung-ho', 'Won Hyun-jun', 'Cha Mi-kyeong', 'Hong Seo-jun', 'Choi Yu-ri']",3.57,4.0,['Drama'],1,['South Korea'],Korean,"['Korean', 'Ojibwe, Ojibwa']","['Showbox', 'Content Zium', 'JTBC', 'SLL']",24779,4525,5344,61,132,248,193,769,823,2644,2548,4175,1361,3062,15955,https://letterboxd.com/film/itaewon-class/
Lawless Lawyer,2018,Kim Jin-min,"['Lee Joon-gi', 'Seo Yea-ji', 'Lee Hye-young', 'Choi Min-soo', 'Yeom Hye-ran', 'Ahn Nae-sang', 'Lee Han-wi', 'Lee Dae-yeon', 'Choi Dae-hoon', 'Park Ho-san', 'Kim Kwang-kyu', 'Seo Ye-hwa']",3.45,5.0,"['Drama', 'Crime']",960,"['South Korea', 'USA']",Korean,"['Korean', 'Spanish']","['Studio Dragon', 'Logos Film']",2218,735,377,7,2,13,12,62,83,284,285,317,63,206,1327,https://letterboxd.com/film/lawless-lawyer/
Forgotten,2017,Jang Hang-jun,"['Kang Ha-neul', 'Kim Moo-yul', 'Moon Sung-keun', 'Na Young-hee', 'Nam Myung-ryeol', 'Lee Na-ra', 'Bae Seong-il', 'Lee Soon-won', 'Byeon Dong-joon', 'Jung Chan-bi', 'Choi Go', 'Kang Sin-goo', 'Park Jae-yeong', 'Jeong Taek-hyeon', 'Park Chae-ik', 'Kwon Jae-hwan', 'Moon Seong-pil', 'Eom In-woo', 'Oh Hyeon-soo', 'Park Kyung-chan', 'Lee Dong-geun', 'Han Tae-eun', 'Ahn Yoo-jin', 'Han Da-eun', 'Lee Seong-woo', 'Lee Dong-jin', 'Yeon Je-hyung', 'Kim Hyeon-mok', 'Yoo In-soo', 'Kim Hyeon-chang', 'Kang Hak-soo', 'Jo Hong-woo', 'Im Jeong-min', 'Lee Seung-yong', 'An Min-young', 'Cho Han-na', 'Moon Jae-in', 'Donald Trump', 'Melania Trump', 'Kim Young-sam']",3.7,4.0,"['Thriller', 'Crime', 'Mystery']",108,['South Korea'],Korean,['Korean'],"['BA Entertainment', 'Michigan Venture Capital', 'Plus M Entertainment', 'Kiwi Media Group', 'Baram Pictures', 'Union Investment Partners', 'M-Line Distribution']",111516,18614,29464,1300,215,565,728,2456,3925,12425,17748,26654,8643,13820,87179,https://letterboxd.com/film/forgotten-2017/
Coco,2017,Lee Unkrich,"['Anthony Gonzalez', 'Gael García Bernal', 'Benjamin Bratt', 'Alanna Ubach', 'Renée Victor', 'Ana Ofelia Murguía', 'Edward James Olmos', 'Jaime Camil', 'Alfonso Arau', 'Herbert Siguenza', 'Lombardo Boyar', 'Sofía Espinosa', 'Dyana Ortelli', 'Gabriel Iglesias', 'Selene Luna', 'Natalia Cordova-Buckley', 'Carla Medina', 'Luis Valdez', 'Blanca Araceli', 'Polo Rojas', 'Montse Hernandez', 'Octavio Solis', 'Cheech Marin', 'Salvador Reyes', 'John Ratzenberger', 'Daniel Edward Mora']",4.12,5.0,"['Adventure', 'Animation', 'Music', 'Family']",105,['USA'],English,"['English', 'Spanish']","['Pixar', 'Walt Disney Pictures']",2425494,221768,857678,11000,1864,5335,3317,23208,23540,147135,152375,450822,193457,462564,1463617,https://letterboxd.com/film/coco-2017/
Blade Runner 2049,2017,Denis Villeneuve,"['Ryan Gosling', 'Harrison Ford', 'Sylvia Hoeks', 'Ana de Armas', 'Mackenzie Davis', 'Jared Leto', 'Robin Wright', 'Carla Juri', 'Dave Bautista', 'Hiam Abbass', 'Lennie James', 'David Dastmalchian', 'Sean Young', 'Edward James Olmos', 'Barkhad Abdi', 'Wood Harris', 'Tómas Lemarquis', 'Sallie Harmsen', 'Loren Peta', 'Mark Arnold', 'Krista Kosonen', 'Elarica Johnson', 'David Benson', 'Kingston Taylor', 'Ben Thompson', 'Ellie Wright', 'Suzie Kennedy', 'Stephen Triffitt', 'Vilma Szécsi', 'Kincsö Sánta', 'André Lukács Molnár', 'István Göz', 'Pál Nyári', 'Joshua Tersoo Allagh', 'Zoltán Béres', 'Konstantin Pál', 'Ferenc Györgyi', 'Samuel Brown', 'Mary Lukasiewicz', 'Deniz Altunay', 'Frank Sinatra']",4.12,3.0,"['Science Fiction', 'Drama']",164,"['Canada', 'UK', 'USA']",English,"['English', 'Finnish', 'Hungarian', 'Japanese', 'Russian', 'Somali', 'Spanish']","['Alcon Entertainment', 'Columbia Pictures', 'Scott Free Productions', 'Bud Yorkin Productions', 'Torridon Films', '16:14 Entertainment', 'Thunderbird Entertainment']",1739424,287376,662502,43000,2580,8288,4634,29355,25395,120267,132301,353282,222535,324926,1223563,https://letterboxd.com/film/blade-runner-2049/
The K2,2016,Kwak Jung-hwan,"['Ji Chang-wook', 'Song Yun-ah', 'Yoona', 'Cho Seong-ha', 'Kim Kap-soo', 'Lee Jung-jin', 'Son Tae-young', 'Shin Dong-mi', 'Park Geon-lak', 'Lee Yea-eun', 'Lee Jae-Woo', 'Jeon Bae-soo', 'Song Gyeong-cheol', 'Park Soon-cheon', 'Lee Cheol-min', 'Ko In-beom', 'Lee Yoo Joo', 'Yeom Hye-ran', 'Ju Seok-tae', 'Kim Bo-mi', 'Lee Han-wi', 'Cho Dong-hyuk', 'Shin Dong-hoon', 'Jung Ji-young', 'Yoon Jong-hwa', 'Cho Jae-ryong', 'Joey Albright', 'Choi Seung-hoon', 'Lee Soon-won', 'Lee Won-jin', 'Kim Hyun', 'Han Hye-ji', 'Lee Seung-joon', 'Lee Yoo Soo', 'Jeong Se-hyeong', 'Yoo In-hyuk', 'Yoon Joo Bin', 'Lee Su-ryeon', 'Kwon Soo-hyun', 'Oh Sang-Hoon', 'Kim Ik-tae', 'Ji Tae Yang', 'Yoon Sung-Woo', 'Ham Jin Sung', 'Son Dong-hwa', 'So Hee-jung', 'Sung Yi Un', 'Lee Se Mi', 'Park Geon', 'Jang Hae-song', 'Choi Won Yong', 'Anupam Tripathi', 'Chu Yeon-gyu', 'Yoo Joo Ran', 'Min Sang-woo', 'Hong Lu-hyeon', 'Park Eun-young', 'Kim Gyeong-ryong', 'Lee Sung-deuk']",3.38,3.0,"['Drama', 'Crime']",960,['South Korea'],Korean,['Korean'],['HB Entertainment'],6987,1610,1140,13,27,68,64,241,294,821,637,929,232,712,4025,https://letterboxd.com/film/the-k2/
Deadpool,2016,Tim Miller,"['Ryan Reynolds', 'Morena Baccarin', 'Ed Skrein', 'T.J. Miller', 'Gina Carano', 'Leslie Uggams', 'Brianna Hildebrand', 'Karan Soni', 'Jed Rees', 'Stefan Kapičić', 'Randal Reeder', 'Isaac C. Singleton Jr.', 'Michael Benyaer', 'Style Dayne', 'Kyle Cassie', 'Taylor Hickson', 'Ayzee', 'Naika Toussaint', 'Justyn Shippelt', 'Donna Yamamoto', 'Hugh Scott', 'Cindy Piper', 'Em Haine', 'Aatash Amir', 'Chad Riley', 'Paul Belsito', 'Darcey Johnson', 'Kyle Rideout', 'Jason William Day', 'Stan Lee', 'Benjamin Wilkinson', 'Rachel Sheen', 'Paul Lazenby', 'Rob Hayter', 'Andre Tricoteux', 'Victoria De Mare', 'Heather Ashley Chase', 'Kayla Adams', 'Olesia Shewchuk', 'Fabiola Colmenero', 'Matthew Hoglie']",3.67,3.0,"['Action', 'Comedy', 'Adventure']",108,['USA'],English,['English'],"['20th Century Fox', ""The Donners' Company"", 'Genre Films', 'Marvel Entertainment']",2520650,150579,752116,5400,5312,15142,10218,52256,53542,260246,250520,473556,110824,221640,1453256,https://letterboxd.com/film/deadpool/
Her,2013,Spike Jonze,"['Joaquin Phoenix', 'Scarlett Johansson', 'Amy Adams', 'Rooney Mara', 'Chris Pratt', 'Olivia Wilde', 'Matt Letscher', 'Portia Doubleday', 'Spike Jonze', 'Bill Hader', 'Kristen Wiig', 'Artt Butler', 'SoKo', 'Brian Cox', 'Luka Jones', 'Sam Jaeger', 'Pramod Kumar', 'Evelyn Edwards', 'Lil Buck', 'Lynn Adrianna', 'Lisa Renee Pitts', 'Gabe Gomez', 'May Lindstrom', 'David Azar', 'Guy Lewis', 'Melanie Seacat', 'Steve Zissis', 'Dane White', 'Nicole Grother', 'James Ozasky', 'Samantha Sarakanti', 'Gracie Prewitt', 'Claudia Choi', 'Laura Kai Chen', 'Wendy Leon', 'Alia Janine', 'Brian D. Johnson', 'Robert Benard', 'Lisa Cohen', 'Grant Samson']",4.02,3.0,"['Science Fiction', 'Drama', 'Romance']",126,['USA'],English,['English'],['Annapurna Pictures'],1969124,256361,729416,33000,4128,11477,5914,36514,29270,152860,155500,420695,189091,314922,1320371,https://letterboxd.com/film/her/
Fantastic Mr. Fox,2009,Wes Anderson,"['George Clooney', 'Meryl Streep', 'Jason Schwartzman', 'Wallace Wolodarsky', 'Eric Chase Anderson', 'Willem Dafoe', 'Bill Murray', 'Robin Hurlstone', 'Hugo Guinness', 'Michael Gambon', 'Helen McCrory', 'Wes Anderson', 'Jarvis Cocker', 'Owen Wilson', 'Juman Malouf', 'Karen Duffy', 'Roman Coppola', 'Jeremy Dawson', 'Garth Jennings', 'Brian Cox', 'Tristan Oliver', 'James Hamilton', 'Steven M. Rales', 'Rob Hersov', 'Jennifer Furches', 'Mario Batali', 'Allison Abbate', 'Molly Cooper', 'Adrien Brody', 'Martin Ballard']",4.27,5.0,"['Family', 'Adventure', 'Comedy', 'Animation']",87,['USA'],English,"['English', 'French', 'Latin']","['Regency Enterprises', 'Indian Paintbrush', 'American Empirical Pictures']",1874315,324038,805241,70000,1578,4515,2233,13749,12994,82783,115251,370491,218021,451359,1272974,https://letterboxd.com/film/fantastic-mr-fox/
Coraline,2009,Henry Selick,"['Dakota Fanning', 'Teri Hatcher', 'Jennifer Saunders', 'Dawn French', 'Keith David', 'Ian McShane', 'John Hodgman', 'Robert Bailey Jr.', 'Aankha Neal', 'Hannah Kaiser', 'George Selick', 'Harry Selick', 'Marina Budovsky', 'Emerson Tenney', 'Jerome Ranft', 'Christopher Murrie', 'Jeremy Ryder', 'Carolyn Crawford', 'Yona Prost', 'John Linnell']",4.14,5.0,"['Animation', 'Fantasy', 'Family']",100,['USA'],English,['English'],"['Laika', 'Pandemonium']",1805724,227103,674473,62000,3752,7353,2879,17244,15461,87166,104986,294983,132142,405361,1071327,https://letterboxd.com/film/coraline/
Twilight,2008,Catherine Hardwicke,"['Kristen Stewart', 'Robert Pattinson', 'Billy Burke', 'Peter Facinelli', 'Elizabeth Reaser', 'Cam Gigandet', 'Ashley Greene', 'Anna Kendrick', 'Nikki Reed', 'Taylor Lautner', 'Kellan Lutz', 'Jackson Rathbone', 'Michael Welch', 'Gil Birmingham', 'Justin Chon', 'Christian Serratos', 'José Zúñiga', 'Rachelle Lefevre', 'Edi Gathegi', 'Sarah Clarke', 'Matt Bushell', 'Gregory Tyree Boyce', 'Trish Egan', 'Ayanna Berkshire', 'Ned Bellamy', 'Bryce Flint-Sommerville', 'Solomon Trimble', 'Alexander Mendeluk', 'Hunter Jackson', 'Gavin Bristol', 'Sean McGrath', 'Katie Powers', 'Catherine Grimme', 'William Joseph Elk III', 'Victoria Geil', 'Stephenie Meyer', 'Rick Mora', 'Edward Stiner', 'Robert Zorn', 'Humberto Amor', 'Kristopher Hyatt', 'Sherry Nelson', 'Tyler Nordby', 'Trip Ross', 'Josh Turner', 'Maggie-Jo Turner']",2.91,5.0,"['Romance', 'Drama', 'Fantasy']",122,['USA'],English,['English'],"['Summit Entertainment', 'Temple Hill Entertainment', 'Maverick Films', 'Imprint Entertainment', 'Goldcrest', 'Twilight Productions']",1632148,142548,315424,21000,31428,63865,40518,117972,76354,168089,70628,109008,19849,154369,852080,https://letterboxd.com/film/twilight-2008/
Ponyo,2008,Hayao Miyazaki,"['Yuria Kozuki', 'Hiroki Doi', 'George Tokoro', 'Tomoko Yamaguchi', 'Yuki Amami', 'Kazushige Nagashima', 'Akiko Yano', 'Shinichi Hatori', 'Tokie Hidari', 'Rumi Hiiragi', 'Tomoko Naraoka', 'Kazuko Yoshiyuki', 'Eimi Hiraoka', 'Nozomi Ōhashi', 'Akiko Takeguchi', 'Eiko Kanazawa', 'Akihiko Ishizumi', 'Tomie Kataoka', 'Shirou Saitou', 'Mutsumi Sasaki', 'Keiko Tsukamoto', 'Ikuko Yamamoto', 'Michiko Yamamoto', 'Yoshie Yamamoto', 'Yusuke Tezuka']",4.05,5.0,"['Family', 'Fantasy', 'Animation']",100,['Japan'],Japanese,['Japanese'],"['Studio Ghibli', 'TOHO', 'Nippon Television Network Corporation', 'dentsu', 'Hakuhodo DY Media Partners', 'The Walt Disney Company (Japan)', 'Mitsubishi']",921715,144461,322456,16000,655,1560,1210,7215,10277,56432,79971,180035,66975,162317,566647,https://letterboxd.com/film/ponyo/
Mr. & Mrs. Smith,2005,Doug Liman,"['Brad Pitt', 'Angelina Jolie', 'Vince Vaughn', 'Adam Brody', 'Kerry Washington', 'Keith David', 'Chris Weitz', 'Rachael Huntley', 'Michelle Monaghan', 'Stephanie March', 'Jennifer Morrison', 'Theresa Barrera', 'Perrey Reeves', 'Melanie Tolbert', 'Jerry T. Adams', 'Elijah Alexander', 'Hans F. Alexander', 'Lauryn Alvarez', 'Burke Armstrong', 'Ron Bottitta', 'Earl H. Bullock', 'Miguel Angel Caballero', 'Victor A. Chapa', 'Maree Cheatham', 'Laine Collins', 'Noah Dahl', 'Merrilee Dale', 'Chris Daniels', 'Patrika Darbo', 'Jennifer DeMille', 'Tyce Diorio', 'Patricia Donaldson', 'Sabi Dorr', 'Greg Ellis', 'David Escobedo', 'Kaela Freeman', 'Megan Gallagher', 'Amy Hathaway', 'Jessica Hedden', 'Kathrine Herzer', 'Nigel Hudson', 'Ravil Isyanov', 'Stephanie Ittleson', 'Mark Ivanir', 'Benton Jennings', 'Simon Kinberg', 'Peter Lavin', 'Deren Tadlock', 'Sean Mahon', 'Kevin Makely', 'Mike McCaul', 'Derek Medina', 'Will Moore', 'Joel Munoz', 'Mark Newsom', 'Richie Ornelas', 'Jordan Osher', 'Edward Padilla', 'Eugene C. Palmer', 'Luis Racer', 'Liz Ramos', 'Leonard Robinson', 'Felix A. Ruiz', 'Sam Sabbah', 'Kim Schioldan', 'Ty Sharp', 'Jimmy Shubert', 'Abigail Rose Solomon', 'Hannah Von Kanel', 'Ali Marsh', 'Kim H. Winther', 'Michael Winther', 'Michael-John Wolfe', 'Jeff Yagher', 'Bryan Anthony', 'Douglas Caldwell', 'R.J. Durell', 'Melissa Hurley', 'Jacqui Landrum', 'Carol Mack', 'Michael Morris', 'Gloria Rodriguez', 'Linda Kathleen Taylor', 'Anne Vardanian', 'Ara Vardanian', 'Luis Vasquez', 'John W. Woodruff', 'Angela Bassett', 'William Fichtner', 'David Block', 'John Branch', 'Julius Callahan', 'Shilo Frontierro', 'Lisa Gabriel', 'Tony Longo', 'Janelle Marra', 'Heather Petrone', 'Bill Viney', 'Hawk Younkins', 'Matt McColm', 'Mo Gallini']",3.18,3.0,"['Thriller', 'Drama', 'Action', 'Comedy']",119,"['Switzerland', 'USA']",English,"['English', 'Spanish']","['Regency Enterprises', 'New Regency Pictures', 'Summit Entertainment', 'Weed Road Pictures', 'Epsilon Motion Pictures', 'New Regency Productions', '20th Century Fox']",954609,55039,155098,2400,2575,8569,9083,41393,51703,143032,90311,87178,16935,40243,491022,https://letterboxd.com/film/mr-mrs-smith-2005/
Howl's Moving Castle,2004,Hayao Miyazaki,"['Chieko Baisho', 'Takuya Kimura', 'Akihiro Miwa', 'Tatsuya Gashûin', 'Ryunosuke Kamiki', 'Mitsunori Isaki', 'Yo Oizumi', 'Akio Otsuka', 'Daijirô Harada', 'Haruko Katō', 'Makoto Yasumura', 'Manabu Muraji', 'Keiko Tsukamoto', 'Yayoi Kazuki', 'Seiji Sasaki', 'Hiroshi Takahashi', 'Mayuno Yasokawa', 'Rio Kanno', 'Kojiro Takahashi', 'Akiyoshi Sakurai', 'Momoko Kurita', 'Mina Meguro', 'Yasuhiro Ohara', 'Akio Tanaka', 'Rina Yamada', 'Tomoe Hanba', 'Naoto Kaji', 'Teruo Seki', 'Shinobu Katabuchi', 'Masako Inui', 'Yohei Ohbayashi', 'Takeshi Miyajima', 'Yukiko Mizuochi', 'Maki Koizumi', 'Nobito Nishioka', 'Teppei Akashi', 'Reiko Onishi', 'Yumiko Ogata', 'Hiroyuki Kamikawaji', 'Tomohiko Kiyota', 'Kaori Kaneko', 'Aiko Nakajima', 'Jun Kuwahara', 'Yuta Kobayashi', 'Yuko Nomura', 'Tamayo Fukushi', 'Atsushi Takeya', 'Yoshifumi Nakagawa', 'Hiroki Tanaka', 'Yohei Matsukado', 'Akane Fujisaki', 'Izumi Matsuoka', 'Tomonori Yanagibashi', 'Ken Yasuda', 'Hiroyuki Morisaki', 'Shigeyuki Totsugi', 'Takuma Otoo']",4.32,5.0,"['Fantasy', 'Adventure', 'Animation']",119,['Japan'],Japanese,['Japanese'],"['Studio Ghibli', 'dentsu Music And Entertainment', 'Mitsubishi', 'Nippon Television Network Corporation', 'TFC', 'Tokuma Shoten', 'd-rights']",1688420,252680,748048,71000,637,1643,1377,7833,11010,61358,96516,286034,175750,478899,1121057,https://letterboxd.com/film/howls-moving-castle/
Oldboy,2003,Park Chan-wook,"['Choi Min-sik', 'Yoo Ji-tae', 'Kang Hye-jung', 'Kim Byeong-ok', 'Ji Dae-han', 'Oh Dal-su', 'Seung-shin Lee', 'Yoon Jin-seo', 'Oh Tae-kyung', 'Yoo Yeon-seok', 'You Il-han', 'Lee Young-hee', 'Kim Yeong-ae', 'Lee Mi-Mi', 'Han Jae-duk', 'Kwak Jung-ae', 'Kim San', 'Chae-soo Jang', 'Seol-a Im', 'Syd Lim', 'Chang-hak Choi', 'Bi-Joon Shin', 'Seok-jae Seong', 'Choi Jae-sup', 'Yoon Jin-yul', 'Mun Seong-bok', 'Park Jae-Woong', 'Oh Soon-tae', 'Lee Hong-pyo', 'Geun-Seok Park', 'Heo Myeong-haeng', 'Kim Won-jung', 'Sung-Gyu Park', 'Jung-pil Lee', 'Seon-Rang Han', 'Beom-sik Sin', 'Jung-ok Han', 'Baek Dong-hyun', 'Ju Myeong-cheol', 'Park Ji-hun', 'Choon-Beom Choi', 'Seo Myeong-Seok', 'Jeon Woo-jae', 'Cho Sang-kyung', 'Oh Young-joo', 'Lee Ji-hye', 'Joong-hyun Ji', 'Sang-moo Moon', 'Oh Kwang-rok', 'Lee Dae-yeon', 'Park Myung-shin', 'Kim Su-hyun', 'Yong-ih']",4.39,4.0,"['Thriller', 'Mystery', 'Drama', 'Action']",120,['South Korea'],Korean,['Korean'],"['Show East', 'CJ Entertainment', 'Egg Film', 'Cineclick Asia']",1007819,214768,376970,31000,1835,2680,1914,7416,8255,34496,54819,186791,163742,259898,721846,https://letterboxd.com/film/oldboy/
Kill Bill: Vol. 1,2003,Quentin Tarantino,"['Uma Thurman', 'Lucy Liu', 'Vivica A. Fox', 'Daryl Hannah', 'David Carradine', 'Michael Madsen', 'Julie Dreyfus', 'Chiaki Kuriyama', 'Sonny Chiba', 'Gordon Liu Chia-hui', 'Michael Parks', 'Michael Bowen', 'Jun Kunimura', 'Kenji Ohba', 'Yuki Kazamatsuri', 'James Parks', 'Sakichi Sato', 'Jonathan Loughran', 'Yoshiyuki Morishita', 'Tetsuro Shimaguchi', 'Kazuki Kitamura', 'Yoji Tanaka', 'Sō Yamanaka', 'Juri Manase', 'Akaji Maro', 'Goro Daimon', 'Shun Sugata', 'Zhang Jinzhan', 'Hu Xiaohui', 'Ambrosia Kelley', 'Sachiko Fujii', 'Shu Lan Tuan', 'Ai Maeda', 'Naomi Kusumi', 'Hikaru Midorikawa', 'Issey Takahashi', 'Yoshiko Yamaguchi', 'Ronnie Yoshiko Fujiyama']",4.19,1.5,"['Crime', 'Action']",111,['USA'],English,"['English', 'Japanese', 'French']","['Miramax', 'A Band Apart', 'Super Cool ManChu']",2271105,280122,864326,40000,2152,6561,3388,21867,18906,120632,136782,448298,220880,441471,1420937,https://letterboxd.com/film/kill-bill-vol-1/
Spirited Away,2001,Hayao Miyazaki,"['Rumi Hiiragi', 'Miyu Irino', 'Mari Natsuki', 'Takashi Naito', 'Yasuko Sawaguchi', 'Tsunehiko Kamijô', 'Takehiko Ono', 'Bunta Sugawara', 'Akio Nakamura', 'Yumi Tamai', 'Ryunosuke Kamiki', 'Tatsuya Gashûin', 'Yo Oizumi', 'Ken Yasuda', 'Koba Hayashi', 'Shigeru Wakita', 'Shirou Saitou', 'Michiko Yamamoto', 'Keiko Tsukamoto', 'Shinji Tokumaru', 'Kaori Yamagata', 'Yayoi Kazuki', 'Masahiro Asano', 'Kazutaka Hayashida', 'Ikuko Yamamoto', 'Mina Meguro', 'Tetsurô Ishibashi', 'Katsutomo Shîbara', 'Shinobu Katabuchi', 'Noriko Kitou', 'Naoto Kaji', 'Yoshitaka Sukegawa', 'Aki Tachikawa', 'Noriko Yamaya', 'Katsuhisa Matsuo', 'Masayuki Kizu', 'Yôko Ôno', 'Sachie Azuma', 'Shigeyuki Totsugi', 'Mayumi Saco', 'Sonoko Soeda', 'Akiko Tomihira', 'Minako Masuda', 'Orika Ono', 'Rina Yamada', 'Miwa Takachi', 'Hiromi Takeuchi', 'Makiko Oku']",4.45,5.0,"['Family', 'Fantasy', 'Animation']",125,['Japan'],Japanese,['Japanese'],['Studio Ghibli'],2683381,369642,1261997,74000,1666,4025,1855,12015,11429,80445,94971,402245,264777,895669,1769097,https://letterboxd.com/film/spirited-away/
Fight Club,1999,David Fincher,"['Edward Norton', 'Brad Pitt', 'Helena Bonham Carter', 'Meat Loaf', 'Jared Leto', 'Zach Grenier', 'Holt McCallany', 'Eion Bailey', 'Richmond Arquette', 'David Andrews', 'George Maguire', 'Eugenie Bondurant', 'Christina Cabot', ""Sydney 'Big Dawg' Colston"", 'Rachel Singer', 'Christie Cronenweth', 'Tim DeZarn', 'Ezra Buzzington', 'Dierdre Downing-Jackson', 'Bob Stephenson', 'Charlie Dell', 'Rob Lanza', 'David Lee Smith', 'Joel Bissonnette', 'Evan Mirand', 'Robby Robinson', 'Lou Beatty Jr.', 'Thom Gossom Jr.', 'Valerie Bickford', 'Peter Iacangelo', 'Carl Ciarfalio', 'Stuart Blumberg', 'Todd Peirce', 'Mark Fite', 'Matt Winston', 'Joon Kim', 'Bennie Moore', 'Lauren Sánchez', 'Pat McNamara', 'Tyrone R. Livingston', 'Owen Masterson', 'David Jean Thomas', 'Paul Carafotes', 'Christopher John Fields', 'Anderson Bourell', 'Scotch Ellis Loring', 'Michael Shamus Wiles', 'Andi Carnick', 'Ed Kowalczyk', 'Leonard Termo', 'Van Quattro', 'Markus Redmond', 'Michael Girardin', 'Michael Arturo', 'Greg Bronson', 'Matt Cinquanta', 'Paul Dillon', 'Eddie Hargitay', 'Phil Hawn', 'Bruce Holman', 'Jawara', 'Baron Jay', 'Jim Jenkins', 'Kevin Scott Mack', 'Trey Ore', 'Louis Ortiz', 'Hugh Peddy', 'J.T. Pontino', 'Chad Randau', 'Marcio Rosario', 'Gregory Silva', 'Brian Tochi', 'Michael Zagst', 'Marc Cinquanta', 'Summer Moore']",4.27,3.0,['Drama'],139,"['Germany', 'USA']",English,['English'],"['Fox 2000 Pictures', 'Regency Enterprises', 'The Linson Company', '20th Century Fox', 'Taurus Film']",3652946,409324,1681994,112000,3457,9256,4478,30766,25373,170105,182006,700409,407393,981193,2514436,https://letterboxd.com/film/fight-club/
Kiki's Delivery Service,1989,Hayao Miyazaki,"['Minami Takayama', 'Rei Sakuma', 'Kappei Yamaguchi', 'Keiko Toda', 'Mieko Nobusawa', 'Koichi Miura', 'Haruko Katō', 'Hiroko Seki', 'Yuriko Fuchizaki', 'Koichi Yamadera', 'Kikuko Inoue', 'Yuko Kobayashi', 'Mika Doi', 'Takaya Hashi', 'Chika Sakamoto', 'Yoshiko Asai', 'Hiroko Maruyama', 'Shinpachi Tsuji', 'Yuko Maruyama', 'Masa Saitō', 'Yuko Tsuga', 'Tomomichi Nishimura', 'Akio Otsuka', 'Yoshiko Kamei', 'Keiko Kagimoto', 'Takashi Taguchi', 'Michihiro Ikemizu']",4.13,5.0,"['Family', 'Fantasy', 'Animation']",103,['Japan'],Japanese,['Japanese'],"['Studio Ghibli', 'Nibariki', 'Studio Fuga', 'Tokuma Shoten', 'Nippon Television Network Corporation']",900746,162009,337330,16000,207,645,637,4364,7120,48271,77342,188456,81721,156409,565172,https://letterboxd.com/film/kikis-delivery-service/
My Neighbor Totoro,1988,Hayao Miyazaki,"['Noriko Hidaka', 'Chika Sakamoto', 'Hitoshi Takagi', 'Shigesato Itoi', 'Sumi Shimamoto', 'Tanie Kitabayashi', 'Toshiyuki Amagasa', 'Yuko Maruyama', 'Masashi Hirose', 'Reiko Suzuki', 'Machiko Washio', 'Naoki Tatsuta', 'Tomohiro Nishimura', 'Chie Koujiro', 'Yuko Mizutani', 'Shigeru Chiba', 'TARAKO', 'Mitsuko Ishida', 'Daiki Nakamura', 'Akiko Hiramatsu', 'Ikue Otani', 'Frank Welker']",4.19,4.0,"['Fantasy', 'Animation', 'Family']",86,['Japan'],Japanese,['Japanese'],"['Studio Ghibli', 'Nibariki', 'Tokuma Shoten']",1536477,223047,585955,16000,721,2054,1653,10196,13212,79559,105470,291194,132844,313337,950240,https://letterboxd.com/film/my-neighbor-totoro/
