Film_title,Release_year,Director,Cast,Average_rating,Owner_rating,Genres,Runtime,Countries,Original_language,Spoken_languages,Studios,Watches,List_appearances,Likes,Fans,½,★,★½,★★,★★½,★★★,★★★½,★★★★,★★★★½,★★★★★,Total_ratings,Film_URL
Perfect Days,2023,Wim Wenders,"['Koji Yakusho', 'Tokio Emoto', 'Arisa Nakano', 'Aoi Yamada', 'Yumi Asou', 'Sayuri Ishikawa', 'Tomokazu Miura', 'Min Tanaka', 'Miyako Tanaka', 'Long Mizuma', 'Soraji Shibuya', 'Aoi Iwasaki', 'Kisuke Shimazaki', 'Yuriko Kawasaki', 'Aki Kobayashi', 'Bunmei Harada', 'Reina', 'Shunsuke Miura', 'Gan Furukawa', 'Atsushi Fukazawa', 'Taijirō Tamura', 'Masahiro Koumoto', 'Makiko Okamoto', 'Daigo Matsui', 'Nao Takahashi', 'Nari Saitô', 'Hiroto Oshita', 'Naoko Ken', 'Mijika Nagai', 'Motomi Makiguchi', 'Isao Matsui', 'Aoi Yoshida', 'Tomoyuki Shibata', 'Inuko Inuyama', 'Morooka Moro', 'Morio Agata', 'Nijika Tonouchi', 'Yasushi Okuwa', 'Hairi Katagiri', 'Tateto Serizawa', 'Yoneko Matsukane', 'Tamae Ando']",4.26,4.0,['Drama'],124,"['Germany', 'Japan']",Japanese,"['Japanese', 'English']","['Master Mind', 'Wenders Images']",308585,81599,143864,8600,234,641,600,2572,3661,14741,27979,80470,56819,72709,260426,https://letterboxd.com/film/perfect-days-2023/
GoodFellas,1990,Martin Scorsese,"['Ray Liotta', 'Robert De Niro', 'Joe Pesci', 'Lorraine Bracco', 'Paul Sorvino', 'Frank Sivero', 'Tony Darrow', 'Mike Starr', 'Frank Vincent', 'Chuck Low', 'Frank DiLeo', 'Henny Youngman', 'Gina Mastrogiacomo', 'Catherine Scorsese', 'Charles Scorsese', 'Suzanne Shepherd', 'Debi Mazar', 'Margo Winkler', 'Welker White', 'Jerry Vale', 'Julie Garfield', 'Christopher Serrone', 'Elaine Kagan', 'Beau Starr', 'Kevin Corrigan', 'Michael Imperioli', 'Robbie Vinton', 'Johnny Williams', 'Daniel P. Conte', 'Tony Conforti', 'Frank Pellegrino', 'Ronald Maccone', 'Tony Sirico', ""Joseph D'Onofrio"", 'Steve Forleo', 'Richard Dioguardi', 'Frank Adonis', 'John Manca', 'Joseph Bono', 'Katherine Wallach', 'Mark Evan Jacobs', 'Angela Pietropinto', 'Marianne Leone Cooper', 'Marie Michaels', 'LoNardo', 'Melissa Prophet', 'Illeana Douglas', 'Susan Varon', 'Elizabeth Whitcraft', 'Clem Caserta', 'Samuel L. Jackson', 'Fran McGee', 'Paul Herman', 'Edward McDonald', 'Edward Hayes', 'Gina Mattia', 'Joel Calendrillo', 'Anthony Valentin', 'Edward D. Murphy', 'Michael Citriniti', 'Peter Hock', 'Erasmus C. Alfano', 'John Di Benedetto', 'Manny Alfaro', 'Thomas Lowry', 'Margaret Smith', 'Richard Mullally', 'Frank Albanese', 'Paul McIsaac', 'Bob Golub', 'Louis Eppolito', 'Tony Lip', 'Mikey Black', 'Peter Cicale', 'Anthony Powers', 'Vincent Pastore', 'Anthony Alessandro', 'Victor Colicchio', 'Mike Contessa', 'Philip Suriano', 'Paul Mougey', 'Norman Barbera', 'Anthony Polemeni', 'James Quattrochi', 'Lawrence Sacco', 'Dino Laudicina', 'Thomas E. Camuti', 'Andrew Scudiero', 'Irving Welzer', 'Jesse Kirtzman', 'Russell Halley', 'Spencer Bradley', 'Bob Altman', 'Joanna Bennett', 'Gayle Lewis', 'Gaetano Lisi', 'Luke Walter', 'Ed Deacy', 'Larry Silvestri', ""John 'Cha Cha' Ciarcia"", 'Vito Picone', 'Janis Corsair', 'Lisa D’Apolito', 'Frank Aquilino', 'Michael Calandrino', 'Vito Antuofermo', 'Vincent Gallo', 'Gaetano LoGiudice', 'Garry Pastore', 'Nicole Burdette', 'Stella Keitel', 'Dominique DeVito', 'Michaelangelo Graziano', 'Paula Kcira', 'Nadine Kay', 'Tony Ellis', 'Peter Onorati', 'Jamie deRoy', 'Joel Blake', 'H. Clay Dear', 'Thomas Hewson', 'Gene Canfield', 'Margaux Guerard', 'Violet Gaynor', 'Tobin Bell', 'Berlinda Tolbert', 'Nancy Cassaro', 'Adam Wandt', 'Joe Gioco', 'Isiah Whitlock Jr.', 'Alyson Jones', 'Ruby Gaynor', 'Bo Dietl', 'Frank Cassini', 'Anthony Caso', 'Lisa Bostnar', 'Billy L. Sullivan', 'Daniela Barbosa', 'Mark Jacobs', 'Vito Balsamo', 'Peter Fain']",4.48,5.0,"['Drama', 'Crime']",145,['USA'],English,"['English', 'Italian']",['Winkler Films'],1556109,306018,617843,55000,707,1546,936,6219,6807,44748,65157,257013,212248,469711,1065092,https://letterboxd.com/film/goodfellas/
