Film_title,Release_year,Director,Cast,Average_rating,Owner_rating,Genres,Runtime,Countries,Original_language,Spoken_languages,Studios,Watches,List_appearances,Likes,Fans,½,★,★½,★★,★★½,★★★,★★★½,★★★★,★★★★½,★★★★★,Total_ratings,Film_URL
Saltburn,2023,Emerald Fennell,"['Barry Keoghan', 'Jacob Elordi', 'Rosamund Pike', 'Richard E. Grant', 'Alison Oliver', 'Archie Madekwe', 'Carey Mulligan', 'Paul Rhys', 'Ewan Mitchell', 'Sadie Soverall', 'Richard Cotterell', 'Millie Kent', 'Will Gibson', 'Tasha Lim', 'Aleah Aberdeen', 'Matthew Carver', 'Reece Shearsmith', 'Gabriel Bisset-Smith', 'Saga Spjuth-Säll', 'Glyn Grimstead', 'Joshua Samuels', 'Julian Lloyd Patten', 'Olivia Hanrahan-Barnes', 'Lolly Adefope', 'Joshua McGuire', 'Dorothy Atkinson', 'Shaun Dooley', 'Tomás Barry', 'Andy Brady']",3.43,4.0,"['Comedy', 'Drama', 'Thriller']",131,"['UK', 'USA']",English,['English'],"['LuckyChap Entertainment', 'MRC', 'Lie Still']",1987025,212701,579948,12000,12721,28680,24839,97384,110605,313409,307142,453631,145698,203425,1697534,https://letterboxd.com/film/saltburn/
The Boy and the Heron,2023,Hayao Miyazaki,"['Soma Santoki', 'Masaki Suda', 'Ko Shibasaki', 'Aimyon', 'Yoshino Kimura', 'Takuya Kimura', 'Keiko Takeshita', 'Jun Fubuki', 'Sawako Agawa', 'Karen Takizawa', 'Shinobu Otake', 'Jun Kunimura', 'Kaoru Kobayashi']",3.96,4.5,"['Animation', 'Adventure', 'Fantasy']",124,['Japan'],Japanese,['Japanese'],['Studio Ghibli'],689971,166806,264371,3200,640,1740,1799,10221,15589,63201,92830,190270,98559,103845,578694,https://letterboxd.com/film/the-boy-and-the-heron/
Barbie,2023,Greta Gerwig,"['Margot Robbie', 'Ryan Gosling', 'America Ferrera', 'Ariana Greenblatt', 'Issa Rae', 'Kate McKinnon', 'Alexandra Shipp', 'Emma Mackey', 'Hari Nef', 'Sharon Rooney', 'Ana Cruz Kayne', 'Ritu Arya', 'Dua Lipa', 'Nicola Coughlan', 'Emerald Fennell', 'Simu Liu', 'Kingsley Ben-Adir', 'Ncuti Gatwa', 'Scott Evans', 'John Cena', 'Michael Cera', 'Rhea Perlman', 'Helen Mirren', 'Will Ferrell', 'Connor Swindells', 'Jamie Demetriou', 'Andrew Leung', 'Will Merrick', 'Zheng Xi Yong', 'Asim Chaudhry', 'Ray Fearon', 'Erica Ford', 'Hannah Khalique-Brown', 'Mette', 'Marisa Abela', 'Lucy Boynton', 'Rob Brydon', 'Tom Stourton', 'Chris Taylor', 'David Mumeni', 'Olivia Brody', 'Isla Ashworth', 'Eire Farrell', 'Daisy Duczmal', 'Genvieve Toussaint', 'Isabella Nightingale-Mercado', 'Millie-Rose Crossley', 'Anvita Nehru', 'Kayla-Mai Alvares', 'Luke Mullen', 'Patrick Luwis', 'Mac Brandt', 'Paul Jurewicz', 'Oraldo Austin', 'Benjamin Arthur', 'Carlos Jacott', 'Adam Ray', 'George Basil', 'Ptolemy Slocum', 'Deb Hiett', 'James Leon', 'Oliver Vaquer', 'Tony Noto', 'Christopher T. Wood', 'Ann Roth', 'Annie Mumolo', 'Elise Gallup', 'McKenna Roberts', 'Brylee Hsu', 'Sasha Milstein', 'Lauren Holt', 'Sterling Jones', 'Ryan Piers Williams', 'Jamaal Lewis', 'Kathryn Akin', 'Grace Jabbari', 'Ira Mandela Siobhan', 'Lisa Spencer', 'Naomi Weijand', 'Tom Clark', 'Ireanne Abenoja', 'Davide Albonetti', 'Charlotte Anderson', 'Michael Anderson', 'Rico Bakker', 'James Bamford', 'William John Banks', 'Callum Bell', 'Adam Blaug', 'Mason Boyce', 'Taylor Bradshaw', 'Alex Brown', 'Miekaile Browne', 'Lewis Calcutt', 'Nikkita Chadha', 'Oliver Chapman', 'Megan Charles', 'Callum Clack', 'Danny Coburn', 'Kat Collings', 'Adam Crossley', 'Sia Dauda', 'Gustave Die', 'Grace Durkin', 'Joelle Dyson', 'Lewis Easter', 'Onyemachi Ejimofor', 'Cameron Everitt', 'Luke Field-Wright', 'Sasha Flesch', 'Adam Fogarty', 'Michael John French', 'Anna-Kay Gayle', 'Charlie Goddard', 'Marlie Goddard', 'Ellis Harman', 'Yasmin Harrison', 'Josh Hawkins', 'James Healy', 'Tim Hodges', 'Mira Jebari', 'Beccy Jones', 'Thomas Kalek', 'Lily Laight', 'Maiya Leeke', 'Cristian Liberti', 'Prodromos Marneros', 'Nahum McLean', 'Jordan Melchor', 'Ramzan Miah', 'Andy Monaghan', 'Florivaldo Mossi', 'Hannah Nazareth', 'Grant Neal', 'Freja Nicole', 'Shaun Niles', 'Ella Nonini', 'Jack William Parry', 'Josie Pocock', 'Barnaby Quarendon', 'Redmand Rance', 'Zara Richards', 'Liam Riddick', 'Alana Rixon', 'Adam Paul Robertson', 'Kingdom Sibanda', 'Sebastian Skov', 'Aaron J. Smith', 'Joshua Smith', 'Lucia-Rose Sokolowski', 'Janine Somcio', 'Alex Sturman', 'Callum Sterling', 'Todd Talbot', 'Charles Tatman', 'Grant Thresh', 'Connor Tidman', 'Wahchi Vong', 'Jerry Wan', 'Sasha Wareham', 'Stan West', 'Oliver Wheeler', 'Josh Wild', 'Joe Wolstenholme', 'Richard Womersley', 'Ashley Young']",3.87,5.0,"['Comedy', 'Adventure']",114,"['UK', 'USA']",English,['English'],"['LuckyChap Entertainment', 'Heyday Films', 'NB/GG Pictures', 'Mattel', 'Warner Bros. Pictures']",3559582,442673,1543871,26000,12171,26007,17455,86314,92550,372082,386579,808550,342027,765804,2909539,https://letterboxd.com/film/barbie/
Spider-Man: Across the Spider-Verse,2023,"Joaquim Dos Santos, Justin K. Thompson","['Shameik Moore', 'Hailee Steinfeld', 'Jason Schwartzman', 'Oscar Isaac', 'Brian Tyree Henry', 'Luna Lauren Velez', 'Jake Johnson', 'Issa Rae', 'Karan Soni', 'Shea Whigham', 'Greta Lee', 'Amandla Stenberg', 'Jharrel Jerome', 'Andy Samberg', 'Jack Quaid', 'Rachel Dratch', 'Ziggy Marley', 'Jorma Taccone', 'Daniel Kaluuya', 'Mahershala Ali', 'J.K. Simmons', 'Donald Glover', 'Elizabeth Perkins', 'Kathryn Hahn', 'Ayo Edebiri', 'Nicole Delaney', 'Antonina Lentini', 'Atsuko Okatsuka', 'Peter Sohn', 'Melissa Sturm', 'Lorraine Velez', 'Nic Novicki', 'Taran Killam', 'Metro Boomin', 'Josh Keaton', 'Sofia Barclay', 'Danielle Perez', 'Yuri Lowenthal', 'Rita Rani Ahuja', 'Ismail Bashey', 'Oscar Camacho', 'Freddy Ferrari', 'Kerry Gutierrez', 'Kamal Khan', 'Angelo Sekou Kouyate', 'Andrew Leviton', 'David Michie', 'Sumit Naig', 'Juan Pacheco', 'Chrystee Pharris', 'Ben Pronsky', 'Al Rodrigo', 'Stan Sellers', 'Warren Sroka', 'Jasper Johannes Andrews', 'Gredel Berrios Calladine', 'Natalia Castellanos', 'Russell Tyre Francis', 'Deepti Gupta', 'Sohm Kapila', 'Pradnya Kuwadekar', 'Ashley London', 'Christopher Miller', 'Andrea Navedo', 'Lakshmi Patel', 'Jacqueline Pinol', 'Eliyas Qureshi', 'Lashana Rodriguez', 'Jaswant Dev Shrestha', 'Libby Thomas Dickey', 'Jason Linere-White', 'Sitara Attaie', 'Mayuri Bhandari', 'June Christopher', 'Michelle Jubilee Gonzalez', 'Marabina Jaimes', 'Rez Kempton', 'Lex Lang', 'Phil Lord', 'Richard Miro', 'Doug Nicholas', ""Shakira Ja'nai Paye"", 'James Pirri', 'Marley Ralph', 'Michelle Ruff', 'Dennis Singletary', 'Amanda Troop', 'Ruth Zalduondo', 'Kimberly Bailey', 'Sanjay Chandani', 'Melanie Duke', 'Jorge R. Gutierrez', 'Miguel Jiron', 'Deepti Kingra-Mickelsen', 'Luisa Leschin', 'Caitlin McKenna', 'Andrew Morgado', 'Arthur Ortiz', 'Eliana A. Perez', 'Juan Pope', 'Mike Rianda', 'Erika Scopelli', 'Narender Sood', 'Cedric L. Williams', 'Kimiko Glenn', 'Peggy Lu', 'Andrew Garfield', 'Denis Leary', 'Tobey Maguire', 'Cliff Robertson', 'Alfred Molina', 'Post Malone']",4.45,5.0,"['Animation', 'Adventure', 'Science Fiction', 'Action']",140,['USA'],English,"['English', 'Hindi', 'Italian', 'Spanish']","['Columbia Pictures', 'Sony Pictures Animation', 'Lord Miller', 'Pascal Pictures', 'Arad Productions', 'Marvel Entertainment']",2149542,406985,1091881,49000,2022,3404,1890,11287,13175,67520,99840,354608,361198,848402,1763346,https://letterboxd.com/film/spider-man-across-the-spider-verse/
Beau Is Afraid,2023,Ari Aster,"['Joaquin Phoenix', 'Patti LuPone', 'Amy Ryan', 'Nathan Lane', 'Kylie Rogers', 'Denis Ménochet', 'Parker Posey', 'Zoe Lister-Jones', 'Armen Nahapetian', 'Julia Antonelli', 'Stephen McKinley Henderson', 'Richard Kind', 'Hayley Squires', 'Julian Richings', 'Bill Hader', 'Alicia Rosario', 'James Cvetkovski', 'Catherine Bérubé', 'Stephanie Herrera', 'Bradley Fisher', 'Peter Seaborne', 'Michael Esper', 'Manuel Tadros', 'Karl Roy', 'Marc-André Brisebois', 'Tyrone Benskin', 'Ernest-James Chuipka', 'Archie Madekwe', 'Greg Halpin', 'Luis Oliva', 'Charles Hardy', 'Marie-Michelle Garon', 'Maev Beaty', 'Patrick Kwok-Choon', 'Michael Gandolfini', 'Théodore Pellerin', 'Mike Taylor', 'Luke Alexander James McPhail', 'Ryan S. Hill', 'Bentley Hughes', 'Kwasi Songui', 'Sylvain Landry', 'Tristan D. Lalla', 'Emmanuel Schwartz', 'Cat Lemieux', 'Lily Bird', 'Arthur Holden', 'François Paquette', 'Alex Bisping', 'Lucas Gosselin', 'Joe Cobden', 'Harry Strandjofski', 'Anana Rydvald', 'Isabelle Brabant', 'Tarah Schwartz', 'Barry Morgan', 'David Mamet', 'John Walsh', 'Karim Babin', 'Lee Villeneuve', 'Steve Newburn', 'Kayla Dobilas', 'Gord Robertson', 'Pamela Iveta', 'Jason Detheridge', 'Luz Tercero', 'Geneviève Marin', 'Julien Fortin', 'Marc-André Casavant']",3.44,3.0,"['Fantasy', 'Comedy', 'Adventure']",179,"['Finland', 'USA']",English,['English'],"['A24', 'Square Peg', 'IPR.VC', 'Access Entertainment']",430745,131379,118013,2500,4722,8625,7438,24287,27535,59794,65498,89019,36208,32028,355154,https://letterboxd.com/film/beau-is-afraid/
Bottoms,2023,Emma Seligman,"['Rachel Sennott', 'Ayo Edebiri', 'Ruby Cruz', 'Havana Rose Liu', 'Kaia Gerber', 'Nicholas Galitzine', 'Miles Fowler', 'Marshawn Lynch', 'Dagmara Dominczyk', 'Punkie Johnson', 'Zamani Wilder', 'Summer Joy Campbell', 'Virginia Tucker', 'Wayne Pére', 'Toby Nichols', 'Cameron Stout', 'Ted Ferguson', 'Bruno Rose', 'Zach Primo', 'Liz Elkins Newcomer', 'Krystal Alayne Chambers', 'Alyssa Matthews', 'Lacey Dover']",3.82,4.0,['Comedy'],91,['USA'],English,['English'],"['Brownstone Productions', 'Orion Pictures']",979592,188667,405020,21000,3508,7322,6237,23996,30013,99765,128704,233230,98528,210328,841631,https://letterboxd.com/film/bottoms/
Past Lives,2023,Celine Song,"['Greta Lee', 'Teo Yoo', 'John Magaro', 'Moon Seung-ah', 'Yim Seung-min', 'Yoon Ji-hye', 'Choi Won-young', 'An Min-young', 'Seo Yeon-woo', 'Chang Ki-ha', 'Shin Hee-cheol', 'Park Jun-hyuk', 'Jack Alberts', 'Jane Yubin Kim', 'Song Noo-ri', 'Jin Si-ah', 'Choi Yoon-seo', 'Hwang Seung-eon', 'Jojo T. Gibbs', 'Emily Cass McDonnell', 'Federico Rodriguez', 'Conrad Schott', 'Kristen Sieh', 'Oge Agulué', 'Chase Sui Wonders', 'Isaac Powell', 'Jay Karales']",4.18,4.5,"['Drama', 'Romance']",106,"['South Korea', 'USA']",English,"['English', 'Korean']","['A24', 'Killer Films', '2AM', 'CJ ENM']",1028376,282687,437801,23000,1259,2621,2167,11167,15292,61250,95629,264103,183219,252882,889589,https://letterboxd.com/film/past-lives/
Talk to Me,2022,"Michael Philippou, Danny Philippou","['Sophie Wilde', 'Alexandra Jensen', 'Joe Bird', 'Otis Dhanji', 'Miranda Otto', 'Zoe Terakes', 'Chris Alosio', 'Marcus Johnson', 'Alexandria Steffensen', 'Ari McCarthy', 'Sunny Johnson', 'James Oliver', 'Cass Cumerford', 'Jett Gazley', 'Kitt Erhart-Bruce', 'Hamish Phillips', 'Kidaan Zelleke', 'Sarah Brokensha', 'Jayden Davison', 'Jodie Dry', 'Frances Cassar', 'Kelly Butler', 'Ava Stenta', 'Harli Ames', 'Leeanna Walsman', 'Kerry Reid', 'Robin Northover', 'Jacek Koman', 'Helene Philippou', 'Jude Turner', 'Zac Scott', 'Jess Kuss', 'David Roberts', 'Demi Van Kasteren', 'Pia Gillings', 'Oscar Wangel', 'Courtlan Gordan', 'Louisa Giameos', ""Jem O'Callaghan"", 'Joe Romeo', 'Alex Noel McCarthy', 'Charlie Morkunas', 'Patricia Haycock', 'Murray Haycock', 'Catherine Purling', 'Nicola Thiele', 'David Simmons', 'Joseph House Baker', 'Alice Scheid', 'Anita Kimber', 'Ben Bullock', 'Brian Godfrey', 'Cooper Duncan', 'Daniel Pitt', 'Danielle Ruggiero-Prior', 'Dylan Warren', 'Emily Fogg', 'Emily Gun', 'Jason Moore', 'Jessica Homewood', 'Kate Portus', 'Lelum Rathnayake', 'Matt Goldwyn', 'Michael Gilmore', 'Philip Maynard', 'Sarah Baber', 'Saravjit Singh', 'Shadrack Kamau', 'Thomas Gardner', 'Mark Duncan', 'Ella Fenwick', 'Michael Harpas', 'Nikolas Gelios', 'Alex Philippou', 'Con Lipapis', 'Con Patelias', 'Louis Vavaroutsos', 'Uncle Mars', 'Nick Lipapis', 'KSI', 'Simon Minter', 'Harry Lewis', 'Josh Bradley', 'Ethan Payne', 'Vikram Barn', 'Tobi Brown']",3.56,4.0,"['Horror', 'Thriller']",95,"['Australia', 'UK']",English,"['English', 'Greek (modern)']","['Causeway Films', 'Metrol Technology', 'Screen Australia', 'South Australian Film Corporation', 'Bankside Films', 'Head Gear Films', 'Adelaide Film Festival Investment Fund']",851665,162753,255976,2200,3168,6686,6519,26252,36324,120477,164388,235642,68111,63545,731112,https://letterboxd.com/film/talk-to-me-2022/
Black Panther: Wakanda Forever,2022,Ryan Coogler,"['Letitia Wright', 'Tenoch Huerta Mejía', ""Lupita Nyong'o"", 'Danai Gurira', 'Winston Duke', 'Dominique Thorne', 'Angela Bassett', 'Florence Kasumba', 'Michaela Coel', 'Mabel Cadena', 'Lake Bell', 'Alex Livinalli', 'Robert John Burke', 'Danny Sapani', 'Isaach De Bankolé', 'Connie Chiume', 'Martin Freeman', 'Julia Louis-Dreyfus', 'Richard Schiff', 'Michael B. Jordan', 'Dorothy Steel', 'Zainab Jah', 'Sope Aluko', 'Trevor Noah', 'Shawn Roberts', 'Zola Williams', 'Janeshia Adams-Ginyard', 'Jemini Powell', 'Marija Abney', 'Keisha Tucker', 'Ivy Haralson', 'Maya Macatumpag', 'Baaba Maal', 'Jabari Exum', 'Massamba Diop', 'Magatte Saw', 'Gerardo Aldana', 'Gigi Bermingham', 'Rudolph Massanga', 'Judd Wild', 'Amber Harrington', 'Michael Blake Kruse', 'Justin James Boykin', 'Anderson Cooper', 'Mackenro Alexander', 'Kamaru Usman', 'T. Love', 'Floyd Anthony Johns Jr.', 'Jermaine Brantley', 'Granger Summerset II', 'Luke Lenza', 'Alan Wells', 'Bill Barrett', 'Lieiry J. Perez Escalera', 'Sevyn Hill', 'Gavin Macon', 'Skylar Ebron', 'Taylor Holmes', 'Angela Cipra', 'Faya Madrid', 'María Telón', 'María Mercedes Coroy', 'Josué Maychi', 'Sal Lopez', 'Irma Estella La Guerre', 'Manuel Chavez', 'Leonardo Castro', 'Juan Carlos Cantu', 'Shawntae Hughes', 'Corey Hibbert', 'Zaiden James', 'Aba Arthur', 'Délé Ogundiran', 'Kevin Changaris', 'Valerio Dorvillen', 'Don Castor', 'Jonathan González Collins', 'Divine Love Konadu-Sun', 'Chadwick Boseman']",3.36,4.0,"['Adventure', 'Science Fiction', 'Action']",162,['USA'],English,"['English', 'French', 'Haitian, Haitian Creole', 'Spanish', 'Xhosa']",['Marvel Studios'],1044645,198485,263736,5500,5111,11587,12206,46738,61615,159830,155734,184363,55354,78944,771482,https://letterboxd.com/film/black-panther-wakanda-forever/
The Menu,2022,Mark Mylod,"['Anya Taylor-Joy', 'Ralph Fiennes', 'Nicholas Hoult', 'Janet McTeer', 'Paul Adelstein', 'Rob Yang', 'Aimee Carrero', 'John Leguizamo', 'Arturo Castro', 'Reed Birney', 'Hong Chau', 'Judith Light', 'Mark St. Cyr', 'Rebecca Koon', 'Peter Grosz', 'Christina Brucato', 'Adam Aalderks', 'Jon Paul Allyn', 'Mel Fair', 'Cristian Gonzalez', 'Matthew Cornwell', 'John Wilkins III', 'John Cola', 'Michael A. Dean', 'Marcus Aveons Duncan', 'Alexander Goldstein', 'Grant Henley', 'A. Jae Michele', 'Rachel Trautmann', 'Victor Zheng', 'Michael Neal', 'Brandon Herron', 'Jay Shadix', 'Melisa Lopez', 'Elbert Kim']",3.54,0.5,"['Comedy', 'Thriller', 'Horror']",107,['USA'],English,"['English', 'Spanish']","['Hyperobject Industries', 'Searchlight Pictures', 'Gary Sanchez Productions', 'TSG Entertainment']",2121191,213998,658323,4800,5018,16352,13458,75012,85590,327787,348006,521192,135239,157679,1685333,https://letterboxd.com/film/the-menu-2022/
Glass Onion,2022,Rian Johnson,"['Daniel Craig', 'Edward Norton', 'Janelle Monáe', 'Kathryn Hahn', 'Leslie Odom Jr.', 'Kate Hudson', 'Dave Bautista', 'Jessica Henwick', 'Madelyn Cline', 'Noah Segan', 'Jackie Hoffman', 'Dallas Roberts', 'Stephen Sondheim', 'Angela Lansbury', 'Natasha Lyonne', 'Kareem Abdul-Jabbar', 'Serena Williams', 'Yo-Yo Ma', 'Jacek Czajka', 'Dan Chariton', 'Eddie Gorodetsky', 'Coco Shinomiya', 'Dilcia Barrera', 'Mark Newman', 'Adam Davenport', 'Lauren Ivy', ""Momčilo 'Momo' Pićurić"", 'N.J. Gentry', 'Ali Goksoy', 'James Payton', 'T. Florian Karnowski', 'Jake Tapper', 'Panagiotis Margetis', 'Adele Franck', 'Ethan Hawke', 'Hugh Grant', 'Joseph Gordon-Levitt']",3.45,4.0,"['Comedy', 'Crime', 'Mystery']",140,['USA'],English,['English'],['T-Street'],2120409,186587,608483,1500,6544,22351,16818,93421,97885,347463,323518,451505,122995,121727,1604227,https://letterboxd.com/film/glass-onion/
Bones and All,2022,Luca Guadagnino,"['Taylor Russell', 'Timothée Chalamet', 'Mark Rylance', 'Anna Cobb', 'André Holland', 'David Gordon Green', 'Michael Stuhlbarg', 'Jessica Harper', 'Chloë Sevigny', 'Kendle Coffey', 'Ellie Parker', 'Madeleine Hall', 'Christine Dye', 'Sean Bridgers', 'Jake Horowitz', 'Marshall Jackson', 'Marcia Dangerfield', 'Burgess Byrd', 'Max Soliz', 'Johanna McGinley', 'Hannah Barlow', 'Claudio Encarnacion Montero', 'Sue Hopkins', 'Aaron J. Gould', 'Brady Gentry', 'Dori Lucas', ""Tom O'Brien"", 'Jenny McManus', 'John E. Brownlee']",3.65,3.0,"['Horror', 'Drama', 'Romance']",131,"['Italy', 'USA']",English,['English'],"['Frenesy Film', 'Per Capita Productions', 'MeMo Films', 'The Apartment Pictures', '3 Marys Entertainment', 'Tenderstories', 'Elafilm']",624700,145927,205412,14000,3254,6647,5459,21417,25894,77137,95169,149648,62050,69503,516178,https://letterboxd.com/film/bones-and-all/
Nope,2022,Jordan Peele,"['Daniel Kaluuya', 'Keke Palmer', 'Brandon Perea', 'Michael Wincott', 'Steven Yeun', 'Wrenn Schmidt', 'Keith David', 'Devon Graye', 'Terry Notary', 'Barbie Ferreira', 'Donna Mills', 'Oz Perkins', 'Eddie Jemison', 'Jacob Kim', 'Sophia Coto', 'Jennifer Lafleur', 'Andrew Patrick Ralston', 'Lincoln Lambert', 'Pierce Kang', 'Roman Gross', 'Alex Hyde-White', 'Hetty Chang', 'Liza Treyger', 'Ryan W. Garcia', 'Courtney Stephens', 'Caden J. Lovgren', ""Malcolm Jae O'Shea"", 'Evan Shafran', 'Mark Casimir Dyniewicz Jr.']",3.72,4.0,"['Mystery', 'Science Fiction', 'Horror']",130,['USA'],English,"['English', 'Spanish', 'Portuguese']","['Monkeypaw Productions', 'Universal Pictures']",1654879,275940,586114,12000,5124,14334,9380,50373,51116,192978,220346,410513,165935,192857,1312956,https://letterboxd.com/film/nope/
Decision to Leave,2022,Park Chan-wook,"['Tang Wei', 'Park Hae-il', 'Lee Jung-hyun', 'Go Kyung-pyo', 'Park Yong-woo', 'Kim Shin-young', 'Yoo Seung-mok', 'Jung Yi-seo', 'Jung Young-sook', 'Lee Hak-ju', 'Park Jeong-min', 'Jeong Ha-dam', 'Seo Hyun-woo', 'Teo Yoo', 'Jeong So-ri', 'Shin An-jin', 'Kim Do-yeon', 'Go Min-si', 'Cha Seo-won', 'Joo In-young', 'Choi Sun-ja', 'Ahn Jin-sang', 'Jin Yong-uk', 'Choi Dae-hoon', 'Kim Mi-hwa', 'Kwak Eun-jin', 'Ahn Seong-bong', 'Lee Yong-nyeo', 'Hwang Jae-won', 'Shon Gwan-ho', 'Jung Hyuk', 'Yoon Sung-won', 'Kim Sung-gon', 'Moon Soon-ju', 'Kim Gwi-rye', 'Han Hyeon-jik', 'Kim Do-dam', 'Han Seo-wool', 'Moon Jung-dae', 'Yoo In-hye', 'Kwon Hyuk', 'Lee Ji-ha', 'Jun Sung-ae', 'Kim Gook-jin', 'Kim Sang-hyun', 'Cha Sang-do', 'Kang Gyeong-su']",3.97,3.5,"['Mystery', 'Romance', 'Thriller']",138,['South Korea'],Korean,"['Korean', 'English', 'Chinese']",['Moho Film'],328151,106378,105941,3600,360,908,1003,4814,7665,28522,48079,92016,48805,31210,263382,https://letterboxd.com/film/decision-to-leave/
Aftersun,2022,Charlotte Wells,"['Paul Mescal', 'Frankie Corio', 'Brooklyn Toulson', 'Celia Rowlson-Hall', 'Sally Messham', 'Ayşe Parlak', 'Sophia Lamanova', 'Spike Fearn', 'Harry Perdios', 'Frank Corio', 'Ruby Thompson', 'Ethan James Smith', 'Onur Ekşioğlu', 'Cafer Karahan', 'Kayleigh Coleman', 'John Stuifzand', 'Tyler Mutlu', 'Kieran Burton', 'Nijat Gachayev', 'Sarah Makharine', 'Erol Cengizalp', 'Djamel Turner']",4.24,5.0,['Drama'],102,"['UK', 'USA']",English,"['English', 'Spanish', 'Turkish']","['PASTEL', 'BBC Film', 'Tango Entertainment', 'Unified Theory', 'Screen Scotland', 'BFI']",918626,244966,407129,53000,1302,3062,2094,10731,12859,51691,73019,203308,146545,262449,767060,https://letterboxd.com/film/aftersun/
Triangle of Sadness,2022,Ruben Östlund,"['Harris Dickinson', 'Charlbi Dean', 'Woody Harrelson', 'Zlatko Burić', 'Vicki Berlin', 'Dolly de Leon', 'Henrik Dorsin', 'Iris Berben', 'Jean-Christophe Folly', 'Amanda Walker', 'Oliver Ford Davies', 'Sunnyi Melles', 'Thobias Thorwid', 'Jiannis Moustos', 'Timoleon Gketsos', 'Alicia Eriksson', 'Carolina Gynning', 'Ralph Schicha', 'Arvin Kananian', 'Mia Benson', 'Stefan Gödicke', 'Nana Manu', 'Alexander Virenhem', 'Malte Gårdinger', 'William-Patrik Molvén', 'Fredrik Quinones', 'Filip Roséen', 'Chidiegwu Chidi', 'Charlie Westerberg', 'Erik Andersson', 'Hamlet Talje Willoughby', 'Victor Köhler', 'Daniel Estehghari', 'Alfons Miari', 'Isak Barrow', 'Alfred Lindström', 'Augustine Kajue', 'Florand Kaufeldt', 'Theodor Öhrn', 'Jin Zou', 'David Alexanderson', 'Olof Källström', 'Julian Redaelli', 'Egil Ahlenius', 'Carl Jood', 'Chand Smith', 'Malick Afocozi', 'Ludvig Fast', 'Victor Norlander', 'Anton Isaksson', 'Brian Kamara', 'Eric Svirins', 'Hugo Palm', 'Simon Bredenberg', 'Noa Del Castillo Hallberg', 'Ann-Sofi Back', 'Robert Rydberg', 'Robert Nordberg', 'Charlotte Brattin', 'Mira Uszkureit', 'Alex Schulman', 'Amanda Schulman', 'Emma Warg', 'Camilla Läckberg', 'Christina Saliba', 'Karin Myrenberg', 'Linnea Olsson', 'Asta Stensson', 'Elsa Sjökvist', 'Johanna Ovelius', 'Shaniaz Hama Ali', 'Catrin Nilsson', 'Jacob Papinniemi', 'Mimmi Brundin', 'Melodie Von Sass', 'Ellen Dixdotter', 'Sofia Lücke', 'Ronja Kruus', 'Chris Westerstrom', 'Hedda Rehnberg', 'Robert Martufi', 'Hanna Oldenburg', 'Arnella Zetterström', 'Sepideh Mazloom', 'Eric Dernsjö', 'Nikolas Drosopoulos', 'Chrysanthi Theodosi', 'Maria Alexiou', 'Marilena Lampropoulou', 'Christos Ntoulas', 'Nikolas Chalkiadakis', 'Grace Milaszewski', 'Melina Marksaitis', 'Theresa Johannesson', 'Leocilyn Capanas', 'Nanette Lipponen', 'Maria Danica Herrera', 'Maria Grace Concepcion', 'Kristin Delfinado', 'Shanilou Del Mundo', 'John Michael Yadao', 'Freedom Ziad Ahmed', 'Robert Jomar', 'Garry Villador Deveratturda', 'Christopher Janiola', 'Mario Rowen Bugtai', 'Mohamed Lachras', 'Taye Nathanail', 'Athanasios Papaioannou', 'Alexandros Sargologos', 'Allen Bandiola', 'Nicolas Refin', 'Lontoc Rolyn', 'John Paul Paugio', 'John Paulo', 'Anne Brocklin Bergman', 'Johnny Bergman', 'Fredrik Wikingsson', 'Henrik Thott', 'Thomas Peteus', 'Magnus Jeansson', 'Stefan Martikainen', 'Britt-Marie Svensson', 'Arash Raoufi', 'Nafiseh Hadizadeh', 'Inga Hahn', 'Lennart Hahn', 'Linda Anborg', 'Karina Baldock Wiking', 'Olof Myhrman', 'Rebecca Fager', 'Hilde Fager', 'Emmylou Saguindel-Holmé', 'Ann-Marie Eriksson', 'Pål Svensson', 'Giorgos Kyriakopoulos', 'Pavlos Laoutaris', 'Eva Koroli', 'Alexia Mpogdanou', 'Giannis Papathymios', 'Achilles Vatrikas', 'Gianna Andritsaki', 'Dauda Coneth', 'Beh Solo Kone', 'Yussif Zakaria', 'Papa Cheik Jade']",3.69,2.5,"['Drama', 'Comedy']",147,"['Denmark', 'France', 'Germany', 'Greece', 'Mexico', 'Sweden', 'Switzerland', 'Turkey', 'UK', 'USA']",English,"['English', 'Akan', 'German', 'French', 'Swedish', 'Tagalog', 'Greek (modern)']","['30WEST', 'BBC Film', 'Bord Cadre Films', 'Coproduction Office', 'Film i Väst', 'Heretic', 'Imperative Entertainment', 'Sovereign Films', 'Plattform Produktion', 'SVT', 'BFI', 'Piano', 'ARTE France Cinéma', 'ZDF/Arte', 'Essential Filmproduktion', 'TRT Sinema']",720474,138002,196647,2800,2969,6540,5944,22316,28650,84610,119557,185839,72017,55217,583659,https://letterboxd.com/film/triangle-of-sadness/
Top Gun: Maverick,2022,Joseph Kosinski,"['Tom Cruise', 'Miles Teller', 'Jon Hamm', 'Glen Powell', 'Lewis Pullman', 'Charles Parnell', 'Bashir Salahuddin', 'Monica Barbaro', 'Jay Ellis', 'Danny Ramirez', 'Greg Tarzan Davis', 'Jennifer Connelly', 'Ed Harris', 'Val Kilmer', 'Jack Schumacher', 'Manny Jacinto', 'Kara Wang', 'Jake Picking', 'Raymond Lee', 'Jean Louisa Kelly', 'Lyliana Wray', 'Chelsea Harris', 'Darnell Kirkwood', 'Austin Bowerman', 'Stephanie Andrea Barron', 'Alec Williams', 'Rachel Winfree', 'Peter Mark Kendall', 'Ian Gary', 'Bob Stephenson', 'Landon Gordon', 'Margaret Strabala', 'Ryan Heilmann', 'Shantel Limbo', 'James Handy', 'Whylip Lee', 'Tristan Henry', 'Jason Robert Boles', 'Brian Ferguson', 'Chido Nwokocha', 'Chaz Ingram', 'Rachael Markarian', 'Shannon Kane', 'Norman Ralph Eliasen', 'Anthony Edwards', 'Meg Ryan', 'Kelly McGillis', 'Tommy Kijas']",3.99,3.0,"['Action', 'Drama']",131,['USA'],English,['English'],"['Skydance Media', 'Don Simpson/Jerry Bruckheimer Films', 'Paramount']",1557109,238363,541536,12000,3740,8034,5150,25410,27417,119534,151978,378185,202679,256231,1178358,https://letterboxd.com/film/top-gun-maverick/
X,2022,Ti West,"['Mia Goth', 'Jenna Ortega', 'Brittany Snow', 'Kid Cudi', 'Martin Henderson', 'Owen Campbell', 'Stephen Ure', 'James Gaylyn', 'Simon Prast', 'Geoff Dolan', 'Matthew J. Saville', 'Bryony Skillington', 'Karen Gillan']",3.42,3.5,"['Mystery', 'Thriller', 'Horror']",106,['USA'],English,['English'],"['A24', 'Little Lamb Productions']",1164167,220736,350873,5300,5171,11783,10864,44770,58729,194362,209135,256541,62150,88340,941845,https://letterboxd.com/film/x-2022/
Everything Everywhere All at Once,2022,"Daniel Scheinert, Daniel Kwan","['Michelle Yeoh', 'Stephanie Hsu', 'Ke Huy Quan', 'James Hong', 'Jamie Lee Curtis', 'Tallie Medel', 'Jenny Slate', 'Harry Shum Jr.', 'Biff Wiff', 'Sunita Mani', 'Aaron Lazar', 'Brian Le', 'Andy Le', 'Neravana Cabral', 'Chelsey Goldsmith', 'Craig Henningsen', 'Anthony Molinari', 'Dan Brown', 'Anthony N.', 'Cara Marie Chooljian', 'Randall Archer', 'Efka Kvaraciejus', 'Peter Banifaz', 'Audrey Wasilewski', 'Li Jing', 'Dylan Henry Lau', 'Boon Pin Koh', 'Timothy Eulich', 'Daniel Scheinert', 'Michiko Nishiwaki', 'Jane Lui', 'Jason Hamer', 'Timothy Ralston', 'Hiroshi Yada', 'Randy Newman', 'Amanda MacLeod']",4.31,5.0,"['Science Fiction', 'Adventure', 'Comedy', 'Action']",140,['USA'],English,"['English', 'Cantonese', 'Chinese']","['A24', 'IAC Films', 'AGBO', 'Ley Line Entertainment', 'TPC', 'Year of the Rat']",2854570,489303,1447425,129000,9466,19882,9950,46146,36423,141122,145406,440416,350994,1105935,2305740,https://letterboxd.com/film/everything-everywhere-all-at-once/
Turning Red,2022,Domee Shi,"['Rosalie Chiang', 'Sandra Oh', 'Ava Morse', 'Hyein Park', 'Maitreyi Ramakrishnan', 'Orion Lee', 'Wai Ching Ho', 'Tristan Allerick Chen', 'James Hong', 'Lori Tan Chinn', 'Mia Tagano', 'Sherry Cola', 'Lillian Lim', 'Jordan Fisher', ""Finneas O'Connell"", 'Topher Ngo', 'Grayson Villanueva', 'Josh Levi', 'Sasha Roiz', 'Addie Chandler', 'Lily Sanfelippo', 'Anne-Marie', 'Evan Agos', 'Trinity Bliss', 'Devin Bright', 'Kimberly Brooks', 'Ian James Corlett', 'Juliet Donenfeld', 'Terri Douglas', 'Ellen Dubin', 'Alison Fernandez', 'Jack Fisher', 'Erin Fitzgerald', 'Poon Fong-Fong', 'Hadley Gannaway', 'David Hayter', 'Karen Huie', 'Sean T. Krishnan', 'Arif S. Kinchen', 'Paul Kwo', 'James Taku Leung', 'Lydia Look', 'David Chen', 'Kim Mai Guest', 'Caleb Jeon', 'Ethan Loh', 'Noel Mason', 'Jason Maybaum', 'Jaiden McLeod', 'Ulka Simone Mohanty', 'Iara Nemirovsky', 'Capri Oliver', 'Benjamin Plessala', 'Tsang Pui-Yee', 'Maddix Robinson', 'Zeno Robinson', 'Vivienne Rutherford', 'Violet Grace Schaffer', 'Mariel Sheets', 'Christian J. Simon', 'Artemis Snow', 'Sydney Thomas', 'Timothy Cheng Chi-Sing', 'Benjamin Valic', 'Shondalia White', 'Cedric L. Williams']",3.53,4.0,"['Family', 'Comedy', 'Fantasy', 'Animation']",100,['USA'],English,"['English', 'Cantonese', 'Chinese', 'Korean', 'French']","['Walt Disney Pictures', 'Pixar']",1057618,155464,286173,1800,7343,12015,8773,33658,39264,133740,138403,210097,58651,97957,739901,https://letterboxd.com/film/turning-red/
Spider-Man: No Way Home,2021,Jon Watts,"['Tom Holland', 'Zendaya', 'Benedict Cumberbatch', 'Jacob Batalon', 'Jon Favreau', 'Jamie Foxx', 'Willem Dafoe', 'Alfred Molina', 'Benedict Wong', 'Tony Revolori', 'Marisa Tomei', 'Andrew Garfield', 'Tobey Maguire', 'Angourie Rice', 'Arian Moayed', 'Paula Newsome', 'Hannibal Buress', 'Martin Starr', 'J.B. Smoove', 'J.K. Simmons', 'Rhys Ifans', 'Charlie Cox', 'Thomas Haden Church', 'Emily Fong', 'Mary Rivera', 'Rudy Eisenzopf', 'Kathleen Cardoso', 'Jonathan Sam', 'Andrew Dunlap', 'Ben VanderMey', 'Zany Dunlap', 'B. Clutch Dunlap', 'Minnah Dunlap', 'Gary Weeks', 'Gregory Konow', 'Carol Anne Dines', 'Anisa Nyell Johnson', 'Willie Burton', 'Mallory Hoff', 'Greg Clarkson', 'Regina Ting Chen', 'Robert Mitchel Owenby', 'Glenn Keogh', 'Paris Benjamin', 'Jwaundace Candece', 'Taylor St. Clair', 'Gabriella Cila', 'Darnell Appling', 'Rolando Fernandez', 'Edward Force', 'Michael Le', 'Dean Meminger', 'Frederick A. Brown', 'Cristo Fernández', 'Clay Savage', 'Tom Hardy', 'Jake Gyllenhaal', 'Jay Karales', 'Gina Aponte', 'John Barnes', 'Harry Holland', 'Haroon Khan', 'John M. Maiers']",3.84,4.0,"['Action', 'Adventure', 'Science Fiction']",148,['USA'],English,"['English', 'Tagalog']","['Marvel Studios', 'Pascal Pictures', 'Columbia Pictures']",2817753,395386,1114939,18000,7172,15065,12640,60075,69508,279640,266923,552196,226649,492692,1982560,https://letterboxd.com/film/spider-man-no-way-home/
Encanto,2021,"Byron Howard, Jared Bush","['Stephanie Beatriz', 'María Cecilia Botero', 'John Leguizamo', 'Diane Guerrero', 'Jessica Darrow', 'Carolina Gaitán', 'Angie Cepeda', 'Ravi Cabot-Conyers', 'Mauro Castillo', 'Rhenzy Feliz', 'Wilmer Valderrama', 'Adassa', 'Maluma', 'Rose Portillo', 'Juan Castano', 'Sarah-Nicole Robles', 'Hector Elias', 'Alan Tudyk', 'Noemi Josefina Flores', 'Olga Merediz', 'Jorge E. Ruiz Cano', 'Alyssa Bella Candiani', 'Paisley Day Herrera', 'Brooklyn Skylar Rodriguez', 'Ezra Rudulph']",3.53,3.5,"['Animation', 'Comedy', 'Family', 'Fantasy']",102,['USA'],English,"['English', 'Spanish']","['Walt Disney Animation Studios', 'Walt Disney Pictures']",1347403,126499,341215,2500,4840,10556,8614,41377,49757,177789,166413,241852,65626,121394,888218,https://letterboxd.com/film/encanto/
Evangelion: 3.0+1.0 Thrice Upon a Time,2021,Hideaki Anno,"['Megumi Ogata', 'Yuko Miyamura', 'Maaya Sakamoto', 'Megumi Hayashibara', 'Kotono Mitsuishi', 'Yuriko Yamaguchi', 'Tomokazu Seki', 'Tetsuya Iwanaga', 'Junko Iwao', 'Miki Nagasawa', 'Koki Uchiyama', 'Fumihiko Tachiki', 'Motomu Kiyokawa', 'Akira Ishida', 'Koichi Yamadera', 'Ryunosuke Kamiki', 'Mariya Ise', 'Miyuki Sawashiro', 'Takehito Koyasu', 'Akio Otsuka', 'Anri Katsu', 'Hiro Yuuki', 'Sayaka Ohara', 'Joe Fria']",4.26,5.0,"['Drama', 'Science Fiction', 'Action', 'Animation']",155,['Japan'],Japanese,['Japanese'],['khara'],100930,27604,44227,2700,460,573,519,1440,1589,4718,6597,17323,14979,27837,76035,https://letterboxd.com/film/evangelion-3010-thrice-upon-a-time/
Jojo Rabbit,2019,Taika Waititi,"['Roman Griffin Davis', 'Thomasin McKenzie', 'Scarlett Johansson', 'Taika Waititi', 'Sam Rockwell', 'Rebel Wilson', 'Alfie Allen', 'Stephen Merchant', 'Archie Yates', 'Luke Brandon Field', 'Joe Weintraub', 'Brian Caspe', 'James McVan', 'Judith Georgi', 'Victoria Hogan', 'Bethany Adams', 'Iva Šindelková', 'Matej Seifert', 'Trish Osmond', 'Odeta Cali', 'Samuel Bogner', 'Robert East', 'Curtis Matthew', 'Hardy Griffin Davis', 'Christian Howlings', 'Billy Rayner', 'Gabriel Andrews', 'Stanislav Callas', 'Sam Haygarth', 'Issy Stewart', 'Gilby Griffin Davis', 'Adolf Hitler']",4.03,5.0,"['War', 'Drama', 'Comedy']",108,"['Czechia', 'New Zealand', 'USA']",English,"['English', 'German']","['Fox Searchlight Pictures', 'Defender Films', 'Piki Films', 'TSG Entertainment', 'Czech Anglo Productions']",1905031,222124,764865,19000,3407,7563,5155,25974,27387,134145,170957,452330,201107,321620,1349645,https://letterboxd.com/film/jojo-rabbit/
Knives Out,2019,Rian Johnson,"['Daniel Craig', 'Chris Evans', 'Ana de Armas', 'Jamie Lee Curtis', 'Michael Shannon', 'Don Johnson', 'Toni Collette', 'LaKeith Stanfield', 'Christopher Plummer', 'Katherine Langford', 'Jaeden Martell', 'Riki Lindhome', 'Edi Patterson', 'Frank Oz', 'K Callan', 'Noah Segan', 'M. Emmet Walsh', 'Marlene Forte', 'Raúl Castillo', 'Shyrley Rodriguez', 'Kerry Frances', 'Gary Tanguay', 'Octavia Chavez-Richmond', 'Joseph Gordon-Levitt', 'Paul Bellefeuille', 'Ben Bunnag', 'Michael Burnell', 'Frankie Francois', 'Marcela Jaramillo', 'Gabrielle Lorthe', 'Rob Lévesque', 'Paul Tawczynski']",3.99,4.5,"['Mystery', 'Comedy', 'Crime']",131,['USA'],English,"['English', 'Spanish']","['Lionsgate', 'MRC', 'T-Street']",3206591,288922,1407902,30000,2703,10307,5569,45403,41324,276947,282850,814567,316287,496958,2292915,https://letterboxd.com/film/knives-out-2019/
Joker,2019,Todd Phillips,"['Joaquin Phoenix', 'Robert De Niro', 'Zazie Beetz', 'Frances Conroy', 'Brett Cullen', 'Shea Whigham', 'Bill Camp', 'Glenn Fleshler', 'Leigh Gill', 'Josh Pais', 'Rocco Luna', 'Marc Maron', 'Sondra James', 'Murphy Guyer', 'Douglas Hodge', 'Dante Pereira-Olson', 'Carrie Louise Putrello', 'Sharon Washington', 'Hannah Gross', 'Frank Wood', 'Brian Tyree Henry', 'April Grace', 'Mick Szal', 'Carl Lundstedt', 'Michael Benz', 'Ben Warheit', 'Gary Gulman', 'Sam Morril', 'Chris Redd', 'Mandela Bellamy', 'Demetrius Dotson II', 'Greer Barnes', 'Ray Iannicelli', 'Bryan Callen', 'Peter Hans Benson', 'Vito Gerbino', 'Adam Quezada', 'Xavyer Ureña', 'Evan Rosado', 'Damian Emmanuel', 'Mike Troll', 'Jane Fergus', 'David Gibson', 'Tony D. Head', 'Jeff McCarthy', 'Kim Brockington', 'Troy Roberts', 'Lou Young', 'Michael-Scott Druckenmiller', 'Craig Austin', 'John Cenatiempo', 'Danny Schoch', 'Keith Buterbaugh', 'James Ciccone', 'Rich Campbell', 'Roger Squitero', 'Steven Elson', 'Graham Mabry', 'John Alldred', 'Alonzo Wright', 'Jack Wilkins', 'Richard Baratta', 'Mary Kate Malat', 'Adrienne Acevedo Lovette', 'Justin Theroux', 'Alissa Bourne', 'Jamaal Burcher', 'John Cashin', 'Jason John Cicalese', 'Brendan Patrick Connor', 'Blaise Corrigan', 'Dennis Jay Funny', 'James P. Harkins', 'Joseph Hernandez', 'Ben Heyman', 'Graham Maby', 'Jesse Schratz', 'Isabella Ferreira', 'Shade Rupe']",3.84,4.0,"['Crime', 'Drama', 'Thriller']",122,"['Canada', 'USA']",English,['English'],"['Warner Bros. Pictures', 'Joint Effort', 'Village Roadshow Pictures', 'Bron Studios', 'DC Films']",3735366,287655,1525371,23000,9886,25739,16508,87472,74563,337883,309661,832741,301415,604288,2600156,https://letterboxd.com/film/joker-2019/
Parasite,2019,Bong Joon-ho,"['Song Kang-ho', 'Lee Sun-kyun', 'Cho Yeo-jeong', 'Choi Woo-shik', 'Park So-dam', 'Lee Jung-eun', 'Jang Hye-jin', 'Park Myung-hoon', 'Jung Ji-so', 'Jung Hyeon-jun', 'Park Keun-rok', 'Jung Yi-seo', 'Cho Jae-myung', 'Jeong Ik-han', 'Kim Kyu-baek', 'Ahn Seong-bong', 'Yoon Young-woo', 'Park Jae-wook', 'Lee Dong-yong', 'Jeon Eun-mi', 'Kim Geon', 'Lee Joo-hyung', 'Lee Ji-hye', 'Kim Bo-ryeong', 'Park Hye-sook', 'Baek Seung-hwan', 'Riccardo Ferraresso', 'Ko Kwan-jae', 'Lee Si-hoon', 'Seo Bok-hyeon', 'Shim Soo-mi', 'Yoon Hye-ree', 'Andreas Fronk', 'Anna Elisabeth Rihlmann', 'Rosie Peralta', 'Shin Seung-min', 'Park Seo-jun', 'Kwak Sin-ae', 'Choi Jeong-hyun', 'Kim Ha-eon', 'Lee Eun-hee', 'Choi Ji-won', 'Park Jae-wan', 'Hwang In-gyeong', 'Kim Yeong-jo', 'Kim Jung-woo', 'Lee Sang-kyung', 'Lee Si-hoo', 'Ahn Jin-sang', 'Joost Klein']",4.56,5.0,"['Comedy', 'Thriller', 'Drama']",133,['South Korea'],Korean,"['Korean', 'English', 'German']",['Barunson E&A'],3738129,514134,2143995,88000,2468,5436,2268,15110,12617,90953,105817,567003,470572,1523885,2796129,https://letterboxd.com/film/parasite-2019/
Us,2019,Jordan Peele,"[""Lupita Nyong'o"", 'Winston Duke', 'Shahadi Wright Joseph', 'Evan Alex', 'Tim Heidecker', 'Elisabeth Moss', 'Cali Sheldon', 'Noelle Sheldon', 'Yahya Abdul-Mateen II', 'Anna Diop', 'Madison Curry', 'Duke Nicholson', 'Napiera Groves', 'Kara Hayward', 'Lon Gowan', 'Alan Frazier', 'Dustin Ybarra', 'Nathan Harrington', 'Darrel Cherney', 'James Cobb', 'Alessandro Garcia', 'David M Sandoval Jr.', 'Ashley McKoy', 'Jordan Peele']",3.65,4.0,"['Thriller', 'Horror']",116,['USA'],English,['English'],"['Monkeypaw Productions', 'Universal Pictures', 'Blumhouse Productions', 'QC Entertainment', 'Perfect World Pictures']",1859990,225786,598259,9300,4464,13178,9529,53225,55198,221204,216947,381746,118195,205731,1279417,https://letterboxd.com/film/us-2019/
Spider-Man: Into the Spider-Verse,2018,"Rodney Rothman, Peter Ramsey","['Shameik Moore', 'Jake Johnson', 'Hailee Steinfeld', 'Mahershala Ali', 'Brian Tyree Henry', 'Lily Tomlin', 'Luna Lauren Velez', 'Zoë Kravitz', 'John Mulaney', 'Kimiko Glenn', 'Nicolas Cage', 'Kathryn Hahn', 'Liev Schreiber', 'Chris Pine', 'Natalie Morales', 'Edwin H. Bravo', 'Oscar Isaac', 'Greta Lee', 'Stan Lee', 'Jorma Taccone', 'Joaquín Cosío', ""Marvin 'Krondon' Jones III"", 'Kim Yarbrough', 'Lake Bell', 'Jessica Mikayla Adams', 'Gredel Berrios Calladine', 'Sarah D. Cole', 'Kelby Joseph', 'Mimi Davila', 'Claudia Choi', 'Melanie Haynes', 'Joseph Izzo', 'Nick Jaine', 'Muneeb Rehman', 'Carlos Zaragoza', 'Post Malone', 'David Applebee', 'Juan Carlos Arvelo', 'Adam Brown', 'Jon Bruno', 'Darcy Rose Byrnes', 'Oscar Camacho', 'June Christopher', 'Alycia Cooper', 'Michelle Jubilee Gonzalez', 'Terrence Hardy Jr.', 'Bridget Hoffman', 'Rif Hutton', 'Miguel Jiron', 'Harrison Knight', 'Lex Lang', 'Donna Lynn Leavy', 'Andrew Leviton', 'Caitlin McKenna', 'Scott Menville', 'Christopher Miller', 'Arthur Ortiz', 'Juan Pacheco', 'Devika Parikh', ""Shakira Ja'nai Paye"", 'Courtney Peldon', 'Chrystee Pharris', 'Jacqueline Pinol', 'Juan Pope', 'Al Rodrigo', 'Joseph Sanfelippo', 'Justin Shenkarow', 'Dennis Singletary', 'Warren Sroka', 'Melissa Sturm', 'Holly Walker', 'Jason Linere-White', 'Ruth Zalduondo']",4.42,5.0,"['Adventure', 'Animation', 'Science Fiction', 'Action']",117,['USA'],English,"['English', 'Japanese', 'Spanish']","['Columbia Pictures', 'Lord Miller', 'Pascal Pictures', 'Sony Pictures Animation', 'Arad Productions']",3353378,440106,1726827,75000,1631,5450,1900,15375,13810,115260,135836,593993,400551,1118947,2402753,https://letterboxd.com/film/spider-man-into-the-spider-verse/
Hereditary,2018,Ari Aster,"['Toni Collette', 'Alex Wolff', 'Gabriel Byrne', 'Ann Dowd', 'Milly Shapiro', 'Mallory Bechtel', 'Brock McKinney', 'Jake Brown', 'Morgan Lund', 'Christy Summerhays', 'Bus Riley', 'Jarrod Phillips', 'Heidi Mendez', 'Zachary Arthur', 'David Stanley', 'Moises L. Tovar', 'Austin R. Grant', 'Gabriel Monroe Eckert', 'Harrison Nell', 'BriAnn Rachele', 'Kathleen Chalfant', 'Ari Aster', 'Marilyn Miller', 'Mark Blockovich', 'Rachelle Hardy', 'Jason Miyagi', 'Lorenzo Silva', 'Alexis Long']",3.97,5.0,"['Thriller', 'Horror', 'Mystery']",128,['USA'],English,['English'],['PalmStar Media'],2017210,327988,751511,31000,7305,17595,8923,45431,36304,153593,159274,430534,219704,378004,1456667,https://letterboxd.com/film/hereditary/
Happy Death Day,2017,Christopher Landon,"['Jessica Rothe', 'Israel Broussard', 'Ruby Modine', 'Rachel Matthews', 'Billy Slaughter', 'Charles Aitken', 'Jimmy Gonzales', 'Jason Bayle', 'Rob Mello', 'Phi Vu', 'Caleb Spillyards', 'Laura Clifton', 'Cariella Smith', 'Tran Tran', 'Blaine Kern III', 'Dane Rhodes', 'Tenea Intriago', 'Missy Yager', 'Rachel Black', 'Donna DuPlantier', 'GiGi Erneta', 'Ramsey Anderson', 'Brady Lewis']",3.01,3.5,"['Mystery', 'Thriller', 'Horror', 'Comedy']",97,['USA'],English,['English'],"['Vesuvius Productions', 'Blumhouse Productions', 'Digital Riot Media', 'Universal Pictures']",560772,67749,95833,521,4716,11603,10090,34789,37403,96357,66224,56541,9294,15240,342257,https://letterboxd.com/film/happy-death-day/
Get Out,2017,Jordan Peele,"['Daniel Kaluuya', 'Allison Williams', 'Bradley Whitford', 'Catherine Keener', 'Caleb Landry Jones', 'Betty Gabriel', 'Marcus Henderson', 'Lil Rel Howery', 'LaKeith Stanfield', 'Stephen Root', 'Ashley LeConte Campbell', 'John Wilmot', 'Caren L. Larkey', 'Julie Ann Doan', 'Rutherford Cravens', 'Geraldine Singer', 'Yasuhiko Oyama', 'Richard Herd', 'Erika Alexander', 'Jeronimo Spinx', 'Ian Casselberry', 'Zailand Adams', 'Trey Burvant', 'John Donohue', 'Sean Paul Braud', 'Keegan-Michael Key', 'Jordan Peele', 'Evan Shafran', 'Tahj Vaughans']",4.16,5.0,"['Horror', 'Mystery', 'Thriller']",104,['USA'],English,['English'],"['Monkeypaw Productions', 'Blumhouse Productions', 'QC Entertainment']",3244121,356680,1435626,23000,2517,7323,4327,29041,26911,188578,214906,742050,349139,708263,2273055,https://letterboxd.com/film/get-out-2017/
A Silent Voice,2016,Naoko Yamada,"['Miyu Irino', 'Saori Hayami', 'Aoi Yuki', 'Kensho Ono', 'Yuki Kaneko', 'Yui Ishikawa', 'Megumi Han', 'Toshiyuki Toyonaga', 'Mayu Matsuoka', 'Sachiko Kojima', 'Hana Takeda', 'Fuminori Komatsu', 'Ikuko Tani', 'Erena Kamata', 'Ayano Hamaguchi', 'Ryunosuke Watanuki', 'Ryo Nishitani', 'Takuya Masumoto', 'Satsuki Yukino', 'Akiko Hiramatsu']",4.16,5.0,"['Drama', 'Animation']",130,['Japan'],Japanese,['Japanese'],"['Kyoto Animation', 'ABC Animation', 'Kodansha', 'Pony Canyon', 'Quaras', 'Shochiku']",479151,69781,172931,14000,910,1573,1433,5586,6887,26456,36377,90231,55992,106255,331700,https://letterboxd.com/film/a-silent-voice/
Your Name.,2016,Makoto Shinkai,"['Ryunosuke Kamiki', 'Mone Kamishiraishi', 'Ryo Narita', 'Aoi Yuki', 'Nobunaga Shimazaki', 'Kaito Ishikawa', 'Kanon Tani', 'Masaki Terasoma', 'Sayaka Ohara', 'Kazuhiko Inoue', 'Chafurin', 'Yuka Kato', 'Kana Hanazawa', 'Masami Nagasawa', 'Etsuko Ichihara', 'Yuka Terasaki', 'Takashi Onozuka', 'Yohei Namekawa', 'Miyuu Tsuji', 'Shinya Hamazoe', 'Kanami Satou', 'Shinjirou Gouda', 'Yasuhiro Kikuchi', 'Tamari Hinata', 'Nozomi Yamane', 'Yuuki Shin', 'Tatsuya Murakami', 'Nodoka Hasegawa', 'Baron Yamazaki', 'Mimi Tamaki', 'Suguru Inoue', 'Ryoko Usami', 'Miho Morisaki', 'Tsuyoshi Minamijima', 'Aika Oomae', 'Tomohiro Yamaguchi', 'Takayuki Nakatsukasa', 'Hiroki Matsukawa', 'Shouko Negoro', 'Yuki Ominami', 'Manami Hanawa', 'Miho Tabata', 'Aiko Matsuzaka', 'Eriko Tomioka', 'Eiji Yamamoto', 'Tomoki Lavernhe', 'Haruna Okawa', 'Yuine Ikeda', 'Dan Kanemitsu', 'C. Elliott Wong', 'Simona Stanzani Pini', 'Chris McKenna', 'Akira Kuwahara', 'Yusuke Takeda']",4.21,4.5,"['Romance', 'Animation', 'Drama']",106,['Japan'],Japanese,['Japanese'],"['CoMix Wave Films', 'TOHO', 'KADOKAWA', 'East Japan Marketing & Communications', 'AMUSE', 'voque ting', 'Lawson Entertainment']",1064841,154462,405641,25000,1956,3546,2839,12256,14633,57562,75041,191126,120194,253079,732232,https://letterboxd.com/film/your-name/
Whiplash,2014,Damien Chazelle,"['Miles Teller', 'J.K. Simmons', 'Paul Reiser', 'Melissa Benoist', 'Austin Stowell', 'Chris Mulkey', 'Nate Lang', 'Charlie Ian', 'Jayson Blair', 'Kavita Patil', 'Damon Gupton', 'Suanne Spoke', 'Max Kasch', 'Kofi Siriboe', 'C.J. Vana', 'Tarik Lowe', 'Tyler Kimball', 'Rogelio Douglas Jr.', 'Adrian Burks', 'Joseph Bruno', 'Michael D. Cohen', 'Jocelyn Ayanna', 'Keenan Henson', 'Janet Hoskins', 'April Grace', ""Clifton 'Fou Fou' Eddie"", 'Calvin C. Winbush', 'Marcus Henderson', 'Tony Baker', 'Henry G. Sanders', 'Sam Campisi', 'Jimmie Kirkpatrick', 'Keenan Allen', 'Ayinde Vaughan', 'Shai Golan', 'Yancey Wells', 'Candace Roberge', 'Krista Kilber', 'Stephen Hsu', 'Herman Johansen', 'Wendee Lee', 'Joseph Oliveira', 'Michelle Ruff', 'Daniel Weidlein']",4.43,5.0,"['Drama', 'Music']",107,['USA'],English,['English'],"['Bold Films', 'Blumhouse Productions', 'Right of Way Films']",2838965,370572,1343741,108000,2205,5314,2585,17212,14788,101838,125686,523560,394166,909241,2096595,https://letterboxd.com/film/whiplash-2014/
About Time,2013,Richard Curtis,"['Domhnall Gleeson', 'Rachel McAdams', 'Bill Nighy', 'Tom Hollander', 'Margot Robbie', 'Lydia Wilson', 'Lindsay Duncan', 'Richard Cordery', 'Joshua McGuire', 'Will Merrick', 'Vanessa Kirby', 'Tom Hughes', 'Clemmie Dugdale', 'Harry Hadden-Paton', 'Mitchell Mullen', 'Lisa Eichhorn', 'Jenny Rainsford', 'Natasha Powell', 'Mark Healy', 'Ben Benson', 'Philip Voss', 'Tom Godwin', 'Pal Aron', 'Catherine Steadman', 'Andrew Martin Yates', 'Charlie Barnes', 'Verity Fullerton', 'Veronica Owings', 'Olivia Konten', 'Sarah Heller', 'Jaiden Dervish', 'Jacob Francis', 'Jago Freud', 'Ollie Phillips', 'Sophie Pond', 'Sophie Brown', 'Molly Seymour', 'Matilda Sturridge', 'Tom Stourton', 'Rebecca Chew', 'Jon West', 'Graham Richard Howgego', 'Kerrie Liane Studholme', 'Kenneth Hazeldine', 'Barbar Gough', 'Jon Boden', 'Charlie Curtis', 'Richard Griffiths', 'Richard E. Grant', 'Haruka Abe', 'Lee Nicholas Harris', 'Matthew C. Martino', 'Tom Coulston']",4.0,5.0,"['Fantasy', 'Romance', 'Drama']",123,"['UK', 'USA']",English,['English'],"['Universal Pictures', 'Relativity Media', 'Working Title Films', 'Working Title Films']",994297,155254,347473,37000,1671,4017,3130,14317,16463,69602,85970,185801,81668,187360,649999,https://letterboxd.com/film/about-time/
Inception,2010,Christopher Nolan,"['Leonardo DiCaprio', 'Joseph Gordon-Levitt', 'Ken Watanabe', 'Tom Hardy', 'Elliot Page', 'Dileep Rao', 'Cillian Murphy', 'Tom Berenger', 'Marion Cotillard', 'Pete Postlethwaite', 'Michael Caine', 'Lukas Haas', 'Talulah Riley', 'Tohoru Masamune', 'Taylor Geare', 'Claire Geare', 'Johnathan Geare', 'Yuji Okumoto', 'Earl Cameron', 'Ryan Hayward', 'Miranda Nolan', 'Russ Fega', 'Tim Kelleher', 'Coralie Dedykere', 'Silvie Laguna', 'Virgile Bramly', 'Nicolas Clerc', 'Jean-Michel Dagory', 'Marc Raducci', 'Tai-Li Lee', 'Magnus Nolan', 'Helena Cullinan', 'Mark Fleischmann', 'Shelley Lang', 'Adam Cole', 'Jack Murray', 'Kraig Thornber', 'Angela Nathenson', 'Natasha Beaumont', 'Carl Gilliard', 'Jill Maddrell', 'Alex Lombard', 'Nicole Pulliam', 'Peter Basham', 'Michael Gaston', 'Felix Scott', 'Andrew Pleavin', 'Lisa Reynolds', 'Jason Tendell', 'Jack Gilroy', 'Shannon Welles', 'Daniel Girondeaud']",4.19,3.5,"['Action', 'Adventure', 'Science Fiction']",148,"['UK', 'USA']",English,"['English', 'French', 'Japanese', 'Swahili']","['Legendary Pictures', 'Syncopy', 'Warner Bros. Pictures']",3326078,373431,1352221,58000,2907,9034,4617,34817,28025,191458,184825,643442,328640,692358,2120123,https://letterboxd.com/film/inception/
Howl's Moving Castle,2004,Hayao Miyazaki,"['Chieko Baisho', 'Takuya Kimura', 'Akihiro Miwa', 'Tatsuya Gashûin', 'Ryunosuke Kamiki', 'Mitsunori Isaki', 'Yo Oizumi', 'Akio Otsuka', 'Daijirô Harada', 'Haruko Katō', 'Makoto Yasumura', 'Manabu Muraji', 'Keiko Tsukamoto', 'Yayoi Kazuki', 'Seiji Sasaki', 'Hiroshi Takahashi', 'Mayuno Yasokawa', 'Rio Kanno', 'Kojiro Takahashi', 'Akiyoshi Sakurai', 'Momoko Kurita', 'Mina Meguro', 'Yasuhiro Ohara', 'Akio Tanaka', 'Rina Yamada', 'Tomoe Hanba', 'Naoto Kaji', 'Teruo Seki', 'Shinobu Katabuchi', 'Masako Inui', 'Yohei Ohbayashi', 'Takeshi Miyajima', 'Yukiko Mizuochi', 'Maki Koizumi', 'Nobito Nishioka', 'Teppei Akashi', 'Reiko Onishi', 'Yumiko Ogata', 'Hiroyuki Kamikawaji', 'Tomohiko Kiyota', 'Kaori Kaneko', 'Aiko Nakajima', 'Jun Kuwahara', 'Yuta Kobayashi', 'Yuko Nomura', 'Tamayo Fukushi', 'Atsushi Takeya', 'Yoshifumi Nakagawa', 'Hiroki Tanaka', 'Yohei Matsukado', 'Akane Fujisaki', 'Izumi Matsuoka', 'Tomonori Yanagibashi', 'Ken Yasuda', 'Hiroyuki Morisaki', 'Shigeyuki Totsugi', 'Takuma Otoo']",4.32,4.5,"['Fantasy', 'Adventure', 'Animation']",119,['Japan'],Japanese,['Japanese'],"['Studio Ghibli', 'dentsu Music And Entertainment', 'Mitsubishi', 'Nippon Television Network Corporation', 'TFC', 'Tokuma Shoten', 'd-rights']",1688148,252378,747905,71000,638,1641,1377,7828,11009,61345,96505,285989,175736,478796,1120864,https://letterboxd.com/film/howls-moving-castle/
Shrek 2,2004,"Andrew Adamson, Kelly Asbury","['Mike Myers', 'Eddie Murphy', 'Cameron Diaz', 'Julie Andrews', 'Antonio Banderas', 'John Cleese', 'Rupert Everett', 'Jennifer Saunders', 'Aron Warner', 'Kelly Asbury', 'Cody Cameron', 'Conrad Vernon', 'Christopher Knights', 'David P. Smith', 'Mark Moseley', 'Kelly Cooney Cilella', 'Wendy Bilanski', 'Larry King', 'Guillaume Aretos', 'Chris Miller', 'Latifa Ouaou', 'Alina Phelan', 'Erika Thomas', 'Joan Rivers', 'Andrew Adamson']",4.03,5.0,"['Family', 'Adventure', 'Comedy', 'Animation', 'Fantasy']",93,['USA'],English,['English'],"['DreamWorks Animation', 'Pacific Data Images']",1905284,136921,466174,20000,1946,5907,4261,26283,25176,121016,105015,231716,94173,312087,927580,https://letterboxd.com/film/shrek-2/
Oldboy,2003,Park Chan-wook,"['Choi Min-sik', 'Yoo Ji-tae', 'Kang Hye-jung', 'Kim Byeong-ok', 'Ji Dae-han', 'Oh Dal-su', 'Seung-shin Lee', 'Yoon Jin-seo', 'Oh Tae-kyung', 'Yoo Yeon-seok', 'You Il-han', 'Lee Young-hee', 'Kim Yeong-ae', 'Lee Mi-Mi', 'Han Jae-duk', 'Kwak Jung-ae', 'Kim San', 'Chae-soo Jang', 'Seol-a Im', 'Syd Lim', 'Chang-hak Choi', 'Bi-Joon Shin', 'Seok-jae Seong', 'Choi Jae-sup', 'Yoon Jin-yul', 'Mun Seong-bok', 'Park Jae-Woong', 'Oh Soon-tae', 'Lee Hong-pyo', 'Geun-Seok Park', 'Heo Myeong-haeng', 'Kim Won-jung', 'Sung-Gyu Park', 'Jung-pil Lee', 'Seon-Rang Han', 'Beom-sik Sin', 'Jung-ok Han', 'Baek Dong-hyun', 'Ju Myeong-cheol', 'Park Ji-hun', 'Choon-Beom Choi', 'Seo Myeong-Seok', 'Jeon Woo-jae', 'Cho Sang-kyung', 'Oh Young-joo', 'Lee Ji-hye', 'Joong-hyun Ji', 'Sang-moo Moon', 'Oh Kwang-rok', 'Lee Dae-yeon', 'Park Myung-shin', 'Kim Su-hyun', 'Yong-ih']",4.39,4.5,"['Thriller', 'Mystery', 'Drama', 'Action']",120,['South Korea'],Korean,['Korean'],"['Show East', 'CJ Entertainment', 'Egg Film', 'Cineclick Asia']",1007686,214544,376915,31000,1835,2681,1914,7415,8256,34489,54814,186757,163725,259863,721749,https://letterboxd.com/film/oldboy/
Scream 3,2000,Wes Craven,"['David Arquette', 'Neve Campbell', 'Courteney Cox', 'Patrick Dempsey', 'Scott Foley', 'Lance Henriksen', 'Matt Keeslar', 'Jenny McCarthy-Wahlberg', 'Emily Mortimer', 'Parker Posey', 'Deon Richmond', 'Kelly Rutherford', 'Liev Schreiber', 'Patrick Warburton', 'Jamie Kennedy', 'Roger L. Jackson', 'Julie Janney', 'Richmond Arquette', ""Nancy O'Dell"", 'Ken Taylor', 'Lynn McRee', 'Roger Corman', 'Josh Pais', 'John Embry', 'Lawrence Hecht', 'Lisa Beach', 'Kevin Smith', 'Jason Mewes', 'Erik Erath', 'Daniel K. Arredondo', 'Lisa Gordon', 'Heather Matarazzo', 'Carrie Fisher', 'C.W. Morgan', 'Beth Toussaint', 'Wes Craven', 'Strawberry Fields']",2.81,3.0,"['Mystery', 'Horror']",117,['USA'],English,['English'],"['Dimension Films', 'Konrad Pictures', 'Craven-Maddalena Films']",469943,105730,85748,577,1913,6960,9898,41699,52978,99454,44329,33480,5859,14147,310717,https://letterboxd.com/film/scream-3/
Scream 2,1997,Wes Craven,"['Neve Campbell', 'Courteney Cox', 'David Arquette', ""Jerry O'Connell"", 'Timothy Olyphant', 'Jamie Kennedy', 'Laurie Metcalf', 'Elise Neal', 'Sarah Michelle Gellar', 'Liev Schreiber', 'Jada Pinkett Smith', 'Omar Epps', 'Duane Martin', 'Lewis Arquette', 'Rebecca Gayheart', 'Portia de Rossi', 'Heather Graham', 'Roger L. Jackson', 'Joshua Jackson', 'Marisol Nichols', 'Tori Spelling', 'Luke Wilson', 'David Warner', 'Selma Blair', 'Rasila Schroeder', 'Peter Deming', 'Molly Gross', 'Rebecca McFarland', 'Kevin Williamson', 'Sandy Heddings', 'Dave Allen Clark', 'Joe Washington', 'Angie Dillard', 'John Patrick', 'Craig Shoemaker', 'Walter Franks', 'Nina Petronzio', 'Stephanie Belt', 'Richard Bruce Doughty', 'Cornelia Kiss', 'Lucy Lin', 'Philip Pavel', ""Nancy O'Dell"", 'Greg Meiss', 'Adam Shankman', 'Kris Andersson', 'Carmen M. Chavez', 'Anne Fletcher', 'Erik Hyler', 'Sebastian La Cause', 'Lance MacDonald', 'Laurie Sposit', 'Ryan Lee Swanson', 'Sarah Christine Smith', 'Jack Baun', 'Christopher Doyle', 'Jason Horgan', 'Daniel K. Arredondo', 'John Embry', 'Corey Mendell Parker', 'Tim Hillman', 'Mark Oliver', 'Jennifer Weston', 'Shelly Benedict', 'Paulette Patterson', 'Wes Craven', 'Jason Trost', 'Franco Castan', 'Carrie Collins', 'Rodney L. James', 'Matthew Lillard', 'Deadra Moore']",3.26,3.0,"['Horror', 'Mystery']",120,['USA'],English,['English'],"['Dimension Films', 'Konrad Pictures', 'Craven-Maddalena Films', 'Miramax']",616642,125000,135319,1100,1072,4013,4432,23661,32812,112922,88896,84147,18417,25857,396229,https://letterboxd.com/film/scream-2/
Neon Genesis Evangelion: The End of Evangelion,1997,"Hideaki Anno, Kazuya Tsurumaki","['Megumi Ogata', 'Megumi Hayashibara', 'Kotono Mitsuishi', 'Yuko Miyamura', 'Fumihiko Tachiki', 'Miki Nagasawa', 'Takehito Koyasu', 'Hiro Yuuki', 'Yuriko Yamaguchi', 'Motomu Kiyokawa', 'Akira Ishida', 'Mugihito']",4.46,5.0,"['Science Fiction', 'Drama', 'Action', 'Animation']",87,['Japan'],Japanese,['Japanese'],"['GAINAX', 'movic', 'Star Child Recording', 'TV Tokyo', 'Production I.G', 'KADOKAWA Shoten', 'Toei Company', 'SEGA']",398803,76042,177255,23000,1024,1220,837,2784,3184,12033,17030,53271,45882,134662,271927,https://letterboxd.com/film/neon-genesis-evangelion-the-end-of-evangelion/
Scream,1996,Wes Craven,"['David Arquette', 'Neve Campbell', 'Courteney Cox', 'Matthew Lillard', 'Rose McGowan', 'Skeet Ulrich', 'Jamie Kennedy', 'W. Earl Brown', 'Joseph Whipp', 'Liev Schreiber', 'Drew Barrymore', 'Roger L. Jackson', 'Kevin Patrick Walls', 'David Booth', 'Carla Hatley', 'Lawrence Hecht', 'Lois Saunders', 'Lisa Beach', 'Tony Kilbert', 'C.W. Morgan', 'Frances Lee McCain', 'Troy Bishop', 'Ryan Kennedy', 'Leonora Scelfo', 'Nancy Anne Ridder', 'Lisa Canning', 'Bonnie Wood', 'Aurora Draper', 'Kenny Kwong', 'Justin Sullivan', 'Kurtis Bedford', 'Angela Miller', 'Henry Winkler', 'Linda Blair', 'Wes Craven', 'Matt McDonald', 'Freddy W. Smith']",4.02,3.5,"['Mystery', 'Crime', 'Horror']",112,['USA'],English,['English'],"['Dimension Films', 'Woods Entertainment', 'Miramax']",1493967,326148,552009,59000,1232,4026,2694,18143,19115,105614,118801,297149,122778,292173,981725,https://letterboxd.com/film/scream/
