Film_title,Release_year,Director,Cast,Average_rating,Owner_rating,Genres,Runtime,Countries,Original_language,Spoken_languages,Studios,Watches,List_appearances,Likes,Fans,½,★,★½,★★,★★½,★★★,★★★½,★★★★,★★★★½,★★★★★,Total_ratings,Film_URL
The Conjuring: The Devil Made Me Do It,2021,Michael Chaves,"['Patrick Wilson', 'Vera Farmiga', ""Ruairí O'Connor"", 'Sarah Catherine Hook', 'Julian Hilliard', 'John Noble', 'Eugenie Bondurant', 'Shannon Kook', 'Ronnie Gene Blevins', 'Keith Arthur Bolden', 'Steve Coulter', 'Vince Pisani', 'Charlene Amoia', 'Megan Ashley Brown', 'Sterling Jerins', 'Andrea Andrade', 'Mitchell Hoog', 'Ashley LeConte Campbell', 'Davis Osborne', 'Paul Wilson', 'Mark Rowe', 'Stella Doyle', 'Ingrid Bisu', 'Stacy Johnson', 'Lindsay Ayliffe', 'Nicky Buggs', 'Rebecca Lines', 'Robert Walker Branchaud', 'Nicholas Massouh', 'Chris Greene', 'Kaleka', 'Fabio William']",2.72,4.0,"['Thriller', 'Horror', 'Mystery']",111,['USA'],English,"['English', 'Portuguese']","['New Line Cinema', 'The Safran Company', 'Atomic Monster']",475334,65447,71152,564,4538,12983,14439,50302,53217,90454,41400,35306,6303,17426,326368,https://letterboxd.com/film/the-conjuring-the-devil-made-me-do-it/
Euphoria: F*ck Anyone Who’s Not a Sea Blob,2021,Sam Levinson,"['Zendaya', 'Hunter Schafer', 'Jacob Elordi', 'John Ales', 'Pell James', 'Lauren Weedman', 'Jayden Marcos']",4.21,5.0,['Drama'],48,nan,English,['English'],nan,221522,16515,67968,656,357,562,322,1614,1832,8881,10755,33356,18666,46173,122518,https://letterboxd.com/film/euphoria-fck-anyone-whos-not-a-sea-blob/
Concrete Cowboy,2020,Ricky Staub,"['Idris Elba', 'Caleb McLaughlin', 'Jharrel Jerome', 'Byron Bowers', 'Lorraine Toussaint', 'Method Man', 'Jamil Prattis', 'Ivannah Mercedes', 'Liz Priestley', ""Michael Ta'Bon"", 'Devenie Young', 'Albert C. Lynch, Jr.', 'Charles W Harris III']",3.27,3.0,"['Drama', 'Western']",111,"['UK', 'USA']",English,"['English', 'Spanish']","['Lee Daniels Entertainment', 'Tucker Tooley Entertainment', 'Green Door Pictures', 'Neighborhood Film Co.', 'Endeavor Content']",20288,5228,4626,32,35,119,187,860,1639,4812,3908,2741,607,835,15743,https://letterboxd.com/film/concrete-cowboy/
A Modern Farewell,2020,Chris Wilcha,"[""Ed O'Neill"", 'Sofía Vergara', 'Julie Bowen', 'Ty Burrell', 'Jesse Tyler Ferguson', 'Eric Stonestreet', 'Sarah Hyland', 'Ariel Winter', 'Nolan Gould', 'Rico Rodriguez', 'Aubrey Anderson-Emmons', 'Jeremy Maguire', 'Reid Ewing', 'Benjamin Bratt']",4.24,5.0,"['Documentary', 'Comedy']",42,['USA'],English,['English'],['ABC Studios'],18249,942,6369,64,25,27,17,80,90,557,649,2167,1142,5928,10682,https://letterboxd.com/film/a-modern-farewell/
Joker,2019,Todd Phillips,"['Joaquin Phoenix', 'Robert De Niro', 'Zazie Beetz', 'Frances Conroy', 'Brett Cullen', 'Shea Whigham', 'Bill Camp', 'Glenn Fleshler', 'Leigh Gill', 'Josh Pais', 'Rocco Luna', 'Marc Maron', 'Sondra James', 'Murphy Guyer', 'Douglas Hodge', 'Dante Pereira-Olson', 'Carrie Louise Putrello', 'Sharon Washington', 'Hannah Gross', 'Frank Wood', 'Brian Tyree Henry', 'April Grace', 'Mick Szal', 'Carl Lundstedt', 'Michael Benz', 'Ben Warheit', 'Gary Gulman', 'Sam Morril', 'Chris Redd', 'Mandela Bellamy', 'Demetrius Dotson II', 'Greer Barnes', 'Ray Iannicelli', 'Bryan Callen', 'Peter Hans Benson', 'Vito Gerbino', 'Adam Quezada', 'Xavyer Ureña', 'Evan Rosado', 'Damian Emmanuel', 'Mike Troll', 'Jane Fergus', 'David Gibson', 'Tony D. Head', 'Jeff McCarthy', 'Kim Brockington', 'Troy Roberts', 'Lou Young', 'Michael-Scott Druckenmiller', 'Craig Austin', 'John Cenatiempo', 'Danny Schoch', 'Keith Buterbaugh', 'James Ciccone', 'Rich Campbell', 'Roger Squitero', 'Steven Elson', 'Graham Mabry', 'John Alldred', 'Alonzo Wright', 'Jack Wilkins', 'Richard Baratta', 'Mary Kate Malat', 'Adrienne Acevedo Lovette', 'Justin Theroux', 'Alissa Bourne', 'Jamaal Burcher', 'John Cashin', 'Jason John Cicalese', 'Brendan Patrick Connor', 'Blaise Corrigan', 'Dennis Jay Funny', 'James P. Harkins', 'Joseph Hernandez', 'Ben Heyman', 'Graham Maby', 'Jesse Schratz', 'Isabella Ferreira', 'Shade Rupe']",3.84,4.5,"['Crime', 'Drama', 'Thriller']",122,"['Canada', 'USA']",English,['English'],"['Warner Bros. Pictures', 'Joint Effort', 'Village Roadshow Pictures', 'Bron Studios', 'DC Films']",3740329,288038,1527489,23000,9895,25754,16521,87558,74639,338352,310025,833944,301807,605190,2603685,https://letterboxd.com/film/joker-2019/
Annabelle Comes Home,2019,Gary Dauberman,"['Vera Farmiga', 'Patrick Wilson', 'Mckenna Grace', 'Madison Iseman', 'Katie Sarife', 'Michael Cimino', 'Samara Lee', 'Paul Dean', 'Luca Luhan', 'Alison White', 'Stephen Blackehart', 'Sade Katarina', 'Kenzie Caplan', 'Gary-7', 'Natalia Safran', 'Douglas Tait', 'Alexander Ward', 'Steve Coulter', 'Eddie J. Fernandez', 'Joanna Bartling', 'Sara Raftery', 'Anthony Wemyss', 'Bill Kottkamp', 'Edwin Scheibner', 'Bob Telford', 'Emily Brobst']",2.51,3.5,['Horror'],106,"['USA', 'Yugoslavia']",English,['English'],"['Atomic Monster', 'The Safran Company', 'New Line Cinema']",222513,38121,24530,97,3835,9234,9062,25968,23034,36442,14962,12591,1897,4885,141910,https://letterboxd.com/film/annabelle-comes-home/
Us,2019,Jordan Peele,"[""Lupita Nyong'o"", 'Winston Duke', 'Shahadi Wright Joseph', 'Evan Alex', 'Tim Heidecker', 'Elisabeth Moss', 'Cali Sheldon', 'Noelle Sheldon', 'Yahya Abdul-Mateen II', 'Anna Diop', 'Madison Curry', 'Duke Nicholson', 'Napiera Groves', 'Kara Hayward', 'Lon Gowan', 'Alan Frazier', 'Dustin Ybarra', 'Nathan Harrington', 'Darrel Cherney', 'James Cobb', 'Alessandro Garcia', 'David M Sandoval Jr.', 'Ashley McKoy', 'Jordan Peele']",3.65,3.5,"['Thriller', 'Horror']",116,['USA'],English,['English'],"['Monkeypaw Productions', 'Universal Pictures', 'Blumhouse Productions', 'QC Entertainment', 'Perfect World Pictures']",1862015,226052,598909,9300,4470,13198,9538,53294,55254,221458,217135,382154,118299,206001,1280801,https://letterboxd.com/film/us-2019/
Halloween,2018,David Gordon Green,"['Jamie Lee Curtis', 'Judy Greer', 'Andi Matichak', 'Will Patton', 'Virginia Gardner', 'Nick Castle', 'Toby Huss', 'Drew Scheid', 'Miles Robbins', 'Dylan Arnold', 'Haluk Bilginer', 'Rhian Rees', 'Jefferson Hall', 'James Jude Courtney', 'Jibrail Nantambu', 'Sophia Miller', 'Brien Gregorie', 'Vince Mattis', 'Pedro Lopez', 'Omar J. Dorsey', 'Charlie Benton', 'Christopher Allen Nelson', 'Matthew Anderson', 'Charlie Donadio', 'Carmela McNeal', 'Diva Tyler', 'Kurt Deimer', 'Chris Holloway', 'Roger Antonio', 'Teresa Ann Johnson', 'Jonathan Bruce', 'Michael Harrity', 'Michael Smallwood', 'P.J. Soles', 'Sandy Johnson', 'Colin Mahan', 'Angela Anderson', 'Marian Green', 'W.F. Bell', 'Willie Tyrone Ferguson', 'Johnny Price', 'Aaron Christian Paderewski', 'Omar Azimi', 'Rob Niter', 'Anthony Woodle', 'Ross Bacon']",3.2,5.0,"['Thriller', 'Horror']",106,['USA'],English,['English'],"['Universal Pictures', 'Blumhouse Productions', 'Trancas International Films', 'Rough House Pictures', 'Miramax']",495926,102555,102887,853,2331,6541,6516,24526,29428,83287,68058,71136,14088,18597,324508,https://letterboxd.com/film/halloween-2018/
Get Out,2017,Jordan Peele,"['Daniel Kaluuya', 'Allison Williams', 'Bradley Whitford', 'Catherine Keener', 'Caleb Landry Jones', 'Betty Gabriel', 'Marcus Henderson', 'Lil Rel Howery', 'LaKeith Stanfield', 'Stephen Root', 'Ashley LeConte Campbell', 'John Wilmot', 'Caren L. Larkey', 'Julie Ann Doan', 'Rutherford Cravens', 'Geraldine Singer', 'Yasuhiko Oyama', 'Richard Herd', 'Erika Alexander', 'Jeronimo Spinx', 'Ian Casselberry', 'Zailand Adams', 'Trey Burvant', 'John Donohue', 'Sean Paul Braud', 'Keegan-Michael Key', 'Jordan Peele', 'Evan Shafran', 'Tahj Vaughans']",4.16,3.5,"['Horror', 'Mystery', 'Thriller']",104,['USA'],English,['English'],"['Monkeypaw Productions', 'Blumhouse Productions', 'QC Entertainment']",3248630,357256,1437557,23000,2520,7334,4335,29080,26951,188896,215243,743150,349545,709353,2276407,https://letterboxd.com/film/get-out-2017/
The Witch,2015,Robert Eggers,"['Anya Taylor-Joy', 'Ralph Ineson', 'Kate Dickie', 'Harvey Scrimshaw', 'Ellie Grainger', 'Lucas Dawson', 'Julian Richings', 'Bathsheba Garnett', 'Sarah Stephens', 'Daniel Malik', 'Axtun Henry Dube', 'Athan Conrad Dube', 'Vivien Moore', 'Karen Kaeja', 'Brandy Leary', 'R. Hope Terry', 'Carrie Eklund', 'Madlen Sopadzhiyan', 'Paul Kenworthy', 'Mark Millmna', 'Andy Volpe', 'Phillip Wynne', 'Annawon Weeden', ""Michael O'Hare"", 'Chris Messier', 'Ron Young', 'Nora Messier', 'Bill Rudder', 'Grace Duffy', 'Sophie Bermudez', 'Corrine Manning', 'Heather Huntington Stewart', 'Jeff Smith']",3.84,4.0,"['Drama', 'Mystery', 'Horror']",92,"['Canada', 'USA', 'UK']",English,['English'],"['Very Special Projects', 'Parts & Labor', 'RT Features', 'Rooks Nest Entertainment', 'Maiden Voyage Pictures', 'Pulse Films', 'Scythia Films', 'Code Red Productions', 'Mott Street Pictures']",1197573,244895,399014,13000,3723,9789,5836,28246,27226,106110,131072,273288,113743,151117,850150,https://letterboxd.com/film/the-witch-2015/
Interstellar,2014,Christopher Nolan,"['Matthew McConaughey', 'Anne Hathaway', 'Jessica Chastain', 'Michael Caine', 'Bill Irwin', 'Ellen Burstyn', 'Mackenzie Foy', 'Casey Affleck', 'John Lithgow', 'Wes Bentley', 'David Gyasi', 'Matt Damon', 'Topher Grace', 'Timothée Chalamet', 'David Oyelowo', 'William Devane', 'Josh Stewart', 'Collette Wolfe', 'Leah Cairns', 'Russ Fega', 'Lena Georgas', 'Jeff Hephner', 'Elyes Gabel', 'Brooke Smith', 'Liam Dickinson', 'Francis X. McCarthy', 'Andrew Borba', 'Flora Nolan', 'Griffen Fraser', 'William Patrick Brown', 'Kristian Van der Heyden', 'Joseph Oliveira', 'Ryan Irving', 'Alexander Michael Helisek', 'Benjamin Hardy']",4.34,5.0,"['Science Fiction', 'Drama', 'Adventure']",169,"['UK', 'USA']",English,['English'],"['Legendary Pictures', 'Syncopy', 'Lynda Obst Productions']",3428630,438264,1588331,190000,4080,10519,5302,35842,28384,156674,152477,513748,347491,1142038,2396555,https://letterboxd.com/film/interstellar/
About Time,2013,Richard Curtis,"['Domhnall Gleeson', 'Rachel McAdams', 'Bill Nighy', 'Tom Hollander', 'Margot Robbie', 'Lydia Wilson', 'Lindsay Duncan', 'Richard Cordery', 'Joshua McGuire', 'Will Merrick', 'Vanessa Kirby', 'Tom Hughes', 'Clemmie Dugdale', 'Harry Hadden-Paton', 'Mitchell Mullen', 'Lisa Eichhorn', 'Jenny Rainsford', 'Natasha Powell', 'Mark Healy', 'Ben Benson', 'Philip Voss', 'Tom Godwin', 'Pal Aron', 'Catherine Steadman', 'Andrew Martin Yates', 'Charlie Barnes', 'Verity Fullerton', 'Veronica Owings', 'Olivia Konten', 'Sarah Heller', 'Jaiden Dervish', 'Jacob Francis', 'Jago Freud', 'Ollie Phillips', 'Sophie Pond', 'Sophie Brown', 'Molly Seymour', 'Matilda Sturridge', 'Tom Stourton', 'Rebecca Chew', 'Jon West', 'Graham Richard Howgego', 'Kerrie Liane Studholme', 'Kenneth Hazeldine', 'Barbar Gough', 'Jon Boden', 'Charlie Curtis', 'Richard Griffiths', 'Richard E. Grant', 'Haruka Abe', 'Lee Nicholas Harris', 'Matthew C. Martino', 'Tom Coulston']",4.0,4.0,"['Fantasy', 'Romance', 'Drama']",123,"['UK', 'USA']",English,['English'],"['Universal Pictures', 'Relativity Media', 'Working Title Films', 'Working Title Films']",995836,155661,348128,37000,1673,4022,3134,14333,16484,69691,86093,186106,81810,187771,651117,https://letterboxd.com/film/about-time/
The Conjuring,2013,James Wan,"['Patrick Wilson', 'Vera Farmiga', 'Lili Taylor', 'Ron Livingston', 'Mackenzie Foy', 'Joey King', 'Shannon Kook', 'John Brotherton', 'Hayley McFarland', 'Shanley Caswell', 'Kyla Deaver', 'Sterling Jerins', 'Joseph Bishara', 'Marion Guyot', 'Morganna Bridgers', 'Amy Tipton', 'Zach Pappas', 'Rose Bachtel', 'James D. Nelson', 'Christof Veillon', 'Carmella Gioio', 'Steve Coulter', 'Ashley White', 'Kymoura Kennedy', 'Sean Flynn', 'George T. Zervos', 'Desi Domo', 'Nate Seman', 'Lorraine Warren', 'Arnell Powell', 'Tony Spera', 'Emily Brobst']",3.56,5.0,"['Horror', 'Thriller']",112,['USA'],English,['English'],"['Evergreen Media Group', 'New Line Cinema', 'The Safran Company']",1325500,145298,299962,7900,3003,8479,7011,34081,37862,148670,147301,226530,54389,103644,770970,https://letterboxd.com/film/the-conjuring/
Mamma Mia!,2008,Phyllida Lloyd,"['Meryl Streep', 'Pierce Brosnan', 'Colin Firth', 'Stellan Skarsgård', 'Julie Walters', 'Amanda Seyfried', 'Dominic Cooper', 'Christine Baranski', 'Niall Buggy', 'Chris Jarvis', 'Ashley Lilley', 'Rachel McDowall', 'Philip Michael', 'Juan Pablo Di Pace', 'Enzo Squillino Jr.', 'Ricardo Montez', 'Benny Andersson', 'Spencer Kayden', 'Björn Ulvaeus', 'Rita Wilson', 'Nancy Baldwin', 'Heather Emmanuel', 'Colin Davis', 'Mia Soteriou', 'George Georgiou', 'Hemi Yeroham', 'Maria Lopiano', 'Norma Atallah', 'Myra McFadyen', 'Leonie Hill', 'Jane Foufas', 'Karl Bowe', 'Celestina Banjo', 'Emrhys Cooper', 'Maria Despina', 'Gareth Davis', 'Charlotte Habib', 'Gareth Derrick', 'Jennifer Leung', 'Kage Douglas', 'Lydia Louisa', 'Phillip Dzwonkiewicz', 'Kristina MacMillan', 'Tommy Franzen', 'Lauri Owen', 'Tom Goodall', 'Joanne Sandi', 'Aykut Hilmi', 'Christie Saunders', 'Jamie Hughes-Ward', 'Emma Slater', 'Taylor James', 'Helen Soraya', 'Jack Jefferson', 'Caterina Spano', 'Peter Le Brun', 'Michelle Theunissen', 'Sebastien Torkia', 'Kitty Whitelaw', 'Dylan Turner', 'Nikki Davis-Jones', 'Ed White', 'Michelle Trimboli', 'Sean Williams', 'Kirsty Mather', 'Lee Honey-Jones', 'Rebecca Lee', 'Gareth Chart', 'Clare Louise Connolly', 'Sonny Lee Hymas', 'Kirsty Swain', 'Tim Stanley', 'Lisa Reynolds', 'Sara West', 'Claire Fishenden', 'Adrian Allan', 'Maeve Yanes', 'Anthony Backman', 'Mackenzie Criswell', 'Lori Haley Fox', 'Sommer Garcia', 'Will Jeffs', 'Kirk McGee', 'Meghan McLeod', 'Nikki Rapp']",3.75,5.0,"['Comedy', 'Romance']",108,"['Germany', 'UK', 'USA']",English,"['English', 'Greek (modern)']","['Littlestar', 'Playtone', 'Internationale Filmproduktion Richter']",1408734,175877,427946,43000,6409,14230,9168,36992,34573,116732,95871,177239,56917,254527,802658,https://letterboxd.com/film/mamma-mia/
Brokeback Mountain,2005,Ang Lee,"['Heath Ledger', 'Jake Gyllenhaal', 'Michelle Williams', 'Anne Hathaway', 'Randy Quaid', 'Linda Cardellini', 'Anna Faris', 'David Harbour', 'Roberta Maxwell', 'Kate Mara', 'Peter McRobbie', 'Graham Beckel', 'Mary Liboiron', 'Scott Michael Campbell', 'Marty Antonini', 'David Trimble', 'Larry Reese', 'Valerie Planche', 'Victor Reyes', 'Lachlan Mackintosh', 'Tom Carey', 'Don Bland', 'Steven Cree Molison', 'Duval Lang', 'Dan McDougall', 'Dean Barrett', 'Kade Phillips', 'Steffen Cole Moser', 'Cheyenne Hill', 'Cayla Wolever', 'Sarah Hyslop', 'Jacey Kenny', 'Keanna Dubé', 'Brooklynn Proulx', 'Hannah Stewart', 'Jake Church', 'James Baker', 'Pete Seadon', 'Jerry Callaghan', 'Ken Zilka', 'John Tench', 'Will Martin', 'Gary Lauder', 'Christian Fraser', 'Cam Sutherland', 'Barb Mitchell', 'Rodrigo Prieto', 'Ken Roberts', 'Kailin See', 'Jayson Therrien', 'Erika Walter']",4.1,5.0,"['Romance', 'Drama']",134,"['Canada', 'USA']",English,['English'],"['Focus Features', 'River Road Entertainment', 'Alberta Film Entertainment']",969932,169236,318482,18000,1511,2833,1688,9844,10170,56912,70993,196566,95256,168183,613956,https://letterboxd.com/film/brokeback-mountain/
The Exorcism of Emily Rose,2005,Scott Derrickson,"['Laura Linney', 'Tom Wilkinson', 'Campbell Scott', 'Jennifer Carpenter', 'Kenneth Welsh', 'Mary Beth Hurt', 'Colm Feore', 'Henry Czerny', 'Shohreh Aghdashloo', 'Duncan Fraser', 'Mary Black', 'Julian Christopher', 'Terence Kelly', 'Katie Keating', 'Marilyn Norry', 'Taylor Hill', 'John Innes', 'Iris Graham', 'Andrew Wheeler', 'JR Bourne', 'Joshua Close', 'Aaron Douglas', 'George Gordon', 'Chelah Horsdal', 'Lorena Gale', 'Liduina Vanderspek', 'Cory Lee', 'Ally Warren', 'Steve Archer', 'David Berner']",3.05,5.0,"['Drama', 'Thriller', 'Horror', 'Crime']",122,['USA'],English,['English'],"['Lakeshore Entertainment', 'Firm Films', 'Screen Gems']",133472,19575,16019,243,716,1838,2104,7594,9078,22219,13819,11803,1998,3641,74810,https://letterboxd.com/film/the-exorcism-of-emily-rose/
Mean Girls,2004,Mark Waters,"['Lindsay Lohan', 'Rachel McAdams', 'Lizzy Caplan', 'Lacey Chabert', 'Amanda Seyfried', 'Daniel Franzese', 'Jonathan Bennett', 'Rajiv Surendra', 'Tim Meadows', 'Tina Fey', 'Ana Gasteyer', 'Neil Flynn', 'Amy Poehler', 'Ky Pham', 'Dwayne Hill', 'Diego Klattenhoff', 'Alexandra Stapley', 'Laura de Carteret', 'Molly Shanahan', 'Elana Shilling', 'Graham Kartna', 'Ely Henry', 'David Aherne', 'Ayo Agbonkpolo', 'Jonathan Malen', 'Jeff Moser', 'Danielle Nguyen', 'Miranda Edwards', 'Les Porter', 'Eve Crawford', 'Jack Newman', 'Michelyn Emelle', 'Bathsheba Garnett', 'Daniel DeSanto', 'Alisha Morrison', 'Chris Anton', 'Jan Caruana', 'Wai Choy', 'Julia Chantrey', 'Jacky Chamberlain', 'Olympia Lukis', 'Stefanie Drummond', 'Kristen Bone', 'Jessie Wright', 'Tyson Fennell', 'Stephan Dickson', 'Andreja Punkris', 'Noelle Boggio', 'Jordan Dawe', 'Nicole Crimi', 'Erin Norah Thompson', 'Dan Willmott', 'Michelle Hoffman', 'Valerie Casault', 'Sharron Matthews', 'Bruce Hunter', 'Jo Chim', 'Randi Lee Butcher', 'Erin Jarvis', 'Kaylen Christensen', 'Jill Morrison', 'David Sazant', 'Clare Preuss', 'Megan Millington', 'Tara Shelley', 'Shannon Todd', 'David Reale', 'Krysta Carter']",3.83,5.0,"['Comedy', 'Drama']",97,['USA'],English,"['English', 'Swahili', 'German', 'Vietnamese']","['Broadway Video', 'Paramount', 'M.G. Films']",2338319,189431,714745,19000,2430,6937,5576,32922,37146,197703,189708,401802,104770,338911,1317905,https://letterboxd.com/film/mean-girls/
Spirited Away,2001,Hayao Miyazaki,"['Rumi Hiiragi', 'Miyu Irino', 'Mari Natsuki', 'Takashi Naito', 'Yasuko Sawaguchi', 'Tsunehiko Kamijô', 'Takehiko Ono', 'Bunta Sugawara', 'Akio Nakamura', 'Yumi Tamai', 'Ryunosuke Kamiki', 'Tatsuya Gashûin', 'Yo Oizumi', 'Ken Yasuda', 'Koba Hayashi', 'Shigeru Wakita', 'Shirou Saitou', 'Michiko Yamamoto', 'Keiko Tsukamoto', 'Shinji Tokumaru', 'Kaori Yamagata', 'Yayoi Kazuki', 'Masahiro Asano', 'Kazutaka Hayashida', 'Ikuko Yamamoto', 'Mina Meguro', 'Tetsurô Ishibashi', 'Katsutomo Shîbara', 'Shinobu Katabuchi', 'Noriko Kitou', 'Naoto Kaji', 'Yoshitaka Sukegawa', 'Aki Tachikawa', 'Noriko Yamaya', 'Katsuhisa Matsuo', 'Masayuki Kizu', 'Yôko Ôno', 'Sachie Azuma', 'Shigeyuki Totsugi', 'Mayumi Saco', 'Sonoko Soeda', 'Akiko Tomihira', 'Minako Masuda', 'Orika Ono', 'Rina Yamada', 'Miwa Takachi', 'Hiromi Takeuchi', 'Makiko Oku']",4.45,4.0,"['Family', 'Fantasy', 'Animation']",125,['Japan'],Japanese,['Japanese'],['Studio Ghibli'],2687080,369864,1263850,74000,1667,4032,1856,12034,11432,80605,95125,402869,265118,897008,1771746,https://letterboxd.com/film/spirited-away/
Legally Blonde,2001,Robert Luketic,"['Reese Witherspoon', 'Luke Wilson', 'Selma Blair', 'Matthew Davis', 'Victor Garber', 'Jennifer Coolidge', 'Holland Taylor', 'Ali Larter', 'Jessica Cauffiel', 'Alanna Ubach', 'Osgood Perkins', 'Linda Cardellini', 'Bruce Thomas', 'Meredith Scott Lynn', 'Raquel Welch', 'Samantha Lemole', 'Kelly Nyks', 'Ted Kairys', 'Michael B. Silver', 'Kimberly McCullough', ""Shannon O'Hurley"", 'Greg Serano', 'Francesca P. Roberts', 'Lisa Arch', 'Natalie Barish', 'Cici Lau', 'Allyce Beasley', 'Kevin Cooney', 'Ted Rooney', 'David Moreland', 'Wayne Federman', 'James Read', 'Tane McClure', 'Niklaus Lange', 'Doug Spinuzza', 'Lisa K. Wyatt', 'Jason Christopher', 'Corinne Reilly', 'Victoria Mahoney', 'Lacey Beeman', 'Melissa Anne Young', 'Brody Hutzler', 'Chaney Kley', 'John Cantwell', 'Ondrea de Vincentis', 'Terence Michael', 'Nectar Rose', 'Jodi Harris', 'Patricia Kimes', 'Sasha Barrese', 'Kelly Driscoll', 'Elizabeth Matthews', 'Kennedy Stone', 'Moonie', 'Lily', 'John Kapelos', 'Richard Hillman']",3.78,5.0,"['Romance', 'Comedy']",96,['USA'],English,"['English', 'Portuguese']","['Metro-Goldwyn-Mayer', 'Marc Platt Productions']",1225566,128156,331902,12000,1574,4802,4047,20750,24012,104487,99075,184432,50340,154695,648214,https://letterboxd.com/film/legally-blonde/
Donnie Darko,2001,Richard Kelly,"['Jake Gyllenhaal', 'Jena Malone', 'James Duval', 'Drew Barrymore', 'Beth Grant', 'Maggie Gyllenhaal', 'Mary McDonnell', 'Holmes Osborne', 'Noah Wyle', 'Katharine Ross', 'Patrick Swayze', 'Daveigh Chase', 'Arthur Taxier', 'David St. James', 'Patience Cleveland', 'Jazzie Mahannah', 'Jolene Purdy', 'David Moreland', 'Kristina Malota', 'Marina Malota', 'Scotty Leavenworth', 'Phyllis Lyons', 'Gary Lundy', 'Alex Greenwald', 'Stuart Stone', 'Joan Blair', 'Seth Rogen', 'Mark Hoffman', 'Jerry Trainor', 'Tom Tangen', 'Carly Naples', 'Lisa K. Wyatt', 'Rachel Winfree', 'Ashley Tisdale', 'Tiler Peck', 'Fran Kranz', 'Sarah Hudson', 'Alison Jones', 'Lee Weaver', 'Jack Salvatore, Jr.']",3.97,3.0,"['Fantasy', 'Mystery', 'Drama']",114,['USA'],English,['English'],"['Flower Films', 'Gaylord Films', 'Adam Fields Productions', 'Pandora Cinema']",1663328,236438,603056,49000,3169,8222,5067,27621,26912,127440,145757,342425,143158,254474,1084245,https://letterboxd.com/film/donnie-darko/
American Psycho,2000,Mary Harron,"['Christian Bale', 'Willem Dafoe', 'Jared Leto', 'Josh Lucas', 'Samantha Mathis', 'Matt Ross', 'Bill Sage', 'Chloë Sevigny', 'Cara Seymour', 'Justin Theroux', 'Guinevere Turner', 'Reese Witherspoon', 'Krista Sutton', 'Reg E. Cathey', 'Anthony Lemke', 'Stephen Bogaert', 'Monika Meier', 'Blair Williams', 'Marie Dame', 'Kelley Harron', 'Patricia Gage', 'Landy Cannon', 'Park Bench', 'Catherine Black', 'Margaret Ma', 'Peter Tufford Kennedy', 'Mark Pawson', 'Jessica Lau', 'Lilette Wiens', 'Glen Marc Silot', 'Charlotte Hunter', 'Kiki Buttignol', 'Joyce R. Korbin', 'Reuben Thompson', 'Bryan Renfro', 'Ross Gibby', 'Christina McKay', 'Alan McCullough', 'Connie Chen', 'Brett Alexander Davidson', 'Peter Loung', 'Joseph Oliveira', 'Leanne Poirier Greenfield', 'Somaya Reece', 'Kate Steen', 'Dan Rush', 'Chris Stone']",3.86,4.0,"['Crime', 'Thriller', 'Horror', 'Drama']",102,"['Canada', 'USA']",English,"['English', 'Spanish', 'Cantonese']","['Lionsgate', 'Pressman Film', 'Muse Productions', 'Am Psycho Productions']",2640775,271831,954999,32000,4495,10968,7413,44315,47224,248986,277435,620395,205811,324419,1791461,https://letterboxd.com/film/american-psycho/
Fight Club,1999,David Fincher,"['Edward Norton', 'Brad Pitt', 'Helena Bonham Carter', 'Meat Loaf', 'Jared Leto', 'Zach Grenier', 'Holt McCallany', 'Eion Bailey', 'Richmond Arquette', 'David Andrews', 'George Maguire', 'Eugenie Bondurant', 'Christina Cabot', ""Sydney 'Big Dawg' Colston"", 'Rachel Singer', 'Christie Cronenweth', 'Tim DeZarn', 'Ezra Buzzington', 'Dierdre Downing-Jackson', 'Bob Stephenson', 'Charlie Dell', 'Rob Lanza', 'David Lee Smith', 'Joel Bissonnette', 'Evan Mirand', 'Robby Robinson', 'Lou Beatty Jr.', 'Thom Gossom Jr.', 'Valerie Bickford', 'Peter Iacangelo', 'Carl Ciarfalio', 'Stuart Blumberg', 'Todd Peirce', 'Mark Fite', 'Matt Winston', 'Joon Kim', 'Bennie Moore', 'Lauren Sánchez', 'Pat McNamara', 'Tyrone R. Livingston', 'Owen Masterson', 'David Jean Thomas', 'Paul Carafotes', 'Christopher John Fields', 'Anderson Bourell', 'Scotch Ellis Loring', 'Michael Shamus Wiles', 'Andi Carnick', 'Ed Kowalczyk', 'Leonard Termo', 'Van Quattro', 'Markus Redmond', 'Michael Girardin', 'Michael Arturo', 'Greg Bronson', 'Matt Cinquanta', 'Paul Dillon', 'Eddie Hargitay', 'Phil Hawn', 'Bruce Holman', 'Jawara', 'Baron Jay', 'Jim Jenkins', 'Kevin Scott Mack', 'Trey Ore', 'Louis Ortiz', 'Hugh Peddy', 'J.T. Pontino', 'Chad Randau', 'Marcio Rosario', 'Gregory Silva', 'Brian Tochi', 'Michael Zagst', 'Marc Cinquanta', 'Summer Moore']",4.27,3.0,['Drama'],139,"['Germany', 'USA']",English,['English'],"['Fox 2000 Pictures', 'Regency Enterprises', 'The Linson Company', '20th Century Fox', 'Taurus Film']",3658099,409624,1684630,112000,3459,9272,4484,30819,25417,170357,182278,701476,407946,982813,2518321,https://letterboxd.com/film/fight-club/
10 Things I Hate About You,1999,Gil Junger,"['Heath Ledger', 'Julia Stiles', 'Joseph Gordon-Levitt', 'Larisa Oleynik', 'David Krumholtz', 'Andrew Keegan', 'Susan May Pratt', 'Gabrielle Union', 'Larry Miller', 'Daryl Mitchell', 'Allison Janney', 'David Leisure', 'Greg Jackson', 'Kyle Cease', 'Terence Heuston', 'Cameron Fraser', 'Eric Riedmann', 'Quinn Maixner', 'Demegio Kimbrough', 'Todd Butler', 'Dennis Mosley', 'Bianca Kajlich', 'Nick Vukelic', 'Ben Laurance', 'Aidan Kennedy', 'Jelani Quinn', 'Jesse Dyer', 'Aaron Therol', 'Carlos Lacámara', 'Heather Taylor', 'Joshua Thorpe', 'J.R. Johnson', 'Wendy Gottlieb', 'Brian Hood', 'Travis Muller', 'Ari Karczag', 'Laura Kenny', 'Alice Evans', 'Jesper Inglis', 'Nick Brown', 'Monique Powell', 'Brian Mashburn', 'Kay Hanley', 'Michael Eisenstein']",3.99,5.0,"['Comedy', 'Romance', 'Drama']",97,['USA'],English,"['English', 'French']","['Mad Chance', 'Jaret Entertainment']",2155744,281810,890831,72000,1542,4829,3805,23740,28834,158450,169829,385159,127418,470536,1374142,https://letterboxd.com/film/10-things-i-hate-about-you/
Bride of Chucky,1998,Ronny Yu,"['Jennifer Tilly', 'Brad Dourif', 'Katherine Heigl', 'Nick Stabile', 'Gordon Michael Woolvett', 'Alexis Arquette', 'John Ritter', 'Lawrence Dane', 'Michael Louis Johnson', 'James Gallanders', 'Janet Kidder', 'Vince Corazza', 'Kathy Najimy', 'Park Bench', 'Emily Weedon', 'Ben Bass', 'Roger McKeen', 'Sandi Stahlbrand', 'Ed Gale']",3.1,5.0,"['Comedy', 'Horror', 'Romance']",89,['USA'],English,['English'],"['Universal Pictures', 'Midwinter Productions Inc.', 'David Kirschner Productions']",168575,45111,36899,1700,1240,3313,3154,9579,9841,22314,14417,17248,4358,11145,96609,https://letterboxd.com/film/bride-of-chucky/
Empire Records,1995,Allan Moyle,"['Anthony LaPaglia', 'Maxwell Caulfield', 'Debi Mazar', 'Rory Cochrane', 'Johnny Whitworth', 'Robin Tunney', 'Renée Zellweger', 'Ethan Embry', 'Coyote Shivers', 'Brendan Sexton III', 'Liv Tyler', ""James 'Kimo' Wills"", 'Ben Bode', 'Gary Bolen', 'Kimber Sissons', 'Tony Zaar', 'Patt Noday', 'Julia Deane', 'Kessia Embry', 'Michele Seidman', 'Diana Taylor', 'Bernard Granger', 'Michael Harding', 'Dave Brockie', 'Kawan Rojanatavorn', 'Corey Joshua Taylor', 'Melissa Caulfield', 'Lara Travis']",3.51,4.0,"['Music', 'Comedy', 'Drama']",90,['USA'],English,"['English', 'French']","['Monarchy Enterprises B.V.', 'New Regency Pictures', 'Warner Bros. Pictures']",154474,36129,47127,3200,436,1264,1372,4940,6400,19419,17760,20963,6274,13815,92643,https://letterboxd.com/film/empire-records/
Clueless,1995,Amy Heckerling,"['Alicia Silverstone', 'Stacey Dash', 'Brittany Murphy', 'Paul Rudd', 'Donald Faison', 'Elisa Donovan', 'Breckin Meyer', 'Jeremy Sisto', 'Dan Hedaya', 'Aida Linares', 'Wallace Shawn', 'Twink Caplan', 'Justin Walker', 'Sabastian Rashidi', 'Herb Hall', 'Julie Brown', 'Susan Mohun', 'Nicole Bilderback', 'Ron Orbach', 'Sean Holland', 'Roger Kabler', 'Jace Alexander', 'Josh Lozoff', 'Carl Gottlieb', 'Joseph D. Reitman', 'Anthony Beninati', 'Micki Duran', 'Gregg Russell', 'Jermaine Montell', 'Danielle Eckert', 'Amy Heckerling', 'Michael Klesic', 'Sam Maccarone', 'Monica Eva Foster']",3.72,5.0,"['Drama', 'Comedy', 'Romance']",97,['USA'],English,"['English', 'Spanish']","['Paramount', 'Robert Lawrence Productions', 'Scott Rudin Productions']",1514950,185523,458908,17000,1894,5744,4799,26417,30431,144804,132188,241963,60821,185318,834379,https://letterboxd.com/film/clueless/
Pulp Fiction,1994,Quentin Tarantino,"['John Travolta', 'Samuel L. Jackson', 'Uma Thurman', 'Bruce Willis', 'Ving Rhames', 'Harvey Keitel', 'Eric Stoltz', 'Tim Roth', 'Amanda Plummer', 'Maria de Medeiros', 'Quentin Tarantino', 'Christopher Walken', 'Rosanna Arquette', 'Peter Greene', 'Duane Whitaker', 'Angela Jones', 'Phil LaMarr', 'Steve Buscemi', 'Bronagh Gallagher', 'Laura Lovelace', 'Frank Whaley', 'Burr Steers', 'Paul Calderon', 'Jerome Patrick Hoban', 'Michael Gilden', 'Gary Shorelle', 'Susan Griffiths', 'Eric Clark', 'Joseph Pilato', 'Brad Blumenthal', 'Lorelei Leslie', 'Emil Sitka', 'Brenda Hillhouse', 'Chandler Lindauer', 'Sy Sher', 'Robert Ruth', 'Rich Turner', 'Don Blakely', 'Carl Allen', 'Karen Maruyama', 'Kathy Griffin', 'Venessia Valentino', 'Linda Kaye', 'Stephen Hibbert', 'Alexis Arquette', 'Julia Sweeney', 'Lawrence Bender', 'Cie Allman', 'Rene Beard', 'Lori Pizzo', 'Glendon Rich', 'Devan Richardson', 'Ani Sava', 'Richard Rossi']",4.26,4.5,"['Crime', 'Thriller']",154,['USA'],English,"['English', 'Spanish', 'French']","['Miramax', 'A Band Apart', 'Jersey Films']",3282005,405033,1451749,70000,4313,11318,4832,34404,25255,167705,155529,588183,334182,829798,2155519,https://letterboxd.com/film/pulp-fiction/
Child's Play,1988,Tom Holland,"['Catherine Hicks', 'Chris Sarandon', 'Alex Vincent', 'Brad Dourif', 'Dinah Manoff', 'Tommy Swerdlow', 'Jack Colvin', 'Neil Giuntoli', 'Juan Ramírez', 'Alan Wilder', 'Richard Baird', 'Ray Oliver', 'Aaron Osborne', 'Tyler Hard', 'Ted Liss', 'Roslyn Alexander', 'Bo Kane', 'Leila Lee Olsen', 'Lena Sack', 'Tommy Gerard', 'Michael Chavez', 'Jamie Gray', 'Erin Munz', 'Jana Twomey', 'Suaundra Black', 'Edan Gross', 'John Franklin', 'Michael Patrick Carter']",3.32,5.0,['Horror'],87,['USA'],English,['English'],"['United Artists', 'David Kirschner Productions']",372177,78365,75324,1400,1056,3166,2798,13444,16495,57311,45614,46758,9064,16645,212351,https://letterboxd.com/film/childs-play/
The Breakfast Club,1985,John Hughes,"['Emilio Estevez', 'Judd Nelson', 'Molly Ringwald', 'Anthony Michael Hall', 'Ally Sheedy', 'Paul Gleason', 'John Kapelos', 'Perry Crawford', 'Mary Christian', 'Ron Dean', 'Tim Gamble', 'Fran Gargano', 'Mercedes Hall', 'John Hughes']",3.76,3.0,"['Drama', 'Comedy']",98,['USA'],English,['English'],"['Universal Pictures', 'A&M Films', 'Channel Productions']",1927052,180156,607900,19000,4095,10830,7111,38766,37986,176529,170807,340084,99640,206877,1092725,https://letterboxd.com/film/the-breakfast-club/
The Evil Dead,1981,Sam Raimi,"['Bruce Campbell', 'Ellen Sandweiss', 'Richard DeManincor', 'Betsy Baker', 'Theresa Tilly', 'Philip A. Gillis', 'Dorothy Tapert', 'Cheryl Guttridge', 'Barbara Carey', 'David Horton', 'Wendall Thomas', 'Don Long', 'Stu Smith', 'Kurt Rauf', 'Ted Raimi', 'Ivan Raimi', 'Bill Vincent', 'Mary Beth Tapert', 'Scott Spiegel', 'John Cameron', 'Joanne Kruse', 'Gwen Cochanski', 'Debie Jarczewski', 'Josh Becker', 'Bob Dorian', 'Sam Raimi', 'Tom Sullivan', 'Robert Tapert']",3.66,5.0,['Horror'],85,['USA'],English,['English'],"['New Line Cinema', 'Renaissance Pictures']",534812,149774,161318,4700,1448,3140,3248,12210,16512,60342,72470,109073,32319,45193,355955,https://letterboxd.com/film/the-evil-dead/
Escape from New York,1981,John Carpenter,"['Kurt Russell', 'Lee Van Cleef', 'Ernest Borgnine', 'Donald Pleasence', 'Isaac Hayes', 'Season Hubley', 'Harry Dean Stanton', 'Adrienne Barbeau', 'Tom Atkins', 'Charles Cyphers', 'Frank Doubleday', 'John Strobel', 'George Buck Flower', 'John Cothran', 'Nancy Stephens', 'Steven Ford', 'John Carpenter', 'Jamie Lee Curtis', 'Nick Castle', 'Debra Hill', 'Ox Baker', 'Joe Unger', 'Garrett Bergfeld', 'Wally Taylor', 'Rodger Bumpass', 'John Diehl']",3.64,nan,"['Action', 'Science Fiction']",99,"['UK', 'USA']",English,['English'],"['AVCO Embassy Pictures', 'Goldcrest', 'International Film Investors', 'City Films']",248491,58718,66191,968,254,820,1102,5179,8897,31749,41158,48386,13901,13431,164877,https://letterboxd.com/film/escape-from-new-york/
Halloween,1978,John Carpenter,"['Donald Pleasence', 'Jamie Lee Curtis', 'P.J. Soles', 'Nancy Kyes', 'Charles Cyphers', 'Kyle Richards', 'Brian Andrews', 'John Michael Graham', 'Nancy Stephens', 'Nick Castle', 'Arthur Malet', 'Mickey Yablans', 'Brent Le Page', 'Adam Hollander', 'Robert Phalen', 'Tony Moran', 'Will Sandin', 'Sandy Johnson', 'David Kyle', 'Peter Griffith', 'Barry Bernardi', 'Joseph Cornelius', ""George O'Hanlon Jr."", 'Darla Rae', 'John Carpenter', 'Tommy Lee Wallace', 'Gwen Van Dam', 'Jennifer Rhodes']",3.8,5.0,"['Horror', 'Thriller']",91,['USA'],English,['English'],"['Compass International Pictures', 'Falcon International Productions']",996657,257351,299726,16000,1830,5370,4403,21032,23462,96053,98311,185089,65740,137245,638535,https://letterboxd.com/film/halloween-1978/
Exorcist II: The Heretic,1977,John Boorman,"['Richard Burton', 'Linda Blair', 'Louise Fletcher', 'Max von Sydow', 'Kitty Winn', 'Paul Henreid', 'James Earl Jones', 'Ned Beatty', 'Belinda Beatty', 'Rose Portillo', 'Barbara Cason', 'Tiffany Kinney', 'Joey Green', 'Fiseha Dimetros', 'Ken Renard', 'Hank Garrett', 'Lorry Goldman', 'Bill Grant', 'Shane Butterworth', 'Joely Adams', 'Robert Lussier', 'Charles Parks', 'Richard Paul', 'George Skaff', 'Marianne Muellerleile', 'Dana Plato', 'Kelley Karel', 'Karen Knapp']",2.01,1.5,"['Thriller', 'Horror', 'Drama']",117,['USA'],English,['English'],['Warner Bros. Pictures'],39679,14266,3420,12,2549,4857,3967,6475,3223,3248,1358,939,163,277,27056,https://letterboxd.com/film/exorcist-ii-the-heretic/
The Rocky Horror Picture Show,1975,Jim Sharman,"['Tim Curry', 'Susan Sarandon', 'Barry Bostwick', ""Richard O'Brien"", 'Patricia Quinn', 'Nell Campbell', 'Jonathan Adams', 'Peter Hinwood', 'Meat Loaf', 'Charles Gray', 'Jeremy Newson', 'Hilary Farr', 'Pierre Bedenes', 'Christopher Biggins', 'Gaye Brown', 'Ishaq Bux', 'Stephen Calcutt', 'Hugh Cecil', 'Imogen Claire', 'Tony Cowan', 'Sadie Corre', 'Fran Fullenwider', 'Lindsay Ingram', 'Peggy Ledger', 'Annabel Leventon', 'Anthony Milner', 'Pamela Obermeyer', 'Tony Then', 'Kimi Wong', 'Henry Woolf', 'Lewis Alexander', 'Gina Barrie', 'Hyma Beckley', 'Ernest Blyth', 'Rufus Collins', 'Megan Hanks', 'Victor Harrington', 'Mark Johnson', 'Juba Kennerley', 'Petra Leah', 'Frank Lester', 'John Marquand', 'Koo Stark', 'Richard Nixon']",4.0,5.0,"['Science Fiction', 'Fantasy', 'Horror', 'Comedy']",100,"['UK', 'USA']",English,['English'],"['Michael White Productions', '20th Century Fox']",701013,154893,255115,20000,1931,4002,2706,11261,11308,45747,49631,113434,44201,126183,410404,https://letterboxd.com/film/the-rocky-horror-picture-show/
The Exorcist,1973,William Friedkin,"['Ellen Burstyn', 'Linda Blair', 'Jason Miller', 'Max von Sydow', 'Lee J. Cobb', ""William O'Malley"", 'Kitty Winn', 'Jack MacGowran', 'Barton Heyman', 'Peter Masterson', 'Rudolf Schündler', 'Gina Petrushka', 'Robert Symonds', 'Arthur Storch', 'Thomas Bermingham', 'Vasiliki Maliaros', 'Titos Vandis', 'John Mahon', 'Wallace Rooney', 'Ron Faber', 'Donna Mitchell', 'Roy Cooper', 'Robert Gerringer', 'Mercedes McCambridge', 'Paul Bateson', 'Elinore Blair', 'William Peter Blatty', 'Mary Boylan', 'Dick Callinan', 'Mason Curry', 'Toni Darnay', 'Eileen Dietz', 'Joanne Dusseau', 'Bernard Eismann', 'Beatrice Hunter', 'Yvonne Jones', 'Don LaBonte', 'Barton Lane', 'Ann Miles', 'John Nicola', 'Vincent Russell', 'Gerard F. Yates', 'Rita Sakellariou']",3.99,5.0,"['Thriller', 'Drama', 'Horror']",122,['USA'],English,"['English', 'German', 'French', 'Latin', 'Arabic', 'Greek (modern)']","['Hoya Productions', 'Warner Bros. Pictures']",942265,195385,255328,7900,1574,4169,2836,15171,15078,68232,73537,176911,76822,134945,569275,https://letterboxd.com/film/the-exorcist/
Cabaret,1972,Bob Fosse,"['Liza Minnelli', 'Michael York', 'Helmut Griem', 'Joel Grey', 'Fritz Wepper', 'Marisa Berenson', 'Elisabeth Neumann-Viertel', 'Helen Vita', 'Sigrid von Richthofen', 'Gerd Vespermann', 'Ralf Wolter', 'Georg Hartmann', 'Ricky Renée', 'Estrongo Nachama', 'Kathryn Doby', 'Inge Jaeger', 'Angelika Koch', 'Helen Velkovorska', 'Gitta Schmidt', 'Louise Quick', 'Pierre Franckh', 'Ellen Umlauf', 'Oliver Collignon', 'Mark Lambert']",4.09,5.0,"['Romance', 'Drama', 'Music']",124,['USA'],English,"['English', 'French', 'German', 'Hebrew (modern)']","['Allied Artists Pictures', 'ABC Pictures']",121906,55904,38003,2300,100,279,280,1368,1770,7223,10690,23878,12697,16976,75261,https://letterboxd.com/film/cabaret/
A Clockwork Orange,1971,Stanley Kubrick,"['Malcolm McDowell', 'Patrick Magee', 'Michael Bates', 'Carl Duering', 'Warren Clarke', 'James Marcus', 'Michael Tarn', 'Miriam Karlin', 'Adrienne Corri', 'Sheila Raynor', 'Philip Stone', 'Aubrey Morris', 'Clive Francis', 'John Clive', 'Paul Farrell', 'Michael Gover', 'Godfrey Quigley', 'Madge Ryan', 'Anthony Sharp', 'Pauline Taylor', 'Margaret Tyzack', 'Steven Berkoff', 'Lindsay Campbell', 'David Prowse', 'Barrie Cookson', 'Jan Adair', 'Gaye Brown', 'Peter Burton', 'John J. Carney', 'Alec Wallis', 'John Savident', 'Vivienne Chandler', 'Richard Connaught', 'Prudence Drage', 'Carol Drinkwater', 'Lee Fox', 'Cheryl Grunwald', 'Gillian Hills', 'Craig Hunter', 'Shirley Jaffe', 'Virginia Wetherell', 'Neil Wilson', 'Katya Wyeth', 'Jack Arrow', 'Shane Shelton']",4.12,5.0,"['Science Fiction', 'Crime']",137,"['UK', 'USA']",English,['English'],"['Warner Bros. Pictures', 'Hawk Films']",1328591,236195,436629,29000,5071,9055,4120,19547,16184,73654,82970,236759,138525,246646,832531,https://letterboxd.com/film/a-clockwork-orange/
