Film_title,Release_year,Director,Cast,Average_rating,Owner_rating,Genres,Runtime,Countries,Original_language,Spoken_languages,Studios,Watches,List_appearances,Likes,Fans,½,★,★½,★★,★★½,★★★,★★★½,★★★★,★★★★½,★★★★★,Total_ratings,Film_URL
"Red, White & Royal Blue",2023,Matthew López,"['Taylor Zakhar Perez', 'Nicholas Galitzine', 'Uma Thurman', 'Clifton Collins Jr.', 'Rachel Hilson', 'Sarah Shahi', 'Ellie Bamber', 'Thomas Flynn', 'Stephen Fry', 'Malcolm Atobrah', 'Akshay Khanna', 'Aneesh Sheth', 'Juan Castano', 'Donald Sage Mackay', 'Sharon D. Clarke', 'Rachel Maddow', 'Bridget Benstead', 'Helen Minassian', 'Isabelle Suwan', 'Ben-Hur Santos', 'Charles Nishikawa', 'Michael Ayala-Cole', 'Robert William Carlisle', 'Gabi Kerr', 'Gabriella Fanuele', 'Georgie Fellows', 'Martin Bishop', 'John King', 'Jonny Lee Kemp', 'Enver Mehmet', 'Monsurat Bello', 'Hughie Mann', 'Karina Núñez', 'Derek Siow', 'Valter Almeida', 'Gaia Mondadori', 'Reynold Koker', 'Roy Harrop', 'Joy Reid', 'Kathryn López', 'Frank Lopez', 'Lila Bata-Walsh', 'Khushboo Hirani', 'Nathan Musoki', 'Brian Naylor', 'Kaya Brown-Hallam', 'Rita Estevanovich', 'Miranda Heldt', 'Annabella King', 'Claire Ashton', 'Anastasia Zabarchuk', 'Miruna-Bianca Teodoru', 'Alice Raymond', 'Juan Sebastián Quintero', 'Sigmund Oakeshott', 'Casey McQuiston', 'Denisa Jahlová', 'Valerie Hazan', 'Stuart Cooke', 'Sean Coleman', 'Lindy Hennessy', 'Prince Marfo', 'Caroline Glass', 'Andro Cowperthwaite', 'Nathan Hall', 'Aleshia Williams', 'Josh Wild', 'Amira Walters-Byrne', 'Destiny Viva', 'Samara Tong', 'Amy Tomlinson', 'Mackenzie Stretch', 'Tyson Simon', 'Irene Salvi', 'Marcus St. Cyr', 'Julia Ruiz', 'Troy Rochester', 'Elise Pinel', 'Ronke Olagunju', 'Bettie Moon', 'Tom Mather', 'Mira Jebari', 'Emi Ichikawa', 'Robbie Ordona', 'Bethany Hunter', 'Nicole Hastings', 'Kamilla Halid', 'Jamie Graham', 'Marlie Goddard', 'Jakub Franasowicz', 'Kyle Flaherty', 'Emma Farnell-Watson', 'Davide Albonetti', 'Olive Andrews', 'Miekaile Browne', 'Harrison Claxton', 'Cam', 'Emma Falcon', 'Jemma Redgrave']",3.15,4.5,"['Comedy', 'Romance']",121,['USA'],English,"['English', 'Spanish']","['Amazon Studios', 'Berlanti Productions']",419913,54131,123889,3500,3746,7568,7651,24752,29780,74014,58261,68856,18554,49885,343067,https://letterboxd.com/film/red-white-royal-blue/
Bird Box Barcelona,2023,"Àlex Pastor, David Pastor","['Mario Casas', 'Georgina Campbell', 'Diego Calva', 'Naila Schuberth', 'Alejandra Howard', 'Patrick Criado', 'Celia Freijeiro', 'Lola Dueñas', 'Gonzalo de Castro', 'Michelle Jenner', 'Leonardo Sbaraglia', 'Manel Llunell', 'Milo Taboada']",2.26,4.5,"['Thriller', 'Horror', 'Science Fiction']",124,"['Spain', 'USA']",Spanish,"['Spanish', 'English', 'German']","['Nostromo Pictures', 'Chris Morgan Productions', 'Dylan Clark Productions', 'Bluegrass Films']",49287,7741,4095,2,1783,3639,4011,9643,7353,7995,3050,2166,302,541,40483,https://letterboxd.com/film/bird-box-barcelona/
The Menu,2022,Mark Mylod,"['Anya Taylor-Joy', 'Ralph Fiennes', 'Nicholas Hoult', 'Janet McTeer', 'Paul Adelstein', 'Rob Yang', 'Aimee Carrero', 'John Leguizamo', 'Arturo Castro', 'Reed Birney', 'Hong Chau', 'Judith Light', 'Mark St. Cyr', 'Rebecca Koon', 'Peter Grosz', 'Christina Brucato', 'Adam Aalderks', 'Jon Paul Allyn', 'Mel Fair', 'Cristian Gonzalez', 'Matthew Cornwell', 'John Wilkins III', 'John Cola', 'Michael A. Dean', 'Marcus Aveons Duncan', 'Alexander Goldstein', 'Grant Henley', 'A. Jae Michele', 'Rachel Trautmann', 'Victor Zheng', 'Michael Neal', 'Brandon Herron', 'Jay Shadix', 'Melisa Lopez', 'Elbert Kim']",3.54,4.0,"['Comedy', 'Thriller', 'Horror']",107,['USA'],English,"['English', 'Spanish']","['Hyperobject Industries', 'Searchlight Pictures', 'Gary Sanchez Productions', 'TSG Entertainment']",2145821,215400,665964,4800,5082,16621,13640,76086,86613,331976,351179,526168,136225,159617,1703207,https://letterboxd.com/film/the-menu-2022/
The Wonder,2022,Sebastián Lelio,"['Florence Pugh', 'Kíla Lord Cassidy', 'Tom Burke', 'Niamh Algar', 'Elaine Cassidy', 'Ruth Bradley', 'Toby Jones', 'Ciarán Hinds', 'Dermot Crowley', 'Caolan Byrne', ""Brían F. O'Byrne"", 'Josie Walker', 'David Wilmot', 'Stephen Ball', 'Mary Murray', 'Niamh Finlay', 'John Burke', 'Emer Casey', 'Graeme Coughlan', 'Abigail Coburn', 'Ava May Taylor', 'Janet Grene', 'David Maine']",3.34,3.5,"['Drama', 'Mystery']",108,"['Ireland', 'UK', 'USA']",English,['English'],"['Element Pictures', 'House Productions', 'Fís Éireann/Screen Ireland']",165167,28007,30926,118,360,1086,1267,6389,10224,35095,36963,30289,5308,5332,132313,https://letterboxd.com/film/the-wonder/
We Cry Together,2022,"Jake Schreier, Kendrick Lamar","['Taylour Paige', 'Kendrick Lamar']",3.75,2.0,"['Drama', 'Music']",6,['USA'],English,['English'],['pgLang'],7035,582,2325,3,34,52,47,167,146,427,492,967,273,705,3310,https://letterboxd.com/film/we-cry-together/
Three Thousand Years of Longing,2022,George Miller,"['Tilda Swinton', 'Idris Elba', 'Erdil Yaşaroğlu', 'Sabrina Elba', 'Sarah Houbolt', 'Seyithan Özdemir', 'Aamito Lagum', 'Nicolas Mouawad', 'Ece Yüksel', 'Matteo Bocelli', 'Lachy Hulme', 'Megan Gale', 'Oğulcan Arman Uslu', 'Jack Braddy', 'Zerrin Tekindor', 'Anna Adams', 'George Shevtsov', 'David Collins', 'Burcu Gölgedar', 'Vincent Gil', 'Melissa Jaffer', 'Anne Charleston', 'Pia Thunderbolt', 'Berk Ozturk', 'Anthony Moisset', 'Alyla Browne', 'Sage Mcconnell', 'Abel Bond', 'Agani Gecmez', 'Ayantu Usman', 'Peter Bertoni', 'Lianne Mackessy', 'Harlan Norris', 'Leslie Krahner', 'George Zammit', 'Feride Eralp', 'Matthew Khoury', 'Burwaiss Ahmed', 'Edoardo Michelotti', 'Ronny Mouawad', 'Paul Prakash', 'Olivia Porter', 'Quaden Bayles', 'Botan Ozer', 'Georgiou Thomas', 'Arshia Dehghani', 'Talia Tulin Sert', 'Jean-Marc Agbogba', 'Kaan Guldur', 'Hugo Vella', 'Simon Abraham', 'Bryony Pyke', 'Hana Habbouche', 'Jyoti Barry', 'Madeline Berner', 'Kathleen Coffey', 'Nikki Hooppell', 'Stephanie Julien', 'Elyse Metaxas', 'Debbie Correira', 'Laura Foster', 'Ashleigh Geitzmann', 'Hannah Robinson', 'Felicity Tchorlian', 'Kate Wake', 'Mary P', 'Ron Hicks', 'Glenn Levett', 'Danny Lim', 'Rellim Egroeg', 'Eva Maria Barboza', 'Lulu Pinkus', 'Karen Ainley', 'Aska Karem', 'Melissa Kahraman', 'Bridget Maizey', 'Eric Presnall', 'Nolan Zadarnowski', 'Patryk Zadarnowski', 'Nathan Susskind']",3.38,5.0,"['Romance', 'Drama', 'Fantasy']",108,"['Australia', 'China', 'UK', 'USA']",English,"['English', 'German', 'Greek (modern)', 'Turkish']","['FilmNation Entertainment', 'Elevate Production Finance', 'Sunac Pictures', 'Kennedy Miller Mitchell']",184420,45119,45606,280,787,1884,2109,8421,12931,34793,37788,33281,8479,6777,147250,https://letterboxd.com/film/three-thousand-years-of-longing/
Everything Everywhere All at Once,2022,"Daniel Scheinert, Daniel Kwan","['Michelle Yeoh', 'Ke Huy Quan', 'Stephanie Hsu', 'James Hong', 'Jamie Lee Curtis', 'Jenny Slate', 'Harry Shum Jr.', 'Tallie Medel', 'Biff Wiff', 'Sunita Mani', 'Aaron Lazar', 'Brian Le', 'Andy Le', 'Neravana Cabral', 'Chelsey Goldsmith', 'Craig Henningsen', 'Anthony Molinari', 'Dan Brown', 'Anthony N.', 'Cara Marie Chooljian', 'Randall Archer', 'Efka Kvaraciejus', 'Peter Banifaz', 'Audrey Wasilewski', 'Li Jing', 'Dylan Henry Lau', 'Boon Pin Koh', 'Timothy Eulich', 'Daniel Scheinert', 'Michiko Nishiwaki', 'Jane Lui', 'Jason Hamer', 'Timothy Ralston', 'Hiroshi Yada', 'Randy Newman', 'Amanda MacLeod']",4.3,5.0,"['Science Fiction', 'Adventure', 'Comedy', 'Action']",140,['USA'],English,"['English', 'Cantonese', 'Chinese']","['A24', 'IAC Films', 'AGBO', 'Ley Line Entertainment', 'TPC', 'Year of the Rat']",2884330,492635,1461752,130000,9564,20196,10047,46815,36841,143123,146906,445376,353672,1115489,2328029,https://letterboxd.com/film/everything-everywhere-all-at-once/
The Voyeurs,2021,Michael Mohan,"['Sydney Sweeney', 'Justice Smith', 'Ben Hardy', 'Natasha Liu Bordizzo', 'Katharine King So', 'Cameo Adele', 'Jean Yoon', 'Cait Alexander', 'Blessing Adedijo', 'Bianca Blizzard', 'Sandrine Bergeron', 'Emily Shelton', 'Ryo Hayashida', 'Inka Malovic', 'Jillian Harris', 'Madeline Harvey', 'Abdul Ayoola', 'Derek Johns', 'André-Luc Tessier', 'Noah Parker', 'Elisabeth Etienne', 'Stephanie White Lamothe', 'Charlotte Poitras', 'Rhiannon Moller-Trotter', 'Lou-Gabrielle Vaugeois', 'Alexandra Petrachuk', 'Caitlyn Sponheimer', 'Marie Westbrook', 'Angie Russo', 'Courtnee Rasmussen']",2.65,3.5,['Thriller'],117,['USA'],English,"['English', 'French', 'Japanese', 'Spanish']",['Divide / Conquer'],106950,12588,14242,97,1973,4194,5027,13779,14339,21680,10376,8263,1684,3352,84667,https://letterboxd.com/film/the-voyeurs-2021/
More the Merrier,2021,Paco Caballero,"['Ernesto Alterio', 'Raúl Arévalo', 'Luis Callejo', 'Anna Castillo', 'Pilar Castro', 'Álvaro Cervantes', 'Verónica Echegui', 'Miki Esparbé', 'Ricardo Gómez', 'María León', 'Melina Matthews', 'Ana Milán', 'María Morales', 'Jorge Suquet', 'Aixa Villagrán', 'Carlos Cuevas', 'Raúl Prieto', 'Melani Olivares', 'Adrià Collado', 'Ángela Cervantes', 'Pol Toro', 'Gisela Arnao', 'Marta Aguilar']",2.51,4.0,"['Comedy', 'Romance']",112,['Spain'],Spanish,['Spanish'],['Castelao Pictures'],6269,942,623,3,248,383,363,783,734,1021,400,339,45,148,4464,https://letterboxd.com/film/more-the-merrier/
The Invisible Man,2020,Leigh Whannell,"['Elisabeth Moss', 'Aldis Hodge', 'Storm Reid', 'Michael Dorman', 'Harriet Dyer', 'Oliver Jackson-Cohen', 'Benedict Hardie', 'Zara Michales', 'Renee Lim', 'Sam Smith', 'Nick Kici', 'Vivienne Greer', 'Anthony Brandon Wong', 'Serag Mohammed', 'Nash Edgerton', 'Nicholas Hope', 'Cardwell Lynch', 'Xavier Fernández', 'Cleave Williams', 'Brian Meegan', 'Amali Golden', 'Dennis Kreusler', 'Michael Knott', 'Randolph Fields']",3.43,4.0,"['Science Fiction', 'Horror', 'Thriller']",124,"['Australia', 'USA']",English,['English'],"['Blumhouse Productions', 'Universal Pictures', 'Goalpost Pictures', 'Nervous Tick']",722528,113251,162321,495,3221,8437,6798,28949,32747,102674,112017,141960,34155,33580,504538,https://letterboxd.com/film/the-invisible-man-2020/
Midsommar,2019,Ari Aster,"['Florence Pugh', 'Jack Reynor', 'William Jackson Harper', 'Will Poulter', 'Vilhelm Blomgren', 'Isabelle Grill', 'Gunnel Fred', 'Ellora Torchia', 'Archie Madekwe', 'Henrik Norlén', 'Agnes Westerlund Rase', 'Julia Ragnarsson', 'Mats Blomgren', 'Lars Väringer', 'Anna Åström', 'Hampus Hallberg', 'Liv Mjönes', 'Louise Peterhoff', 'Katarina Weidhagen', 'Björn Andrésen', 'Tomas Engström', 'Dag Andersson', 'Lennart R. Svensson', 'Anders Beckman', 'Rebecka Johnston', 'Tove Skeidsvoll', 'Anders Back', 'Anki Larsson', 'Levente Puczkó-Smith', 'Frans Cavallin Rosengarten', 'Vilmos Kolba', 'Mihály Kaszás', 'Gabi Fón', 'Zsolt Bojári', 'Klaudia Csányi', 'Anna Berentzen', 'Austin R. Grant']",3.78,3.5,"['Mystery', 'Drama', 'Horror']",147,"['Sweden', 'USA']",English,"['English', 'Swedish']","['B-Reel Films', 'Square Peg']",2820473,375600,1109311,38000,13494,30728,15430,80074,64567,287705,273763,652378,221308,425741,2065188,https://letterboxd.com/film/midsommar/
Us,2019,Jordan Peele,"[""Lupita Nyong'o"", 'Winston Duke', 'Shahadi Wright Joseph', 'Evan Alex', 'Tim Heidecker', 'Elisabeth Moss', 'Cali Sheldon', 'Noelle Sheldon', 'Yahya Abdul-Mateen II', 'Anna Diop', 'Madison Curry', 'Duke Nicholson', 'Napiera Groves', 'Kara Hayward', 'Lon Gowan', 'Alan Frazier', 'Dustin Ybarra', 'Nathan Harrington', 'Darrel Cherney', 'James Cobb', 'Alessandro Garcia', 'David M Sandoval Jr.', 'Ashley McKoy', 'Jordan Peele']",3.65,4.5,"['Thriller', 'Horror']",116,['USA'],English,['English'],"['Monkeypaw Productions', 'Universal Pictures', 'Blumhouse Productions', 'QC Entertainment', 'Perfect World Pictures']",1875239,227218,602856,9400,4499,13313,9584,53715,55643,223028,218448,384727,119038,207694,1289689,https://letterboxd.com/film/us-2019/
A Brother,2018,"Martin Escoffier, Victor Habchy","['Simon Royer', 'Marin Lafitte', 'Oriane Barbaza', 'Iris Gastellu', 'Ambre Rambaud', 'Simon Escoffier', 'Thomas Judes']",3.24,4.0,"['Romance', 'Drama']",82,['France'],French,['French'],"['Reflet Production', 'United Post Production']",850,361,163,3,3,10,12,53,79,179,129,100,16,31,612,https://letterboxd.com/film/a-brother-2018/
Bubble Gum,2018,Ella Fields,"['Eleanor Bastable', 'Jordan Alexa Davis', 'Sam Karpinski']",3.52,5.0,['Romance'],9,nan,English,['English'],nan,921,310,292,0,0,4,3,13,18,111,90,109,40,82,470,https://letterboxd.com/film/bubble-gum-2018/
Get Out,2017,Jordan Peele,"['Daniel Kaluuya', 'Allison Williams', 'Bradley Whitford', 'Catherine Keener', 'Caleb Landry Jones', 'Betty Gabriel', 'Marcus Henderson', 'Lil Rel Howery', 'LaKeith Stanfield', 'Stephen Root', 'Ashley LeConte Campbell', 'John Wilmot', 'Caren L. Larkey', 'Julie Ann Doan', 'Rutherford Cravens', 'Geraldine Singer', 'Yasuhiko Oyama', 'Richard Herd', 'Erika Alexander', 'Jeronimo Spinx', 'Ian Casselberry', 'Zailand Adams', 'Trey Burvant', 'John Donohue', 'Sean Paul Braud', 'Keegan-Michael Key', 'Jordan Peele', 'Evan Shafran', 'Tahj Vaughans']",4.16,5.0,"['Horror', 'Mystery', 'Thriller']",104,['USA'],English,['English'],"['Monkeypaw Productions', 'Blumhouse Productions', 'QC Entertainment']",3277557,359414,1449689,24000,2528,7415,4386,29384,27210,190866,217347,750113,352581,715591,2297421,https://letterboxd.com/film/get-out-2017/
God's Own Country,2017,Francis Lee,"[""Josh O'Connor"", 'Alec Secăreanu', 'Gemma Jones', 'Ian Hart', 'Harry Lister Smith', 'Patsy Ferran', 'Naveed Choudhry', 'Stefan Dermendjiev', 'Moey Hassan', 'Melanie Kilburn', 'John McCrea', 'Alexander Suvandjiev', 'Liam Thomas', 'Sarah White']",3.97,5.0,"['Romance', 'Drama']",105,['UK'],English,"['English', 'Romanian']","['BFI', 'Inflammable Films', 'Shudder Films', 'Creative England']",112502,33431,39180,2100,167,344,304,1441,2072,8200,12828,28565,12565,14937,81423,https://letterboxd.com/film/gods-own-country-2017/
Call Me by Your Name,2017,Luca Guadagnino,"['Timothée Chalamet', 'Armie Hammer', 'Michael Stuhlbarg', 'Amira Casar', 'Esther Garrel', 'Victoire du Bois', 'Vanda Capriolo', 'Antonio Rimoldi', 'Elena Bucci', 'Marco Sgrosso', 'André Aciman', 'Peter Spears']",3.86,1.0,"['Romance', 'Drama']",132,"['Brazil', 'France', 'Italy', 'USA']",English,"['English', 'French', 'Italian']","['La Cinéfacture', 'Frenesy Film', 'M.Y.R.A. Entertainment', 'RT Features', ""Water's End Productions""]",2115914,290038,792057,63000,13791,24765,12423,61573,46778,188098,155470,376373,158989,390782,1429042,https://letterboxd.com/film/call-me-by-your-name/
The Witch,2015,Robert Eggers,"['Anya Taylor-Joy', 'Ralph Ineson', 'Kate Dickie', 'Harvey Scrimshaw', 'Ellie Grainger', 'Lucas Dawson', 'Julian Richings', 'Bathsheba Garnett', 'Sarah Stephens', 'Daniel Malik', 'Axtun Henry Dube', 'Athan Conrad Dube', 'Vivien Moore', 'Karen Kaeja', 'Brandy Leary', 'R. Hope Terry', 'Carrie Eklund', 'Madlen Sopadzhiyan', 'Paul Kenworthy', 'Mark Millmna', 'Andy Volpe', 'Phillip Wynne', 'Annawon Weeden', ""Michael O'Hare"", 'Chris Messier', 'Ron Young', 'Nora Messier', 'Bill Rudder', 'Grace Duffy', 'Sophie Bermudez', 'Corrine Manning', 'Heather Huntington Stewart', 'Jeff Smith']",3.84,4.5,"['Drama', 'Mystery', 'Horror']",92,"['Canada', 'USA', 'UK']",English,['English'],"['Very Special Projects', 'Parts & Labor', 'RT Features', 'Rooks Nest Entertainment', 'Maiden Voyage Pictures', 'Pulse Films', 'Scythia Films', 'Code Red Productions', 'Mott Street Pictures']",1204987,246222,401408,13000,3744,9871,5884,28443,27416,106889,131910,274915,114328,152091,855491,https://letterboxd.com/film/the-witch-2015/
Ex Machina,2015,Alex Garland,"['Domhnall Gleeson', 'Alicia Vikander', 'Oscar Isaac', 'Sonoya Mizuno', 'Corey Johnson', 'Claire Selby', 'Symara A. Templeman', 'Gana Bayarsaikhan', 'Tiffany Pisani', 'Elina Alminas', 'Chelsea Li', 'Dan Pappaspanos']",3.99,4.5,"['Science Fiction', 'Drama']",108,"['UK', 'USA']",English,['English'],"['DNA Films', 'Film4 Productions', 'IAC Films', 'Scott Rudin Productions']",1322266,177571,419830,7000,1240,3902,2776,17126,18143,97981,130110,321363,137647,136211,866499,https://letterboxd.com/film/ex-machina-2015/
Lucy,2014,Luc Besson,"['Scarlett Johansson', 'Morgan Freeman', 'Choi Min-sik', 'Amr Waked', 'Julian Rhind-Tutt', 'Pilou Asbæk', 'Lio Tipton', 'Shin Yoo-ram', 'Seo Chong-ju', 'Nicolas Phongpheth', 'Paul Lefèvre', 'Jan Oliver Schroeder', 'Luca Angeletti', 'Pierre Poirot', 'Pierre Grammont', 'Bertrand Quoniam', 'Loïc Brabant', 'Pascal Loison', 'Pierre Gérard', 'Isabelle Cagnat', 'Frédéric Chau', 'Claire Tran', 'François Legrand', 'Bob Martet', 'Alexis Rangheard', 'Tonio Descanvelle', 'Julien Personnaz', 'Christophe Lavalle', 'Renaud Cestre', 'Thibault Segouin', 'Matthew Bravais', 'Claire Zaniolo', 'Alessandro Giallocosta', 'Wolfgang Pissors', 'Sifan Shao', 'Paul Chan', 'Chou Chung-Wei', 'Huan Jhih-Cyuan', 'I. Cheng-Sheng', 'Frank Ma', 'Tseng Sheng-En', 'Liu Hsieh-Min', 'Sandra Abouav', 'Abel Aboualiten', 'Ken Lin', 'Hsing Feng', 'Hao-Hsiang Hsu', ""Laura D'Arista"", 'Eunyul Hong', 'Samuel Churin', 'Mason Lee', 'Mohammad Aslam Ansari', 'Kevin Dust', 'Diego Llano', 'Timothy Reevis', 'Jaysson Reyes De La Cruz', 'German Tintaya Mamani', 'Kanneti Sawe Han', 'Cédric Chevalme']",2.74,4.0,"['Action', 'Science Fiction']",89,['France'],English,"['English', 'Chinese', 'French', 'Spanish', 'Korean']","['EuropaCorp', 'Canal+', 'Ciné+', 'TF1 Films Production']",792207,38708,96725,1100,11088,24166,21877,63682,58119,107136,55211,49882,10157,22831,424149,https://letterboxd.com/film/lucy-2014/
It Follows,2014,David Robert Mitchell,"['Maika Monroe', 'Keir Gilchrist', 'Daniel Zovatto', 'Jake Weary', 'Olivia Luccardi', 'Lili Sepe', 'Bailey Spry', 'Carollette Phillips', 'Loren Bass', 'Charles Gertner', 'Debbie Williams', 'Ruby Harris', 'Leisa Pulido', 'D.J. Oliver', 'Linda Boston', 'Ingrid Mortimer', 'Kourtney Bell', 'Alexyss Spradlin', 'Mike Lanier', 'Claire Sloma', 'Scott Norman', 'Erin Stone', 'Joanna Bronson', 'Don Hails', 'Ele Bardha', 'Caitlin Burt', 'Heather Fairbanks', 'Vincent Hogarth', 'Christopher Hohman', 'Rich Vreeland']",3.48,3.5,"['Horror', 'Mystery']",101,['USA'],English,['English'],"['Two Flints', 'Northern Lights Films', 'Animal Kingdom']",759681,134348,193192,2700,4995,10650,7952,29966,30068,92303,103136,144714,42035,42771,508590,https://letterboxd.com/film/it-follows/
The Way He Looks,2014,Daniel Ribeiro,"['Ghilherme Lobo', 'Fábio Audi', 'Tess Amorim', 'Lúcia Romano', 'Eucir de Souza', 'Selma Egrei', 'Isabela Guasco', 'Victor Filgueiras', 'Pedro Carvalho', 'Guga Auricchio', 'Bárbara Pereira', 'Matheus Abreu', 'Naruna Costa', 'Júlio Machado', 'Renata Novaes']",3.91,5.0,"['Romance', 'Drama']",96,['Brazil'],Portuguese,['Portuguese'],"['Lacuna Filmes', 'Paraná Filmes']",110705,24644,36885,1900,115,281,298,1383,1964,8082,11200,23645,8725,19471,75164,https://letterboxd.com/film/the-way-he-looks/
The Purge,2013,James DeMonaco,"['Ethan Hawke', 'Lena Headey', 'Max Burkholder', 'Adelaide Kane', 'Edwin Hodge', 'Rhys Wakefield', 'Tony Oller', 'Arija Bareikis', 'Tom Yi', 'Chris Mulkey', 'Tisha French', 'Dana Bunch', 'Peter Gvozdas', 'John Weselcouch', 'Alicia Vela-Bailey', 'David Basila', 'Boima Blake', 'Nathan Clarkson', 'Jesse Jacobs', 'Mickey Facchinello', 'Chester Lockhart', 'Tyler Osterkamp', 'Rj Wolfe', 'Aaron Kuban', 'Karen Strassman', 'Cindy Robinson']",2.69,2.5,"['Science Fiction', 'Thriller', 'Horror']",86,"['France', 'USA']",English,['English'],"['Universal Pictures', 'Why Not Productions', 'Platinum Dunes', 'Blumhouse Productions']",697465,52143,73662,314,6557,19470,21344,62378,58637,105284,44542,39514,5229,13579,376534,https://letterboxd.com/film/the-purge/
Free Fall,2013,Stephan Lacant,"['Hanno Koffler', 'Max Riemelt', 'Katharina Schüttler', 'Maren Kroymann', 'Luis Lamprecht', 'Attila Borlan', 'Oliver Bröcker', 'Horst Krebs', 'Shenja Lacher', 'Hassan Lazouane', 'Stephanie Schönfeld', 'Britta Hammelstein', 'Barbara Bernt', 'Samuel Schnepf', 'Vilmar Bieri', 'Jonathan Müller']",3.31,3.0,"['Drama', 'Romance']",100,['Germany'],German,['German'],"['kurhaus production', 'ARD']",25128,4926,4427,70,105,223,256,1050,1404,4101,3429,3437,748,1125,15878,https://letterboxd.com/film/free-fall-2013/
Little Miss Sunshine,2006,"Jonathan Dayton, Valerie Faris","['Greg Kinnear', 'Toni Collette', 'Steve Carell', 'Paul Dano', 'Abigail Breslin', 'Alan Arkin', 'Bryan Cranston', 'Beth Grant', 'Wallace Langham', 'Matt Winston', 'Julio Oscar Mechoso', 'Marc Turtletaub', 'Jill Talley', 'Brenda Canela', 'Chuck Loring', 'Justin Shilton', 'Gordon Thomson', 'Steven Christopher Parker', 'John Walcutt', 'Paula Newsome', 'Dean Norris', 'Lauren Shiohama', 'Mary Lynn Rajskub', 'Jerry Giles', 'Geoff Meed', 'Joan Scheckel', 'Mel Rodriguez', 'Casandra Ashe', 'Alexandria Alaman', 'Alissa Anderegg', 'Brittany Baird', 'Cambria Baird', 'Brenae Bandy', 'Kristen Holaas', 'Maliah Hudson', 'Destry Jacobs', 'Lindsey Jordan', 'Shane Murphy', 'Annabelle Roberts', 'Sydni Stevenson-Love', 'Nicole Stoehr', 'Lauren Yee', 'Terry Bolo']",4.17,5.0,"['Drama', 'Comedy']",102,['USA'],English,['English'],"['Bona Fide Productions', 'Big Beach']",1591697,224922,612553,49000,962,2687,1888,12213,13445,85248,116255,326879,154632,306016,1020225,https://letterboxd.com/film/little-miss-sunshine/
Brokeback Mountain,2005,Ang Lee,"['Heath Ledger', 'Jake Gyllenhaal', 'Michelle Williams', 'Anne Hathaway', 'Randy Quaid', 'Linda Cardellini', 'Anna Faris', 'David Harbour', 'Roberta Maxwell', 'Kate Mara', 'Peter McRobbie', 'Graham Beckel', 'Mary Liboiron', 'Scott Michael Campbell', 'Marty Antonini', 'David Trimble', 'Larry Reese', 'Valerie Planche', 'Victor Reyes', 'Lachlan Mackintosh', 'Tom Carey', 'Don Bland', 'Steven Cree Molison', 'Duval Lang', 'Dan McDougall', 'Dean Barrett', 'Kade Phillips', 'Steffen Cole Moser', 'Cheyenne Hill', 'Cayla Wolever', 'Sarah Hyslop', 'Jacey Kenny', 'Keanna Dubé', 'Brooklynn Proulx', 'Hannah Stewart', 'Jake Church', 'James Baker', 'Pete Seadon', 'Jerry Callaghan', 'Ken Zilka', 'John Tench', 'Will Martin', 'Gary Lauder', 'Christian Fraser', 'Cam Sutherland', 'Barb Mitchell', 'Rodrigo Prieto', 'Ken Roberts', 'Kailin See', 'Jayson Therrien', 'Erika Walter']",4.1,3.0,"['Romance', 'Drama']",134,"['Canada', 'USA']",English,['English'],"['Focus Features', 'River Road Entertainment', 'Alberta Film Entertainment']",984965,171548,324741,19000,1536,2888,1726,9982,10325,57841,72314,200228,97185,172019,626044,https://letterboxd.com/film/brokeback-mountain/
Madagascar,2005,"Eric Darnell, Tom McGrath","['Ben Stiller', 'Chris Rock', 'David Schwimmer', 'Jada Pinkett Smith', 'Sacha Baron Cohen', 'Cedric the Entertainer', 'Andy Richter', 'Tom McGrath', 'Christopher Knights', 'Chris Miller', 'Conrad Vernon', 'Eric Darnell', 'David Cowgill', 'Elisa Gabrielli', 'Stephen Apostolina', 'Devika Parikh', 'David P. Smith', 'Cody Cameron', 'Bob Saget', 'Jeffrey Katzenberg']",3.48,5.0,"['Family', 'Adventure', 'Comedy', 'Animation']",86,['USA'],English,"['English', 'French', 'German', 'Portuguese', 'Spanish']","['Pacific Data Images', 'DreamWorks Animation']",1252374,63087,181521,949,1304,5211,5459,27198,36277,140252,109526,123035,22570,59730,530562,https://letterboxd.com/film/madagascar/
Eternal Sunshine of the Spotless Mind,2004,Michel Gondry,"['Jim Carrey', 'Kate Winslet', 'Kirsten Dunst', 'Mark Ruffalo', 'Elijah Wood', 'Tom Wilkinson', 'Jane Adams', 'David Cross', ""Deirdre O'Connell"", 'Thomas Jay Ryan', 'Ryan Whitney', 'Lola Daehler', 'Debbon Ayer', 'Gerry Robert Byrne', 'Brian Price', 'Josh Flitter', 'Paulie Litt', 'Amir Ali Said', 'Lauren Adler']",4.25,3.5,"['Science Fiction', 'Romance', 'Drama']",108,['USA'],English,['English'],"['Focus Features', 'Anonymous Content', 'This Is That']",2324256,353632,1004039,105000,2320,6944,3763,24424,20290,119596,132871,430997,249675,572554,1563434,https://letterboxd.com/film/eternal-sunshine-of-the-spotless-mind/
The Dreamers,2003,Bernardo Bertolucci,"['Michael Pitt', 'Eva Green', 'Louis Garrel', 'Anna Chancellor', 'Robin Renucci', 'Jean-Pierre Kalfon', 'Jean-Pierre Léaud', 'Florian Cadiou', 'Pierre Hancisse', 'Valentin Merlet', 'Lola Peploe', 'Ingy Fillion']",3.58,3.5,"['Drama', 'Romance']",115,"['Belgium', 'France', 'Italy', 'UK', 'USA']",English,"['English', 'French']","['Fiction Films', 'Recorded Picture Company', 'Peninsula Films', 'Fox Searchlight Pictures', 'HanWay Films', 'MEDIA Programme of the European Union', 'TELE+', 'Peninsular Films']",240875,40546,63404,5000,1481,2341,1974,7344,8595,25328,28049,40374,13229,20069,148784,https://letterboxd.com/film/the-dreamers/
Lilo & Stitch,2002,"Chris Sanders, Dean DeBlois","['Daveigh Chase', 'Chris Sanders', 'Tia Carrere', 'David Ogden Stiers', 'Kevin McDonald', 'Ving Rhames', 'Zoe Caldwell', 'Jason Scott Lee', 'Kevin Michael Richardson', 'Susan Hegarty', 'Amy Hill', 'Steve Alterman', 'Emily Anderson', 'Jack Angel', 'Bill Asing', 'Erica Beck', 'Bob Bergen', 'Steve Blum', 'Rodger Bumpass', 'Cathy Cavadini', 'Jennifer Darling', 'Alexandra Deary', 'John DeMita', 'Judi M. Durand', 'Greg Finley', 'Jeff Fischer', 'Valerie Flueger Veras', 'Jess Harnell', 'Aszur Hill', 'Barbara Harris', 'Daamen J. Krall', 'Todd Kurosawa', 'Chloe Looper', 'Mickie McGowan', 'Kunewa Mook', 'Courtney Mun', 'Mary Linda Phillips', 'Patrick Pinney', 'Paige Pollack', 'David J. Randolph', 'Noreen Reardon', 'Debra Rogers', 'Susan Silo', 'Kath Soucie', 'Melanie Spore', 'Doug Stone', 'Drew Lexi Thomas', 'Miranda Paige Walls', 'Karle Warren', 'Ruth Zalduondo']",3.98,4.5,"['Animation', 'Family']",85,['USA'],English,['English'],"['Walt Disney Pictures', 'Walt Disney Feature Animation']",1057496,96637,250091,6400,540,2025,1546,10216,12235,65443,70200,146625,49794,118676,477300,https://letterboxd.com/film/lilo-stitch/
10 Things I Hate About You,1999,Gil Junger,"['Heath Ledger', 'Julia Stiles', 'Joseph Gordon-Levitt', 'Larisa Oleynik', 'David Krumholtz', 'Andrew Keegan', 'Susan May Pratt', 'Gabrielle Union', 'Larry Miller', 'Daryl Mitchell', 'Allison Janney', 'David Leisure', 'Greg Jackson', 'Kyle Cease', 'Terence Heuston', 'Cameron Fraser', 'Eric Riedmann', 'Quinn Maixner', 'Demegio Kimbrough', 'Todd Butler', 'Dennis Mosley', 'Bianca Kajlich', 'Nick Vukelic', 'Ben Laurance', 'Aidan Kennedy', 'Jelani Quinn', 'Jesse Dyer', 'Aaron Therol', 'Carlos Lacámara', 'Heather Taylor', 'Joshua Thorpe', 'J.R. Johnson', 'Wendy Gottlieb', 'Brian Hood', 'Travis Muller', 'Ari Karczag', 'Laura Kenny', 'Alice Evans', 'Jesper Inglis', 'Nick Brown', 'Monique Powell', 'Brian Mashburn', 'Kay Hanley', 'Michael Eisenstein']",3.99,3.0,"['Comedy', 'Romance', 'Drama']",97,['USA'],English,"['English', 'French']","['Mad Chance', 'Jaret Entertainment']",2186238,285702,905921,74000,1570,4886,3858,24038,29159,160553,172102,391021,129630,479853,1396670,https://letterboxd.com/film/10-things-i-hate-about-you/
