Film_title,Release_year,Director,Cast,Average_rating,Owner_rating,Genres,Runtime,Countries,Original_language,Spoken_languages,Studios,Watches,List_appearances,Likes,Fans,½,★,★½,★★,★★½,★★★,★★★½,★★★★,★★★★½,★★★★★,Total_ratings,Film_URL
Challengers,2024,Luca Guadagnino,"['Zendaya', ""Josh O'Connor"", 'Mike Faist', 'Darnell Appling', 'Bryan Doo', 'Shane T Harris', 'Nada Despotovich', 'Joan Mcshane', 'Chris Fowler', 'Mary Joe Fernández', 'A.J. Lister', 'Connor Aulson', 'Doria Bramante', 'Christine Dye', 'James Sylva', 'Kenneth A. Osherow', 'Kevin Collins', 'Burgess Byrd', 'Jason Tong', 'Hudson Rivera', 'Noah Eisenberg', 'Emma Davis', 'Naheem Garcia', 'Alex Bancila', 'Jake Jensen', 'Konrad Ryba', 'Hailey Gates', 'Andrew Rogers', 'Beverly Kristenson Helton', 'Brad Gilbert', 'Sam Xu', 'Caleb Schneider']",4.18,5.0,"['Drama', 'Romance']",132,"['Italy', 'USA']",English,['English'],"['Pascal Pictures', 'Why Are You Acting? Productions', 'Frenesy Film', 'Metro-Goldwyn-Mayer']",388317,78786,174955,6900,778,1341,1194,4685,6446,20115,35158,96139,84529,100351,350736,https://letterboxd.com/film/challengers/
Anyone But You,2023,Will Gluck,"['Sydney Sweeney', 'Glen Powell', 'Mia Artemis', 'Nat Buchanan', 'Josh Bonello', 'GaTa', 'Alexandra Shipp', 'Hadley Robinson', 'Dermot Mulroney', 'Rachel Griffiths', 'Deborah Faye Lee', 'Lance Kerfuffle', 'Taryn Gluck', 'Alexandra Gluck', 'Summer Tian', 'Dan Liu', 'Davina Chan Gallagher', 'Charlee Fraser', 'Joe Davidson', 'Bryan Brown', 'Michelle Hurd', 'Darren Barnet', 'Mariama Whitton', 'Ryan Panizza', 'Talayna Moana Nikora', 'Beau Karolos', 'Ben Heber']",2.96,1.0,"['Romance', 'Comedy']",104,['USA'],English,['English'],"['Olive Bridge Entertainment', 'Roth-Kirschenbaum Films', 'SK Global Entertainment', 'Columbia Pictures']",841033,93703,218233,2000,10293,22406,21663,69646,78442,176033,118929,129624,31438,75022,733496,https://letterboxd.com/film/anyone-but-you/
Wonka,2023,Paul King,"['Timothée Chalamet', 'Calah Lane', 'Keegan-Michael Key', 'Hugh Grant', 'Paterson Joseph', 'Olivia Colman', 'Tom Davis', 'Jim Carter', 'Rowan Atkinson', 'Matt Lucas', 'Mathew Baynton', 'Natasha Rothwell', 'Rakhee Thakrar', 'Rich Fulcher', 'Kobna Holdbrook-Smith', 'Simon Farnaby', 'Ellie White', 'Sally Hawkins', ""Colin O'Brien"", 'Freya Parker', 'Murray McArthur', 'Charlotte Ritchie', 'Phil Wang', 'Rufus Jones', 'Isy Suttie', 'Ian Bartholomew', 'Sophie Winkleman', 'Justin Edwards', 'Michael Abubakar', 'Tim Fitzhigham', 'Jane Bertish', 'Tracy Ifeachor', 'Dominic Coleman', 'Muzz Khan', 'Ben Howard', 'Alison Pargeter', 'Bleu Woodward', 'Paul G. Raymond', 'Lola Shepelev', 'Marina Bye', 'Robyn Rose', ""Millie O'Donnell"", 'Susie Fairfax', 'Macie Blake', 'Ellie Blake', 'Matilda Tucker', 'Bertie Caplan', 'Gustave Die']",3.28,2.5,"['Comedy', 'Fantasy', 'Family']",117,"['UK', 'USA']",English,['English'],"['Warner Bros. Pictures', 'Village Roadshow Pictures', 'The Roald Dahl Story Company', 'Heyday Films', 'Domain Entertainment']",976398,129419,259642,1800,6741,15341,12673,52434,64021,190157,176972,200315,47749,68784,835187,https://letterboxd.com/film/wonka/
Thanksgiving,2023,Eli Roth,"['Patrick Dempsey', 'Nell Verlaque', 'Addison Rae', 'Ty Olsson', 'Gina Gershon', 'Lynne Griffin', 'Karen Cliche', 'Rick Hoffman', 'Derek McGrath', 'Katherine Trowell', 'Jalen Thomas Brooks', 'Mika Amonsen', 'Amanda Barker', 'Shailyn Griffin', 'Tim Dillon', 'Chris Sandiford', 'Tomaso Sanelli', 'Jenna Warren', 'Gabriel Davenport', 'Xavier Sabeta', 'Milo Manheim', 'James Goldman', 'Nicholas Reynoldson', 'Yusuf Zine', 'Russell Yuen', 'Jeff Teravainen', 'Jordan Poole', 'Joe Delfin', 'Dorian Giordano', 'Hailey Kittle', 'Erika Nonato', 'Andriah Bryan', 'Joe Bostick', 'Geoff Rutherford', 'Joseph Claude Dubois', 'Frank J. Zupancic', 'Tom Keat', 'Alexander Elliot', 'Andy Boorman', 'Neil Robles', 'Hannah Storey', 'Charlie Storey', 'Shiloh O’Reilly', 'Pat Smith', 'Carlisle J. Williams', 'Adam MacDonald', 'Daniel Beiser-Hunt', 'Christopher Creamer', 'Nicholas DeCoulos', 'Shawn Gordon Fraser', 'Jake Gosden', 'Derek Herd', 'J. Timothy Hunt', 'Piret Jõgeda', 'Aaron J. La Fleur', 'Julie Leedes', 'James Magwood', 'Sylvain Plasse', 'Daniel Ryan-Astley']",3.04,1.0,"['Mystery', 'Horror', 'Thriller']",106,['USA'],English,['English'],"['Electromagnetic Productions', 'Dragonfly Entertainment', 'Spyglass Media Group']",219322,52794,55627,153,2576,4705,4969,15234,19667,48987,44762,37355,6962,7341,192558,https://letterboxd.com/film/thanksgiving-2023/
Taylor Swift: The Eras Tour,2023,Sam Wrench,"['Taylor Swift', 'Mike Meadows', 'Max Bernstein', 'Paul Sidoti', 'Amos Heller', 'Matt Billingslea', 'Karina DePiano', 'Melanie Nyema', 'Kamilah Marshall', 'Jeslyn Gorman', 'Eliotte Woodford', 'Amanda Balen', 'Tori Evans', 'Raphael Thomas', 'Audrey Douglass', 'Kevin Scheitzbach', 'Jan Ravnik', 'Kameron Saunders', 'Taylor Banks', 'Natalie Peterson', 'Sydney Moss', 'Tamiya Lewis', 'Natalie Lecznar', 'Sam McWilliams', 'Whyley Yoshimura', 'Karen Chuang']",4.31,0.5,['Music'],169,['USA'],English,['English'],"['Taylor Swift Productions', 'Silent House Productions']",263410,35179,131574,3600,6233,1722,459,1627,1871,8067,7916,27255,14965,139427,209542,https://letterboxd.com/film/taylor-swift-the-eras-tour/
The Exorcist: Believer,2023,David Gordon Green,"['Leslie Odom Jr.', 'Lidya Jewett', ""Olivia O'Neill"", 'Ann Dowd', 'Jennifer Nettles', 'Norbert Leo Butz', 'Okwui Okpokwasili', 'Raphael Sbarge', 'E.J. Bonilla', 'Ellen Burstyn', 'Linda Blair', 'Danny McCarthy', 'Tracey Graves', 'Celeste Oliva', 'Antoni Corone', 'Norah Murphy', 'Chloe Traicos', 'Chandu Kanuri', 'Richard Carr III', 'Malena Cunningham Anderson', 'Emily Rachel Gordon', 'Linda Boston', 'Nick Benas', 'Justin Paul Warren', 'Seth Loven', 'Dylan Probert', 'Amanda Beth', 'Lariah Alexandria', 'Cecil Chatman', 'Rory Gross', 'Nigel Barto', 'Edward James Warren', 'Forrest Briggs', 'Eliseo Antonio Paredes', 'Lize Johnston', 'Samarth Ror']",2.0,0.5,['Horror'],111,['USA'],English,"['English', 'Haitian, Haitian Creole', 'Latin', 'Portuguese']","['Universal Pictures', 'Blumhouse Productions', 'Morgan Creek Entertainment', 'Rough House Pictures']",139016,35522,12943,28,8146,16535,14599,27295,18403,19008,7741,5593,989,1696,120005,https://letterboxd.com/film/the-exorcist-believer/
Totally Killer,2023,Nahnatchka Khan,"['Kiernan Shipka', 'Olivia Holt', 'Julie Bowen', 'Charlie Gillespie', 'Lochlyn Munro', 'Troy Leigh-Anne Johnson', 'Kimberly Huie', 'Kelcey Mawema', 'Liana Liberato', 'Stephi Chin-Salvo', 'Anna Diaz', 'Randall Park', 'Ella Choi', 'Patti Kim', 'Jeremy Monn-Djasgnar', 'Tommy Europe', 'Nathaniel Appiah', 'Conrad Coates', 'Nicholas Lloyd', 'Jonathan Potts', 'Zachary Gibson', ""Brendan O'Brien"", 'Tate Chernen', 'Amy Goodmurphy', 'Fred Henderson', 'Andy Thompson', 'Pam Kearns', 'Eliza Norbury', 'Andrew Barber', 'Alex Pychtin', 'Vanessa Prasad', 'Valin Shinyei', 'Kevin Osea', 'Shaira Boucher', 'Hannah Sarah Grills', 'Shahrokh Ferdowsi', 'Madeleine Kelders']",3.12,2.5,"['Comedy', 'Science Fiction', 'Horror']",105,['USA'],English,"['English', 'Spanish']","['Blumhouse Television', 'Divide / Conquer', 'Amazon MGM Studios', 'Fierce Baby Productions']",273500,56375,69153,193,1198,3025,4011,14701,24424,63971,54271,45104,9057,13621,233383,https://letterboxd.com/film/totally-killer/
No One Will Save You,2023,Brian Duffield,"['Kaitlyn Dever', 'Elizabeth Kaluev', 'Zack Duhame', 'Lauren L. Murray', 'Geraldine Singer', 'Dane Rhodes', 'Evangeline Rose', 'Dari Lynn Griffin', 'Emani White', 'Daniel Rigamer', 'Gabrielle Bordlee Mauro', 'Tenaj L. Jackson', 'Nathalie J. Alarcon', 'John Cortes', 'Ginger Cressman', 'Rose Bianca Grue', 'Bridget Malbrough', 'Devyn Sandidge']",3.04,3.0,"['Science Fiction', 'Thriller', 'Horror']",93,['USA'],English,['English'],"['20th Century Studios', 'Star Thrower Entertainment']",206586,51632,45842,83,1906,4354,4552,15670,20349,47824,41497,30540,5455,5295,177442,https://letterboxd.com/film/no-one-will-save-you/
Poor Things,2023,Yorgos Lanthimos,"['Emma Stone', 'Mark Ruffalo', 'Willem Dafoe', 'Ramy Youssef', 'Christopher Abbott', 'Suzy Bemba', 'Jerrod Carmichael', 'Kathryn Hunter', 'Vicki Pepperdine', 'Hanna Schygulla', 'Margaret Qualley', 'Jack Barton', 'Charlie Hiscock', 'Attila Dobai', 'Emma Hindle', 'Anders Grundberg', 'Attila Kecskeméthy', 'Jucimar Barbosa', 'Carminho', 'Angela Paula Stander', 'Gustavo Gomes', 'Kate Handford', 'Owen Good', 'Zen Joshua Poisson', 'Vivienne Soan', 'Jerskin Fendrix', 'István Göz', 'Bruna Asdorian', 'Tamás Szabó Sipos', 'Tom Stourton', 'Mascuud Dahir', 'Miles Jovian', 'Jeremy Wheeler', 'János Geréb', 'Patrick de Valette', 'Raphaël Thiéry', 'Boris Gillot', 'Dorina Kovács', 'Yorgos Stefanakos', 'Hubert Benhamdine', 'Laurent Borel', 'Gábor Patay', 'Laurent Winkler', 'Andrew Hefler', 'Damien Bonnard', 'Noah Breton', 'Donovan Fouassier', 'Wayne Brett', 'John Locke', 'Keeley Forsyth', 'David Bromley', 'Celina Schleicher', 'Roderick Hill']",4.06,1.0,"['Romance', 'Science Fiction', 'Comedy']",142,"['Ireland', 'UK', 'USA']",English,"['English', 'French', 'Portuguese']","['Searchlight Pictures', 'Film4 Productions', 'TSG Entertainment', 'Element Pictures', 'Limp', 'Fruit Tree']",1656386,321502,656608,23000,10068,14391,9496,33040,34233,104748,145855,396023,303649,385409,1436912,https://letterboxd.com/film/poor-things-2023/
Monster,2023,Hirokazu Kore-eda,"['Sakura Ando', 'Eita Nagayama', 'Soya Kurokawa', 'Hinata Hiiragi', 'Yûko Tanaka', 'Mitsuki Takahata', 'Akihiro Kakuta', 'Shido Nakamura', 'Ryu Morioka', 'Daisuke Kuroda', 'Ayu Kitaura', 'Haruto Kobayashi', 'Kouga Yagishita', 'Taichi Kanemitsu', 'Harune Iida', 'Shiyun Nakamura', 'Pee', 'Kayo Noro']",4.3,4.0,"['Thriller', 'Mystery', 'Drama']",125,['Japan'],Japanese,['Japanese'],"['TOHO', 'Fuji Television Network', 'AOI Pro.', 'BUN-BUKU', 'GAGA Corporation']",183560,55203,88384,8500,135,291,255,1087,1789,7016,14247,42864,34487,56417,158588,https://letterboxd.com/film/monster-2023/
Strange Way of Life,2023,Pedro Almodóvar,"['Ethan Hawke', 'Pedro Pascal', 'Jason Fernández', 'José Condessa', 'Daniel Rived', 'Sara Sálamo', 'Manu Ríos', 'Pedro Casablanc', 'George Steane', 'Erenice Lohan', 'Oihana Cueto', 'Vasileios Papatheocharis']",3.08,4.0,"['Western', 'Romance', 'Drama']",31,"['Spain', 'France']",Spanish,"['Spanish', 'English']","['El Deseo', 'Saint Laurent']",120704,23645,26187,57,544,1665,1911,8419,12511,28616,19546,15509,2850,4813,96384,https://letterboxd.com/film/strange-way-of-life/
Bottoms,2023,Emma Seligman,"['Rachel Sennott', 'Ayo Edebiri', 'Ruby Cruz', 'Havana Rose Liu', 'Kaia Gerber', 'Nicholas Galitzine', 'Miles Fowler', 'Marshawn Lynch', 'Dagmara Dominczyk', 'Punkie Johnson', 'Zamani Wilder', 'Summer Joy Campbell', 'Virginia Tucker', 'Wayne Pére', 'Toby Nichols', 'Cameron Stout', 'Ted Ferguson', 'Bruno Rose', 'Zach Primo', 'Liz Elkins Newcomer', 'Krystal Alayne Chambers', 'Alyssa Matthews', 'Lacey Dover']",3.82,5.0,['Comedy'],91,['USA'],English,['English'],"['Brownstone Productions', 'Orion Pictures']",979740,188662,405080,21000,3508,7324,6238,24001,30019,99794,128722,233259,98535,210353,841753,https://letterboxd.com/film/bottoms/
Femme,2023,"Sam H. Freeman, Ng Choon Ping","['Nathan Stewart-Jarrett', 'George MacKay', 'Antonia Clarke', 'Moe Bar-El', 'Nima Taleghani', 'John Leader', 'Aaron Heffernan', 'John McCrea', 'Peter McPherson', 'Asha Reid', 'Paris Tenana', 'Ryan Walker-Edwards', 'Peter Clements', 'Jackson Milner', 'Luis Torrecilla']",3.73,4.0,"['Drama', 'Thriller']",99,['UK'],English,['English'],"['Agile Films', 'BBC Film', 'Anton']",23361,7859,7050,115,87,126,132,462,715,2386,3954,7010,2755,2115,19742,https://letterboxd.com/film/femme-2023/
Passages,2023,Ira Sachs,"['Franz Rogowski', 'Ben Whishaw', 'Adèle Exarchopoulos', 'Erwan Kepoa Falé', 'Théo Cholbi', 'Arcadi Radeff', 'Léa Boublil', 'Thibault Carterot', 'Tony Daoud', 'Theo Gabilloux', 'Anton Salachas', 'Sarah Lisbonis', 'William Nadylam', 'Caroline Chaniolleau', 'Olivier Rabourdin', 'Jérôme Dauchez', 'François Boisrond', 'Kylian Moison', 'Chloé Granier', 'Juliette Mourlon', 'Malika Bejaoui']",3.5,4.0,"['Drama', 'Romance']",92,['France'],French,"['French', 'English']","['SBS Productions', 'KNM']",109592,32580,25188,196,348,897,965,4178,6246,19021,22848,24236,5654,3369,87762,https://letterboxd.com/film/passages-2023/
Kamen Rider Black Sun,2022,Kazuya Shiraishi,"['Hidetoshi Nishijima', 'Tomoya Nakamura', 'Aoi Nakamura', 'Kokoro Hirasawa', 'Takahiro Miura', 'Yoh Yoshida', 'Baijaku Nakamura', 'Gaku Hamada', 'Takuma Otoo', 'Lou Oshiba', 'Pretty Ota', 'Oshirō Maeda', 'Daisuke Kuroda', 'Toshinori Omi', 'Minori Terada', 'Hiroki Konno', 'Haruka Imou']",3.69,5.0,['Drama'],440,['Japan'],Japanese,['Japanese'],"['Toei Tokyo', 'KADOKAWA Daiei Studio', 'Toei Company', 'Ishimori Productions']",1134,270,530,7,3,5,4,19,28,98,158,290,159,166,930,https://letterboxd.com/film/kamen-rider-black-sun/
RRR,2022,S. S. Rajamouli,"['N.T. Rama Rao Jr.', 'Ram Charan', 'Olivia Morris', 'Ray Stevenson', 'Alison Doody', 'Alia Bhatt', 'Ajay Devgan', 'Samuthirakani', 'Shriya Saran', 'Twinkle Sharma', 'Chatrapathi Sekhar', 'Makrand Deshpande', 'Rahul Ramakrishna', 'Edward Sonnenblick', 'Rajiv Kanakala', 'Ahmareen Anjum', 'Varun Buddhadev', 'Spandan Chaturvedi', 'Chakri', 'Mark Bennington', 'R. Bhakti Klein', ""Alexx O'Nell"", 'Gaurav Pareek', 'Kirron Arya', 'Akash Boro', 'Eduard Buhac', 'Oleh Karpenko', 'Ivan Kostadinov', 'Jason Yeboa', 'S. S. Rajamouli', 'Vedala Hemachandra']",4.19,0.5,"['Action', 'Drama']",185,['India'],Telugu,"['Telugu', 'English']","['DVV Entertainment', 'Pen Studios', 'Lyca Productions']",289397,89189,117538,3800,875,1326,1190,3927,4843,16470,25969,66319,48384,67218,236521,https://letterboxd.com/film/rrr/
Eternals,2021,Chloé Zhao,"['Gemma Chan', 'Richard Madden', 'Angelina Jolie', 'Kumail Nanjiani', 'Barry Keoghan', 'Lauren Ridloff', 'Lia McHugh', 'Brian Tyree Henry', 'Ma Dong-seok', 'Salma Hayek Pinault', 'Kit Harington', 'Harish Patel', 'David Kaye', 'Bill Skarsgård', 'Haaz Sleiman', 'Esai Daniel Cross', 'Alan Scott', 'Hannah Dodd', 'Adrià Escudero', 'Sebastián Viveros', 'Nikkita Chadha', 'Grahame Fox', 'Zain Al Rafeea', 'Alberto Rodríguez', 'Lucia Efstathiou', 'Derek Horsham', 'Jeff Mirza', 'Ascension Martinez Rubio', 'Ozer Ercan', 'Ariadna Vadillo Soto', 'Orson Rosenberg', 'Harry Styles', 'Patton Oswalt', 'Brenda Lorena Garcia', 'Sebastian Senior', 'Chloe Stannage', 'Mahershala Ali', 'Charithra Chandran']",2.74,4.5,"['Action', 'Science Fiction', 'Adventure']",156,"['Canada', 'USA']",English,"['English', 'Arabic', 'Hindi', 'Latin', 'Spanish']",['Marvel Studios'],1051147,188138,175695,748,22270,44297,35454,102487,95030,180352,112675,99827,20743,28932,742067,https://letterboxd.com/film/eternals/
Shang-Chi and the Legend of the Ten Rings,2021,Destin Daniel Cretton,"['Simu Liu', 'Awkwafina', ""Meng'er Zhang"", 'Fala Chen', 'Florian Munteanu', 'Benedict Wong', 'Yuen Wah', 'Michelle Yeoh', 'Ben Kingsley', 'Tony Leung Chiu-wai', 'Andy Le', 'Paul He', 'Jayden Tianyi Zhang', 'Elodie Fong', 'Arnold Sun', 'Stephanie Hsu', 'Kunal Dudheker', 'Tsai Chin', 'Jodi Long', 'Dallas Liu', 'Ronny Chieng', 'Stella Ye', 'Fernando Chien', 'Michael-Anthony Taylor', 'Zach Cherry', 'Raymond Ma', 'Lau Ga-Yung', 'Johnny Carr', 'Harmonie He', 'Lydia Sarks', 'Dee Bradley Baker', 'Jade Xu', 'Tim Roth', 'Mark Ruffalo', 'Brie Larson', 'David Chea', 'Bingchen Ye', 'Daniel Liu', 'Benjamin Wang']",3.45,5.0,"['Adventure', 'Fantasy', 'Action']",132,['USA'],English,"['English', 'Chinese']",['Marvel Studios'],1303447,212686,329950,1100,4123,10979,10388,43952,58957,185113,192216,237212,64779,84615,892334,https://letterboxd.com/film/shang-chi-and-the-legend-of-the-ten-rings/
Evangelion: 3.0+1.0 Thrice Upon a Time,2021,Hideaki Anno,"['Megumi Ogata', 'Yuko Miyamura', 'Maaya Sakamoto', 'Megumi Hayashibara', 'Kotono Mitsuishi', 'Yuriko Yamaguchi', 'Tomokazu Seki', 'Tetsuya Iwanaga', 'Junko Iwao', 'Miki Nagasawa', 'Koki Uchiyama', 'Fumihiko Tachiki', 'Motomu Kiyokawa', 'Akira Ishida', 'Koichi Yamadera', 'Ryunosuke Kamiki', 'Mariya Ise', 'Miyuki Sawashiro', 'Takehito Koyasu', 'Akio Otsuka', 'Anri Katsu', 'Hiro Yuuki', 'Sayaka Ohara', 'Joe Fria']",4.26,4.0,"['Drama', 'Science Fiction', 'Action', 'Animation']",155,['Japan'],Japanese,['Japanese'],['khara'],100934,27603,44231,2700,460,573,519,1440,1589,4720,6597,17324,14979,27838,76039,https://letterboxd.com/film/evangelion-3010-thrice-upon-a-time/
Coming Out,2020,Cressa Maeve Áine,nan,4.1,5.0,['Animation'],2,['USA'],No spoken language,['No spoken language'],nan,14499,3310,6579,14,151,69,41,104,147,558,744,1956,677,3207,7654,https://letterboxd.com/film/coming-out-2020-1/
Atomic Blonde,2017,David Leitch,"['Charlize Theron', 'James McAvoy', 'John Goodman', 'Eddie Marsan', 'Sofia Boutella', 'Roland Møller', 'Jóhannes Haukur Jóhannesson', 'Daniel Bernhardt', 'Toby Jones', 'Til Schweiger', 'James Faulkner', 'Barbara Sukowa', 'Bill Skarsgård', 'Sam Hargrave', 'Attila Árpa', 'Martin Angerbauer', 'Lili Gesler', 'Sara Natasa Szonda', 'Declan Hannigan', 'Balázs Lengyel', 'Daniel Hargrave', 'Greg Rementer', 'Cale Schultz', 'Ronald Reagan']",3.27,4.0,"['Thriller', 'Action']",115,"['Sweden', 'Germany', 'Hungary', 'USA']",English,"['English', 'Swedish', 'German', 'Russian']","['Focus Features', 'Denver & Delilah Films', '87Eleven', 'Sierra/Affinity', 'Closed on Mondays Entertainment', 'TGIM Films', 'Film i Väst']",324476,44615,63811,945,1066,3448,3482,15242,19429,53866,45805,39047,8122,11239,200746,https://letterboxd.com/film/atomic-blonde/
Shin Godzilla,2016,"Hideaki Anno, Shinji Higuchi","['Hiroki Hasegawa', 'Yutaka Takenouchi', 'Satomi Ishihara', 'Kengo Kora', 'Satoru Matsuo', 'Mikako Ichikawa', 'Issey Takahashi', 'Kanji Tsuda', 'Shinya Tsukamoto', 'Toru Nomaguchi', 'Daisuke Kuroda', 'Ren Osugi', 'Kimiko Yo', 'Akira Emoto', 'Sei Hiraizumi', 'Toru Tezuka', ""Ken'ichi Yajima"", 'Akira Hamada', 'Ikuji Nakamura', 'Tetsu Watanabe', 'Jun Kunimura', 'Shingo Tsurumi', 'Jun Hashimoto', 'Pierre Taki', 'Takumi Saitoh', 'KREVA', 'Ken Mitsuishi', 'Kyūsaku Shimada', 'Tarô Suwa', 'Yuu Kamio', 'Arata Furuta', 'Morooka Moro', 'Kôsei Katô', 'Shohei Abe', 'Keisuke Koide', 'Hairi Katagiri', 'Suzuki Matsuo', 'Takahiro Miura', 'Yohta Kawase', 'Ren Mori', 'Atsuko Maeda', 'Kazuo Hara', 'Isshin Inudo', 'Akira Ogata', 'Hideaki Anno', 'Kihachi Okamoto', 'Mansai Nomura', 'Mayumi Ogawa', 'Katsuhiko Yokomitsu', 'Yusuke Sugiyama', 'Sho Oyamada']",3.85,4.0,"['Action', 'Horror', 'Science Fiction']",120,['Japan'],Japanese,"['Japanese', 'Italian', 'German', 'English']","['Toho Pictures', 'Cine Bazar', 'TOHO']",162663,47268,62255,3000,301,686,790,2821,4220,15339,24485,41915,18077,18285,126919,https://letterboxd.com/film/shin-godzilla/
Evangelion: 3.0 You Can (Not) Redo,2012,Hideaki Anno,"['Megumi Ogata', 'Yuko Miyamura', 'Akira Ishida', 'Megumi Hayashibara', 'Maaya Sakamoto', 'Kotono Mitsuishi', 'Yuriko Yamaguchi', 'Fumihiko Tachiki', 'Motomu Kiyokawa', 'Mariya Ise', 'Miyuki Sawashiro', 'Takehito Koyasu', 'Akio Otsuka', 'Anri Katsu', 'Hiro Yuuki', 'Sayaka Ohara', 'Miki Nagasawa', 'Mugihito', 'Joe Fria']",3.65,4.0,"['Animation', 'Science Fiction', 'Drama', 'Action']",96,['Japan'],Japanese,['Japanese'],['khara'],95934,13800,26509,280,314,707,948,2797,3956,11480,14313,18353,6464,7434,66766,https://letterboxd.com/film/evangelion-30-you-can-not-redo/
The Hunt,2012,Thomas Vinterberg,"['Mads Mikkelsen', 'Thomas Bo Larsen', 'Annika Wedderkopp', 'Lasse Fogelstrøm', 'Susse Wold', 'Anne Louise Hassing', 'Lars Ranthe', 'Alexandra Rapaport', 'Sebastian Bull Sarning', 'Steen Ordell Guldbrandsen', 'Daniel Engstrup', 'Troels Thorsen', 'Søren Rønholt', 'Hana Shuan', 'Jytte Kvinesdal', 'Josefine Gråbøl', 'Bjarne Henriksen', 'Nicolai Dahl Hamilton', 'Øyvind Hagen-Traberg', 'Allan Wibor Christensen', 'Rikke Bergmann', 'Rasmus Lind Rubin', 'Frank Rubæk', 'Jakob Højlev Jørgensen', 'Nina Christrup', 'Birgit Petersen', 'Karina Fogh Holmkjær', 'Heidi Gross', 'Marie Aktor', 'Mona C. Soliman', 'Mie Ravn Nielsen', 'Kim Westi Rasmussen', 'Thomas Ravn', 'Katrine Brygmann', 'Ole Dupont']",4.29,1.0,['Drama'],116,"['Denmark', 'Sweden']",Danish,"['Danish', 'Polish', 'English']","['Zentropa International Sweden', 'Film i Väst', 'Zentropa Entertainments']",412390,85393,130877,4500,442,748,585,2517,3317,16334,30699,102299,75414,64454,296809,https://letterboxd.com/film/the-hunt-2012/
Evangelion: 2.0 You Can (Not) Advance,2009,Hideaki Anno,"['Megumi Ogata', 'Megumi Hayashibara', 'Yuko Miyamura', 'Maaya Sakamoto', 'Kotono Mitsuishi', 'Yuriko Yamaguchi', 'Koichi Yamadera', 'Fumihiko Tachiki', 'Motomu Kiyokawa', 'Miki Nagasawa', 'Takehito Koyasu', 'Hiro Yuuki', 'Tomokazu Seki', 'Tetsuya Iwanaga', 'Junko Iwao', 'Mugihito', 'Joe Fria']",3.94,4.0,"['Action', 'Animation', 'Drama', 'Science Fiction']",112,['Japan'],Japanese,"['Japanese', 'English']",['khara'],103315,14796,31264,260,170,355,409,1411,2159,7870,12627,25676,10770,9621,71068,https://letterboxd.com/film/evangelion-20-you-can-not-advance/
Evangelion: 1.0 You Are (Not) Alone,2007,Hideaki Anno,"['Megumi Ogata', 'Megumi Hayashibara', 'Kotono Mitsuishi', 'Yuriko Yamaguchi', 'Akira Ishida', 'Fumihiko Tachiki', 'Motomu Kiyokawa', 'Miki Nagasawa', 'Takehito Koyasu', 'Tomokazu Seki', 'Hiro Yuuki', 'Tetsuya Iwanaga', 'Junko Iwao', 'Mugihito', 'Joe Fria']",3.67,4.0,"['Drama', 'Animation', 'Action', 'Science Fiction']",98,['Japan'],Japanese,['Japanese'],['khara'],110882,14418,29132,99,160,331,372,1845,3514,15113,19985,23751,4325,6382,75778,https://letterboxd.com/film/evangelion-10-you-are-not-alone/
Children of Men,2006,Alfonso Cuarón,"['Clive Owen', 'Clare-Hope Ashitey', 'Chiwetel Ejiofor', 'Julianne Moore', 'Michael Caine', 'Pam Ferris', 'Charlie Hunnam', 'Danny Huston', 'Peter Mullan', 'Oana Pellea', 'Jacek Koman', 'Phaldut Sharma', 'Juan Gabriel Yacuzzi', 'Mishal Husain', 'Rob Curling', 'Maria McErlane', 'Michael Haughey', 'Tehmina Sunny', 'Michael Klesic', 'Ilario Bisi-Pedro', 'Caroline Lena Olsson', ""Dhafer L'Abidine"", 'Jon Chevalier', 'Rita Davies', 'Kim Fenton', 'Chris Gilbert', 'Phoebe Hawthorne', 'Rebecca Howard', 'Atalanta White', 'Laurence Woodbridge', 'Miriam Karlin', 'Philippa Urquhart', 'Jody Halse', 'Martina Messing', 'Simon Poland', 'Barnaby Edwards', 'Ed Westwick', 'Valerie Griffiths', 'Billy Cook', 'Gary Hoptrough', 'Rob Inch', 'Jamie Kenna', 'Maurice Lee', 'Bruno Ouvrard', 'Denise Mack', 'Joy Richardson', 'Milenka James', 'Somi De Souza', 'Francisco Labbe', 'Thorston Manderlay', 'Georgia Goodman', 'Dorothy Grumbar', 'Barry Martin', 'Keith Dunphy', 'Raymond Trickitt', 'Nabil Shaban', 'Goran Kostić', 'Faruk Pruti', 'Yolanda Vazquez', 'Andrew Brooke', 'Andy Callaghan', 'Forbes KB', 'P. D. James', 'Jamie Lengyel', 'João Costa Menezes', 'Vidal Sancho', 'John Warman', 'Paul Warren', 'Yana Yanezic', 'Michael Snelders', 'Steve Murphy']",4.3,5.0,"['Action', 'Drama', 'Science Fiction', 'Thriller']",109,"['UK', 'USA']",English,['English'],"['Universal Pictures', 'Strike Entertainment', 'Hit & Run Productions']",686945,134256,233482,13000,545,1340,1016,5633,6574,32027,47470,131242,97693,130664,454204,https://letterboxd.com/film/children-of-men/
Lady Vengeance,2005,Park Chan-wook,"['Lee Young-ae', 'Choi Min-sik', 'Kwon Yea-young', 'Kim Shi-hoo', 'Nam Il-woo', 'Kim Byeong-ok', 'Oh Dal-su', 'Seung-shin Lee', 'Kim Bu-seon', 'Ra Mi-ran', 'Koh Soo-hee', 'Seo Young-ju', 'Kim Jin-goo', 'Kim Ik-tae', 'Lee Yeong-mi', 'Jang Jeong-ae', 'Choi Jung-woo', 'Park Myung-shin', 'Lee Yong-nyeo', 'Kim Chun-gi', 'Won Mi-won', 'Oh Kwang-rok', 'Lee Dae-yeon', 'Lim Su-kyung', 'Han Jae-duk', 'Ryoo Seung-wan', 'Yoo Ji-tae', 'Kang Hye-jung', 'Yoon Jin-seo', 'Song Kang-ho', 'Shin Ha-kyun', 'Kim Se-won', 'Ko Chang-seok', 'Tony Barry', 'Anne Cordiner', 'Kim Keum-soon', 'Choi Hee-jin', 'Jun Sung-ae', 'Lee Byung-joon', 'Kim You-jung', 'Seo Ji-hee']",4.03,5.0,"['Thriller', 'Drama']",115,['South Korea'],Korean,"['Korean', 'English', 'Japanese']","['TSJ Entertainment', 'Ilshin Capital Investments', 'Centurion Investment', 'Moho Film', 'CJ Entertainment']",161729,53969,52426,2600,161,346,379,1606,2633,11341,21041,41957,19716,17300,116480,https://letterboxd.com/film/lady-vengeance/
Hero,2002,Zhang Yimou,"['Jet Li', 'Tony Leung Chiu-wai', 'Maggie Cheung', 'Donnie Yen', 'Zhang Ziyi', 'Chen Daoming', 'Zhongyuan Liu', 'Tianyong Zheng', 'Qin Yan', 'Zhang Yakun', 'James Hong', 'Chang Xiao Yang', 'Jin Ming', 'Ma Wen Hua', 'Shou Xin Wang', 'Xu Kuang Hua']",3.96,4.0,"['Drama', 'Adventure', 'Action', 'History']",99,"['China', 'Hong Kong', 'Australia']",Chinese,['Chinese'],"['Beijing New Picture Film Co. Ltd.', 'China Film Co-Production Corporation']",135003,34953,32727,839,146,381,349,1798,2428,10425,14252,26516,11786,10461,78542,https://letterboxd.com/film/hero-2002/
Revival of Evangelion,1998,"Hideaki Anno, Masayuki","['Megumi Ogata', 'Kotono Mitsuishi', 'Megumi Hayashibara', 'Yuko Miyamura', 'Akira Ishida', 'Fumihiko Tachiki', 'Koichi Yamadera', 'Yuriko Yamaguchi', 'Motomu Kiyokawa', 'Tomokazu Seki', 'Tetsuya Iwanaga', 'Hiro Yuuki', 'Takehito Koyasu', 'Miki Nagasawa', 'Mugihito', 'Mika Doi', 'Junko Iwao', 'Maria Kawamura']",3.98,5.0,"['Animation', 'Action', 'Drama', 'Science Fiction']",160,['Japan'],Japanese,['Japanese'],"['GAINAX', 'Tatsunoko Production', 'Production I.G']",6505,969,1636,14,11,20,4,49,74,284,302,899,284,966,2893,https://letterboxd.com/film/revival-of-evangelion/
Evangelion: Death (True)²,1998,"Hideaki Anno, Masayuki","['Megumi Ogata', 'Kotono Mitsuishi', 'Megumi Hayashibara', 'Yuko Miyamura', 'Akira Ishida', 'Fumihiko Tachiki', 'Koichi Yamadera', 'Motomu Kiyokawa', 'Tomokazu Seki', 'Tetsuya Iwanaga', 'Hiro Yuuki', 'Takehito Koyasu', 'Mugihito', 'Mika Doi', 'Junko Iwao', 'Maria Kawamura', 'Yuriko Yamaguchi', 'Miki Nagasawa']",3.46,4.0,"['Action', 'Drama', 'Animation', 'Science Fiction']",69,['Japan'],Japanese,['Japanese'],"['GAINAX', 'Tatsunoko Production', 'Toei Company']",26505,3593,6004,17,62,177,151,679,1150,3755,2808,3120,608,1966,14476,https://letterboxd.com/film/evangelion-death-true-1998/
Neon Genesis Evangelion: The End of Evangelion,1997,"Hideaki Anno, Kazuya Tsurumaki","['Megumi Ogata', 'Megumi Hayashibara', 'Kotono Mitsuishi', 'Yuko Miyamura', 'Fumihiko Tachiki', 'Miki Nagasawa', 'Takehito Koyasu', 'Hiro Yuuki', 'Yuriko Yamaguchi', 'Motomu Kiyokawa', 'Akira Ishida', 'Mugihito']",4.46,5.0,"['Science Fiction', 'Drama', 'Action', 'Animation']",87,['Japan'],Japanese,['Japanese'],"['GAINAX', 'movic', 'Star Child Recording', 'TV Tokyo', 'Production I.G', 'KADOKAWA Shoten', 'Toei Company', 'SEGA']",398823,76035,177265,23000,1024,1221,837,2784,3185,12035,17030,53269,45884,134671,271940,https://letterboxd.com/film/neon-genesis-evangelion-the-end-of-evangelion/
Neon Genesis Evangelion: Death and Rebirth,1997,"Hideaki Anno, Masayuki","['Megumi Ogata', 'Megumi Hayashibara', 'Yuko Miyamura', 'Kotono Mitsuishi', 'Fumihiko Tachiki', 'Koichi Yamadera', 'Miki Nagasawa', 'Takehito Koyasu', 'Tetsuya Iwanaga', 'Junko Iwao', 'Tomokazu Seki', 'Motomu Kiyokawa', 'Yuriko Yamaguchi', 'Hiro Yuuki']",3.67,4.0,"['Science Fiction', 'Drama', 'Animation']",101,['Japan'],Japanese,['Japanese'],"['GAINAX', 'Production I.G']",39172,4482,8229,21,113,221,189,722,1091,3586,3248,4813,1187,3739,18909,https://letterboxd.com/film/neon-genesis-evangelion-death-and-rebirth/
Neon Genesis Evangelion,1995,"Kazuya Tsurumaki, Hiroyuki Ishido","['Megumi Ogata', 'Kotono Mitsuishi', 'Megumi Hayashibara', 'Yuko Miyamura', 'Yuriko Yamaguchi', 'Fumihiko Tachiki', 'Motomu Kiyokawa', 'Miki Nagasawa']",4.54,5.0,"['Animation', 'Drama']",615,['Japan'],Japanese,['Japanese'],['GAINAX'],231418,26511,106456,3400,422,376,288,1023,1183,4849,7904,28053,29611,80066,153775,https://letterboxd.com/film/neon-genesis-evangelion/
Beetlejuice,1988,Tim Burton,"['Alec Baldwin', 'Geena Davis', 'Jeffrey Jones', ""Catherine O'Hara"", 'Winona Ryder', 'Michael Keaton', 'Glenn Shadix', 'Sylvia Sidney', 'Patrice Martinez', 'Dick Cavett', 'Robert Goulet', 'Maree Cheatham', 'Susan Kellermann', 'Carmen Filpi', 'Annie McEnroe', 'Rachel Mittelman', 'Hugo Stanger', 'Maurice Page', 'J. Jay Saunders', 'Mark Ettlinger', 'Cindy Daly', 'Duane Davis', 'Simmy Bow', 'Adelle Lutz', 'Tony Cox', 'Jack Angel', 'Charles Schneider', 'Douglas S. Turner']",3.77,4.0,"['Fantasy', 'Comedy']",92,['USA'],English,['English'],"['Warner Bros. Pictures', 'Geffen Pictures']",1046765,150886,310865,8500,1256,3734,2967,15955,19190,90814,104998,183284,51259,104055,577512,https://letterboxd.com/film/beetlejuice/
Blade Runner,1982,Ridley Scott,"['Harrison Ford', 'Rutger Hauer', 'Sean Young', 'Edward James Olmos', 'M. Emmet Walsh', 'Daryl Hannah', 'William Sanderson', 'Brion James', 'Joe Turkel', 'Joanna Cassidy', 'James Hong', 'Kevin Thompson', 'Hy Pyke', 'Kimiko Hiroshige', 'Ben Astar', 'Dawna Lee Heising', 'Alexis Rhee', 'Bob Okazaki', 'Morgan Paull', 'John Edward Allen', 'Carolyn DeMirjian', 'Judith Burnett', 'Leo Gorcey Jr.', 'Sharon Hesky', 'Kelly Hine', 'Tom Hutchinson', 'Charles Knapp', 'Rose Mascari', 'Jiro Okazaki', 'Steve Pope', 'Robert Reiter']",4.1,5.0,"['Thriller', 'Drama', 'Science Fiction']",118,"['USA', 'Hong Kong', 'UK']",English,"['English', 'German', 'Cantonese', 'Japanese', 'Hungarian']","['Shaw Brothers', 'The Ladd Company', 'Warner Bros. Pictures']",1339166,240761,466398,39000,1773,5388,4026,20365,22342,88180,103095,246113,133709,247300,872291,https://letterboxd.com/film/blade-runner/
Pixote,1980,Héctor Babenco,"['Fernando Ramos da Silva', 'Jorge Julião', 'Gilberto Moura', 'Edilson Lino', 'Zenildo Oliveira Santos', 'Claudio Bernardo', 'Israel Feres David', 'Jose Nilson Martin Dos Santos', 'Marília Pêra', 'Jardel Filho', 'Rubens de Falco', 'Elke Maravilha', 'Tony Tornado', 'Beatriz Segall', 'João José Pompeo', 'Rubens Rollo', 'Emílio Fontana', 'Luiz Serra', 'Ariclê Perez', 'Joe Kantor', 'Isadora de Farias', 'Beatriz Berg', 'Walter Breda', 'Raimundo Matos', 'Benedito Corsi', 'Damaceno Filho', 'Cleide Eunice Queiroz', 'Israel Pinheiro', 'Carlos Costa', 'Fábio Tomasini', 'Lineu Dias', 'César Pezzuoli', 'Kocoth']",4.17,5.0,"['Drama', 'Crime']",128,['Brazil'],Portuguese,['Portuguese'],"['HB Filmes', 'Embrafilme']",33729,20160,11596,598,40,75,63,247,361,1513,2688,7885,5042,7319,25233,https://letterboxd.com/film/pixote/
The Blues Brothers,1980,John Landis,"['Dan Aykroyd', 'John Belushi', 'James Brown', 'Cab Calloway', 'Ray Charles', 'Aretha Franklin', 'Steve Cropper', ""Donald 'Duck' Dunn"", 'Murphy Dunne', 'Willie Hall', 'Tom Malone', 'Lou Marini', 'Matt Murphy', 'Alan Rubin', 'Carrie Fisher', 'Henry Gibson', 'John Candy', 'Kathleen Freeman', 'John Lee Hooker', 'Tom Erhart', 'Gerald Walling', 'Walter Levine', 'Alonzo Atkins', 'Chaka Khan', 'Armand Cerami', 'Steven Williams', 'Kristi Oleson', 'Gary McLarty', 'Joe Cuttone', 'Layne Britton', 'Toni Fleming', 'Sheilah Wells', 'Rosie Shuster', 'Judith Belushi-Pisano', 'Lou Perryman', 'Paul Reubens', 'Ben Piazza', 'Gwen Banta', 'Lari Taylor', 'Cindy Fisher', 'Elizabeth Hoy', 'Tony M. Conde', 'Eugene J. Anthony', 'Dean Hill', 'Jack Orend', 'Gene Schuldt', 'Gary Houston', 'Charles Mountain', 'Frank Oz', 'John Landis', 'Elmore James', 'Stephen Bishop', 'Charles Napier', 'Steven Spielberg', 'Curt Clendenin', 'Twiggy', 'Steve Lawrence', ""De'voreaux White"", 'Jeff Morris', 'Mr. T', 'James Avery', 'Raven De La Croix', 'Leoda Richards', 'Norman Matlock', 'S.D. Nemeth', 'Carolyn Franklin']",3.97,5.0,"['Comedy', 'Action', 'Crime', 'Music']",133,['USA'],English,['English'],['Universal Pictures'],308955,51890,84212,5600,305,863,825,4104,5147,21149,26807,53249,21905,33454,167808,https://letterboxd.com/film/the-blues-brothers/
Smokey and the Bandit,1977,Hal Needham,"['Burt Reynolds', 'Sally Field', 'Jerry Reed', 'Jackie Gleason', 'Mike Henry', 'Paul Williams', 'Pat McCormick', 'Linda McClure', 'Susan McIver', 'Laura Lizer Sommers', 'Michael Mann', 'Lamar Jackson', 'Ronnie Gay', 'Quinnon Sheffield', 'Ingeborg Kjeldsen', 'Ben Jones', 'John Schneider', 'Bill Saito', 'Victoria Lynn Johnson', 'Hank Worden']",3.57,5.0,"['Adventure', 'Action', 'Comedy']",96,['USA'],English,['English'],['Universal Pictures'],55419,13926,14839,519,61,196,288,1224,1903,7313,8392,9775,2321,3760,35233,https://letterboxd.com/film/smokey-and-the-bandit/
