Film_title,Release_year,Director,Cast,Average_rating,Owner_rating,Genres,Runtime,Countries,Original_language,Spoken_languages,Studios,Watches,List_appearances,Likes,Fans,½,★,★½,★★,★★½,★★★,★★★½,★★★★,★★★★½,★★★★★,Total_ratings,Film_URL
Yannick,2023,Quentin Dupieux,"['Raphaël Quenard', 'Pio Marmaï', 'Blanche Gardin', 'Sébastien Chassagne', 'Agnès Hurstel', 'Jean-Paul Solal', 'Laurent Nicolas', 'Mustapha Abourachid', 'Sava Lolov', 'Charlotte Laemmel', 'Frank Lebreton', 'Félix Bossuet', ""Agathe L'Huillier"", 'Caroline Piette', 'Loelia Salvador', 'Lucie Gallo', 'Stéphane Pezerat']",3.74,3.0,"['Drama', 'Comedy']",67,['France'],French,['French'],"['Chi-Fou-Mi Productions', 'Atelier de Production']",66200,11667,22053,440,89,244,285,1089,1789,6685,11888,20990,6935,5539,55533,https://letterboxd.com/film/yannick-2023/
Past Lives,2023,Celine Song,"['Greta Lee', 'Teo Yoo', 'John Magaro', 'Moon Seung-ah', 'Yim Seung-min', 'Yoon Ji-hye', 'Choi Won-young', 'An Min-young', 'Seo Yeon-woo', 'Chang Ki-ha', 'Shin Hee-cheol', 'Park Jun-hyuk', 'Jack Alberts', 'Jane Yubin Kim', 'Song Noo-ri', 'Jin Si-ah', 'Choi Yoon-seo', 'Hwang Seung-eon', 'Jojo T. Gibbs', 'Emily Cass McDonnell', 'Federico Rodriguez', 'Conrad Schott', 'Kristen Sieh', 'Oge Agulué', 'Chase Sui Wonders', 'Isaac Powell', 'Jay Karales']",4.18,5.0,"['Drama', 'Romance']",106,"['South Korea', 'USA']",English,"['English', 'Korean']","['A24', 'Killer Films', '2AM', 'CJ ENM']",1058507,287827,449827,24000,1311,2762,2266,11658,15841,63445,98536,271475,187339,259995,914628,https://letterboxd.com/film/past-lives/
Holy Spider,2022,Ali Abbasi,"['Zar Amir Ebrahimi', 'Mehdi Bajestani', 'Arash Ashtiani', 'Forouzan Jamshidnejad', 'Sina Parvaneh', 'Nima Akbarpour', 'Sara Fazilat', 'Alice Rahimi', 'Ali Nazarian', 'Sima Seyed', 'Firouz Ageli', 'Farhad Faghih Habibi', 'Mesbah Taleb', 'Ariane Naziri', 'Majd Eid', 'Sohaib Qishta', 'Maryam Taleb', 'Salma Alabed']",3.62,4.0,"['Thriller', 'Crime', 'Drama']",118,"['Denmark', 'France', 'Germany', 'Sweden']",Persian (Farsi),"['Persian (Farsi)', 'English', 'Spanish']","['Profile Pictures', 'One Two Films', 'Wild Bunch', 'Film i Väst', 'Why Not Productions', 'ZDF/Arte', 'ARTE France Cinéma', 'Nordisk Film Sweden']",74921,19131,16925,117,320,509,537,1813,2771,9664,15285,19618,4932,4272,59721,https://letterboxd.com/film/holy-spider/
Beauty and the Dogs,2017,Kaouther Ben Hania,"['Mariam Al Ferjani', 'Ghanem Zrelli', 'Noomen Hamda', 'Anissa Daoud', 'Neder Ghouati', 'Mohamed Akkari', 'Chedly Arfaoui', 'Mourad Gharsalli', 'Bilel Slim', 'Houssem Ghribi', 'Taoufik El Arfaoui', 'Mounir Ammeri', 'Moncef Ajengui', 'Mohamed Hached', 'Lina Elleuch', 'Aziza Barbech', 'Mhadheb Rmili', 'Halima Boukhris', 'Cyrine Belhédi', 'Fathi Ferah', 'Riadh Hamdi', 'Mohamed Korbi', 'Ouerghi Chedly', 'Dana Abed', 'Rym Ben Messaoud']",3.75,4.0,"['Crime', 'Drama', 'Thriller']",100,"['Qatar', 'France', 'Lebanon', 'Norway', 'Sweden', 'Switzerland', 'Tunisia']",Arabic,['Arabic'],"['Cinétéléfilms', 'Tanit Films', 'Laika Film & Television', 'Film i Väst', 'Commune Image', 'Film and Literature Core Capstone Productions', 'Schortcut Films', 'Oscilloscope']",5805,3197,1532,12,26,42,38,105,174,602,904,1440,526,412,4269,https://letterboxd.com/film/beauty-and-the-dogs/
Caveman,1981,Carl Gottlieb,"['Ringo Starr', 'Dennis Quaid', 'Shelley Long', 'Jack Gilford', 'Barbara Bach', 'Carl Lumbly', 'John Matuszak', 'Avery Schreiber', 'Richard Moll', 'Cork Hubbert', 'Mark King', 'Paco Morayta', 'Evan C. Kim', 'Ed Greenberg', 'Jack Scalici', 'Erika Carlsson', 'Gigi Vorgan', 'Anaís de Melo', 'Miguel Ángel Fuentes', 'Ana De Sade', 'Gerardo Zepeda', 'Tere Álvarez', 'Hector Moreno', 'Pamela Gual', 'Marco Antonio Arzate', 'Miguel Ángel García', 'Vicente Huezo', 'Nicolás Jasso', 'Raúl Martínez', 'Gerardo Albarrán', 'Humberto Olivares', 'Xochitl del Rosario']",2.65,2.0,"['Comedy', 'Adventure']",91,"['Mexico', 'USA']",English,['English'],"['The Turman-Foster Company', 'Estudios Churubusco Azteca', 'United Artists']",6138,2046,922,8,136,327,286,639,560,760,319,236,47,142,3452,https://letterboxd.com/film/caveman/
Tangos e Tragédias Para Sempre,nan,Aloisio Rocha,"['Hique Gomez', 'Nico Nicolaiewsky']",nan,5.0,['Documentary'],nan,nan,Portuguese,['Portuguese'],"['Bit Filmes', 'VideoMakers']",14,3,4,0,,,,,,,,,,,0,https://letterboxd.com/film/tangos-e-tragedias-para-sempre/
