Film_title,Release_year,Director,Cast,Average_rating,Owner_rating,Genres,Runtime,Countries,Original_language,Spoken_languages,Studios,Watches,List_appearances,Likes,Fans,½,★,★½,★★,★★½,★★★,★★★½,★★★★,★★★★½,★★★★★,Total_ratings,Film_URL
Wonka,2023,Paul King,"['Timothée Chalamet', 'Calah Lane', 'Keegan-Michael Key', 'Hugh Grant', 'Paterson Joseph', 'Olivia Colman', 'Tom Davis', 'Jim Carter', 'Rowan Atkinson', 'Matt Lucas', 'Mathew Baynton', 'Natasha Rothwell', 'Rakhee Thakrar', 'Rich Fulcher', 'Kobna Holdbrook-Smith', 'Simon Farnaby', 'Ellie White', 'Sally Hawkins', ""Colin O'Brien"", 'Freya Parker', 'Murray McArthur', 'Charlotte Ritchie', 'Phil Wang', 'Rufus Jones', 'Isy Suttie', 'Ian Bartholomew', 'Sophie Winkleman', 'Justin Edwards', 'Michael Abubakar', 'Tim Fitzhigham', 'Jane Bertish', 'Tracy Ifeachor', 'Dominic Coleman', 'Muzz Khan', 'Ben Howard', 'Alison Pargeter', 'Bleu Woodward', 'Paul G. Raymond', 'Lola Shepelev', 'Marina Bye', 'Robyn Rose', ""Millie O'Donnell"", 'Susie Fairfax', 'Macie Blake', 'Ellie Blake', 'Matilda Tucker', 'Bertie Caplan', 'Gustave Die']",3.28,4.0,"['Comedy', 'Fantasy', 'Family']",117,"['UK', 'USA']",English,['English'],"['Warner Bros. Pictures', 'Village Roadshow Pictures', 'The Roald Dahl Story Company', 'Heyday Films', 'Domain Entertainment']",971525,129290,258685,1800,6690,15229,12576,52077,63654,189136,176346,199621,47620,68540,831489,https://letterboxd.com/film/wonka/
Scott Pilgrim Takes Off,2023,"Abel Góngora, Tomohisa Shimoyama","['Michael Cera', 'Mary Elizabeth Winstead', 'Satya Bhabha', 'Kieran Culkin', 'Chris Evans', 'Brie Larson', 'Alison Pill', 'Brandon Routh', 'Jason Schwartzman', 'Mae Whitman', 'Anna Kendrick', 'Aubrey Plaza', 'Johnny Simmons', 'Mark Webber', 'Ellen Wong']",4.16,5.0,"['Animation', 'Comedy']",217,"['Japan', 'UK', 'USA']",English,"['English', 'French', 'Japanese']","['Science SARU', 'UCP', 'Complete Fiction', 'Marc Platt Productions']",108992,10303,55548,391,177,264,256,880,1273,5000,9677,26435,18978,24987,87927,https://letterboxd.com/film/scott-pilgrim-takes-off-2023/
The Passion According to G.H.,2023,Luiz Fernando Carvalho,"['Maria Fernanda Cândido', 'Samira Nancassa']",3.1,2.0,['Drama'],124,['Brazil'],Portuguese,['Portuguese'],"['Paris Entretenimento', 'Downtown Filmes', 'Núcleo Luiz Fernando Carvalho', 'Paris Filmes', 'República Pureza Filmes']",2312,559,520,9,80,122,105,226,197,299,214,319,108,176,1846,https://letterboxd.com/film/the-passion-according-to-gh/
Poor Things,2023,Yorgos Lanthimos,"['Emma Stone', 'Mark Ruffalo', 'Willem Dafoe', 'Ramy Youssef', 'Christopher Abbott', 'Suzy Bemba', 'Jerrod Carmichael', 'Kathryn Hunter', 'Vicki Pepperdine', 'Hanna Schygulla', 'Margaret Qualley', 'Jack Barton', 'Charlie Hiscock', 'Attila Dobai', 'Emma Hindle', 'Anders Grundberg', 'Attila Kecskeméthy', 'Jucimar Barbosa', 'Carminho', 'Angela Paula Stander', 'Gustavo Gomes', 'Kate Handford', 'Owen Good', 'Zen Joshua Poisson', 'Vivienne Soan', 'Jerskin Fendrix', 'István Göz', 'Bruna Asdorian', 'Tamás Szabó Sipos', 'Tom Stourton', 'Mascuud Dahir', 'Miles Jovian', 'Jeremy Wheeler', 'János Geréb', 'Patrick de Valette', 'Raphaël Thiéry', 'Boris Gillot', 'Dorina Kovács', 'Yorgos Stefanakos', 'Hubert Benhamdine', 'Laurent Borel', 'Gábor Patay', 'Laurent Winkler', 'Andrew Hefler', 'Damien Bonnard', 'Noah Breton', 'Donovan Fouassier', 'Wayne Brett', 'John Locke', 'Keeley Forsyth', 'David Bromley', 'Celina Schleicher', 'Roderick Hill']",4.06,5.0,"['Romance', 'Science Fiction', 'Comedy']",142,"['Ireland', 'UK', 'USA']",English,"['English', 'French', 'Portuguese']","['Searchlight Pictures', 'Film4 Productions', 'TSG Entertainment', 'Element Pictures', 'Limp', 'Fruit Tree']",1644535,320217,652186,23000,9972,14182,9408,32699,33923,103624,144807,393284,302384,382912,1427195,https://letterboxd.com/film/poor-things-2023/
Saltburn,2023,Emerald Fennell,"['Barry Keoghan', 'Jacob Elordi', 'Rosamund Pike', 'Richard E. Grant', 'Alison Oliver', 'Archie Madekwe', 'Carey Mulligan', 'Paul Rhys', 'Ewan Mitchell', 'Sadie Soverall', 'Richard Cotterell', 'Millie Kent', 'Will Gibson', 'Tasha Lim', 'Aleah Aberdeen', 'Matthew Carver', 'Reece Shearsmith', 'Gabriel Bisset-Smith', 'Saga Spjuth-Säll', 'Glyn Grimstead', 'Joshua Samuels', 'Julian Lloyd Patten', 'Olivia Hanrahan-Barnes', 'Lolly Adefope', 'Joshua McGuire', 'Dorothy Atkinson', 'Shaun Dooley', 'Tomás Barry', 'Andy Brady']",3.43,5.0,"['Comedy', 'Drama', 'Thriller']",131,"['UK', 'USA']",English,['English'],"['LuckyChap Entertainment', 'MRC', 'Lie Still']",1978270,212109,577205,12000,12645,28461,24699,96826,110126,311836,306186,452066,145381,202650,1690876,https://letterboxd.com/film/saltburn/
Barbie,2023,Greta Gerwig,"['Margot Robbie', 'Ryan Gosling', 'America Ferrera', 'Ariana Greenblatt', 'Issa Rae', 'Kate McKinnon', 'Alexandra Shipp', 'Emma Mackey', 'Hari Nef', 'Sharon Rooney', 'Ana Cruz Kayne', 'Ritu Arya', 'Dua Lipa', 'Nicola Coughlan', 'Emerald Fennell', 'Simu Liu', 'Kingsley Ben-Adir', 'Ncuti Gatwa', 'Scott Evans', 'John Cena', 'Michael Cera', 'Rhea Perlman', 'Helen Mirren', 'Will Ferrell', 'Connor Swindells', 'Jamie Demetriou', 'Andrew Leung', 'Will Merrick', 'Zheng Xi Yong', 'Asim Chaudhry', 'Ray Fearon', 'Erica Ford', 'Hannah Khalique-Brown', 'Mette', 'Marisa Abela', 'Lucy Boynton', 'Rob Brydon', 'Tom Stourton', 'Chris Taylor', 'David Mumeni', 'Olivia Brody', 'Isla Ashworth', 'Eire Farrell', 'Daisy Duczmal', 'Genvieve Toussaint', 'Isabella Nightingale-Mercado', 'Millie-Rose Crossley', 'Anvita Nehru', 'Kayla-Mai Alvares', 'Luke Mullen', 'Patrick Luwis', 'Mac Brandt', 'Paul Jurewicz', 'Oraldo Austin', 'Benjamin Arthur', 'Carlos Jacott', 'Adam Ray', 'George Basil', 'Ptolemy Slocum', 'Deb Hiett', 'James Leon', 'Oliver Vaquer', 'Tony Noto', 'Christopher T. Wood', 'Ann Roth', 'Annie Mumolo', 'Elise Gallup', 'McKenna Roberts', 'Brylee Hsu', 'Sasha Milstein', 'Lauren Holt', 'Sterling Jones', 'Ryan Piers Williams', 'Jamaal Lewis', 'Kathryn Akin', 'Grace Jabbari', 'Ira Mandela Siobhan', 'Lisa Spencer', 'Naomi Weijand', 'Tom Clark', 'Ireanne Abenoja', 'Davide Albonetti', 'Charlotte Anderson', 'Michael Anderson', 'Rico Bakker', 'James Bamford', 'William John Banks', 'Callum Bell', 'Adam Blaug', 'Mason Boyce', 'Taylor Bradshaw', 'Alex Brown', 'Miekaile Browne', 'Lewis Calcutt', 'Nikkita Chadha', 'Oliver Chapman', 'Megan Charles', 'Callum Clack', 'Danny Coburn', 'Kat Collings', 'Adam Crossley', 'Sia Dauda', 'Gustave Die', 'Grace Durkin', 'Joelle Dyson', 'Lewis Easter', 'Onyemachi Ejimofor', 'Cameron Everitt', 'Luke Field-Wright', 'Sasha Flesch', 'Adam Fogarty', 'Michael John French', 'Anna-Kay Gayle', 'Charlie Goddard', 'Marlie Goddard', 'Ellis Harman', 'Yasmin Harrison', 'Josh Hawkins', 'James Healy', 'Tim Hodges', 'Mira Jebari', 'Beccy Jones', 'Thomas Kalek', 'Lily Laight', 'Maiya Leeke', 'Cristian Liberti', 'Prodromos Marneros', 'Nahum McLean', 'Jordan Melchor', 'Ramzan Miah', 'Andy Monaghan', 'Florivaldo Mossi', 'Hannah Nazareth', 'Grant Neal', 'Freja Nicole', 'Shaun Niles', 'Ella Nonini', 'Jack William Parry', 'Josie Pocock', 'Barnaby Quarendon', 'Redmand Rance', 'Zara Richards', 'Liam Riddick', 'Alana Rixon', 'Adam Paul Robertson', 'Kingdom Sibanda', 'Sebastian Skov', 'Aaron J. Smith', 'Joshua Smith', 'Lucia-Rose Sokolowski', 'Janine Somcio', 'Alex Sturman', 'Callum Sterling', 'Todd Talbot', 'Charles Tatman', 'Grant Thresh', 'Connor Tidman', 'Wahchi Vong', 'Jerry Wan', 'Sasha Wareham', 'Stan West', 'Oliver Wheeler', 'Josh Wild', 'Joe Wolstenholme', 'Richard Womersley', 'Ashley Young']",3.87,2.0,"['Comedy', 'Adventure']",114,"['UK', 'USA']",English,['English'],"['LuckyChap Entertainment', 'Heyday Films', 'NB/GG Pictures', 'Mattel', 'Warner Bros. Pictures']",3544764,441765,1537063,26000,12102,25851,17356,85713,92126,369856,385159,805418,341408,763829,2898818,https://letterboxd.com/film/barbie/
Fallen Leaves,2023,Aki Kaurismäki,"['Alma Pöysti', 'Jussi Vatanen', 'Janne Hyytiäinen', 'Nuppu Koivu', 'Alina Tomnikov', 'Martti Suosalo', 'Matti Onnismaa', 'Sakari Kuosmanen', 'Simon Al-Bazoon', 'Maria Heiskanen', 'Sherwan Haji', 'Karar Al-Bazoon', 'Mia Snellman', 'Eero Ritala', 'Mikko Mykkänen', 'Aapo Penttilä', 'Antti Määttänen', 'Mitja Tuurala', 'Sami Muttilainen', 'Leo Laitinen', 'Jaakko Ranta', 'Heikki Rautiainen', 'Viljami Penttilä', 'Jari Tuomola', 'Lauri Untamo', 'Erkki Astala', 'Timo Malmi', 'Jukka Salmi', 'Jaska Väre', 'Misha Jaari', 'Olli Varja', 'Jukka Rautiainen', 'Paula Oinonen', 'Kaisa Karjalainen', 'Anna Karjalainen', 'Toni Buckman', 'Mika Nikander', 'Evi Salmelin', 'Alma-koira', 'Juho Kuosmanen']",3.8,4.0,"['Romance', 'Drama', 'Comedy']",81,"['Finland', 'Germany']",Finnish,"['Finnish', 'Arabic']","['Sputnik', 'Bufo', 'Pandora Film']",158086,45756,54525,805,238,683,654,2985,4747,17531,28816,46267,14554,11640,128115,https://letterboxd.com/film/fallen-leaves-2023/
Bottoms,2023,Emma Seligman,"['Rachel Sennott', 'Ayo Edebiri', 'Ruby Cruz', 'Havana Rose Liu', 'Kaia Gerber', 'Nicholas Galitzine', 'Miles Fowler', 'Marshawn Lynch', 'Dagmara Dominczyk', 'Punkie Johnson', 'Zamani Wilder', 'Summer Joy Campbell', 'Virginia Tucker', 'Wayne Pére', 'Toby Nichols', 'Cameron Stout', 'Ted Ferguson', 'Bruno Rose', 'Zach Primo', 'Liz Elkins Newcomer', 'Krystal Alayne Chambers', 'Alyssa Matthews', 'Lacey Dover']",3.82,4.0,['Comedy'],91,['USA'],English,['English'],"['Brownstone Productions', 'Orion Pictures']",975710,187860,403486,21000,3492,7290,6209,23858,29891,99288,128237,232374,98226,209639,838504,https://letterboxd.com/film/bottoms/
Guillermo del Toro's Pinocchio,2022,"Guillermo del Toro, Mark Gustafson","['Gregory Mann', 'Ewan McGregor', 'David Bradley', 'Christoph Waltz', 'Tilda Swinton', 'Cate Blanchett', 'Ron Perlman', 'Finn Wolfhard', 'Tim Blake Nelson', 'John Turturro', 'Burn Gorman', 'Alfie Tempest', 'Tom Kenny', 'Anthea Greco', 'Francesca Fanti', 'Sandro Carotti', 'Rio Mangini', 'Benjamin Valic', 'Sky Alexis', 'Ariana Molkara', 'Roy Halo', 'Luciano Palmeri', 'Peter Arpesella']",3.98,5.0,"['Family', 'Animation', 'Drama', 'Fantasy']",117,['USA'],English,['English'],"['The Jim Henson Company', 'ShadowMachine', 'Double Dare You Productions']",604680,126575,218832,2000,906,2330,1694,8308,10465,42959,71436,163783,81440,99647,482968,https://letterboxd.com/film/guillermo-del-toros-pinocchio/
Sunday Night,2022,André Bushatsky,"['Marieta Severo', 'Natália Lage', 'Zé Carlos Machado', 'Johnnas Oliva', 'Isio Ghelman', 'Karen Coelho', 'Hugo Bonemer', 'Bárbara Santos']",nan,3.0,['Drama'],87,['Brazil'],Portuguese,['Portuguese'],['VALENZA FILMES'],122,41,32,1,2,3,4,12,15,25,15,20,5,7,108,https://letterboxd.com/film/sunday-night-2022/
God's Crooked Lines,2022,Oriol Paulo,"['Bárbara Lennie', 'Eduard Fernández', 'Loreto Mauleón', 'Javier Beltrán', 'Pablo Derqui', 'Federico Aguado', 'Adelfa Calvo', 'Antonio Buíl', 'Dafnis Balduz', 'Lluís Soler', 'Samuel Soler', 'David Selvas', 'Francisco Javier Pastor', 'Luis Sacristán', 'Vicente Vergara', 'Covadonga Berdiñas', 'Adolfo Gómez', 'Alba Jubany Vilert', 'Miguel Ángel González', 'Txell Aixendri', 'William Zurita', 'Raquel Ferri', 'Joan Crosas', 'Carles Gilabert', 'Lluís Altés', 'Patty Bonet', 'Pep Ferrer', 'Chus Leiva', 'Joan Serrats', 'Ramon Vila', 'Meritxell Neddermann', 'Alfred Tapscott', 'Franco Niella', 'Hernán Paolini', 'Alex Hung', 'Roger Martínez']",3.52,4.0,"['Mystery', 'Drama', 'Thriller']",155,['Spain'],Spanish,['Spanish'],"['Nostromo Pictures', 'Atresmedia', 'Warner Bros. Entertainment España', 'TV3', 'Filmayer', 'Orange']",39804,5884,8680,185,98,257,361,1331,1935,6123,7470,9138,2773,3214,32700,https://letterboxd.com/film/gods-crooked-lines-2022/
Pearl,2022,Ti West,"['Mia Goth', 'David Corenswet', 'Tandi Wright', 'Matthew Sunderland', 'Emma Jenkins-Purro', 'Alistair Sewell', 'Amelia Reid', 'Gabe McDonnell', 'Lauren Stewart', 'Todd Rippon', 'Grace Acheson']",3.75,4.0,"['Horror', 'Drama']",102,['USA'],English,"['English', 'German']","['A24', 'Little Lamb Productions']",985788,217434,374237,18000,1952,4806,4288,19635,27156,107788,142031,263424,89197,154855,815132,https://letterboxd.com/film/pearl-2022/
She-Hulk: Attorney at Law,2022,"Kat Coiro, Anu Valia","['Tatiana Maslany', 'Ginger Gonzaga', 'Jameela Jamil', 'Renée Elise Goldsberry', 'Josh Segarra']",2.38,4.0,['Comedy'],309,['USA'],English,['English'],"['Marvel Studios', 'Kevin Feige Productions']",178145,49114,29675,31,12830,12560,9173,17733,15828,24427,15390,13636,2825,4785,129187,https://letterboxd.com/film/she-hulk-attorney-at-law/
Look Both Ways,2022,Wanuri Kahiu,"['Lili Reinhart', 'Danny Ramirez', 'David Corenswet', 'Aisha Dee', 'Andrea Savage', 'Luke Wilson', 'Nia Long', 'Sahara Ale', 'Amanda Knapic', 'Sarah J. Bartholomew', 'Jacqueline Seaman', 'Francine Seaman', 'Jaden Tolliver', 'Justin Donte', 'Amanda Grace Jenkins', 'Taylor Ashley Murphy']",2.79,2.0,"['Romance', 'Drama', 'Comedy']",110,['USA'],English,['English'],"['Screen Arcade', 'CatchLight Studios']",80704,10547,11506,39,832,1947,2111,7213,8891,18341,9290,7785,1286,2325,60021,https://letterboxd.com/film/look-both-ways-2022/
They/Them,2022,John Logan,"['Theo Germaine', 'Kevin Bacon', 'Quei Tann', 'Austin Crute', 'Monique Kim', 'Anna Lore', 'Cooper Koch', 'Darwin del Fabo', 'Hayley Griffith', 'Anna Chlumsky', 'Carrie Preston', 'Boone Platt', 'Mark Ashworth', 'Noëlle Cameron', 'Janelle Beaudry', 'Karin Justman']",1.65,3.0,"['Horror', 'Thriller']",101,['USA'],English,['English'],['Blumhouse Productions'],42439,12085,2864,12,7223,8311,5290,6166,3284,2997,1090,741,169,442,35713,https://letterboxd.com/film/they-them-2022-1/
Stand Out: An LGBTQ+ Celebration,2022,"Linda Mendoza, Page Hurwitz","['Billy Eichner', 'Eddie Izzard', 'Margaret Cho', 'Sandra Bernhard', 'Tig Notaro', 'Wanda Sykes', ""Rosie O'Donnell"", 'James Adomian', 'Joel Kim Booster', 'Guy Branum', 'Fortune Feimster', 'Solomon Georgio', 'Sam Jay', 'River Butcher', 'Patti Harrison', 'Matteo Lane', 'Marsha Warfield', 'Mae Martin', 'Judy Gold', 'Gina Yashere', 'Bob the Drag Queen', 'Trixie Mattel', 'Todd Glass', 'Scott Thompson', 'Ani DiFranco', 'Lena Waithe', 'Sarah Paulson', 'Lily Tomlin']",3.27,3.5,"['Documentary', 'Comedy']",96,nan,English,['English'],nan,2591,524,458,3,13,13,23,91,143,437,318,282,36,73,1429,https://letterboxd.com/film/stand-out-an-lgbtq-celebration/
Doctor Strange in the Multiverse of Madness,2022,Sam Raimi,"['Benedict Cumberbatch', 'Elizabeth Olsen', 'Chiwetel Ejiofor', 'Benedict Wong', 'Xochitl Gomez', 'Jett Klyne', 'Julian Hilliard', 'Sheila Atim', 'Adam Hugill', 'Michael Stuhlbarg', 'Rachel McAdams', 'Hayley Atwell', 'Anson Mount', 'Lashana Lynch', 'John Krasinski', 'Patrick Stewart', 'Charlize Theron', 'Bruce Campbell', 'Ross Marquand', 'Andy Bale', 'Ako Mitchell', 'Momo Yeung', 'Daniel Swain', 'Topo Wresniwiro', 'Eden Nathenson', 'Vinny Moli', 'Charlie Norton', 'Aliyah Camacho', 'Ruth Livier', 'Chess Lopez', 'David K.S. Tse', 'Yasmin Chadwick', 'Anthony Knight', 'Nuakai Aru', 'Victoria Grove', 'Joshua Peace', 'Nina Jalava', 'Joshmaine Joseph', 'Yenifer Molina', 'Kevin Dalton', 'Orphee Sidibe', 'Gregory Fung', 'Cecilia Appiah', 'Victoria Sterling', 'Jordan Alexandra', 'Bobbie Little', 'Gabriella Cooper-Parsons', 'André Layne', 'Michael Waldron', 'Bridget Hoffman', 'Scott Spiegel', 'Jessica Pennington', 'Andrew Morgado', 'Audrey Wasilewski', 'Christian Rummel', 'Richie Palmer', 'Stephen Samson']",2.96,4.0,"['Fantasy', 'Adventure', 'Action']",126,['USA'],English,"['English', 'Cantonese', 'Spanish']","['Marvel Studios', 'Kevin Feige Productions']",1742301,251315,378173,1600,18588,43931,37242,141836,145186,330728,221967,200094,40621,66458,1246651,https://letterboxd.com/film/doctor-strange-in-the-multiverse-of-madness/
Bodies Bodies Bodies,2022,Halina Reijn,"['Amandla Stenberg', 'Maria Bakalova', 'Myha’la', 'Rachel Sennott', 'Chase Sui Wonders', 'Pete Davidson', 'Lee Pace', ""Conner O'Malley""]",3.33,5.0,"['Mystery', 'Horror', 'Comedy']",94,['USA'],English,['English'],"['A24', '2AM']",780124,160530,223021,2800,4933,10367,9581,35777,46995,140751,152404,167292,37399,44339,649838,https://letterboxd.com/film/bodies-bodies-bodies/
X,2022,Ti West,"['Mia Goth', 'Jenna Ortega', 'Brittany Snow', 'Kid Cudi', 'Martin Henderson', 'Owen Campbell', 'Stephen Ure', 'James Gaylyn', 'Simon Prast', 'Geoff Dolan', 'Matthew J. Saville', 'Bryony Skillington', 'Karen Gillan']",3.42,4.0,"['Mystery', 'Thriller', 'Horror']",106,['USA'],English,['English'],"['A24', 'Little Lamb Productions']",1160645,220191,349798,5300,5154,11732,10830,44610,58556,193775,208641,255816,62010,88002,939126,https://letterboxd.com/film/x-2022/
Everything Everywhere All at Once,2022,"Daniel Scheinert, Daniel Kwan","['Michelle Yeoh', 'Stephanie Hsu', 'Ke Huy Quan', 'James Hong', 'Jamie Lee Curtis', 'Tallie Medel', 'Jenny Slate', 'Harry Shum Jr.', 'Biff Wiff', 'Sunita Mani', 'Aaron Lazar', 'Brian Le', 'Andy Le', 'Neravana Cabral', 'Chelsey Goldsmith', 'Craig Henningsen', 'Anthony Molinari', 'Dan Brown', 'Anthony N.', 'Cara Marie Chooljian', 'Randall Archer', 'Efka Kvaraciejus', 'Peter Banifaz', 'Audrey Wasilewski', 'Li Jing', 'Dylan Henry Lau', 'Boon Pin Koh', 'Timothy Eulich', 'Daniel Scheinert', 'Michiko Nishiwaki', 'Jane Lui', 'Jason Hamer', 'Timothy Ralston', 'Hiroshi Yada', 'Randy Newman', 'Amanda MacLeod']",4.31,5.0,"['Science Fiction', 'Action', 'Adventure']",140,['USA'],English,"['English', 'Cantonese', 'Chinese']","['A24', 'IAC Films', 'AGBO', 'Ley Line Entertainment', 'TPC', 'Year of the Rat']",2847145,488466,1443745,128000,9435,19796,9923,45960,36340,140622,145028,439143,350305,1103557,2300109,https://letterboxd.com/film/everything-everywhere-all-at-once/
All Too Well: The Short Film,2021,Taylor Swift,"['Sadie Sink', ""Dylan O'Brien"", 'Taylor Swift', 'Jake Lyon', 'Shawn Levy', 'Rashauna Eastman', 'Anthony Espino', 'Jeffrey Castillo Peña', 'Elise Turin', 'Mariama Bonetti', 'Laura Krstovska-Guerrero', 'Sophie Levy', 'Tess Levy', 'Charlie Levy', 'Colette Levy', 'Christine Brown', 'Megan Harris', 'Taylor Hennings', 'Erik Dawson', 'Jeremiah Corley', 'Mitchell Sink', 'Alex Penagos', 'Jodie Taylor', 'Diana Byrd', 'Matt Carignan', 'Jorge Dorsinville', 'Oscar Eli', 'Brianna Figueroa', 'Jason Homayoon', 'Ava Hsu', 'Molly Karow', 'Olivia Karow', 'Taylor Kobryn', 'Kamilah Marshall', 'Sokhna Mbaye', 'Ivey Monroe', 'Justine Newman', 'Melanie Nyema', 'Tara Prangell', 'Tiffany Shinn', 'Ally Woss', 'Liz June', 'Mira Moore', 'Cami Arrow', 'Thaddeus Langly', 'Anna Leonard', 'Doug Moritz', 'Stella Amberiadis', 'Julia Barnard', 'Bernadette Fong', 'Junio Enrique', 'Omar Ezat', 'Emily Garcia', 'Adam Lochridge Gerhardt', 'Martina Gordon', 'Candice Jean-Jacques', 'Acei Martin', 'Stephanie Theresa Pabon', 'Miroslav Piurko', 'Jalil Reddick', 'Tiana Soares', 'Khiry Walker']",4.17,5.0,"['Music', 'Drama']",15,['USA'],English,['English'],"['Taylor Swift Productions', 'Saul Projects']",377647,23427,135970,1400,3715,2510,1372,4301,4352,15519,13609,37553,14236,135218,232385,https://letterboxd.com/film/all-too-well-the-short-film/
The Suicide Squad,2021,James Gunn,"['Margot Robbie', 'Idris Elba', 'John Cena', 'Joel Kinnaman', 'Sylvester Stallone', 'Viola Davis', 'David Dastmalchian', 'Daniela Melchior', 'Michael Rooker', 'Jai Courtney', 'Peter Capaldi', 'Alice Braga', 'Pete Davidson', 'Joaquín Cosío', 'Juan Diego Botto', 'Storm Reid', 'Nathan Fillion', 'Taika Waititi', 'Steve Agee', 'Sean Gunn', 'John Ostrander', 'Flula Borg', 'Mayling Ng', 'Stephen Blackehart', 'Tinashe Kajese', 'Jennifer Holland', 'Fernando Martinez', 'Dee Bradley Baker', 'Jaws', 'Crisp Ratt', 'Natalia Safran', 'Jared Leland Gore', 'Rey Hernandez', 'Ray Benitez', 'Reinaldo Faberlle', 'Jonathan Fritschi', 'Josh Ventura', 'Gerardo Davila', 'Mikaela Hoover', 'Lynne Ashe', 'Julio Cesar Ruiz', 'J.R. Adduci', 'Curtis Lyons Jr.', 'Maya Le Clark', 'Elideusa Gomes Almeida', 'Shanna Kernan', 'Bridget Taylor', 'Monica Rivera', 'Andrea Andrade', 'Giovanni Rodriguez', 'Giovannie Cruz', 'Sergio Carlo', 'Edgar Zanabria', 'Grecia Balboa', 'Kenneth Trujillo', 'Randy Havens', 'Michelle Civile', 'Gabrielle Manning', 'Michael Aaron Milligan', 'Diany Rodriguez', 'Teresita Mans', 'Terence Rosemore', 'Lloyd Kaufman', 'Pom Klementieff', 'Victoria Paige Watkins']",3.51,5.0,"['Action', 'Adventure', 'Comedy']",132,['USA'],English,"['English', 'French', 'Spanish']","['DC Films', 'Atlas Entertainment', 'The Safran Company', 'Warner Bros. Pictures']",1317456,180845,363307,3100,7966,19648,11783,49169,46241,153828,180184,263943,89474,78738,900974,https://letterboxd.com/film/the-suicide-squad/
Luca,2021,Enrico Casarosa,"['Jacob Tremblay', 'Jack Dylan Grazer', 'Emma Berman', 'Saverio Raimondo', 'Maya Rudolph', 'Marco Barricelli', 'Jim Gaffigan', 'Peter Sohn', 'Lorenzo Crisci', 'Marina Massironi', 'Gino La Monica', 'Sandy Martin', 'Giacomo Gianniotti', 'Elisa Gabrielli', 'Mimi Maynard', 'Sacha Baron Cohen', 'Francesca Fanti', 'Jonathan Nichols', 'Enrico Casarosa', 'Jim Pirri', 'Arturo Sorino']",3.74,3.5,"['Adventure', 'Family', 'Fantasy', 'Comedy', 'Animation']",95,['USA'],English,"['English', 'Italian']","['Pixar', 'Walt Disney Pictures']",1167790,154512,345716,4300,1829,4576,4152,21686,27958,125337,144285,240433,69591,131886,771733,https://letterboxd.com/film/luca-2021/
Charli XCX: Alone Together,2021,"Bradley Bell, Pablo Jones-Soler","['Charli XCX', 'Huck Kwong', 'A. G. Cook', 'Sam Pringle', 'Twiggy Rowley', 'Shameera Aitchison', 'Jon Aitchison']",3.46,5.0,"['Documentary', 'Music']",67,['USA'],English,['English'],"['Cottage', 'Dangerous Baby Productions', 'Snoot Entertainment']",6771,1545,2158,12,26,44,66,235,344,1029,962,866,178,498,4248,https://letterboxd.com/film/charli-xcx-alone-together/
Raya and the Last Dragon,2021,"Don Hall, Carlos López Estrada","['Kelly Marie Tran', 'Awkwafina', 'Gemma Chan', 'Alan Tudyk', 'Izaac Wang', 'Benedict Wong', 'Daniel Dae Kim', 'Thalia Tran', 'Sandra Oh', 'Dichen Lachman', 'Patti Harrison', 'Lucille Soong', 'Jona Xiao', 'Sung Kang', 'Ross Butler', 'François Chau', 'Paul Yen', 'Ren Hanami', 'Sierra Katow', 'Gordon Ip', 'Jonathan Park', 'Vincent Rodriguez III']",3.28,4.0,"['Family', 'Action', 'Animation', 'Fantasy', 'Adventure']",107,['USA'],English,['English'],"['Walt Disney Pictures', 'Walt Disney Animation Studios']",521877,72300,98099,255,2273,6154,6685,25101,30980,83473,71054,74580,17403,26089,343792,https://letterboxd.com/film/raya-and-the-last-dragon/
Cats,2019,Tom Hooper,"['Francesca Hayward', 'Judi Dench', 'Idris Elba', 'Jason Derulo', 'Jennifer Hudson', 'James Corden', 'Ian McKellen', 'Taylor Swift', 'Rebel Wilson', 'Ray Winstone', 'Larry Bourgeois', 'Laurent Bourgeois', 'Laurie Davidson', 'Robert Fairchild', 'Danny Collins', 'Naoimh Morgan', 'Steven McRae', 'Mette', 'Daniela Norman', 'Jaih Betote', 'Jonadette Carpio', 'Zizi Strallen', 'Freya Rowley', 'Bluey Robinson', 'Eric Underwood', 'Ida Saki', 'Cory English', 'Melissa Madden-Gray', 'Ponciano Almeida', 'Aaron Jenkins', 'Shay Barclay', 'Samuel Baxter', 'Nicole Bondzie', 'Chrissy Brooke', 'Sharifa Butterfly', 'Jon-Scott Clark', 'Tom Clark', 'Yasmin Cogan', 'Olivia Cowley', 'Tommy Franzen', 'Yasmin Harrison', 'Kalene Jeans', 'Jaron Johnson', 'Lynn Jung', 'Kolton Krouse', 'Rufus Lacey', 'Gabrielle Lewis-Dodson', 'Benjamin Milan', 'Roxanne Milliner', 'Katie Moreton-Hughes', 'Muti Musafiri', 'Redmand Rance', 'Zhanè Samuels', 'Corey Snide', 'Clemmie Sveaas', 'Po-Lin Tung', 'Kie Willis', 'Maggie Daniels', 'Olivia Brooks', 'Chase Collard', 'Meesha Garbett', 'Harriet Turnbull', 'Jamal Ahmed', 'Leonardo Feng', 'Gregory Mann', 'Temba Mliswa', 'Joel Swedensky', 'Erica-Jayne Alden', 'Hannah Amin', 'Emma Caffrey', 'Selina Hamilton', 'Abigayle Honeywill', 'Bethany Huckle', 'Ella Martine', 'Jazz Peters', 'Jade Albertson', 'Sophie Carmen-Jones', 'Chelsea Hogg', 'Hannah Faith-Marram']",1.27,3.0,"['Comedy', 'Drama', 'Fantasy']",110,"['UK', 'USA']",English,['English'],"['Universal Pictures', 'Perfect World Pictures', 'Working Title Films', 'Amblin Entertainment', 'Monumental Pictures', 'The Really Useful Group', 'Working Title Films']",187947,36222,14009,402,53554,36328,11838,12096,4805,5302,1920,2343,569,5265,134020,https://letterboxd.com/film/cats-2019/
Steven Universe Future,2019,"Kat Morris, Alonso Ramirez Ramos","['Zach Callison', 'Estelle', 'Deedee Magno', 'Michaela Dietz']",3.81,5.0,"['Animation', 'Family', 'Comedy', 'Drama']",220,"['USA', 'UK']",English,['English'],['Cartoon Network Studios'],13444,1299,4779,56,84,106,119,276,326,940,1188,2087,1039,2326,8491,https://letterboxd.com/film/steven-universe-future-2019/
Steven Universe: The Movie,2019,Rebecca Sugar,"['Zach Callison', 'Deedee Magno', 'Estelle', 'Michaela Dietz', 'Sarah Stiles', 'Tom Scharpling', 'Uzo Aduba', 'Shelby Rabara', 'Jennifer Paz', 'Patti LuPone', 'Christine Ebersole', 'Lisa Hannigan', 'Erica Luttrell', 'Charlyne Yi', 'Grace Rolek', 'Kate Micucci', 'Matthew Moy', 'Toks Olagundoye', 'Aimee Mann', 'Ted Leo']",3.72,4.5,"['Animation', 'Comedy', 'Fantasy', 'Adventure', 'TV Movie', 'Music']",82,['USA'],English,['English'],['Cartoon Network Studios'],51170,8118,17811,548,197,259,328,1002,1526,4948,6660,9721,3367,6585,34593,https://letterboxd.com/film/steven-universe-the-movie/
Hereditary,2018,Ari Aster,"['Toni Collette', 'Alex Wolff', 'Gabriel Byrne', 'Ann Dowd', 'Milly Shapiro', 'Mallory Bechtel', 'Brock McKinney', 'Jake Brown', 'Morgan Lund', 'Christy Summerhays', 'Bus Riley', 'Jarrod Phillips', 'Heidi Mendez', 'Zachary Arthur', 'David Stanley', 'Moises L. Tovar', 'Austin R. Grant', 'Gabriel Monroe Eckert', 'Harrison Nell', 'BriAnn Rachele', 'Kathleen Chalfant', 'Ari Aster', 'Marilyn Miller', 'Mark Blockovich', 'Rachelle Hardy', 'Jason Miyagi', 'Lorenzo Silva', 'Alexis Long']",3.97,3.5,"['Thriller', 'Horror', 'Mystery']",128,['USA'],English,['English'],['PalmStar Media'],2012175,327714,749699,31000,7275,17537,8889,45282,36196,153160,158868,429433,219248,377046,1452934,https://letterboxd.com/film/hereditary/
Lady Bird,2017,Greta Gerwig,"['Saoirse Ronan', 'Laurie Metcalf', 'Tracy Letts', 'Beanie Feldstein', 'Lucas Hedges', 'Timothée Chalamet', 'Stephen McKinley Henderson', 'Jordan Rodrigues', 'Marielle Scott', 'Lois Smith', 'Odeya Rush', 'Jake McDorman', 'John Karna', 'Bayne Gibby', 'Laura Marano', 'Marietta DePrima', 'Daniel Zovatto', 'Kristen Cloke', 'Andy Buckley', 'Paul Keller', 'Kathryn Newton', 'Myra Turley', 'Bob Stephenson', 'Abhimanyu Katyal', 'Chris Witaske', 'Ben Konigsberg', 'Gurpreet Gill', 'Richard Jin Namkung', ""Joan Patricia O'Neil"", 'Robert Figueroa', 'Carla Valentine', 'Roman Arabia', 'Monique Edwards', 'Matthew Maher', 'Anita Kalathara', 'Debra Miller', 'Georgia Leva', 'Derek Butler', 'London Thor', ""Shaelan O'Connor"", 'Christina Offley', 'Sabrina Schloss', 'Connor Mickiewicz', 'Erik Daniells', 'Cynthia Cales', 'Giselle Grams', 'Ithamar Enriquez', 'Luisa Lee', 'Danielle Macdonald', 'Adam Brock', 'Bonnie Jean Shelton', 'Rebecca Light', 'Janet Song']",3.86,5.0,"['Comedy', 'Drama']",94,['USA'],English,['English'],"['IAC Films', 'Scott Rudin Productions', 'Entertainment 360']",2507353,351344,1017497,56000,5586,16492,8959,61120,47962,259585,220039,529591,184510,396317,1730161,https://letterboxd.com/film/lady-bird/
The Odyssey,2016,Vincent Haycock,"['Florence Welch', 'Morgan Watkins', 'Deena Thompson', 'Kate Mclaughlin', 'Danny Dolan', 'Ryan Spencer', 'David Hernandez', 'Ken Roht', 'Marlon Pelayo', 'Jason Gorman', ""A'Drey Vinogradov"", 'Jermaine Johnson', 'Herman Sinitzyn', 'Jim Tavaré', 'Eddy E.R. Ruiz', 'Tony Andre Mack', 'Richie Stephens', 'Zak Lee', 'Ken Glover', 'Robert Gallo', 'Daniel Mar', 'Beatriz Rosado', 'Maria Gomez', 'Maria Poot', 'Timothy Renuf', 'Nick Welch', 'Campbell Stewart', 'Jermaine Gallacher', 'Silas Brown', 'Luke Farley', 'Babak Ganjei', 'Merlin Massara', 'Frederick Schmidt', 'Finn Kelly', 'Mikey Hoc', 'Paul Donnelly', 'Kath Gordon', 'Irene Kane', 'Owen Abbott', 'Alexander McCabe', 'Nick Murray', 'Martin McBride', 'Alan Carrick', 'Danny Main', 'Barry Irvine', 'Craig Docherty', 'Chris McAdam', 'Sean Taylor', 'George Mann', 'Caitlin Lorimer', 'Allen Kepler', 'Comfort Fedoke', 'Patrick Ellis', 'Christopher Lewis', 'Franchesca Bass', 'Mark Muñoz', 'George Woods', 'Shey Lyn Zanotti', 'Deandre Jackson', 'Sydney Carter', 'Ara Parker', 'Kai Cofer', 'Michael Caponer', 'Hugo Bianqui', 'Isabella Summers', 'Robert Ackroyd', 'Christopher Lloyd Hayden', 'Natasha Newman-Thomas', 'Calvin Clausell', 'Cristian Farias', 'Chris Lewis', 'Dre Young', 'Darnell White', 'Tyler Bivens', 'Jay P. Brown', 'Emily Duncan', 'Gonzalo Bouza', 'Erik Dugan', 'Danny Dolan', 'Jesse Johnson', 'Xavier Truesdell', 'Alex Favella']",4.29,5.0,"['Drama', 'Music']",48,['USA'],English,['English'],['Mainline'],3956,1029,1941,63,11,10,6,13,33,93,166,484,319,1372,2507,https://letterboxd.com/film/the-odyssey-2016-1/
Loucas pra Casar,2015,Roberto Santucci,"['Ingrid Guimarães', 'Márcio Garcia', 'Tatá Werneck', 'Suzana Pires', 'Fabiana Karla', 'Edmilson Filho', 'Guida Vianna', 'Bryan Ruffo', 'Alice Borges', 'Charles Paraventi', 'Rogério Fróes', 'Nanda Andrade', 'Camila Amado', 'Larissa Matos', 'Alan Pelegrino', 'Billy Blanco', ""Leandro D'melo"", 'Heitor Vignoli', 'Aline Fanju', 'Amanda Guimarães', 'Cil Guimarães', 'Marie Lafayete', 'Mabel César', 'Poliana Ardele', 'Stela Celano', 'Bruno Trindade', 'Bruno Cirne', 'Danielle Antunes', 'Cláudia Stock', 'Bruno Kauer']",2.92,2.5,['Comedy'],106,['Brazil'],Portuguese,['Portuguese'],"['Globo Filmes', 'Glaz Entretenimento', 'Downtown Filmes', 'Telecine', 'Paramount Pictures Brasil', 'Banco Regional de Desenvolvimento do Extremo Sul', 'Fundo Setorial do Audiovisual', 'Agência Nacional do Cinema - ANCINE']",8551,720,855,4,141,285,247,740,694,1443,600,633,102,458,5343,https://letterboxd.com/film/loucas-pra-casar/
Her,2013,Spike Jonze,"['Joaquin Phoenix', 'Scarlett Johansson', 'Amy Adams', 'Rooney Mara', 'Chris Pratt', 'Olivia Wilde', 'Matt Letscher', 'Portia Doubleday', 'Spike Jonze', 'Bill Hader', 'Kristen Wiig', 'Artt Butler', 'SoKo', 'Brian Cox', 'Luka Jones', 'Sam Jaeger', 'Pramod Kumar', 'Evelyn Edwards', 'Lil Buck', 'Lynn Adrianna', 'Lisa Renee Pitts', 'Gabe Gomez', 'May Lindstrom', 'David Azar', 'Guy Lewis', 'Melanie Seacat', 'Steve Zissis', 'Dane White', 'Nicole Grother', 'James Ozasky', 'Samantha Sarakanti', 'Gracie Prewitt', 'Claudia Choi', 'Laura Kai Chen', 'Wendy Leon', 'Alia Janine', 'Brian D. Johnson', 'Robert Benard', 'Lisa Cohen', 'Grant Samson']",4.02,4.5,"['Science Fiction', 'Drama', 'Romance']",126,['USA'],English,['English'],['Annapurna Pictures'],1965032,255606,728045,33000,4113,11431,5897,36437,29191,152445,155135,419732,188750,314303,1317434,https://letterboxd.com/film/her/
Elena,2012,Petra Costa,"['Li An', 'Elena Andrade', 'Petra Costa']",3.92,4.0,"['Drama', 'Documentary']",82,"['USA', 'Brazil']",Portuguese,"['Portuguese', 'English']","['JustFilms / Ford Foundation', 'Tribeca Film Institute', 'Wide House']",33266,9580,15172,1700,75,149,107,433,520,1866,2272,5942,2873,12255,26492,https://letterboxd.com/film/elena-2013/
We Need to Talk About Kevin,2011,Lynne Ramsay,"['Tilda Swinton', 'John C. Reilly', 'Ezra Miller', 'Jasper Newell', 'Rock Duer', 'Ashley Gerasimovich', 'Siobhan Fallon Hogan', 'Alex Manette', 'Kenneth Franklin', 'Leslie Lyles', 'Paul Diomede', 'Michael Campbell', 'J. Mallory McCree', 'Mark Elliot Wilson', 'James Chen', 'Lauren Fox', 'Blake DeLong', 'Andy Gershenzon', 'Kelly Wade', 'Ursula Parker', 'Jason Shelton', 'Simon MacLean', 'Erin Darke', ""Annie O'Sullivan"", 'Georgia X. Lifsher', 'Aaron Blakely', 'Polly Adams', 'Suzette Gunn', 'Joseph Melendez', 'Rebecca Dealy', 'Louie Rinaldi', 'Johnson Chong', 'Kimberley Drummond', 'Leland Alexander Wheeler', 'Daniel Farcher', 'Jennifer Kim', 'Caitlin Kinnunen', 'J.J. Kandel', 'Maryann Urbano', 'Jose Joaquin Perez', 'Tah von Allmen', 'Joseph Basile', 'Susan-Kate Heaney', 'Jeffrey Mowery', 'Paul Marra', 'Francesca Murdoch']",3.82,2.0,"['Drama', 'Thriller']",113,"['Spain', 'UK', 'USA']",English,['English'],"['BBC Film', 'Independent', 'UK Film Council', 'Footprint Investment Fund', 'Piccadilly Pictures', 'Lipsync Productions', 'Artina Films', 'Rockinghorse Films', 'Caemhan', 'Panaramic', 'Beryl Betty', 'Atlantic Swiss Productions', 'KanZaman Productions']",469366,74721,120210,2000,950,2060,1834,7651,10131,40113,57707,109858,36571,37090,303965,https://letterboxd.com/film/we-need-to-talk-about-kevin/
Fantastic Mr. Fox,2009,Wes Anderson,"['George Clooney', 'Meryl Streep', 'Jason Schwartzman', 'Wallace Wolodarsky', 'Eric Chase Anderson', 'Willem Dafoe', 'Bill Murray', 'Robin Hurlstone', 'Hugo Guinness', 'Michael Gambon', 'Helen McCrory', 'Wes Anderson', 'Jarvis Cocker', 'Owen Wilson', 'Juman Malouf', 'Karen Duffy', 'Roman Coppola', 'Jeremy Dawson', 'Garth Jennings', 'Brian Cox', 'Tristan Oliver', 'James Hamilton', 'Steven M. Rales', 'Rob Hersov', 'Jennifer Furches', 'Mario Batali', 'Allison Abbate', 'Molly Cooper', 'Adrien Brody', 'Martin Ballard']",4.27,5.0,"['Family', 'Adventure', 'Comedy', 'Animation']",87,['USA'],English,"['English', 'French', 'Latin']","['Regency Enterprises', 'Indian Paintbrush', 'American Empirical Pictures']",1868724,322935,802523,69000,1576,4507,2226,13689,12961,82507,114902,369388,217439,449688,1268883,https://letterboxd.com/film/fantastic-mr-fox/
Precious,2009,Lee Daniels,"['Gabourey Sidibe', ""Mo'Nique"", 'Paula Patton', 'Mariah Carey', 'Lenny Kravitz', 'Sherri Shepherd', 'Stephanie Andujar', 'Chyna Layne', 'Amina Robinson', 'Xosha Roquemore', 'Angelic Zambrana', 'Aunt Dot', 'Nealla Gordon', 'Grace Hightower', 'Barret Helms', 'Kimberly Russell', 'Bill Sage', 'Susan Taylor', 'Kendall Toombs', 'Alexander Toombs', 'Cory Davis', 'Rochelle McNaughton', 'Abigail Savage']",3.62,5.0,['Drama'],110,['USA'],English,"['English', 'Italian']",['Smokewood Entertainment Group'],139690,24605,22018,317,464,969,913,3147,3851,13669,15838,22340,5531,8881,75603,https://letterboxd.com/film/precious/
Click,2006,Frank Coraci,"['Adam Sandler', 'Kate Beckinsale', 'Christopher Walken', 'David Hasselhoff', 'Henry Winkler', 'Julie Kavner', 'Sean Astin', 'Joseph Castanon', 'Jonah Hill', 'Jake Hoffman', 'Tatum McCann', 'Lorraine Nicholson', 'Katie Cassidy', 'Cameron Monaghan', 'Jennifer Coolidge', 'Rachel Dratch', 'Sophie Monk', 'Michelle Lombardo', 'Jana Kramer', 'Nick Swardson', 'Sidney Ganis', 'Michael Yama', 'Mio Takada', 'Eiji Inoue', 'Toshi Toda', 'George K. Eguchi', 'Katheryn Cain', 'Frank Coraci', 'Tim Herlihy', 'Iryna Blokhina', 'Emilio Cast', 'Willy Goldstein', 'Lily Mo Sheen', 'Carolyn Hennesy', 'Elena Patten', 'Cheyenne Alexis Dean', 'Elliott Cho', 'Alan Au', 'Ryan Keiser', 'Christopher Levy', 'Nickole Reyes', 'Brianna Davis', 'Robert Jones', 'Jenae Altschwager', 'Manish Goyal', 'Marco Khan', 'Ahmad Jordan', 'Nick Hodaly', 'Alireza Tanbakoochi', 'John Pagano', ""Dolores O'Riordan"", 'Sally Insul', 'Rob Schneider', 'Billy Slaughter', 'James Earl Jones', 'Theresa Barrera', 'Elizabeth DeCicco', 'Abra Chouinard', 'Terry Crews', 'Howard Fong', 'Jorge Garcia', 'Tracy Britton', 'Jason Sandler', 'Celeste Thorson', 'Lana Titov']",2.81,2.0,"['Drama', 'Comedy', 'Fantasy']",107,['USA'],English,"['English', 'Portuguese', 'Japanese']","['Original Film', 'Revolution Studios', 'Columbia Pictures', 'Happy Madison Productions']",718374,37003,85867,1300,9260,20163,16548,48359,44180,87830,47671,43943,8650,21598,348202,https://letterboxd.com/film/click/
The Devil Wears Prada,2006,David Frankel,"['Anne Hathaway', 'Meryl Streep', 'Emily Blunt', 'Stanley Tucci', 'Simon Baker', 'Adrian Grenier', 'Tracie Thoms', 'Rich Sommer', 'Daniel Sunjata', 'David Marshall Grant', 'James Naughton', 'Tibor Feldman', 'Rebecca Mader', 'Jimena Hoyos', 'Gisele Bündchen', 'George C. Wolfe', 'John Rothman', 'Stephanie Szostak', 'Colleen Dengel', 'Suzanne Dengel', 'Heidi Klum', 'Valentino Garavani', 'Bridget Hall', 'Ines Rivero', 'Alyssa Sutherland', 'Robert Verdi', 'Paul Keany', 'David Callegati', 'Rori Cannon', 'Stan Newman', 'James Cronin', 'Eric Seltzer', 'Lindsay Brice', 'Steve Benisty', 'John Graham', 'Wells Dixon', 'Ilona Alexandra', 'Frank Anello', 'Alexander Blaise', 'Marie Brandt', 'Carl Burrows', 'Dono Cunningham', 'Guy A. Fortt', 'Alexie Gilmore', 'Toree Hill', 'Vivian Kalinov', 'Tim Krueger', 'Hector Lincoln', 'Nina Lisandrello', 'Zev McAllister', 'Matt Murray', 'Ingrid Sophie Schram', 'Bobby Shue', 'Brandhyze Stanley', 'Jen Taylor', 'Taylor Treadwell', 'Donatella Versace', 'Lauren Weisberger', 'Laura D. Williams']",3.77,3.0,"['Comedy', 'Drama']",109,['USA'],English,"['English', 'French']","['Fox 2000 Pictures', '20th Century Fox', 'Wendy Finerman Productions']",1768281,146552,528724,22000,1517,4856,4496,25185,33476,161211,174222,315716,83673,229082,1033434,https://letterboxd.com/film/the-devil-wears-prada/
Shrek 2,2004,"Andrew Adamson, Kelly Asbury","['Mike Myers', 'Eddie Murphy', 'Cameron Diaz', 'Julie Andrews', 'Antonio Banderas', 'John Cleese', 'Rupert Everett', 'Jennifer Saunders', 'Aron Warner', 'Kelly Asbury', 'Cody Cameron', 'Conrad Vernon', 'Christopher Knights', 'David P. Smith', 'Mark Moseley', 'Kelly Cooney Cilella', 'Wendy Bilanski', 'Larry King', 'Guillaume Aretos', 'Chris Miller', 'Latifa Ouaou', 'Alina Phelan', 'Erika Thomas', 'Joan Rivers', 'Andrew Adamson']",4.03,5.0,"['Family', 'Adventure', 'Comedy', 'Animation', 'Fantasy']",93,['USA'],English,['English'],"['DreamWorks Animation', 'Pacific Data Images']",1899378,136615,464239,20000,1938,5899,4254,26232,25121,120660,104734,230845,93831,310505,924019,https://letterboxd.com/film/shrek-2/
Kill Bill: Vol. 2,2004,Quentin Tarantino,"['Uma Thurman', 'David Carradine', 'Daryl Hannah', 'Michael Madsen', 'Gordon Liu Chia-hui', 'Michael Parks', 'Perla Haney-Jardine', 'Larry Bishop', 'Samuel L. Jackson', 'Lucy Liu', 'Vivica A. Fox', 'Julie Dreyfus', 'Christopher Allen Nelson', 'Helen Kim', 'Laura Cayouette', 'Jun Kunimura', 'Goro Daimon', 'Kazuki Kitamura', 'Akaji Maro', 'Shun Sugata', 'Sachiko Fujii', 'Sakichi Sato', 'Yoji Tanaka', 'Sō Yamanaka', 'Chiaki Kuriyama', 'Claire Smithies', 'Issey Takahashi', 'Sid Haig', 'Bo Svenson', 'Clark Middleton', 'Michael Bowen', 'Jeannie Epper', 'Ambrosia Kelley', 'Shana Stein', 'Caitlin Keats', 'Jonathan Loughran', 'James Parks', 'Kenji Ohba', 'Yoshiyuki Morishita', 'Yoshiko Yamaguchi', 'Ronnie Yoshiko Fujiyama', 'Tetsuro Shimaguchi', 'Juri Manase', 'Yuki Kazamatsuri', 'Sonny Chiba', 'Stephanie L. Moore', 'Reda Beebe', 'Victoria Lucai', 'Venessia Valentino', 'Thea Rose', 'William Paul Clark', 'Stevo Polyi', 'Al Manuel Douglas', 'Patricia Silva', 'Maria Del Rosario Gutierrez', 'Sonia Angelica Padilla Curiel', 'Veronica Janet Martinez', 'Lucia Cruz Marroquin', 'Citlati Guadalupe Bojorquez', 'Graciela Salazar Mendoza', 'Maria de Lourdes Lombera', 'Jorge Silva']",4.06,5.0,"['Thriller', 'Action', 'Crime']",136,['USA'],English,"['English', 'Chinese', 'Spanish', 'Cantonese']","['Super Cool ManChu', 'Miramax', 'A Band Apart']",1312285,165780,400692,5100,1047,3096,2282,13062,15135,80736,109933,275883,117022,173346,791542,https://letterboxd.com/film/kill-bill-vol-2/
Oldboy,2003,Park Chan-wook,"['Choi Min-sik', 'Yoo Ji-tae', 'Kang Hye-jung', 'Kim Byeong-ok', 'Ji Dae-han', 'Oh Dal-su', 'Seung-shin Lee', 'Yoon Jin-seo', 'Oh Tae-kyung', 'Yoo Yeon-seok', 'You Il-han', 'Lee Young-hee', 'Kim Yeong-ae', 'Lee Mi-Mi', 'Han Jae-duk', 'Kwak Jung-ae', 'Kim San', 'Chae-soo Jang', 'Seol-a Im', 'Syd Lim', 'Chang-hak Choi', 'Bi-Joon Shin', 'Seok-jae Seong', 'Choi Jae-sup', 'Yoon Jin-yul', 'Mun Seong-bok', 'Park Jae-Woong', 'Oh Soon-tae', 'Lee Hong-pyo', 'Geun-Seok Park', 'Heo Myeong-haeng', 'Kim Won-jung', 'Sung-Gyu Park', 'Jung-pil Lee', 'Seon-Rang Han', 'Beom-sik Sin', 'Jung-ok Han', 'Baek Dong-hyun', 'Ju Myeong-cheol', 'Park Ji-hun', 'Choon-Beom Choi', 'Seo Myeong-Seok', 'Jeon Woo-jae', 'Cho Sang-kyung', 'Oh Young-joo', 'Lee Ji-hye', 'Joong-hyun Ji', 'Sang-moo Moon', 'Oh Kwang-rok', 'Lee Dae-yeon', 'Park Myung-shin', 'Kim Su-hyun', 'Yong-ih']",4.39,3.5,"['Thriller', 'Mystery', 'Drama', 'Action']",120,['South Korea'],Korean,['Korean'],"['Show East', 'CJ Entertainment', 'Egg Film', 'Cineclick Asia']",1005121,214272,375925,31000,1831,2676,1915,7391,8224,34374,54679,186220,163262,259161,719733,https://letterboxd.com/film/oldboy/
Kill Bill: Vol. 1,2003,Quentin Tarantino,"['Uma Thurman', 'Lucy Liu', 'Vivica A. Fox', 'Daryl Hannah', 'David Carradine', 'Michael Madsen', 'Julie Dreyfus', 'Chiaki Kuriyama', 'Sonny Chiba', 'Gordon Liu Chia-hui', 'Michael Parks', 'Michael Bowen', 'Jun Kunimura', 'Kenji Ohba', 'Yuki Kazamatsuri', 'James Parks', 'Sakichi Sato', 'Jonathan Loughran', 'Yoshiyuki Morishita', 'Tetsuro Shimaguchi', 'Kazuki Kitamura', 'Yoji Tanaka', 'Sō Yamanaka', 'Juri Manase', 'Akaji Maro', 'Goro Daimon', 'Shun Sugata', 'Zhang Jinzhan', 'Hu Xiaohui', 'Ambrosia Kelley', 'Sachiko Fujii', 'Shu Lan Tuan', 'Ai Maeda', 'Naomi Kusumi', 'Hikaru Midorikawa', 'Issey Takahashi', 'Yoshiko Yamaguchi', 'Ronnie Yoshiko Fujiyama']",4.19,5.0,"['Crime', 'Action']",111,['USA'],English,"['English', 'Japanese', 'French']","['Miramax', 'A Band Apart', 'Super Cool ManChu']",2263931,279216,861277,40000,2145,6540,3381,21800,18823,120298,136266,446786,220032,439653,1415724,https://letterboxd.com/film/kill-bill-vol-1/
Amélie,2001,Jean-Pierre Jeunet,"['Audrey Tautou', 'Mathieu Kassovitz', 'Rufus', 'Lorella Cravotta', 'Serge Merlin', 'Jamel Debbouze', 'Clotilde Mollet', 'Claire Maurier', 'Isabelle Nanty', 'Dominique Pinon', 'Artus de Penguern', 'Yolande Moreau', 'Urbain Cancelier', 'Maurice Bénichou', 'Michel Robin', 'Andrée Damant', 'Claude Perron', 'Armelle', 'Ticky Holgado', 'André Dussollier', 'Eugène Berthier', 'Charles-Roger Bour', 'Kevin Dias', 'Flora Guiet', 'Amaury Babault', 'Marion Pressburger', 'Luc Palun', 'Fabienne Chaudat', 'Dominique Bettenfeld', 'Jacques Viala', 'Fabien Béhar', 'Jonathan Joss', 'Jean-Pierre Becker', 'Jean Darie', 'Thierry Gibault', 'François Bercovici', 'Franck Monier', 'Guillaume Viry', 'Valérie Zarrouk', 'Marie-Laure Descoureaux', 'Sophie Tellier', 'Gérald Weingand', 'François Viaur', 'Paule Daré', 'Marc Amyot', 'Myriam Labbé', 'Jean Rupert', 'Frankie Pain', 'Julianna Kovacs', 'Philippe Paimblanc', 'Mady Malroux', 'Monette Malroux', 'Robert Gendreu', 'Valériane de Villeneuve', 'Isis Peyrade', 'Raymonde Heudeline', 'Christiane Bopp', 'Thierry Arfeuillères', 'Jerry Lucas', 'Patrick Paroux', 'François Aubineau', 'Philippe Beautier', 'Karine Asure', 'Régis Iacono', 'Franck-Olivier Bonnet', 'Alain Floret', 'Jean-Pol Brissart', 'Frédéric Mitterrand', 'Laurent Delpit', 'Manoush', 'Jacques Thébault', 'Dean Baykan', 'Clément Chebli', 'Eloïse Labro']",4.16,5.0,"['Romance', 'Comedy']",122,"['France', 'Germany']",French,"['French', 'Russian']","['Victoires Productions', 'Tapioca Films', 'France 3 Cinéma', 'MMC Independent', 'GmbH', 'UGC']",1148664,185970,413397,43000,2254,5063,2754,14234,13180,62162,70675,192447,93032,219930,675731,https://letterboxd.com/film/amelie/
All About My Mother,1999,Pedro Almodóvar,"['Cecilia Roth', 'Marisa Paredes', 'Candela Peña', 'Antonia San Juan', 'Penélope Cruz', 'Rosa María Sardà', 'Fernando Fernán Gómez', 'Fernando Guillén', 'Toni Cantó', 'Eloy Azorín', 'Carlos Lozano', 'Manuel Morón', 'José Luis Torrijo', 'Juan José Otegui', 'Carmen Balagué', 'Malena Gutiérrez', 'Yael Barnatán', 'Carme Fortuny', 'Patxi Freytez', 'Juan Marquez', 'Michel Ruben', 'Daniel Lanchas', 'Rosa Manaut', 'Carlos García Cambero', 'Agustín Almodóvar', 'Paz Sufrategui', 'Lola García', 'Esther García', 'Inma Subirà', 'Cayetana Guillén Cuervo', 'Alexia Pardo', 'Lluís Pasqual', 'Fito Páez']",4.14,5.0,"['Comedy', 'Drama']",101,"['Spain', 'France']",Spanish,"['Spanish', 'Catalan']","['Renn Productions', 'France 2 Cinéma', 'El Deseo']",213022,62823,73701,5300,158,380,386,1588,2375,10615,18067,48594,25852,35705,143720,https://letterboxd.com/film/all-about-my-mother/
Central Station,1998,Walter Salles,"['Fernanda Montenegro', 'Vinícius de Oliveira', 'Marília Pêra', 'Othon Bastos', 'Otávio Augusto', 'Matheus Nachtergaele', 'Caio Junqueira', 'Stela Freitas', 'Maria Menezes', 'Sergio Kato', 'Soia Lira', 'Rita Assemany', 'Harildo Déda', 'Gildásio Leite', 'Nanego Lira', 'José Pereira da Silva', 'Everaldo Pontes', 'Inaldo Santana', 'Gideon Rosa', 'Antonieta Noronha', 'Socorro Nobre', 'Iami Rebouças']",4.24,5.0,['Drama'],110,"['Brazil', 'France']",Portuguese,['Portuguese'],"['MACT Productions', 'Videofilms', 'Riofilm']",97551,30819,43968,5700,82,101,105,550,616,2600,4256,13159,10488,41503,73460,https://letterboxd.com/film/central-station/
"To Wong Foo, Thanks for Everything! Julie Newmar",1995,Beeban Kidron,"['Patrick Swayze', 'Wesley Snipes', 'John Leguizamo', 'Stockard Channing', 'Blythe Danner', 'Arliss Howard', 'Jason London', 'Chris Penn', 'Melinda Dillon', 'Beth Grant', 'Alice Drummond', 'Marceline Hugot', 'Jennifer Milmore', 'Jamie Harrold', 'Mike Hodge', 'Michael Vartan', 'RuPaul', 'Julie Newmar', 'Joel Story', 'Abie Hope Hyatt', 'Jamie Leigh Wolbert', 'Shea Degan', 'Dean Houser', 'Joe Grojean', 'Keith Reddin', 'Naomi Campbell', 'William P. Hopkins', 'Dayton Callie', 'Ron Carley', 'Shea R. Bredenkamp', 'Michael Tushaus', 'Patrick Tuttle', 'Timothy A. Zimmerman', 'Tim Keller', 'Miss Understood', 'Joey Arias', 'Allen Hidalgo', 'Mishell Chandler', 'Catiria Reyes', 'David Drumgold', 'Miss Coco Peru', 'Lionel Tiburcio', 'Bernard A. Mosca', ""Daniel T. 'Sweetie' Boothe"", 'Susanne Bartsch', 'Quentin Crisp', 'Flotilla DeBarge', 'Matthew Kasten', 'Widow Norton', 'CoCo LaChine', 'Mike Fulk', 'Niasse N. Mamadou', 'Candis Cayne', 'Shelton McDonald', 'Richard Ogden', 'James Palacio', 'Steven Polito', 'Philip Stoehr', 'Margaret H. Flynn', 'Billie J. Diekman', 'Shari Shell-True', 'Jimmy Ashmore', 'George Costacos', 'Chauncey Duren', 'Marshall Factora', 'Brian Ferrari', 'Alphonso King, Jr.', 'Lady Bunny', 'Jesse Wells Martin', 'Chris Place', 'Channing Roos', 'Johnathan Staci Kim', 'Robin Williams', 'Lito Wilson']",3.83,4.5,"['Comedy', 'Drama']",109,['USA'],English,"['English', 'Spanish']","['Amblin Entertainment', 'Universal Pictures']",70864,20612,25926,1400,108,241,265,1111,1551,6043,7598,12593,4937,9981,44428,https://letterboxd.com/film/to-wong-foo-thanks-for-everything-julie-newmar/
Paris Is Burning,1990,Jennie Livingston,"['Pepper LaBeija', 'Octavia St. Laurent', 'Venus Xtravaganza', 'Dorian Corey', 'Willi Ninja', 'Paris Dupree', 'Freddie Pendavis', 'Sol Williams Pendavis', 'Junior LaBeija', 'Angie Xtravaganza', 'Carmen Xtravaganza', 'Brooke Xtravaganza', 'Kim Pendavis', 'Sandy Ninja', 'Avis Pendavis', 'Andre Christian', 'Stevie St. Laurent', 'Bianca Xtravaganza', 'Danny Xtravaganza', 'David Xtravaganza', 'David Ian Xtravaganza', 'David the Father Xtravaganza']",4.48,4.5,['Documentary'],78,"['UK', 'USA']",English,['English'],"['Art Matters Inc.', 'BBC', 'Edelman Family Fund', 'New York Foundation for the Arts', 'New York State Council on the Arts', 'Off White Productions Inc.', 'Prestige Films', 'The Jerome Foundation', 'The National Endowment for the Arts', 'The Paul Robeson Fund', 'WNYC-TV']",157986,52518,65386,2300,53,78,75,312,532,3346,5929,25720,19989,45141,101175,https://letterboxd.com/film/paris-is-burning/
Hairspray,1988,John Waters,"['Ricki Lake', 'Divine', 'Leslie Ann Powers', 'Debbie Harry', 'Sonny Bono', 'Ruth Brown', 'Jerry Stiller', 'Vitamin C', 'Michael St. Gerard', 'Clayton Prince', 'Mink Stole', 'Shawn Thompson', 'Ric Ocasek', 'Pia Zadora', 'Jo Ann Havrilla', 'Alan J. Wendl', 'Josh Charles', 'Jason Downs', 'Holter Graham', 'Dan Griffith', 'Regina Hammond', 'Bridget Kimsey', 'Frankie Maldon', 'Brooke Stacy Mills', 'John Orofino', 'Kim Webb', 'Debra Wirth', 'Dawn Hill', 'Cyrkle Milbourne', 'Doug Roberts', 'John Waters', 'Toussaint McCall', 'Lydia Troy', 'Verna Day', 'Kevin Joseph', 'Cory Tabachow', 'Marcy Brodsky', 'Donald Wheeler', 'Paul Zimmerman', 'Jennifer Johns', 'Brook Yeaton', 'Jeff Gardner', 'Jay Hillmer', 'Rhea Feikin', 'Coley Sohn', 'Susan Lowe', 'Rosemary Knower', 'Colleen Simon', 'Kathleen Wallace', 'Keith Pruitt', 'Al Granick', 'Robert Di Santo', 'Mollie Hall', 'Dorie Ellwood', 'Maggie Linton', 'Brenda Alford', 'Carolyn Walker', 'Mary Jefferson', 'Alfie Brown', 'Tipper Burton', 'Leo Rocca', 'Jim Parisi', 'Margo Tully', 'Matt Myers', 'Beverly Brigham', 'Wilbur Griffin', 'James Adam Tucker', 'David Samson', 'Robb Case', 'Joey Perillo', 'Mary Vivian Pearce', 'Mojo Gentry', 'Dale Guy Madison', 'Mark Murray-Mazwi', 'Christine Mason', 'Mmekutmfon Essien', 'Bill Lee Brown', 'Fredella Calloway', 'Joseph Eubanks', 'Angel Harper', 'Cornell Hills', 'Gorham Scott', 'Darrell Taylor', 'Peter Koper', 'Kevin Murray', 'George Stover', 'Buddy Deane', 'Michael Willis', 'Chuck Yeaton', 'Rick Anderson', 'Harold Anthony', 'Milton Clark Jr.', 'Harold A. Cornish', 'Bernice Moore', 'June Thorne', 'Scheryll Anderson', 'Cheryl Andrews', 'Sonja Bonair', 'Sylvia Byrd-Leitner', 'Charlie Hawke', 'Rudy Jones', 'William Rose', 'Miriam Kiss', 'Patrick Mitchell', 'Jim Lyons', 'Frederick Strother', 'Christopher Golley', 'Mary Lou Barber', 'Jacole Fletcher', 'Brad Baker', 'John Carhart III', 'Scott Coblio', 'Jean Crispens', 'Vincent De Paul', 'Lisa M. DeHaven', 'Christopher Eaves', 'Lewis Erskine', 'Stephanie Mazzeo', 'Jeff Vespa', 'Stephen Wozniak']",3.59,4.5,"['Comedy', 'Romance', 'Drama']",92,['USA'],English,['English'],['New Line Cinema'],77668,17345,16671,266,192,386,322,1461,1874,7303,8054,11049,2858,3920,37419,https://letterboxd.com/film/hairspray/
Polyester,1981,John Waters,"['Divine', 'Tab Hunter', 'Edith Massey', 'David Samson', 'Mary Garlington', 'Ken King', 'Mink Stole', 'Joni Ruth White', 'Hans Kramm', 'Stiv Bators', 'Rick Breitenfeld', 'Michael Watson', 'Derek Neal', 'Jean Hill', 'Jim Hill', 'Mary Vivian Pearce', 'Sharon Niesp', 'Cookie Mueller', 'Marina Melin', 'Susan Lowe', 'Tom Diventi', 'George Hulse', 'Tony Parkham', 'Paul Holland', 'Alberto Panella', 'Frank Tamburo', 'Nancy Morgan', 'Keats Smith', 'Gordon Kamka', 'David Klein', 'George Stover', 'Steve Yeager', 'Marv Egoff', 'John De La Vega', 'Chuck Yeaton', 'George Udell', 'Mrs. Horner', 'Katie Casey', 'Gail Kondylas', 'Judith Klein', 'Alan Hauser', 'Garey Lambert', 'Lynda Lambert', 'Dorothy Braundy', 'George Figgs', 'Leo Braudy', 'Pat Figgs', 'Joan Insley', 'Sam Insley', 'Brook Yeaton', 'Jonah Klein', 'Kitty Samson', 'Stuart Rome', 'Paula Rome', 'Steve Waters', 'Treva Barnes', 'Sharon Waters', 'Anne Mallory', 'John Allen', 'Jay Allen', 'Tommy Allen', 'Hilary Aidus', 'Joan Erbe']",3.79,3.5,"['Comedy', 'Drama', 'Crime']",86,['USA'],English,['English'],['New Line Cinema'],28102,15077,9975,226,48,111,90,371,585,2402,3741,6584,2399,2631,18962,https://letterboxd.com/film/polyester/
Grease,1978,Randal Kleiser,"['John Travolta', 'Olivia Newton-John', 'Stockard Channing', 'Jeff Conaway', 'Barry Pearl', 'Michael Tucci', 'Kelly Ward', 'Didi Conn', 'Jamie Donnelly', 'Dinah Manoff', 'Eve Arden', 'Frankie Avalon', 'Joan Blondell', 'Edd Byrnes', 'Sid Caesar', 'Alice Ghostley', 'Dody Goodman', 'Lorenzo Lamas', 'Fannie Flagg', 'Dick Patterson', 'Eddie Deezen', 'Darrell Zwerling', 'Ellen Travolta', 'Annette Charles', 'Dennis Stewart', 'Barbi Alison', 'Helena Andreyko', 'Jennifer Buchanan', 'Carol Culver', 'Cindy DeVore', 'Deborah Fishman', 'Antonia Franceschi', 'Sandra Gray', 'Mimi Lieber', 'Judy Susman', 'Dennis Daniels', 'Larry Dusich', 'John Robert Garrett', 'Daniel Levins', 'Sean Moran', 'Greg Rosatti', 'Andy Roth', 'Lou Spadaccini', 'Andy Tennant', 'Richard Weisman', 'Michael Biehn', 'Wendie Jo Sperber', 'Susan Buckner']",3.48,3.0,"['Comedy', 'Romance']",110,"['UK', 'USA']",English,['English'],"['Paramount', 'Robert Stigwood Organization', 'Fine Arts Films']",1101773,103361,220134,7600,3353,8622,6670,30589,32529,118482,92369,125133,27778,76804,522329,https://letterboxd.com/film/grease/
The Rocky Horror Picture Show,1975,Jim Sharman,"['Tim Curry', 'Susan Sarandon', 'Barry Bostwick', ""Richard O'Brien"", 'Patricia Quinn', 'Nell Campbell', 'Jonathan Adams', 'Peter Hinwood', 'Meat Loaf', 'Charles Gray', 'Jeremy Newson', 'Hilary Farr', 'Pierre Bedenes', 'Christopher Biggins', 'Gaye Brown', 'Ishaq Bux', 'Stephen Calcutt', 'Hugh Cecil', 'Imogen Claire', 'Tony Cowan', 'Sadie Corre', 'Fran Fullenwider', 'Lindsay Ingram', 'Peggy Ledger', 'Annabel Leventon', 'Anthony Milner', 'Pamela Obermeyer', 'Tony Then', 'Kimi Wong', 'Henry Woolf', 'Lewis Alexander', 'Gina Barrie', 'Hyma Beckley', 'Ernest Blyth', 'Rufus Collins', 'Megan Hanks', 'Victor Harrington', 'Mark Johnson', 'Juba Kennerley', 'Petra Leah', 'Frank Lester', 'John Marquand', 'Koo Stark', 'Richard Nixon']",4.0,5.0,"['Science Fiction', 'Fantasy', 'Horror', 'Comedy']",100,"['UK', 'USA']",English,['English'],"['Michael White Productions', '20th Century Fox']",699077,154421,254310,20000,1923,3994,2702,11232,11278,45623,49503,113092,44063,125730,409140,https://letterboxd.com/film/the-rocky-horror-picture-show/
Pink Flamingos,1972,John Waters,"['Divine', 'David Lochary', 'Mary Vivian Pearce', 'Mink Stole', 'Danny Mills', 'Edith Massey', 'Channing Wilroy', 'Cookie Mueller', 'Paul Swift', 'Susan Walsh', 'Linda Olgeirson', 'Pat Moran', 'Jack Walsh', 'Bob Skidmore', 'Pat Lefaiver', 'Jackie Sidel', 'Julie Munshauer', 'Steve Yeager', 'Nancy Crystal', 'George Figgs', 'John Oden', 'George Stoll', 'David Gluck', 'Elizabeth Coffey', 'Margie Donnelly', 'Margie Skidmore', 'Berenica Cipcus', 'Iris Burman', 'Randy Burman', 'Don Blumberg', 'Vincent Peranio', 'Bob Adams', 'Mark Lazarus', 'David Lehman', 'Catriona Maloney', 'Richard Keller', 'Charlie Swope', 'Barry Golome', 'Ed Peranio', 'Elia Katz', 'Steve Waters', 'Billy Davis', 'Howard Gruber', 'Van Smith', 'Chuck Yeaton', 'Laurie Birnbaum', 'Lenny Taylor', 'Trick Grantham', 'Mark Isherwood', 'Randy Damm', 'Alan Reese', 'Alberta Reese', 'Cowboy Foulke', 'David Sanders', 'Brigette Grey', 'John Herndon', 'Ellis Clark', 'Joe Wilepski', 'Paul Landis', 'Lawrence Irvine', 'Marina Melin', 'Max Mueller', 'John Waters']",3.55,4.0,"['Comedy', 'Crime']",93,['USA'],English,['English'],"['Dreamland Productions', 'New Line Cinema']",106626,44461,31015,1400,2187,2089,1280,3242,3302,9730,9727,16122,5602,11715,64996,https://letterboxd.com/film/pink-flamingos/
What Ever Happened to Baby Jane?,1962,Robert Aldrich,"['Bette Davis', 'Joan Crawford', 'Victor Buono', 'Wesley Addy', 'Julie Allred', 'Anne Barton', 'Marjorie Bennett', 'Bert Freed', 'Anna Lee', 'Maidie Norman', 'Dave Willock', 'William Aldrich', 'Ernest Anderson', 'Russ Conway', 'Maxine Cooper', 'Robert Cornthwaite', 'Michael Fox', 'Gina Gillespie', 'Barbara Merrill', 'Don Ross', 'James Seay', 'John Shay', 'Jon Shepodd', 'Peter Virgo', 'Bobs Watson', 'Debbie Burton', 'Murray Alper', 'Steve Condit', 'Dorothea Lord', 'Norman Papson', 'Mike Ragan', 'Sammy Shack', 'Michael St. Angel', 'Jack Tornek', 'Ralph Volkie', 'Robert Perry', 'Bill Walker', 'Ralph Hart']",4.15,5.0,"['Thriller', 'Drama', 'Horror']",135,['USA'],English,['English'],"['The Associates & Aldrich Company', 'Seven Arts Productions', 'Warner Bros. Pictures']",111968,50995,37681,1400,43,175,167,776,1149,5520,9597,25685,14066,17648,74826,https://letterboxd.com/film/what-ever-happened-to-baby-jane/
A Star Is Born,1954,George Cukor,"['Judy Garland', 'James Mason', 'Jack Carson', 'Charles Bickford', 'Tommy Noonan', 'Lucy Marlow', 'Amanda Blake', 'Irving Bacon', 'Hazel Shermet', 'James Brown', 'John Alban', 'Laurindo Almeida', 'Leon Alton', 'Rudolph Anders', 'David Armstrong', 'Phil Arnold', 'Nadine Ashdown', 'Gertrude Astor', 'Jack Baker', 'George Becwar', 'Don Beddoe', 'Rodney Bell', 'Oscar Blank', 'Lennie Bluett', 'Lulu Mae Bohrman', 'Willis Bouchey', 'Marshall Bradford', 'Ruth Brady', 'Paul Brinegar', 'Tex Brodus', 'Sheila Bromley', 'Paul Bryar', 'Benny Burt', 'Boyd Cabeen', 'George Calliga', 'Kathryn Card', 'John Carlyle', 'Beth Carter', 'Spencer Chan', 'Chick Chandler', 'Lauren Chapin', 'Beulah Christian', 'Samuel Colt', 'Heinie Conklin', 'Charles J. Conrad', 'Tom Cound', 'Oliver Cross', 'Russell Custer', 'Blythe Daley', 'Havis Davenport', 'Rudy Del Campo', 'Harry Denny', 'Eddie Dew', 'Alan DeWitt', 'Joe Dougherty', 'Helen Eby-Rock', 'Jack Ellis', 'Jean Engstrom', 'Harry Evans', 'Rex Evans', 'Franklyn Farnum', 'Timothy Farrell', 'Frank Ferguson', 'Elizabeth Flournoy', 'Bess Flowers', 'Almeda Fowler', 'Raoul Freeman', 'Nacho Galindo', 'Kenneth Gibson', 'Joe Gilbert', 'Joseph Glick', 'Jack Gordon', 'Wilton Graff', 'Marion Gray', 'Robert Haines', 'Charles Halton', 'Joseph Hamilton', 'Sam Harris', 'Ray Heindorf', 'Percy Helton', 'Louis Jean Heydt', 'Al Hill', 'Stuart Holmes', 'Olin Howland', 'Robert F. Hoy', 'James Hyland', 'Bob Jellison', 'Jay Johnson', 'Dick Johnstone', 'Arlene Karr', 'Fred Kelsey', 'Jack Kenney', 'Tom Kingston', 'George Kitchel', 'Allen Kramer', 'Frank Kreig', 'Henry Kulky', 'Nancy Kulp', 'Richard LaMarr', 'Carl M. Leviness', 'Paul Levitt', 'Carey Loftin', 'Robert Locke Lorraine', 'Frank Marlowe', 'Mae Marsh', 'Strother Martin', 'Dorothy Martinson', 'Louis Mason', 'Nita Mathews', 'Ila McAvoy', 'Jack McCoy', 'Philo McCullough', 'Don McKay', 'Heidi Meadows', 'Joseph Mell', 'Harold Miller', 'Nolie Miller', 'Patrick Miller', 'Todd Miller', 'Wade Miller', 'Mort Mills', 'John Monaghan', 'Hal J. Moore', 'Monette Moore', 'Charles Morton', 'Jack Mower', 'George Nardelli', 'Tom Nolan', 'Anton Northpole', 'Barry Norton', 'Ron Nyman', ""William H. O'Brien"", ""Monty O'Grady"", ""Pat O'Malley"", 'Leonard Penn', 'Barbara Pepper', 'Jack Pepper', 'Hilda Plowright', 'Mel Pogue', 'Murray Pollack', 'Ezelle Poule', 'Frank Puglia', 'Grandon Rhodes', 'Don Richards', 'Leoda Richards', 'Kay Riehl', 'Larry Rio', 'Lotus Robb', 'Walter Rode', 'Patricia Rosemond', 'Riza Royce', 'Henry Russell', 'Loretta Russell', 'Dick Ryan', 'John Saxon', 'Bernard Sell', 'Patrick Sexton', 'Harry Seymour', 'Joan Shawlee', 'Don Shelton', 'Charles Sherlock', 'Dick Simmons', 'Reginald Simpson', 'Arthur Space', 'Bert Spencer', 'Buddy Spencer', 'Eileen Stevens', 'Robert Stevenson', 'Robert Strong', 'Grady Sutton', 'Kay Tapscott', 'Dub Taylor', 'Wayne Taylor', 'Al Thompson', 'Ted Thorpe', 'Louis Tomei', 'Emerson Treacy', 'Dale Van Sickel', 'Valerie Vernon', 'Ralph Volkie', 'Geraldine Wall', 'Ruth Warren', 'Charles Watts', 'Harte Wayne', 'Richard Webb', 'Duff Whitney', 'Shirley Whitney', 'Josephine Whittell', 'Frank Wilcox', 'Jean Willes', 'Tom Wilson', 'Eric Wilton', 'Stephen Wyman', 'Mary Young']",3.87,5.0,"['Romance', 'Music', 'Drama']",176,['USA'],English,['English'],"['Transcona Enterprises', 'Warner Bros. Pictures']",34167,22947,8268,166,38,139,115,528,725,2877,3687,6508,2859,3226,20702,https://letterboxd.com/film/a-star-is-born-1954/
Johnny Guitar,1954,Nicholas Ray,"['Joan Crawford', 'Sterling Hayden', 'Mercedes McCambridge', 'Ernest Borgnine', 'John Carradine', 'Scott Brady', 'Ward Bond', 'Royal Dano', 'Frank Ferguson', 'Paul Fix', 'Rhys Williams', 'Ian MacDonald', 'Ben Cooper', 'Denver Pyle', 'Will Wright', 'Sumner Williams']",4.07,4.5,"['Western', 'Romance', 'Drama']",110,['USA'],English,['English'],['Republic Pictures'],44885,28375,14375,332,33,100,136,488,787,3035,4633,9257,5378,6415,30262,https://letterboxd.com/film/johnny-guitar/
Gone with the Wind,1939,Victor Fleming,"['Vivien Leigh', 'Clark Gable', 'Olivia de Havilland', 'Leslie Howard', 'Hattie McDaniel', 'Thomas Mitchell', ""Barbara O'Neil"", 'Evelyn Keyes', 'Ann Rutherford', 'George Reeves', 'Fred Crane', 'Oscar Polk', 'Butterfly McQueen', 'Victor Jory', 'Everett Brown', 'Howard Hickman', 'Alicia Rhett', 'Rand Brooks', 'Carroll Nye', 'Laura Hope Crews', ""Eddie 'Rochester' Anderson"", 'Harry Davenport', 'Leona Roberts', 'Jane Darwell', 'Ona Munson', 'Paul Hurst', 'Isabel Jewell', 'Cammie King', 'Eric Linden', 'J.M. Kerrigan', 'Ward Bond', 'Jackie Moran', 'Cliff Edwards', 'Lillian Kemble-Cooper', 'Yakima Canutt', 'Marcella Martin', 'Louis Jean Heydt', 'Mickey Kuhn', 'Olin Howland', 'Irving Bacon', 'Robert Elliott', 'William Bakewell', 'Mary Anderson', 'John Albright', 'Eric Alden', 'John Arledge', 'Roscoe Ates', 'Trevor Bardette', 'Lennie Bluett', 'Ralph Brooks', 'Daisy Bufford', 'Ann Bupp', 'James Bush', 'Ruth Byers', 'Gary Carlson', 'Horace B. Carpenter', 'Louise Carter', 'Shirley Chambers', 'Eddy Chandler', 'Wallis Clark', 'Richard Clucas', 'Frank Coghlan Jr.', 'Billy Cook', 'Gino Corrado', 'Martina Cortina', 'Luke Cosgrave', 'Kernan Cripps', 'Patrick Curtis', 'Ned Davenport', ""Yola d'Avril"", 'Lester Dorr', 'Phyllis Douglas', 'Joan Drake', 'F. Driver', 'Edythe Elliott', 'Susan Falligant', 'Richard Farnsworth', 'Frank Faylen', 'Kelly Griffin', 'George Hackathorne', 'Chuck Hamilton', 'Evelyn Harding', 'Inez Hatchett', 'Jean Heker', 'William Hoehne Jr.', 'Ricky Holt', 'Shep Houghton', 'Jerry James', 'Si Jenks', 'Tommy Kelly', 'Emmett King', 'W. Kirby', 'Timothy J. Lonergan', 'Margaret Mann', 'William McClain', 'George Meeker', 'Charles Middleton', 'Alberto Morin', 'Adrian Morris', 'Lee Murray', 'H. Nellman', 'David Newell', 'Naomi Pharr', 'Lee Phelps', 'Spencer Quinn', 'Jolane Reynolds', 'Marjorie Reynolds', 'Suzanne Ridgway', 'Louisa Robert', 'Azarene Rogers', 'Scott Seaton', 'Tom Seidel', 'Terry Shero', 'William Stack', 'William Stelling', 'Harry Strang', 'Dirk Wayne Summers', 'Emerson Treacy', 'Phillip Trent', 'Julia Ann Tuck', 'Tom Tyler', 'Dale Van Sickel', 'E. Alyn Warren', 'Blue Washington', 'Rita Waterhouse', 'John Joseph Waterman Jr.', 'Dan White', 'Ernest Whitman', 'Guy Wilkerson', 'Zack Williams', 'John Wray', 'Arthur Tovey', 'Bess Flowers']",3.84,5.0,"['Romance', 'Drama', 'War']",233,['USA'],English,['English'],"['Selznick International Pictures', 'Metro-Goldwyn-Mayer']",273493,85012,55974,3600,1536,2715,1721,6605,6136,20186,19008,37878,16890,31181,143856,https://letterboxd.com/film/gone-with-the-wind/
The Wizard of Oz,1939,Victor Fleming,"['Judy Garland', 'Ray Bolger', 'Jack Haley', 'Bert Lahr', 'Frank Morgan', 'Margaret Hamilton', 'Billie Burke', 'Clara Blandick', 'Charley Grapewin', 'Pat Walshe', 'Terry', 'Adriana Caselotti', 'Harry Earles', 'Jerry Maren', 'Parnell St. Aubin', 'Billy Bletcher', 'Pinto Colvig', 'Charles Becker', 'Mitchell Lewis', 'Buster Brodie', 'Ethelreda Leopold', 'Billy Curtis', 'Jimmy the Crow', 'Eleanor Keaton', 'Buddy Ebsen', 'Angelo Rossitto']",3.96,4.0,"['Adventure', 'Family', 'Fantasy']",102,['USA'],English,['English'],['Metro-Goldwyn-Mayer'],825391,123228,183764,6500,1098,2519,1845,9964,11241,54837,55874,121434,41884,90380,391076,https://letterboxd.com/film/the-wizard-of-oz-1939/
